time,activityrecognition#0,activityrecognition#1,android.sensor.accelerometer#0,android.sensor.gravity#0,android.sensor.linear_acceleration#0,android.sensor.orientation#0,android.sensor.gyroscope_uncalibrated#0,android.sensor.magnetic_field_uncalibrated#0,android.sensor.rotation_vector#0,android.sensor.gyroscope#0,android.sensor.game_rotation_vector#0,android.sensor.magnetic_field#0,android.sensor.pressure#0,android.sensor.light#0,sound#0,speed#0,android.sensor.proximity#0,android.sensor.step_counter#0,target,user
36,,,9.7826553391,,,,,,,,,,,,,,,,Car,U10
86,,,9.54348375872,,,,,,,,,,,,,,,,Car,U10
187,,,,,,,,,0.611830370184,,,,,,,,,,Car,U10
240,,,9.47255105481,,,,,,,,,,,,,,,,Car,U10
291,,,9.42234160484,,,,,,,,,,,,,,,,Car,U10
341,,,9.80752437594,,,,,,,,,,,,,,,,Car,U10
444,,,,,,,,,,,0.615118078726,,,,,,,,Car,U10
496,,,9.91882149091,,,,,,,,,,,,,,,,Car,U10
548,,,,,,75.5903572428,,,,,,,,,,,,,Car,U10
604,,,9.72135978106,,,,,,,,,,,,,,,,Car,U10
650,,,10.2026394912,,,,,,,,,,,,,,,,Car,U10
700,,,11.15275351,,,,,,,,,,,,,,,,Car,U10
750,,,10.6690701018,,,,,,,,,,,,,,,,Car,U10
800,,,10.4225448947,,,,,,,,,,,,,,,,Car,U10
901,,,,9.80660913265,,,,,,,,,,,,,,,Car,U10
955,,,,,,,,,,,0.609786139269,,,,,,,,Car,U10
1003,,,,,,,,,,,0.605865619185,,,,,,,,Car,U10
1055,,,,,,77.964815224,,,,,,,,,,,,,Car,U10
1105,,,,,,81.2135919398,,,,,,,,,,,,,Car,U10
1160,,,8.46930380047,,,,,,,,,,,,,,,,Car,U10
1210,,,9.36328663042,,,,,,,,,,,,,,,,Car,U10
1261,,,7.0143620688,,,,,,,,,,,,,,,,Car,U10
1311,,,,,,99.8001417835,,,,,,,,,,,,,Car,U10
1365,,,,,,,,,,,0.534475496964,,,,,,,,Car,U10
1421,,,8.89340958462,,,,,,,,,,,,,,,,Car,U10
1471,,,9.25936580072,,,,,,,,,,,,,,,,Car,U10
1523,,,,,,,,,,,0.473559182527,,,,,,,,Car,U10
1573,,,,,,,,,,2.33606794554,,,,,,,,,Car,U10
1623,,,,,,,0.506965159734,,,,,,,,,,,,Car,U10
1674,,,,,,110.109170631,,,,,,,,,,,,,Car,U10
1725,,,,,,115.685890631,,,,,,,,,,,,,Car,U10
1781,,,8.54793182808,,,,,,,,,,,,,,,,Car,U10
1830,,,24.1134226074,,,,,,,,,,,,,,,,Car,U10
1885,,,,,,,,,,,0.468040530458,,,,,,,,Car,U10
1937,,,,,,102.880017982,,,,,,,,,,,,,Car,U10
1991,,,,,,110.315334836,,,,,,,,,,,,,Car,U10
2040,,,11.4109330233,,,,,,,,,,,,,,,,Car,U10
2090,,,11.3235525804,,,,,,,,,,,,,,,,Car,U10
2144,,,,,,,,,,,0.610117430729,,,,,,,,Car,U10
2194,,,,,,,0.968729073914,,,,,,,,,,,,Car,U10
2245,,,,,,,,,,,0.612997302421,,,,,,,,Car,U10
2301,,,9.91782326788,,,,,,,,,,,,,,,,Car,U10
2354,,,,,,,,,,,0.630911260777,,,,,,,,Car,U10
2405,,,,,,,,,,,0.600418438594,,,,,,,,Car,U10
2458,,,,,,74.9439623619,,,,,,,,,,,,,Car,U10
2512,,,14.8592704112,,,,,,,,,,,,,,,,Car,U10
2563,,,,,,,,,,,0.626221745051,,,,,,,,Car,U10
2613,,,,,,,,,,,,52.1037876502,,,,,,,Car,U10
2664,,,,,,,,294.615354371,,,,,,,,,,,Car,U10
2720,,,10.7140844981,,,,,,,,,,,,,,,,Car,U10
2770,,,10.8753827333,,,,,,,,,,,,,,,,Car,U10
2820,,,7.60505810973,,,,,,,,,,,,,,,,Car,U10
2870,,,8.05709443038,,,,,,,,,,,,,,,,Car,U10
2926,,,,,,,,,,,0.582445158878,,,,,,,,Car,U10
2976,,,,,,65.9135494417,,,,,,,,,,,,,Car,U10
3030,,,13.323829913,,,,,,,,,,,,,,,,Car,U10
3080,,,11.4592483549,,,,,,,,,,,,,,,,Car,U10
3183,,,,,,,,,,,0.593657258421,,,,,,,,Car,U10
3237,,,,,,57.3908546611,,,,,,,,,,,,,Car,U10
3288,,,,,,49.0274613701,,,,,,,,,,,,,Car,U10
3393,,,,,,,,,,0.0651653226159,,,,,,,,,Car,U10
3446,,,,,,,,,,,0.59195502123,,,,,,,,Car,U10
3501,,,10.5935800074,,,,,,,,,,,,,,,,Car,U10
3603,,,,,,,,,,,0.59165945328,,,,,,,,Car,U10
3652,,,,,,,,,,,0.591622661648,,,,,,,,Car,U10
3705,,,,,,33.165158537,,,,,,,,,,,,,Car,U10
3760,,,8.37853419526,,,,,,,,,,,,,,,,Car,U10
3806,,,,,,,,303.492052254,,,,,,,,,,,Car,U10
3861,,,11.8121010128,,,,,,,,,,,,,,,,Car,U10
3910,,,11.2566997835,,,,,,,,,,,,,,,,Car,U10
3966,,,9.31930113747,,,,,,,,,,,,,,,,Car,U10
4015,,,,,,28.4350786881,,,,,,,,,,,,,Car,U10
4065,,,,,,27.7372997965,,,,,,,,,,,,,Car,U10
4120,,,10.2251280646,,,,,,,,,,,,,,,,Car,U10
4170,,,8.32239917142,,,,,,,,,,,,,,,,Car,U10
4220,,,7.96211138932,,,,,,,,,,,,,,,,Car,U10
4270,,,10.0404996476,,,,,,,,,,,,,,,,Car,U10
4320,,,12.1064509924,,,,,,,,,,,,,,,,Car,U10
4373,,,,,,,,,,,0.589045320837,,,,,,,,Car,U10
4425,,,,,,,,,,,0.589045320837,,,,,,,,Car,U10
4482,,,10.2505214276,,,,,,,,,,,,,,,,Car,U10
4530,,,10.1803127316,,,,,,,,,,,,,,,,Car,U10
4584,,,8.76940116185,,,,,,,,,,,,,,,,Car,U10
4631,,,8.69748103329,,,,,,,,,,,,,,,,Car,U10
4683,,,,,,,,,,,0.588869679994,,,,,,,,Car,U10
4733,,,,,,,,,,0.0704272281709,,,,,,,,,Car,U10
4784,,,,,,,,,,0.0983246408025,,,,,,,,,Car,U10
4840,,,9.89345367781,,,,,,,,,,,,,,,,Car,U10
4890,,,,,,,,,,,,46.1626709312,,,,,,,Car,U10
4945,,,,,,,,,,,0.588699451415,,,,,,,,Car,U10
4997,,,,,,23.0510238366,,,,,,,,,,,,,Car,U10
5049,,,,,,22.7883018235,,,,,,,,,,,,,Car,U10
5102,,,7.86065692146,,,,,,,,,,,,,,,,Car,U10
5152,,,,,,,,,,,0.588233683598,,,,,,,,Car,U10
5203,,,,,,,,,,,0.588233683598,,,,,,,,Car,U10
5255,,,,,,21.9280094856,,,,,,,,,,,,,Car,U10
5305,,,,,,,0.0517471750631,,,,,,,,,,,,Car,U10
5360,,,11.587191756,,,,,,,,,,,,,,,,Car,U10
5410,,,12.0166600591,,,,,,,,,,,,,,,,Car,U10
5465,,,,,,,,,,,0.587904971148,,,,,,,,Car,U10
5515,,,,,,21.2422738896,,,,,,,,,,,,,Car,U10
5565,,,,,,21.0473181189,,,,,,,,,,,,,Car,U10
5620,,,7.9103903695,,,,,,,,,,,,,,,,Car,U10
5670,,,9.49907272877,,,,,,,,,,,,,,,,Car,U10
5720,,,11.7280588023,,,,,,,,,,,,,,,,Car,U10
5770,,,10.9930480402,,,,,,,,,,,,,,,,Car,U10
5820,,,8.56141841295,,,,,,,,,,,,,,,,Car,U10
5873,,,,,,,,,,,0.587566378867,,,,,,,,Car,U10
5925,,,,,,,,,,,0.587398286681,,,,,,,,Car,U10
5981,,,7.94164474503,,,,,,,,,,,,,,,,Car,U10
6030,,,11.0672220505,,,,,,,,,,,,,,,,Car,U10
6137,,,,,,20.227679049,,,,,,,,,,,,,Car,U10
6190,,,11.0443714616,,,,,,,,,,,,,,,,Car,U10
6241,,,8.41771846775,,,,,,,,,,,,,,,,Car,U10
6292,,,,,,,,,,,0.58803979098,,,,,,,,Car,U10
6344,,,,,,,,310.42942787,,,,,,,,,,,Car,U10
6395,,,,,,20.2676219621,,,,,,,,,,,,,Car,U10
6448,,,,,,20.2555597287,,,,,,,,,,,,,Car,U10
6501,,,11.7098658152,,,,,,,,,,,,,,,,Car,U10
6550,,,8.5997370544,,,,,,,,,,,,,,,,Car,U10
6600,,,8.16124325712,,,,,,,,,,,,,,,,Car,U10
6651,,,,,,,,,0.174015010706,,,,,,,,,,Car,U10
6705,,,,,,,,,,,0.587829286252,,,,,,,,Car,U10
6756,,,,,,19.2519947018,,,,,,,,,,,,,Car,U10
6811,,,,,,18.8613705759,,,,,,,,,,,,,Car,U10
6860,,,7.62937365238,,,,,,,,,,,,,,,,Car,U10
6911,,,,,,,,,0.161467684433,,,,,,,,,,Car,U10
6965,,,,,,,,,,,0.588838111028,,,,,,,,Car,U10
7018,,,,,,18.3067255401,,,,,,,,,,,,,Car,U10
7071,,,11.7930362964,,,,,,,,,,,,,,,,Car,U10
7125,,,,,,,,,,,0.589334678836,,,,,,,,Car,U10
7177,,,,,,17.925938487,,,,,,,,,,,,,Car,U10
7228,,,,,,17.7853689999,,,,,,,,,,,,,Car,U10
7280,,,8.81383691591,,,,,,,,,,,,,,,,Car,U10
7334,,,,,,,,,,,0.588820266553,,,,,,,,Car,U10
7388,,,,,,17.2137059095,,,,,,,,,,,,,Car,U10
7440,,,11.3246214924,,,,,,,,,,,,,,,,Car,U10
7490,,,9.32701811553,,,,,,,,,,,,,,,,Car,U10
7540,,,9.02056895825,,,,,,,,,,,,,,,,Car,U10
7590,,,11.3804584441,,,,,,,,,,,,,,,,Car,U10
7640,,,8.70456971771,,,,,,,,,,,,,,,,Car,U10
7691,,,,,,,,,0.145753075299,,,,,,,,,,Car,U10
7743,,,,,,,,,,,0.588713182319,,,,,,,,Car,U10
7793,,,,,,,,315.759909286,,,,,,,,,,,Car,U10
7848,,,,,,15.9638746639,,,,,,,,,,,,,Car,U10
7901,,,,,,,,,,,,,,,,,,,Car,U10
8003,,,,,,,,,,,0.589421032645,,,,,,,,Car,U10
8055,,,,,,15.7433762701,,,,,,,,,,,,,Car,U10
8106,,,,,,15.4314410047,,,,,,,,,,,,,Car,U10
8160,,,8.68145387582,,,,,,,,,,,,,,,,Car,U10
8211,,,12.3956033832,,,,,,,,,,,,,,,,Car,U10
8265,,,,,,,,,,,0.589111165482,,,,,,,,Car,U10
8317,,,,,,15.3672475307,,,,,,,,,,,,,Car,U10
8369,,,,,,15.341610085,,,,,,,,,,,,,Car,U10
8426,,,,,,,,,,,0.588167688571,,,,,,,,Car,U10
8482,,,9.0459468521,,,,,,,,,,,,,,,,Car,U10
8530,,,12.2425533664,,,,,,,,,,,,,,,,Car,U10
8580,,,8.73493064149,,,,,,,,,,,,,,,,Car,U10
8630,,,10.1435385447,,,,,,,,,,,,,,,,Car,U10
8681,,,,,2.705858358,,,,,,,,,,,,,,Car,U10
8734,,,,,,,,,,,,41.1560483101,,,,,,,Car,U10
8788,,,,,,14.3985857569,,,,,,,,,,,,,Car,U10
8841,,,9.26595525219,,,,,,,,,,,,,,,,Car,U10
8890,,,11.8105409201,,,,,,,,,,,,,,,,Car,U10
8943,,,,,,,,,,,0.587303209008,,,,,,,,Car,U10
8995,,,,,,,,,,,,40.4993248401,,,,,,,Car,U10
9050,,,7.81980711734,,,,,,,,,,,,,,,,Car,U10
9100,,,12.0553889038,,,,,,,,,,,,,,,,Car,U10
9150,,,9.66776171402,,,,,,,,,,,,,,,,Car,U10
9200,,,10.2885123931,,,,,,,,,,,,,,,,Car,U10
9253,,,,,,,,,,,0.585417478536,,,,,,,,Car,U10
9306,,,,,,,,,,0.0366722723215,,,,,,,,,Car,U10
9360,,,8.10609236303,,,,,,,,,,,,,,,,Car,U10
9465,,,,,,,,,,,0.585499177686,,,,,,,,Car,U10
9520,,,13.5604366119,,,,,,,,,,,,,,,,Car,U10
9570,,,8.23379300208,,,,,,,,,,,,,,,,Car,U10
9621,,,10.7430304885,,,,,,,,,,,,,,,,Car,U10
9670,,,10.8920808139,,,,,,,,,,,,,,,,Car,U10
9772,,,,,,,,,,,0.584921372408,,,,,,,,Car,U10
9824,,,,,,,,,,,0.584992085826,,,,,,,,Car,U10
9877,,,,,,357.797669501,,,,,,,,,,,,,Car,U10
9930,,,8.62598097882,,,,,,,,,,,,,,,,Car,U10
10034,,,,,,,,,,,0.583633782188,,,,,,,,Car,U10
10088,,,,,,356.238603514,,,,,,,,,,,,,Car,U10
10140,,,9.91630588483,,,,,,,,,,,,,,,,Car,U10
10193,,,,,,,,,,,0.583701992196,,,,,,,,Car,U10
10245,,,,,,356.112097801,,,,,,,,,,,,,Car,U10
10300,,,9.11642604361,,,,,,,,,,,,,,,,Car,U10
10350,,,8.29692527459,,,,,,,,,,,,,,,,Car,U10
10400,,,,,,,,,,,,,,,,,,,Car,U10
10452,,,,,1.06125614786,,,,,,,,,,,,,,Car,U10
10504,,,10.449392884,,,,,,,,,,,,,,,,Car,U10
10560,,,10.1858916345,,,,,,,,,,,,,,,,Car,U10
10610,,,9.56262236241,,,,,,,,,,,,,,,,Car,U10
10660,,,9.39334354553,,,,,,,,,,,,,,,,Car,U10
10710,,,13.584077771,,,,,,,,,,,,,,,,Car,U10
10762,,,12.501488859,,,,,,,,,,,,,,,,Car,U10
10810,,,11.7903832838,,,,,,,,,,,,,,,,Car,U10
10860,,,9.88544571301,,,,,,,,,,,,,,,,Car,U10
10911,,,,,,,,,0.134533838565,,,,,,,,,,Car,U10
10963,,,,,,,,,,,0.582675366714,,,,,,,,Car,U10
11017,,,,,,351.982916346,,,,,,,,,,,,,Car,U10
11070,,,8.04082283218,,,,,,,,,,,,,,,,Car,U10
11173,,,,,,,,,,,0.581801241352,,,,,,,,Car,U10
11228,,,,,,349.862030769,,,,,,,,,,,,,Car,U10
11280,,,7.97239682917,,,,,,,,,,,,,,,,Car,U10
11333,,,,,,,,,0.146747394266,,,,,,,,,,Car,U10
11385,,,,,,349.644271974,,,,,,,,,,,,,Car,U10
11440,,,10.2088444847,,,,,,,,,,,,,,,,Car,U10
11489,,,,,,,,,,,0.581457191091,,,,,,,,Car,U10
11540,,,12.3365366243,,,,,,,,,,,,,,,,Car,U10
11590,,,7.57197268248,,,,,,,,,,,,,,,,Car,U10
11640,,,12.260010528,,,,,,,,,,,,,,,,Car,U10
11690,,,9.48180293199,,,,,,,,,,,,,,,,Car,U10
11793,,,,,,,,,,,0.580766764803,,,,,,,,Car,U10
11845,,,,,,,,,,,0.581231853356,,,,,,,,Car,U10
11899,,,,,,,,,,,,,,,,,,,Car,U10
11950,,,11.5524478384,,,,,,,,,,,,,,,,Car,U10
12000,,,7.51992218803,,,,,,,,,,,,,,,,Car,U10
12050,,,9.75418856158,,,,,,,,,,,,,,,,Car,U10
12101,,,9.72698624103,,,,,,,,,,,,,,,,Car,U10
12153,,,,,,,,,,,0.58100218106,,,,,,,,Car,U10
12205,,,,,,,,,,,0.580772371626,,,,,,,,Car,U10
12257,,,,,,345.007196607,,,,,,,,,,,,,Car,U10
12310,,,7.89911853991,,,,,,,,,,,,,,,,Car,U10
12365,,,,,,,,,,,0.580271640761,,,,,,,,Car,U10
12418,,,,,,345.084943746,,,,,,,,,,,,,Car,U10
12469,,,,,,,,,,,,,,,,,,,Car,U10
12520,,,8.43877495876,,,,,,,,,,,,,,,,Car,U10
12570,,,11.9136787094,,,,,,,,,,,,,,,,Car,U10
12620,,,7.12030913478,,,,,,,,,,,,,,,,Car,U10
12670,,,11.2970844374,,,,,,,,,,,,,,,,Car,U10
12773,,,,,,,,,,,0.5807947981,,,,,,,,Car,U10
12825,,,,,,,,319.593455131,,,,,,,,,,,Car,U10
12880,,,11.5768504266,,,,,,,,,,,,,,,,Car,U10
12930,,,6.70946720124,,,,,,,,,,,,,,,,Car,U10
12985,,,,,,,,,,,0.578955698753,,,,,,,,Car,U10
13035,,,,,,339.48902265,,,,,,,,,,,,,Car,U10
13086,,,,,,339.294861422,,,,,,,,,,,,,Car,U10
13140,,,9.06248341346,,,,,,,,,,,,,,,,Car,U10
13190,,,10.6892650234,,,,,,,,,,,,,,,,Car,U10
13240,,,7.91034368299,,,,,,,,,,,,,,,,Car,U10
13290,,,12.7312797333,,,,,,,,,,,,,,,,Car,U10
13341,,,,,,,,,0.208234170488,,,,,,,,,,Car,U10
13393,,,,,,,,,,,0.580219707008,,,,,,,,Car,U10
13445,,,,,,,,,,,0.579788526716,,,,,,,,Car,U10
13497,,,,,,,,,,,0.579214743748,,,,,,,,Car,U10
13550,,,8.52949410694,,,,,,,,,,,,,,,,Car,U10
13600,,,10.8248678731,,,,,,,,,,,,,,,,Car,U10
13650,,,7.33326432068,,,,,,,,,,,,,,,,Car,U10
13751,,,,,,,,,0.227286221351,,,,,,,,,,Car,U10
13803,,,,,,,,,,,0.576286132486,,,,,,,,Car,U10
13856,,,,,,337.542715235,,,,,,,,,,,,,Car,U10
13910,,,10.5936159062,,,,,,,,,,,,,,,,Car,U10
14018,,,,,,337.951310811,,,,,,,,,,,,,Car,U10
14069,,,,,,337.772708895,,,,,,,,,,,,,Car,U10
14120,,,8.78716824162,,,,,,,,,,,,,,,,Car,U10
14223,,,,,,,,,,,0.576566819632,,,,,,,,Car,U10
14273,,,,,,,0.0962922048965,,,,,,,,,,,,Car,U10
14328,,,,,,335.550138429,,,,,,,,,,,,,Car,U10
14380,,,11.7112294304,,,,,,,,,,,,,,,,Car,U10
14432,,,9.58406820114,,,,,,,,,,,,,,,,Car,U10
14485,,,,,,,,,,,0.574685997849,,,,,,,,Car,U10
14540,,,6.86634992353,,,,,,,,,,,,,,,,Car,U10
14590,,,13.6658151506,,,,,,,,,,,,,,,,Car,U10
14640,,,8.92182234162,,,,,,,,,,,,,,,,Car,U10
14690,,,9.69597166342,,,,,,,,,,,,,,,,Car,U10
14793,,,,,,,,,,,0.573406555347,,,,,,,,Car,U10
14843,,,,,,,,,,0.0515014101809,,,,,,,,,Car,U10
14895,,,,,,335.019434924,,,,,,,,,,,,,Car,U10
14945,,,,,,335.169062099,,,,,,,,,,,,,Car,U10
15000,,,6.85502057171,,,,,,,,,,,,,,,,Car,U10
15051,,,14.0605203816,,,,,,,,,,,,,,,,Car,U10
15105,,,,,,,,,,,0.572101255471,,,,,,,,Car,U10
15157,,,,,,334.662536859,,,,,,,,,,,,,Car,U10
15209,,,,,,,,,,,0.572108423567,,,,,,,,Car,U10
15260,,,13.9911506891,,,,,,,,,,,,,,,,Car,U10
15363,,,,,,,,,,,0.571765639149,,,,,,,,Car,U10
15413,,,,,,,,,,,0.571597721168,,,,,,,,Car,U10
15463,,,,,,,,,,0.0310521495702,,,,,,,,,Car,U10
15515,,,,,,333.569930299,,,,,,,,,,,,,Car,U10
15565,,,,,,333.0345395,,,,,,,,,,,,,Car,U10
15620,,,10.9833697955,,,,,,,,,,,,,,,,Car,U10
15670,,,10.0638114223,,,,,,,,,,,,,,,,Car,U10
15720,,,7.74425045349,,,,,,,,,,,,,,,,Car,U10
15770,,,12.1681572811,,,,,,,,,,,,,,,,Car,U10
15820,,,9.79479402885,,,,,,,,,,,,,,,,Car,U10
15871,,,6.10890697854,,,,,,,,,,,,,,,,Car,U10
15925,,,,,,,,,,,0.571830203484,,,,,,,,Car,U10
15977,,,,,,332.729500159,,,,,,,,,,,,,Car,U10
16030,,,13.5103290292,,,,,,,,,,,,,,,,Car,U10
16080,,,8.37717716801,,,,,,,,,,,,,,,,Car,U10
16131,,,,,2.44770639528,,,,,,,,,,,,,,Car,U10
16183,,,,,,,,,,,0.571451271329,,,,,,,,Car,U10
16236,,,,,,332.511841894,,,,,,,,,,,,,Car,U10
16288,,,,,,332.71536003,,,,,,,,,,,,,Car,U10
16341,,,9.26633603121,,,,,,,,,,,,,,,,Car,U10
16442,,,,,,,,,0.254103621916,,,,,,,,,,Car,U10
16495,,,,,,,,,,,0.572321971585,,,,,,,,Car,U10
16545,,,,,,,,,,,0.572707204774,,,,,,,,Car,U10
16600,,,7.28933390336,,,,,,,,,,,,,,,,Car,U10
16650,,,6.72574861735,,,,,,,,,,,,,,,,Car,U10
16700,,,14.1450734592,,,,,,,,,,,,,,,,Car,U10
16750,,,9.53891248791,,,,,,,,,,,,,,,,Car,U10
16800,,,6.09647064915,,,,,,,,,,,,,,,,Car,U10
16850,,,12.9606041827,,,,,,,,,,,,,,,,Car,U10
16900,,,13.9061733992,,,,,,,,,,,,,,,,Car,U10
17001,,,,,2.3278977426,,,,,,,,,,,,,,Car,U10
17053,,,,,,,,,,0.0494913966346,,,,,,,,,Car,U10
17109,,,,,,329.961864918,,,,,,,,,,,,,Car,U10
17161,,,14.4995697033,,,,,,,,,,,,,,,,Car,U10
17214,,,,,,,,,,,0.573162113748,,,,,,,,Car,U10
17268,,,,,,329.946921454,,,,,,,,,,,,,Car,U10
17321,,,9.74232447537,,,,,,,,,,,,,,,,Car,U10
17371,,,5.81363479502,,,,,,,,,,,,,,,,Car,U10
17426,,,,,,,,,0.276461479007,,,,,,,,,,Car,U10
17484,,,,,,,,,,,0.573826344351,,,,,,,,Car,U10
17534,,,,,,329.377901252,,,,,,,,,,,,,Car,U10
17585,,,,,,328.904446081,,,,,,,,,,,,,Car,U10
17640,,,6.0354324739,,,,,,,,,,,,,,,,Car,U10
17690,,,10.9312694662,,,,,,,,,,,,,,,,Car,U10
17740,,,14.6677349065,,,,,,,,,,,,,,,,Car,U10
17790,,,8.95460114087,,,,,,,,,,,,,,,,Car,U10
17840,,,7.33338955203,,,,,,,,,,,,,,,,Car,U10
17894,,,,,,,,,,,0.575904466653,,,,,,,,Car,U10
17945,,,,,,,,,,,0.575823544607,,,,,,,,Car,U10
18000,,,7.13144235171,,,,,,,,,,,,,,,,Car,U10
18050,,,12.3699055362,,,,,,,,,,,,,,,,Car,U10
18100,,,13.7761262285,,,,,,,,,,,,,,,,Car,U10
18151,,,,,,,,,0.299532810563,,,,,,,,,,Car,U10
18205,,,,,,,,,,,0.577085127294,,,,,,,,Car,U10
18257,,,,,,327.531523521,,,,,,,,,,,,,Car,U10
18310,,,,,,327.513483656,,,,,,,,,,,,,Car,U10
18364,,,,,,,,,,,0.577971429009,,,,,,,,Car,U10
18418,,,,,,327.847923578,,,,,,,,,,,,,Car,U10
18468,,,,,,327.661088136,,,,,,,,,,,,,Car,U10
18520,,,6.24540684595,,,,,,,,,,,,,,,,Car,U10
18570,,,11.1524865593,,,,,,,,,,,,,,,,Car,U10
18621,,,,,4.95499426183,,,,,,,,,,,,,,Car,U10
18673,,,,,,,,,,,0.577509449744,,,,,,,,Car,U10
18723,,,,,,,,,,,0.577400584931,,,,,,,,Car,U10
18775,,,,,,327.681175197,,,,,,,,,,,,,Car,U10
18828,,,,,,327.695876385,,,,,,,,,,,,,Car,U10
18880,,,9.57390443426,,,,,,,,,,,,,,,,Car,U10
18933,,,,,,,,,,,0.576899692993,,,,,,,,Car,U10
18985,,,,,,,,,,,0.576589492485,,,,,,,,Car,U10
19041,,,10.3780333946,,,,,,,,,,,,,,,,Car,U10
19094,,,,,,,0.144200431532,,,,,,,,,,,,Car,U10
19145,,,,,,328.793616961,,,,,,,,,,,,,Car,U10
19200,,,14.3948612744,,,,,,,,,,,,,,,,Car,U10
19251,,,12.0797440865,,,,,,,,,,,,,,,,Car,U10
19300,,,7.36436543087,,,,,,,,,,,,,,,,Car,U10
19353,,,,,,,,,,,0.575938534004,,,,,,,,Car,U10
19406,,,,,,,,,,,0.575891690619,,,,,,,,Car,U10
19461,,,13.019171631,,,,,,,,,,,,,,,,Car,U10
19511,,,9.29359423105,,,,,,,,,,,,,,,,Car,U10
19560,,,8.54071841279,,,,,,,,,,,,,,,,Car,U10
19663,,,,,,,,,,,0.57582212477,,,,,,,,Car,U10
19713,,,,,,,0.113994719196,,,,,,,,,,,,Car,U10
19765,,,,,,328.5646849,,,,,,,,,,,,,Car,U10
19815,,,,,,328.068160281,,,,,,,,,,,,,Car,U10
19870,,,8.68648584754,,,,,,,,,,,,,,,,Car,U10
19921,,,7.38073033605,,,,,,,,,,,,,,,,Car,U10
20025,,,,,,,,,,,0.574314144676,,,,,,,,Car,U10
20080,,,14.6214758082,,,,,,,,,,,,,,,,Car,U10
20131,,,14.5531442965,,,,,,,,,,,,,,,,Car,U10
20185,,,,,,,,,,,0.574151613251,,,,,,,,Car,U10
20235,,,,,,326.832713681,,,,,,,,,,,,,Car,U10
20286,,,,,,326.670107173,,,,,,,,,,,,,Car,U10
20340,,,7.89650561056,,,,,,,,,,,,,,,,Car,U10
20390,,,8.02431857889,,,,,,,,,,,,,,,,Car,U10
20440,,,9.61066846685,,,,,,,,,,,,,,,,Car,U10
20490,,,,,,326.638080357,,,,,,,,,,,,,Car,U10
20540,,,11.0848627576,,,,,,,,,,,,,,,,Car,U10
20591,,,,,,,,,0.300264435563,,,,,,,,,,Car,U10
20643,,,,,,,,,,,0.574254272662,,,,,,,,Car,U10
20693,,,,,,,,316.073128653,,,,,,,,,,,Car,U10
20745,,,,,,326.237028248,,,,,,,,,,,,,Car,U10
20800,,,10.213276818,,,,,,,,,,,,,,,,Car,U10
20850,,,11.6540414982,,,,,,,,,,,,,,,,Car,U10
20899,,,,,,,,,,,,,,,,,,,Car,U10
20951,,,12.086768202,,,,,,,,,,,,,,,,Car,U10
21005,,,,,,,,,,,0.575174132797,,,,,,,,Car,U10
21056,,,,,,325.993716657,,,,,,,,,,,,,Car,U10
21108,,,,,,325.907604545,,,,,,,,,,,,,Car,U10
21160,,,7.79870289862,,,,,,,,,,,,,,,,Car,U10
21214,,,,,,,,,,,0.576412325266,,,,,,,,Car,U10
21268,,,,,,325.9640382,,,,,,,,,,,,,Car,U10
21320,,,7.49641347949,,,,,,,,,,,,,,,,Car,U10
21423,,,,,,,,,,,0.577809022443,,,,,,,,Car,U10
21475,,,,,,326.085462973,,,,,,,,,,,,,Car,U10
21525,,,,,,325.949745959,,,,,,,,,,,,,Car,U10
21580,,,5.50352322962,,,,,,,,,,,,,,,,Car,U10
21630,,,6.95748908334,,,,,,,,,,,,,,,,Car,U10
21680,,,8.6525436424,,,,,,,,,,,,,,,,Car,U10
21731,,,11.1888954699,,,,,,,,,,,,,,,,Car,U10
21834,,,,,,,,316.465557713,,,,,,,,,,,Car,U10
21885,,,,,,325.075903752,,,,,,,,,,,,,Car,U10
21940,,,14.3136097865,,,,,,,,,,,,,,,,Car,U10
21990,,,11.9083766349,,,,,,,,,,,,,,,,Car,U10
22041,,,7.25197044309,,,,,,,,,,,,,,,,Car,U10
22094,,,,,,,,,,,0.579622667582,,,,,,,,Car,U10
22148,,,,,,325.707994682,,,,,,,,,,,,,Car,U10
22201,,,6.66652370733,,,,,,,,,,,,,,,,Car,U10
22251,,,,,,,,,0.30519461971,,,,,,,,,,Car,U10
22305,,,,,,,,,,,0.579711228385,,,,,,,,Car,U10
22360,,,7.88381193845,,,,,,,,,,,,,,,,Car,U10
22411,,,10.8763689146,,,,,,,,,,,,,,,,Car,U10
22461,,,14.1348603641,,,,,,,,,,,,,,,,Car,U10
22512,,,,,,,,,,,0.579566427923,,,,,,,,Car,U10
22563,,,,,,,,,,,0.579750582202,,,,,,,,Car,U10
22614,,,,,,,,,,,0.5797280948,,,,,,,,Car,U10
22664,,,,,,,,,,,,31.5805641376,,,,,,,Car,U10
22715,,,,,,325.377862017,,,,,,,,,,,,,Car,U10
22770,,,13.9247625436,,,,,,,,,,,,,,,,Car,U10
22820,,,11.0276792164,,,,,,,,,,,,,,,,Car,U10
22870,,,6.77319941064,,,,,,,,,,,,,,,,Car,U10
22920,,,10.3426226939,,,,,,,,,,,,,,,,Car,U10
22970,,,11.7864349571,,,,,,,,,,,,,,,,Car,U10
23071,,,,,,,,,0.312395898974,,,,,,,,,,Car,U10
23123,,,,,,,,,,,0.57980257929,,,,,,,,Car,U10
23172,,,,,,,,,,,0.579905147541,,,,,,,,Car,U10
23223,,,,,,,0.103962013259,,,,,,,,,,,,Car,U10
23274,,,,,,324.885322664,,,,,,,,,,,,,Car,U10
23325,,,,,,324.860665825,,,,,,,,,,,,,Car,U10
23380,,,9.9524498556,,,,,,,,,,,,,,,,Car,U10
23432,,,9.20902972548,,,,,,,,,,,,,,,,Car,U10
23481,,,9.46337226062,,,,,,,,,,,,,,,,Car,U10
23532,,,,,,,,,,,0.579532680182,,,,,,,,Car,U10
23584,,,,,,,,,,,0.580479305725,,,,,,,,Car,U10
23633,,,,,,,,,,0.27037532839,,,,,,,,,Car,U10
23683,,,,,,,,,,,,31.161687715,,,,,,,Car,U10
23734,,,,,,324.619223363,,,,,,,,,,,,,Car,U10
23785,,,,,,324.435340516,,,,,,,,,,,,,Car,U10
23840,,,7.24342868526,,,,,,,,,,,,,,,,Car,U10
23890,,,8.63457959952,,,,,,,,,,,,,,,,Car,U10
23940,,,13.3869270248,,,,,,,,,,,,,,,,Car,U10
23995,,,,,,,,,,,0.578187394176,,,,,,,,Car,U10
24045,,,,,,,,,,,0.577322805494,,,,,,,,Car,U10
24100,,,12.7725379007,,,,,,,,,,,,,,,,Car,U10
24150,,,7.42259390917,,,,,,,,,,,,,,,,Car,U10
24200,,,12.4215505969,,,,,,,,,,,,,,,,Car,U10
24250,,,7.177329766,,,,,,,,,,,,,,,,Car,U10
24301,,,13.2023668826,,,,,,,,,,,,,,,,Car,U10
24354,,,,,,,,,,,0.574094568411,,,,,,,,Car,U10
24406,,,,,,,,,,,,32.3025855196,,,,,,,Car,U10
24461,,,11.612260991,,,,,,,,,,,,,,,,Car,U10
24512,,,6.30868086104,,,,,,,,,,,,,,,,Car,U10
24561,,,,,,,,,0.294258169415,,,,,,,,,,Car,U10
24613,,,,,,,,,,,0.571884716043,,,,,,,,Car,U10
24663,,,,,,,,,,,0.571217122992,,,,,,,,Car,U10
24713,,,,,,,,313.710611322,,,,,,,,,,,Car,U10
24765,,,,,,327.821180829,,,,,,,,,,,,,Car,U10
24816,,,,,,328.022286743,,,,,,,,,,,,,Car,U10
24870,,,12.3370615512,,,,,,,,,,,,,,,,Car,U10
24920,,,9.10803687928,,,,,,,,,,,,,,,,Car,U10
24969,,,,,,,,,,,,,,,,,,,Car,U10
25020,,,10.263218375,,,,,,,,,,,,,,,,Car,U10
25124,,,,,,,,,,,0.565303490447,,,,,,,,Car,U10
25178,,,,,,328.316080297,,,,,,,,,,,,,Car,U10
25230,,,11.4940356114,,,,,,,,,,,,,,,,Car,U10
25280,,,7.67597028852,,,,,,,,,,,,,,,,Car,U10
25331,,,12.2197725224,,,,,,,,,,,,,,,,Car,U10
25435,,,,,,,,,,,,30.5740009035,,,,,,,Car,U10
25488,,,,,,,,,,,0.555699835623,,,,,,,,Car,U10
25540,,,9.84118419047,,,,,,,,,,,,,,,,Car,U10
25590,,,11.4743574907,,,,,,,,,,,,,,,,Car,U10
25640,,,9.1405385017,,,,,,,,,,,,,,,,Car,U10
25690,,,9.67712993699,,,,,,,,,,,,,,,,Car,U10
25740,,,9.29637164971,,,,,,,,,,,,,,,,Car,U10
25790,,,10.5244061158,,,,,,,,,,,,,,,,Car,U10
25840,,,9.72405307947,,,,,,,,,,,,,,,,Car,U10
25893,,,,,,,,,,,0.538486714826,,,,,,,,Car,U10
25945,,,,,,,,,,,0.536229856327,,,,,,,,Car,U10
25998,,,,,,332.480573117,,,,,,,,,,,,,Car,U10
26050,,,8.73657288035,,,,,,,,,,,,,,,,Car,U10
26102,,,,,1.18366756313,,,,,,,,,,,,,,Car,U10
26155,,,,,,,,312.178897529,,,,,,,,,,,Car,U10
26208,,,,,,334.329532315,,,,,,,,,,,,,Car,U10
26261,,,10.0768264567,,,,,,,,,,,,,,,,Car,U10
26363,,,,,,,,,,,0.51603250696,,,,,,,,Car,U10
26413,,,,,,,0.153734284581,,,,,,,,,,,,Car,U10
26466,,,,,,,,,,,,28.0937326196,,,,,,,Car,U10
26520,,,8.64555014236,,,,,,,,,,,,,,,,Car,U10
26570,,,12.2380569703,,,,,,,,,,,,,,,,Car,U10
26621,,,8.8440039454,,,,,,,,,,,,,,,,Car,U10
26671,,,12.3460675902,,,,,,,,,,,,,,,,Car,U10
26773,,,,,,,,,,,0.492279827975,,,,,,,,Car,U10
26823,,,,,,,,,,,0.490027454487,,,,,,,,Car,U10
26875,,,,,,340.278035436,,,,,,,,,,,,,Car,U10
26925,,,,,,340.703103151,,,,,,,,,,,,,Car,U10
26980,,,8.27206025582,,,,,,,,,,,,,,,,Car,U10
27030,,,11.0795665413,,,,,,,,,,,,,,,,Car,U10
27080,,,8.22476560905,,,,,,,,,,,,,,,,Car,U10
27130,,,11.1328142383,,,,,,,,,,,,,,,,Car,U10
27185,,,,,,,,,,,0.468114158914,,,,,,,,Car,U10
27235,,,,,,342.901308976,,,,,,,,,,,,,Car,U10
27290,,,8.93799330378,,,,,,,,,,,,,,,,Car,U10
27340,,,11.1463376914,,,,,,,,,,,,,,,,Car,U10
27390,,,9.80602369236,,,,,,,,,,,,,,,,Car,U10
27440,,,11.0406667393,,,,,,,,,,,,,,,,Car,U10
27491,,,9.12932897127,,,,,,,,,,,,,,,,Car,U10
27540,,,9.45429733258,,,,,,,,,,,,,,,,Car,U10
27641,,,,,,,,,0.17551363614,,,,,,,,,,Car,U10
27692,,,,,,,,,,,0.467466097037,,,,,,,,Car,U10
27743,,,,,,,,,,,0.469418132824,,,,,,,,Car,U10
27792,,,,,,,,,,,0.471946853863,,,,,,,,Car,U10
27843,,,,,,,,,,,0.47639568495,,,,,,,,Car,U10
27895,,,,,,341.94596152,,,,,,,,,,,,,Car,U10
27945,,,,,,341.628383042,,,,,,,,,,,,,Car,U10
28000,,,12.1458309346,,,,,,,,,,,,,,,,Car,U10
28051,,,9.17908813684,,,,,,,,,,,,,,,,Car,U10
28103,,,10.1761805804,,,,,,,,,,,,,,,,Car,U10
28153,,,7.95337500133,,,,,,,,,,,,,,,,Car,U10
28208,,,,,,339.622560205,,,,,,,,,,,,,Car,U10
28261,,,8.96203932349,,,,,,,,,,,,,,,,Car,U10
28311,,,,,,338.329217009,,,,,,,,,,,,,Car,U10
28362,,,8.84080279476,,,,,,,,,,,,,,,,Car,U10
28415,,,,,,,,,,,0.507440158079,,,,,,,,Car,U10
28469,,,,,,339.602707403,,,,,,,,,,,,,Car,U10
28521,,,10.8730582873,,,,,,,,,,,,,,,,Car,U10
28570,,,8.69186859478,,,,,,,,,,,,,,,,Car,U10
28620,,,6.08801773133,,,,,,,,,,,,,,,,Car,U10
28723,,,,,,,,,,,0.532360099628,,,,,,,,Car,U10
28773,,,,,,,,,,,0.544687642304,,,,,,,,Car,U10
28824,,,,,,,,,,,0.553790561191,,,,,,,,Car,U10
28877,,,,,,19.7147502216,,,,,,,,,,,,,Car,U10
28931,,,7.09380273606,,,,,,,,,,,,,,,,Car,U10
29035,,,,,,,,,,,0.576957739288,,,,,,,,Car,U10
29140,,,10.926855086,,,,,,,,,,,,,,,,Car,U10
29191,,,7.66806240436,,,,,,,,,,,,,,,,Car,U10
29240,,,13.4868441456,,,,,,,,,,,,,,,,Car,U10
29292,,,,,,,,,0.207881582359,,,,,,,,,,Car,U10
29400,,,,,,,,,,,,,,,,,,,Car,U10
29451,,,8.00312864325,,,,,,,,,,,,,,,,Car,U10
29504,,,,,,,,,,,0.620586494339,,,,,,,,Car,U10
29554,,,,,,30.2130332605,,,,,,,,,,,,,Car,U10
29604,,,,,,,0.175393874571,,,,,,,,,,,,Car,U10
29655,,,,,,32.8509892496,,,,,,,,,,,,,Car,U10
29708,,,,,,32.8975880575,,,,,,,,,,,,,Car,U10
29761,,,9.15269218293,,,,,,,,,,,,,,,,Car,U10
29814,,,,,,,,,,,0.631810363061,,,,,,,,Car,U10
29918,,,,,,,,,,,0.633720626267,,,,,,,,Car,U10
29974,,,,,,,,,,,0.636686201257,,,,,,,,Car,U10
30025,,,,,,42.7169621923,,,,,,,,,,,,,Car,U10
30080,,,7.9095439438,,,,,,,,,,,,,,,,Car,U10
30130,,,10.9317732349,,,,,,,,,,,,,,,,Car,U10
30180,,,9.48412433429,,,,,,,,,,,,,,,,Car,U10
30230,,,10.8941045671,,,,,,,,,,,,,,,,Car,U10
30280,,,9.30402948577,,,,,,,,,,,,,,,,Car,U10
30330,,,9.32250325042,,,,,,,,,,,,,,,,Car,U10
30434,,,,,,,,,,,0.617171066042,,,,,,,,Car,U10
30488,,,,,,,,,,,0.614104143753,,,,,,,,Car,U10
30540,,,7.34551088139,,,,,,,,,,,,,,,,Car,U10
30590,,,9.31533856393,,,,,,,,,,,,,,,,Car,U10
30640,,,5.99750511651,,,,,,,,,,,,,,,,Car,U10
30693,,,,,,,,,,,0.603559447674,,,,,,,,Car,U10
30846,,,,,,57.8110809423,,,,,,,,,,,,,Car,U10
30898,,,,,,58.2105600385,,,,,,,,,,,,,Car,U10
30951,,,11.9426464577,,,,,,,,,,,,,,,,Car,U10
31005,,,,,,,,,,,0.590357342494,,,,,,,,Car,U10
31057,,,,,,59.2654651344,,,,,,,,,,,,,Car,U10
31108,,,,,,59.3971757913,,,,,,,,,,,,,Car,U10
31161,,,8.64953730734,,,,,,,,,,,,,,,,Car,U10
31215,,,,,,,,,,,0.583157658887,,,,,,,,Car,U10
31270,,,10.6977689923,,,,,,,,,,,,,,,,Car,U10
31320,,,8.27044180211,,,,,,,,,,,,,,,,Car,U10
31370,,,9.4068719836,,,,,,,,,,,,,,,,Car,U10
31421,,,10.3230429361,,,,,,,,,,,,,,,,Car,U10
31525,,,,,,61.2739027007,,,,,,,,,,,,,Car,U10
31580,,,11.724683459,,,,,,,,,,,,,,,,Car,U10
31630,,,7.8940194269,,,,,,,,,,,,,,,,Car,U10
31680,,,11.4173568348,,,,,,,,,,,,,,,,Car,U10
31730,,,11.8810242036,,,,,,,,,,,,,,,,Car,U10
31781,,,9.192896622,,,,,,,,,,,,,,,,Car,U10
31830,,,12.1268430186,,,,,,,,,,,,,,,,Car,U10
31881,,,8.84656936346,,,,,,,,,,,,,,,,Car,U10
31985,,,,,,,,,,,0.560800447217,,,,,,,,Car,U10
32037,,,,,,61.9161064968,,,,,,,,,,,,,Car,U10
32090,,,8.98862242055,,,,,,,,,,,,,,,,Car,U10
32196,,,,,,,0.230324551963,,,,,,,,,,,,Car,U10
32248,,,,,,62.8615446835,,,,,,,,,,,,,Car,U10
32301,,,12.3475496392,,,,,,,,,,,,,,,,Car,U10
32355,,,,,,,,,,,0.558681929255,,,,,,,,Car,U10
32405,,,,,,64.3732806832,,,,,,,,,,,,,Car,U10
32461,,,10.4116494325,,,,,,,,,,,,,,,,Car,U10
32508,,,10.6565071521,,,,,,,,,,,,,,,,Car,U10
32560,,,8.34485581548,,,,,,,,,,,,,,,,Car,U10
32610,,,9.24107237456,,,,,,,,,,,,,,,,Car,U10
32660,,,6.40729874411,,,,,,,,,,,,,,,,Car,U10
32710,,,14.0757758061,,,,,,,,,,,,,,,,Car,U10
32762,,,,,0.55958360412,,,,,,,,,,,,,,Car,U10
32813,,,,,,,,,,0.0773848389881,,,,,,,,,Car,U10
32920,,,8.34960266164,,,,,,,,,,,,,,,,Car,U10
32971,,,,,,,,,0.525342275206,,,,,,,,,,Car,U10
33023,,,,,,,,,,,0.5580415621,,,,,,,,Car,U10
33073,,,,,,,,,,0.149461134828,,,,,,,,,Car,U10
33124,,,,,,,,270.555230614,,,,,,,,,,,Car,U10
33175,,,,,,63.0196272864,,,,,,,,,,,,,Car,U10
33230,,,8.26096597475,,,,,,,,,,,,,,,,Car,U10
33280,,,12.842483995,,,,,,,,,,,,,,,,Car,U10
33330,,,10.5602127585,,,,,,,,,,,,,,,,Car,U10
33381,,,8.22944747461,,,,,,,,,,,,,,,,Car,U10
33483,,,,,,,,,,,,,,,,8.890205,,,Car,U10
33534,,,,,,63.8865377055,,,,,,,,,,,,,Car,U10
33585,,,,,,63.9127764929,,,,,,,,,,,,,Car,U10
33640,,,12.2316290104,,,,,,,,,,,,,,,,Car,U10
33690,,,5.639820412,,,,,,,,,,,,,,,,Car,U10
33741,,,14.9039300471,,,,,,,,,,,,,,,,Car,U10
33793,,,,,,,,,,,0.551876278276,,,,,,,,Car,U10
33849,,,,,,63.9102034107,,,,,,,,,,,,,Car,U10
33900,,,,,,,,,,,,,,,,,,,Car,U10
33951,,,,,,,,,0.531403236572,,,,,,,,,,Car,U10
34007,,,,,,,,,,,0.554531100508,,,,,,,,Car,U10
34060,,,6.19063367083,,,,,,,,,,,,,,,,Car,U10
34110,,,12.9806160962,,,,,,,,,,,,,,,,Car,U10
34160,,,6.76172765352,,,,,,,,,,,,,,,,Car,U10
34265,,,,,,,,,,,0.559926918656,,,,,,,,Car,U10
34318,,,,,,63.5792738563,,,,,,,,,,,,,Car,U10
34370,,,10.4948998513,,,,,,,,,,,,,,,,Car,U10
34423,,,7.63700969717,,,,,,,,,,,,,,,,Car,U10
34476,,,,,,63.4501484055,,,,,,,,,,,,,Car,U10
34630,,,11.4893622404,,,,,,,,,,,,,,,,Car,U10
34680,,,8.08233130791,,,,,,,,,,,,,,,,Car,U10
34730,,,11.803941879,,,,,,,,,,,,,,,,Car,U10
34785,,,,,,,,,,,0.557081242043,,,,,,,,Car,U10
34837,,,,,,63.583584533,,,,,,,,,,,,,Car,U10
34888,,,,,,63.4908200567,,,,,,,,,,,,,Car,U10
34941,,,6.81759026666,,,,,,,,,,,,,,,,Car,U10
34994,,,,,,,,,,,0.558889707756,,,,,,,,Car,U10
35049,,,,,,63.386827938,,,,,,,,,,,,,Car,U10
35100,,,8.00398194298,,,,,,,,,,,,,,,,Car,U10
35150,,,11.4314546693,,,,,,,,,,,,,,,,Car,U10
35200,,,9.21379416343,,,,,,,,,,,,,,,,Car,U10
35303,,,,,,,,,,,0.56538519619,,,,,,,,Car,U10
35353,,,,,,,,,,,0.56528014276,,,,,,,,Car,U10
35405,,,,,,,,,,,0.564343608451,,,,,,,,Car,U10
35461,,,13.9936193673,,,,,,,,,,,,,,,,Car,U10
35510,,,7.93966389178,,,,,,,,,,,,,,,,Car,U10
35560,,,11.8835713916,,,,,,,,,,,,,,,,Car,U10
35663,,,,,,,,,,,0.562541572365,,,,,,,,Car,U10
35713,,,,,,,0.0835166928505,,,,,,,,,,,,Car,U10
35764,,,,,,,,,,,,30.3369102744,,,,,,,Car,U10
35815,,,,,,64.2138310647,,,,,,,,,,,,,Car,U10
35869,,,,,,64.1929170523,,,,,,,,,,,,,Car,U10
35921,,,8.69832374253,,,,,,,,,,,,,,,,Car,U10
35974,,,,,,,,,,,0.568161606509,,,,,,,,Car,U10
36026,,,,,,,,,,0.0573693190161,,,,,,,,,Car,U10
36081,,,10.2386315621,,,,,,,,,,,,,,,,Car,U10
36132,,,8.567672404,,,,,,,,,,,,,,,,Car,U10
36184,,,,,,,,,,,0.562764902345,,,,,,,,Car,U10
36235,,,,,,63.9319393612,,,,,,,,,,,,,Car,U10
36285,,,,,,63.9709076587,,,,,,,,,,,,,Car,U10
36341,,,7.87649735813,,,,,,,,,,,,,,,,Car,U10
36387,,,,,,64.2969773384,,,,,,,,,,,,,Car,U10
36490,,,8.82140955343,,,,,,,,,,,,,,,,Car,U10
36540,,,8.26647001259,,,,,,,,,,,,,,,,Car,U10
36643,,,,,,,,,,,0.559445704525,,,,,,,,Car,U10
36693,,,,,,,,,,,0.560775348046,,,,,,,,Car,U10
36743,,,,,,,,,,0.0860778235262,,,,,,,,,Car,U10
36795,,,,,,65.4011641562,,,,,,,,,,,,,Car,U10
36849,,,,,,65.465402313,,,,,,,,,,,,,Car,U10
36900,,,,,,,,,,,,,,,,,,,Car,U10
36952,,,,,3.83239723411,,,,,,,,,,,,,,Car,U10
37005,,,,,,,,,,,0.559232296885,,,,,,,,Car,U10
37061,,,7.74728747173,,,,,,,,,,,,,,,,Car,U10
37111,,,9.42144624576,,,,,,,,,,,,,,,,Car,U10
37163,,,,,2.15947354651,,,,,,,,,,,,,,Car,U10
37218,,,,,,65.96436917,,,,,,,,,,,,,Car,U10
37270,,,12.893291659,,,,,,,,,,,,,,,,Car,U10
37320,,,8.04211755043,,,,,,,,,,,,,,,,Car,U10
37373,,,11.0697368994,,,,,,,,,,,,,,,,Car,U10
37421,,,12.0498190525,,,,,,,,,,,,,,,,Car,U10
37623,,,,,,,,,,,0.560156208777,,,,,,,,Car,U10
37674,,,,,,,,267.212944695,,,,,,,,,,,Car,U10
37725,,,,,,67.19227391,,,,,,,,,,,,,Car,U10
37781,,,10.6681764146,,,,,,,,,,,,,,,,Car,U10
37830,,,9.31481221389,,,,,,,,,,,,,,,,Car,U10
37880,,,10.0969066725,,,,,,,,,,,,,,,,Car,U10
37930,,,12.5206163347,,,,,,,,,,,,,,,,Car,U10
37980,,,7.72147807992,,,,,,,,,,,,,,,,Car,U10
38034,,,,,,,,,,,0.560502104002,,,,,,,,Car,U10
38085,,,,,,,,,,,0.559792239417,,,,,,,,Car,U10
38141,,,11.3936911172,,,,,,,,,,,,,,,,Car,U10
38191,,,9.71252955988,,,,,,,,,,,,,,,,Car,U10
38298,,,,,,67.3395552406,,,,,,,,,,,,,Car,U10
38350,,,,,,67.225858117,,,,,,,,,,,,,Car,U10
38401,,,13.0014065809,,,,,,,,,,,,,,,,Car,U10
38453,,,,,,,,,,,0.558081709254,,,,,,,,Car,U10
38504,,,12.3882315722,,,,,,,,,,,,,,,,Car,U10
38555,,,,,,67.2621468584,,,,,,,,,,,,,Car,U10
38605,,,,,,67.2667632837,,,,,,,,,,,,,Car,U10
38660,,,9.69973644976,,,,,,,,,,,,,,,,Car,U10
38710,,,10.1456716048,,,,,,,,,,,,,,,,Car,U10
38760,,,8.74958600909,,,,,,,,,,,,,,,,Car,U10
38810,,,9.8858863058,,,,,,,,,,,,,,,,Car,U10
38863,,,9.43262006848,,,,,,,,,,,,,,,,Car,U10
38969,,,,,,,,,,,,,,,,,,,Car,U10
39021,,,11.8845118962,,,,,,,,,,,,,,,,Car,U10
39071,,,11.1262300002,,,,,,,,,,,,,,,,Car,U10
39177,,,,,,64.2709335548,,,,,,,,,,,,,Car,U10
39231,,,10.5466859342,,,,,,,,,,,,,,,,Car,U10
39334,,,,,,,,,,,0.567227713779,,,,,,,,Car,U10
39388,,,,,,63.330900589,,,,,,,,,,,,,Car,U10
39440,,,8.25545752369,,,,,,,,,,,,,,,,Car,U10
39491,,,12.4801152568,,,,,,,,,,,,,,,,Car,U10
39540,,,7.02411618949,,,,,,,,,,,,,,,,Car,U10
39590,,,11.7741377869,,,,,,,,,,,,,,,,Car,U10
39641,,,,9.80660668376,,,,,,,,,,,,,,,Car,U10
39748,,,,,,62.7072523716,,,,,,,,,,,,,Car,U10
39801,,,12.0838394955,,,,,,,,,,,,,,,,Car,U10
39851,,,10.0769399492,,,,,,,,,,,,,,,,Car,U10
39957,,,,,,62.1459717118,,,,,,,,,,,,,Car,U10
40011,,,8.18098143515,,,,,,,,,,,,,,,,Car,U10
40060,,,9.76457721373,,,,,,,,,,,,,,,,Car,U10
40164,,,,,,,,,,,0.578594998056,,,,,,,,Car,U10
40215,,,,,,,,,,,,33.0499739977,,,,,,,Car,U10
40269,,,,,,61.311275472,,,,,,,,,,,,,Car,U10
40321,,,9.12815386541,,,,,,,,,,,,,,,,Car,U10
40426,,,,,,,,,,0.0549778713333,,,,,,,,,Car,U10
40530,,,10.8126261164,,,,,,,,,,,,,,,,Car,U10
40580,,,10.3706293939,,,,,,,,,,,,,,,,Car,U10
40632,,,,,,,,,,,0.58855662095,,,,,,,,Car,U10
40683,,,,,,,,,,,0.589396362106,,,,,,,,Car,U10
40733,,,,,,,0.0888677691472,,,,,,,,,,,,Car,U10
40785,,,,,,60.5136593924,,,,,,,,,,,,,Car,U10
40835,,,,,,60.6039482732,,,,,,,,,,,,,Car,U10
40889,,,,,,60.5623054063,,,,,,,,,,,,,Car,U10
40941,,,9.64194726284,,,,,,,,,,,,,,,,Car,U10
41045,,,,,,,0.202630548444,,,,,,,,,,,,Car,U10
41100,,,13.5249504008,,,,,,,,,,,,,,,,Car,U10
41150,,,13.9532137394,,,,,,,,,,,,,,,,Car,U10
41203,,,,,,,,,,,0.600159966676,,,,,,,,Car,U10
41253,,,,,,,,,,,0.601591364286,,,,,,,,Car,U10
41308,,,,,,,,,,0.163012910717,,,,,,,,,Car,U10
41361,,,8.22273543803,,,,,,,,,,,,,,,,Car,U10
41462,,,,9.80656939046,,,,,,,,,,,,,,,Car,U10
41515,,,,,,,,,,,0.606851807095,,,,,,,,Car,U10
41720,,,7.70762839147,,,,,,,,,,,,,,,,Car,U10
41770,,,11.7137582114,,,,,,,,,,,,,,,,Car,U10
41874,,,,,,,,,,,0.612622052022,,,,,,,,Car,U10
41926,,,,,,,,,,,0.614215936749,,,,,,,,Car,U10
41981,,,7.04017756645,,,,,,,,,,,,,,,,Car,U10
42031,,,9.50652738319,,,,,,,,,,,,,,,,Car,U10
42085,,,,,,,,,,,0.617307455581,,,,,,,,Car,U10
42136,,,,,,,,271.501474731,,,,,,,,,,,Car,U10
42188,,,,,,57.6240078096,,,,,,,,,,,,,Car,U10
42295,,,,,,57.7937356093,,,,,,,,,,,,,Car,U10
42345,,,,,,57.8657106745,,,,,,,,,,,,,Car,U10
42399,,,,,,,,,,,,,,,,,,,Car,U10
42451,,,10.8829188385,,,,,,,,,,,,,,,,Car,U10
42502,,,,,,57.4278639944,,,,,,,,,,,,,Car,U10
42553,,,,,,,,,,,0.628108213705,,,,,,,,Car,U10
42603,,,,,,,,,,,0.628979358895,,,,,,,,Car,U10
42655,,,,,,57.379057155,,,,,,,,,,,,,Car,U10
42706,,,,,,,,,,0.071791612992,,,,,,,,,Car,U10
42761,,,10.2284245782,,,,,,,,,,,,,,,,Car,U10
42814,,,,,,,,,,,0.633159962411,,,,,,,,Car,U10
42863,,,,,,,,,,,0.633990297811,,,,,,,,Car,U10
42915,,,,,,57.0760667881,,,,,,,,,,,,,Car,U10
42965,,,,,,56.87450969,,,,,,,,,,,,,Car,U10
43015,,,,,,56.6910063414,,,,,,,,,,,,,Car,U10
43065,,,,,,56.5411750179,,,,,,,,,,,,,Car,U10
43121,,,10.5237120461,,,,,,,,,,,,,,,,Car,U10
43171,,,10.0353142983,,,,,,,,,,,,,,,,Car,U10
43222,,,7.15756583811,,,,,,,,,,,,,,,,Car,U10
43274,,,,,,,,274.370963809,,,,,,,,,,,Car,U10
43329,,,,,,55.5541663604,,,,,,,,,,,,,Car,U10
43381,,,9.19661679667,,,,,,,,,,,,,,,,Car,U10
43484,,,,9.80655204108,,,,,,,,,,,,,,,Car,U10
43535,,,,,,54.8903206403,,,,,,,,,,,,,Car,U10
43585,,,,,,54.9129729663,,,,,,,,,,,,,Car,U10
43640,,,9.25209762979,,,,,,,,,,,,,,,,Car,U10
43690,,,10.4924783834,,,,,,,,,,,,,,,,Car,U10
43740,,,11.2340226876,,,,,,,,,,,,,,,,Car,U10
43790,,,12.6345232974,,,,,,,,,,,,,,,,Car,U10
43845,,,,,,,,,,,0.647815815484,,,,,,,,Car,U10
43897,,,,,,54.7726628894,,,,,,,,,,,,,Car,U10
43951,,,8.97438820804,,,,,,,,,,,,,,,,Car,U10
44000,,,8.69744959494,,,,,,,,,,,,,,,,Car,U10
44050,,,11.9080690068,,,,,,,,,,,,,,,,Car,U10
44101,,,10.1311079528,,,,,,,,,,,,,,,,Car,U10
44205,,,,,,,,,,,0.650545829217,,,,,,,,Car,U10
44257,,,,,,53.6279358171,,,,,,,,,,,,,Car,U10
44311,,,,,,53.4860719418,,,,,,,,,,,,,Car,U10
44362,,,,,0.879114204793,,,,,,,,,,,,,,Car,U10
44415,,,,,,,0.0558532637114,,,,,,,,,,,,Car,U10
44468,,,,,,52.9464511758,,,,,,,,,,,,,Car,U10
44521,,,11.2358550866,,,,,,,,,,,,,,,,Car,U10
44570,,,11.7363167986,,,,,,,,,,,,,,,,Car,U10
44620,,,9.68012952035,,,,,,,,,,,,,,,,Car,U10
44823,,,,,,,,,,,0.65797817337,,,,,,,,Car,U10
44873,,,,,,,,,,,,31.006866679,,,,,,,Car,U10
45030,,,11.4087112539,,,,,,,,,,,,,,,,Car,U10
45080,,,10.2747086333,,,,,,,,,,,,,,,,Car,U10
45130,,,9.6414910378,,,,,,,,,,,,,,,,Car,U10
45180,,,11.4301909903,,,,,,,,,,,,,,,,Car,U10
45230,,,8.68685999167,,,,,,,,,,,,,,,,Car,U10
45280,,,9.3055815798,,,,,,,,,,,,,,,,Car,U10
45333,,,,,,,,,,,0.662455803657,,,,,,,,Car,U10
45388,,,,,,52.3010888575,,,,,,,,,,,,,Car,U10
45441,,,8.99162134892,,,,,,,,,,,,,,,,Car,U10
45491,,,10.3285139871,,,,,,,,,,,,,,,,Car,U10
45543,,,,,,,,,,,0.664024292085,,,,,,,,Car,U10
45593,,,,,,,,,,0.0610620855812,,,,,,,,,Car,U10
45643,,,,,,,0.0792713870049,,,,,,,,,,,,Car,U10
45695,,,,,,50.8721591513,,,,,,,,,,,,,Car,U10
45749,,,,,,50.6789916911,,,,,,,,,,,,,Car,U10
45801,,,10.6685197998,,,,,,,,,,,,,,,,Car,U10
45853,,,,,,,,,,,0.66784653821,,,,,,,,Car,U10
45905,,,,,,50.8582864353,,,,,,,,,,,,,Car,U10
46060,,,11.4808546816,,,,,,,,,,,,,,,,Car,U10
46111,,,8.6510165279,,,,,,,,,,,,,,,,Car,U10
46160,,,10.1321934835,,,,,,,,,,,,,,,,Car,U10
46318,,,,,,50.6714987073,,,,,,,,,,,,,Car,U10
46371,,,11.5614156104,,,,,,,,,,,,,,,,Car,U10
46422,,,9.20889000411,,,,,,,,,,,,,,,,Car,U10
46475,,,,,,,,,,,0.676312310826,,,,,,,,Car,U10
46525,,,,,,49.9593774739,,,,,,,,,,,,,Car,U10
46580,,,11.5267914405,,,,,,,,,,,,,,,,Car,U10
46631,,,9.71364459653,,,,,,,,,,,,,,,,Car,U10
46680,,,11.928818725,,,,,,,,,,,,,,,,Car,U10
46730,,,11.8267443115,,,,,,,,,,,,,,,,Car,U10
46780,,,10.3629635032,,,,,,,,,,,,,,,,Car,U10
46832,,,,,,,,,0.419169492611,,,,,,,,,,Car,U10
46885,,,,,,,,,,,0.682373176483,,,,,,,,Car,U10
46937,,,,,,48.8146812924,,,,,,,,,,,,,Car,U10
46991,,,9.97236755314,,,,,,,,,,,,,,,,Car,U10
47046,,,,,,,,,,,0.684856461104,,,,,,,,Car,U10
47097,,,,,,48.6197552281,,,,,,,,,,,,,Car,U10
47148,,,,,,48.4325914099,,,,,,,,,,,,,Car,U10
47201,,,9.3452606335,,,,,,,,,,,,,,,,Car,U10
47253,,,,,,,,,,,0.689335759,,,,,,,,Car,U10
47304,,,,,,,,,,,0.689098171363,,,,,,,,Car,U10
47357,,,,,,47.8088213618,,,,,,,,,,,,,Car,U10
47409,,,,,,47.856813517,,,,,,,,,,,,,Car,U10
47462,,,8.80101768413,,,,,,,,,,,,,,,,Car,U10
47515,,,,,,,,,,,0.6927976895,,,,,,,,Car,U10
47565,,,,,,47.7456521581,,,,,,,,,,,,,Car,U10
47616,,,,,,47.6936663829,,,,,,,,,,,,,Car,U10
47670,,,10.7676404149,,,,,,,,,,,,,,,,Car,U10
47720,,,6.68259405742,,,,,,,,,,,,,,,,Car,U10
47771,,,11.7339101745,,,,,,,,,,,,,,,,Car,U10
47821,,,9.315969178,,,,,,,,,,,,,,,,Car,U10
47870,,,8.91886665177,,,,,,,,,,,,,,,,Car,U10
47920,,,12.1649533038,,,,,,,,,,,,,,,,Car,U10
47973,,,,,,,,,0.400837884685,,,,,,,,,,Car,U10
48029,,,,,,46.3196642907,,,,,,,,,,,,,Car,U10
48081,,,8.90935964305,,,,,,,,,,,,,,,,Car,U10
48185,,,,,,,,,,,0.700150798025,,,,,,,,Car,U10
48237,,,,,,46.0350912807,,,,,,,,,,,,,Car,U10
48291,,,12.2176673179,,,,,,,,,,,,,,,,Car,U10
48347,,,8.96356916624,,,,,,,,,,,,,,,,Car,U10
48399,,,,,,,,,,,,,,,,,,,Car,U10
48450,,,13.8424888109,,,,,,,,,,,,,,,,Car,U10
48501,,,7.52250117035,,,,,,,,,,,,,,,,Car,U10
48603,,,,,,,,,,,0.702201771228,,,,,,,,Car,U10
48653,,,,,,,,,,,0.701401902795,,,,,,,,Car,U10
48704,,,,,,,,,,0.0407955547783,,,,,,,,,Car,U10
48757,,,,,,43.722742366,,,,,,,,,,,,,Car,U10
48810,,,,,,43.4644777555,,,,,,,,,,,,,Car,U10
48913,,,,,,,,,,,0.70678942,,,,,,,,Car,U10
48963,,,,,,,,,,0.104220126838,,,,,,,,,Car,U10
49015,,,,,,43.4380700626,,,,,,,,,,,,,Car,U10
49069,,,,,,43.5792335867,,,,,,,,,,,,,Car,U10
49121,,,5.16876166595,,,,,,,,,,,,,,,,Car,U10
49226,,,,,,,,,,,0.707236538558,,,,,,,,Car,U10
49280,,,12.4481132032,,,,,,,,,,,,,,,,Car,U10
49330,,,13.4901311996,,,,,,,,,,,,,,,,Car,U10
49380,,,10.9129296815,,,,,,,,,,,,,,,,Car,U10
49481,,,,,,,,,,,0.707174555876,,,,,,,,Car,U10
49531,,,,,2.95224745745,,,,,,,,,,,,,,Car,U10
49583,,,,,,,,,,,0.706307660283,,,,,,,,Car,U10
49632,,,,,,,,,,,0.705425574631,,,,,,,,Car,U10
49684,,,,,,,,274.285250127,,,,,,,,,,,Car,U10
49736,,,,,,44.3149884351,,,,,,,,,,,,,Car,U10
49788,,,,,,44.309266727,,,,,,,,,,,,,Car,U10
49841,,,7.93802330891,,,,,,,,,,,,,,,,Car,U10
50151,,,5.70749550132,,,,,,,,,,,,,,,,Car,U10
50257,,,,,,,,,,0.199067094432,,,,,,,,,Car,U10
50310,,,,,,48.0782216809,,,,,,,,,,,,,Car,U10
50362,,,7.31254867483,,,,,,,,,,,,,,,,Car,U10
50466,,,,,,,,,,,,30.620471604,,,,,,,Car,U10
50570,,,17.4576811459,,,,,,,,,,,,,,,,Car,U10
50620,,,7.63315935099,,,,,,,,,,,,,,,,Car,U10
50725,,,,,,,,,,,0.6559170238,,,,,,,,Car,U10
50776,,,,,,52.2793898273,,,,,,,,,,,,,Car,U10
50829,,,,,,52.6255971761,,,,,,,,,,,,,Car,U10
50882,,,12.2480808704,,,,,,,,,,,,,,,,Car,U10
50934,,,,,,,,,,0.373587932747,,,,,,,,,Car,U10
50986,,,,,,,0.566332373802,,,,,,,,,,,,Car,U10
51041,,,9.42890957228,,,,,,,,,,,,,,,,Car,U10
51090,,,10.9575203126,,,,,,,,,,,,,,,,Car,U10
51193,,,,,,,,,,,0.623067588449,,,,,,,,Car,U10
51245,,,,,,,,,,0.286940253754,,,,,,,,,Car,U10
51300,,,9.46456970622,,,,,,,,,,,,,,,,Car,U10
51351,,,8.24200942796,,,,,,,,,,,,,,,,Car,U10
51458,,,,,,57.3154200381,,,,,,,,,,,,,Car,U10
51507,,,,,,57.9053045929,,,,,,,,,,,,,Car,U10
51560,,,10.4041371769,,,,,,,,,,,,,,,,Car,U10
51611,,,3.70702852404,,,,,,,,,,,,,,,,Car,U10
51660,,,8.795226457,,,,,,,,,,,,,,,,Car,U10
51710,,,8.36217553429,,,,,,,,,,,,,,,,Car,U10
51762,,,,,,,,,0.491772016105,,,,,,,,,,Car,U10
51815,,,,,,,0.224063511876,,,,,,,,,,,,Car,U10
51869,,,,,,61.2704143631,,,,,,,,,,,,,Car,U10
51921,,,5.94284666996,,,,,,,,,,,,,,,,Car,U10
51973,,,,,1.93677172893,,,,,,,,,,,,,,Car,U10
52026,,,,,,,,,,,,32.4838301121,,,,,,,Car,U10
52081,,,11.4458427959,,,,,,,,,,,,,,,,Car,U10
52131,,,16.22943811,,,,,,,,,,,,,,,,Car,U10
52183,,,,,,,,,,,0.543535778955,,,,,,,,Car,U10
52233,,,,,,,0.268541804513,,,,,,,,,,,,Car,U10
52285,,,,,,,,,,,0.537617252587,,,,,,,,Car,U10
52341,,,11.7348673202,,,,,,,,,,,,,,,,Car,U10
52390,,,13.1728893962,,,,,,,,,,,,,,,,Car,U10
52490,,,,,,68.261111837,,,,,,,,,,,,,Car,U10
52540,,,10.8353863607,,,,,,,,,,,,,,,,Car,U10
52590,,,6.48107172078,,,,,,,,,,,,,,,,Car,U10
52641,,,,,,,,,0.561546767398,,,,,,,,,,Car,U10
52693,,,,,,,,,,,0.510267067078,,,,,,,,Car,U10
52743,,,,,,,,,,,0.504689392992,,,,,,,,Car,U10
52795,,,,,,71.1200811737,,,,,,,,,,,,,Car,U10
52845,,,,,,70.7732249068,,,,,,,,,,,,,Car,U10
52899,,,,,,,,,,,,,,,,,,,Car,U10
52951,,,9.11302511401,,,,,,,,,,,,,,,,Car,U10
53002,,,5.7160699258,,,,,,,,,,,,,,,,Car,U10
53055,,,,,,,0.182680375946,,,,,,,,,,,,Car,U10
53109,,,,,,68.8812463592,,,,,,,,,,,,,Car,U10
53161,,,5.45183631567,,,,,,,,,,,,,,,,Car,U10
53212,,,6.62839555319,,,,,,,,,,,,,,,,Car,U10
53266,,,,,,,,,,,0.474061006555,,,,,,,,Car,U10
53320,,,6.03363907293,,,,,,,,,,,,,,,,Car,U10
53370,,,6.84822703583,,,,,,,,,,,,,,,,Car,U10
53421,,,9.8427677758,,,,,,,,,,,,,,,,Car,U10
53472,,,11.9481792258,,,,,,,,,,,,,,,,Car,U10
53523,,,,,,,,,,,0.462743918313,,,,,,,,Car,U10
53572,,,,,,,,,,,0.461600346898,,,,,,,,Car,U10
53624,,,,,,,,267.217330206,,,,,,,,,,,Car,U10
53675,,,,,,68.6743285193,,,,,,,,,,,,,Car,U10
53729,,,,,,68.9841315086,,,,,,,,,,,,,Car,U10
53781,,,10.6295129105,,,,,,,,,,,,,,,,Car,U10
53834,,,,,,,,,,,0.457112273647,,,,,,,,Car,U10
53885,,,,,,69.4603367,,,,,,,,,,,,,Car,U10
53941,,,14.9558602311,,,,,,,,,,,,,,,,Car,U10
53989,,,,,,69.794372799,,,,,,,,,,,,,Car,U10
54042,,,12.1491518189,,,,,,,,,,,,,,,,Car,U10
54200,,,10.0792335625,,,,,,,,,,,,,,,,Car,U10
54251,,,14.0184332987,,,,,,,,,,,,,,,,Car,U10
54301,,,9.26113843138,,,,,,,,,,,,,,,,Car,U10
54353,,,,,,,,,,,0.448818375149,,,,,,,,Car,U10
54404,,,,,,,,,,0.0362835451,,,,,,,,,Car,U10
54457,,,,,,70.4637103514,,,,,,,,,,,,,Car,U10
54510,,,11.7403492295,,,,,,,,,,,,,,,,Car,U10
54560,,,8.70814062468,,,,,,,,,,,,,,,,Car,U10
54610,,,11.9502276452,,,,,,,,,,,,,,,,Car,U10
54661,,,8.80559180499,,,,,,,,,,,,,,,,Car,U10
54763,,,,,,,,,,,0.444122648425,,,,,,,,Car,U10
54813,,,,,,,,268.748859009,,,,,,,,,,,Car,U10
54868,,,,,,71.4063813675,,,,,,,,,,,,,Car,U10
54921,,,8.67236827724,,,,,,,,,,,,,,,,Car,U10
54971,,,,,,,,,,,,,,,,,,,Car,U10
55023,,,,,,,,,,,0.439482810812,,,,,,,,Car,U10
55073,,,,,,,0.0460058985204,,,,,,,,,,,,Car,U10
55127,,,,,,71.8542218031,,,,,,,,,,,,,Car,U10
55181,,,11.1307260999,,,,,,,,,,,,,,,,Car,U10
55231,,,7.46159265532,,,,,,,,,,,,,,,,Car,U10
55337,,,,,,72.7156853781,,,,,,,,,,,,,Car,U10
55390,,,7.99980433982,,,,,,,,,,,,,,,,Car,U10
55441,,,12.1212069619,,,,,,,,,,,,,,,,Car,U10
55545,,,,,,72.7451043003,,,,,,,,,,,,,Car,U10
55600,,,7.74522701746,,,,,,,,,,,,,,,,Car,U10
55647,,,,,,72.7397091141,,,,,,,,,,,,,Car,U10
55700,,,7.73406423539,,,,,,,,,,,,,,,,Car,U10
55750,,,11.1172703315,,,,,,,,,,,,,,,,Car,U10
55800,,,7.77751683488,,,,,,,,,,,,,,,,Car,U10
55903,,,,,,,,,,,0.416167433921,,,,,,,,Car,U10
55955,,,,,,72.8163182261,,,,,,,,,,,,,Car,U10
56007,,,,,,73.0826496058,,,,,,,,,,,,,Car,U10
56061,,,6.26979576448,,,,,,,,,,,,,,,,Car,U10
56110,,,12.9167131505,,,,,,,,,,,,,,,,Car,U10
56160,,,8.60535113827,,,,,,,,,,,,,,,,Car,U10
56211,,,,9.80661746628,,,,,,,,,,,,,,,Car,U10
56265,,,,,,,,,,,0.4227764625,,,,,,,,Car,U10
56318,,,,,,74.1895755761,,,,,,,,,,,,,Car,U10
56371,,,9.68020035233,,,,,,,,,,,,,,,,Car,U10
56475,,,,,,,,,,,,30.7764748834,,,,,,,Car,U10
56830,,,10.2346456885,,,,,,,,,,,,,,,,Car,U10
56934,,,,,,,,,,,0.398896397557,,,,,,,,Car,U10
56988,,,,,,74.7767273933,,,,,,,,,,,,,Car,U10
57041,,,9.72653816935,,,,,,,,,,,,,,,,Car,U10
57145,,,,,,,,,,,0.390693087422,,,,,,,,Car,U10
57200,,,10.0711314622,,,,,,,,,,,,,,,,Car,U10
57250,,,9.82520114072,,,,,,,,,,,,,,,,Car,U10
57301,,,10.0767171881,,,,,,,,,,,,,,,,Car,U10
57350,,,9.1765350845,,,,,,,,,,,,,,,,Car,U10
57400,,,8.84311235184,,,,,,,,,,,,,,,,Car,U10
57451,,,,,,,,,0.602261327497,,,,,,,,,,Car,U10
57504,,,,,,,,,,,0.376767155065,,,,,,,,Car,U10
57554,,,,,,74.9300889962,,,,,,,,,,,,,Car,U10
57605,,,,,,74.8818307535,,,,,,,,,,,,,Car,U10
57660,,,9.93923490545,,,,,,,,,,,,,,,,Car,U10
57708,,,,,,74.8121086431,,,,,,,,,,,,,Car,U10
57760,,,9.3192762332,,,,,,,,,,,,,,,,Car,U10
57810,,,9.6274396372,,,,,,,,,,,,,,,,Car,U10
57917,,,,,,74.673950612,,,,,,,,,,,,,Car,U10
57968,,,,,,74.7258161548,,,,,,,,,,,,,Car,U10
58021,,,13.3168895096,,,,,,,,,,,,,,,,Car,U10
58074,,,,,,,,,,,0.372864011409,,,,,,,,Car,U10
58125,,,,,,,0.0233091323503,,,,,,,,,,,,Car,U10
58180,,,8.55451670416,,,,,,,,,,,,,,,,Car,U10
58230,,,10.2414755481,,,,,,,,,,,,,,,,Car,U10
58280,,,11.688887812,,,,,,,,,,,,,,,,Car,U10
58330,,,10.1551184647,,,,,,,,,,,,,,,,Car,U10
58381,,,10.6148909753,,,,,,,,,,,,,,,,Car,U10
58484,,,11.1761337622,,,,,,,,,,,,,,,,Car,U10
58540,,,12.8719516776,,,,,,,,,,,,,,,,Car,U10
58590,,,11.3620322513,,,,,,,,,,,,,,,,Car,U10
58640,,,9.35049991785,,,,,,,,,,,,,,,,Car,U10
58690,,,8.97559426909,,,,,,,,,,,,,,,,Car,U10
58740,,,10.0724198347,,,,,,,,,,,,,,,,Car,U10
58790,,,11.0056679959,,,,,,,,,,,,,,,,Car,U10
58841,,,,,1.31170132919,,,,,,,,,,,,,,Car,U10
58893,,,,,,,,,,,0.368688513777,,,,,,,,Car,U10
58945,,,,,,,,268.004139427,,,,,,,,,,,Car,U10
59001,,,9.12595338156,,,,,,,,,,,,,,,,Car,U10
59050,,,10.3429651841,,,,,,,,,,,,,,,,Car,U10
59100,,,9.14611625134,,,,,,,,,,,,,,,,Car,U10
59152,,,10.4394308283,,,,,,,,,,,,,,,,Car,U10
59205,,,,,,,,,,,0.367969147832,,,,,,,,Car,U10
59254,,,,,,,0.0800116872659,,,,,,,,,,,,Car,U10
59310,,,,,,77.3844260817,,,,,,,,,,,,,Car,U10
59362,,,9.3964286191,,,,,,,,,,,,,,,,Car,U10
59414,,,,,,,,,,,,31.8664817049,,,,,,,Car,U10
59467,,,,,,,,265.783636453,,,,,,,,,,,Car,U10
59520,,,9.29426058513,,,,,,,,,,,,,,,,Car,U10
59570,,,11.3662368775,,,,,,,,,,,,,,,,Car,U10
59620,,,9.98557001697,,,,,,,,,,,,,,,,Car,U10
59670,,,8.10825863345,,,,,,,,,,,,,,,,Car,U10
59773,,,,,,,,,,,0.369290521682,,,,,,,,Car,U10
59825,,,,,,,,,,,0.36904884758,,,,,,,,Car,U10
59877,,,,,,77.2819836678,,,,,,,,,,,,,Car,U10
59931,,,9.59941055301,,,,,,,,,,,,,,,,Car,U10
59985,,,,,,,,,,,0.371519877496,,,,,,,,Car,U10
60037,,,,,,77.3137769094,,,,,,,,,,,,,Car,U10
60089,,,,,,77.2128829924,,,,,,,,,,,,,Car,U10
60140,,,12.1884537985,,,,,,,,,,,,,,,,Car,U10
60190,,,9.75350684258,,,,,,,,,,,,,,,,Car,U10
60294,,,,,,,,,,,0.372978463721,,,,,,,,Car,U10
60348,,,,,,77.5198387511,,,,,,,,,,,,,Car,U10
60401,,,,,,,,,,,,,,,,,,,Car,U10
60453,,,12.7951225437,,,,,,,,,,,,,,,,Car,U10
60504,,,,,,,,,,0.0283641514933,,,,,,,,,Car,U10
60555,,,,,,78.3493535391,,,,,,,,,,,,,Car,U10
60605,,,,,,78.3721436481,,,,,,,,,,,,,Car,U10
60660,,,12.6885756034,,,,,,,,,,,,,,,,Car,U10
60710,,,8.2922595759,,,,,,,,,,,,,,,,Car,U10
60760,,,12.459432685,,,,,,,,,,,,,,,,Car,U10
60810,,,8.42690406394,,,,,,,,,,,,,,,,Car,U10
60860,,,12.2452727054,,,,,,,,,,,,,,,,Car,U10
60914,,,,,,,,,,,0.370150000967,,,,,,,,Car,U10
60965,,,,,,,,,,,,33.6304015178,,,,,,,Car,U10
61021,,,8.77387583319,,,,,,,,,,,,,,,,Car,U10
61071,,,11.5937680163,,,,,,,,,,,,,,,,Car,U10
61126,,,,,,,,,,,0.373147579405,,,,,,,,Car,U10
61182,,,8.19068415304,,,,,,,,,,,,,,,,Car,U10
61283,,,,,,,,,,,0.374457693824,,,,,,,,Car,U10
61333,,,,,,,0.0691762756375,,,,,,,,,,,,Car,U10
61385,,,,,,,,,,,0.372024276454,,,,,,,,Car,U10
61437,,,,,,,,,,0.0384990509377,,,,,,,,,Car,U10
61491,,,,,,78.9351081585,,,,,,,,,,,,,Car,U10
61543,,,,,,,,,,,0.37018011616,,,,,,,,Car,U10
61592,,,,,,,,,,,0.370335666114,,,,,,,,Car,U10
61643,,,,,,,,,,,0.371772176237,,,,,,,,Car,U10
61694,,,,,,79.5841911357,,,,,,,,,,,,,Car,U10
61745,,,,,,79.5205784686,,,,,,,,,,,,,Car,U10
61800,,,9.72438376267,,,,,,,,,,,,,,,,Car,U10
61850,,,11.8499971262,,,,,,,,,,,,,,,,Car,U10
61899,,,,,,,,,,,,,,,,,,,Car,U10
61950,,,10.7531849462,,,,,,,,,,,,,,,,Car,U10
62001,,,8.70395319612,,,,,,,,,,,,,,,,Car,U10
62052,,,10.0136128981,,,,,,,,,,,,,,,,Car,U10
62103,,,,,,,,,,,0.369956694221,,,,,,,,Car,U10
62153,,,,,,,,266.582956425,,,,,,,,,,,Car,U10
62205,,,,,,78.7620949442,,,,,,,,,,,,,Car,U10
62260,,,8.76174277792,,,,,,,,,,,,,,,,Car,U10
62307,,,,,,78.6739537567,,,,,,,,,,,,,Car,U10
62361,,,8.81624482693,,,,,,,,,,,,,,,,Car,U10
62411,,,9.61351645666,,,,,,,,,,,,,,,,Car,U10
62465,,,,,,,,,,,0.369421352058,,,,,,,,Car,U10
62515,,,,,,78.626489811,,,,,,,,,,,,,Car,U10
62570,,,9.84678254977,,,,,,,,,,,,,,,,Car,U10
62620,,,9.10562511731,,,,,,,,,,,,,,,,Car,U10
62671,,,10.5892080072,,,,,,,,,,,,,,,,Car,U10
62720,,,8.9170364637,,,,,,,,,,,,,,,,Car,U10
62771,,,10.2293391729,,,,,,,,,,,,,,,,Car,U10
62820,,,9.75307421407,,,,,,,,,,,,,,,,Car,U10
62870,,,8.66974502335,,,,,,,,,,,,,,,,Car,U10
62977,,,,,,79.0115008889,,,,,,,,,,,,,Car,U10
63029,,,,,,78.8954675504,,,,,,,,,,,,,Car,U10
63081,,,8.60176389411,,,,,,,,,,,,,,,,Car,U10
63134,,,11.2479338366,,,,,,,,,,,,,,,,Car,U10
63241,,,10.7632318145,,,,,,,,,,,,,,,,Car,U10
63291,,,10.5189535386,,,,,,,,,,,,,,,,Car,U10
63345,,,,9.80655315271,,,,,,,,,,,,,,,Car,U10
63399,,,,,,,,,,,,,,,,,,,Car,U10
63600,,,10.597826891,,,,,,,,,,,,,,,,Car,U10
63703,,,,,,,,,,,0.363818140147,,,,,,,,Car,U10
63753,,,,,,,,,,,0.363464625976,,,,,,,,Car,U10
63806,,,,,,,,,,0.0966480740933,,,,,,,,,Car,U10
63858,,,,,,79.2535209273,,,,,,,,,,,,,Car,U10
63911,,,10.0410710754,,,,,,,,,,,,,,,,Car,U10
64013,,,,,,,,,,,0.360202859683,,,,,,,,Car,U10
64065,,,,,,,,,,,0.360916846927,,,,,,,,Car,U10
64118,,,,,,79.5570160307,,,,,,,,,,,,,Car,U10
64171,,,7.6251109767,,,,,,,,,,,,,,,,Car,U10
64222,,,,,,,,,0.637368674724,,,,,,,,,,Car,U10
64274,,,,,,,,265.184060489,,,,,,,,,,,Car,U10
64328,,,,,,79.1460491749,,,,,,,,,,,,,Car,U10
64381,,,9.58114941773,,,,,,,,,,,,,,,,Car,U10
64500,,,5.91876087856,,,,,,,,,,,,,,,,Car,U10
64601,,,,,1.2793196434,,,,,,,,,,,,,,Car,U10
64652,,,,,,,,,,,0.363761809342,,,,,,,,Car,U10
64703,,,,,,,,,,,0.362874553746,,,,,,,,Car,U10
64806,,,,,,,,,,0.068264023244,,,,,,,,,Car,U10
64860,,,8.61697111284,,,,,,,,,,,,,,,,Car,U10
64912,,,14.4685988796,,,,,,,,,,,,,,,,Car,U10
64965,,,,,,,,,,,0.364222402738,,,,,,,,Car,U10
65021,,,8.91470076559,,,,,,,,,,,,,,,,Car,U10
65121,,,14.0224077978,,,,,,,,,,,,,,,,Car,U10
65171,,,,,,,,,0.648039179025,,,,,,,,,,Car,U10
65273,,,,,,,,264.542861898,,,,,,,,,,,Car,U10
65325,,,,,,80.6915094663,,,,,,,,,,,,,Car,U10
65380,,,10.4395582551,,,,,,,,,,,,,,,,Car,U10
65431,,,5.0042917272,,,,,,,,,,,,,,,,Car,U10
65482,,,13.6960464146,,,,,,,,,,,,,,,,Car,U10
65530,,,10.6756699201,,,,,,,,,,,,,,,,Car,U10
65580,,,5.67910290997,,,,,,,,,,,,,,,,Car,U10
65631,,,13.0223834797,,,,,,,,,,,,,,,,Car,U10
65682,,,,,1.75156885518,,,,,,,,,,,,,,Car,U10
65734,,,,,,,0.11259159784,,,,,,,,,,,,Car,U10
65789,,,,,,79.2753106184,,,,,,,,,,,,,Car,U10
65892,,,12.1294409711,,,,,,,,,,,,,,,,Car,U10
65945,,,,,,,,,,,0.374707696146,,,,,,,,Car,U10
65998,,,,,,78.8174461848,,,,,,,,,,,,,Car,U10
66051,,,5.6214306421,,,,,,,,,,,,,,,,Car,U10
66103,,,,,,,,,0.632429443142,,,,,,,,,,Car,U10
66159,,,,,,77.9134082566,,,,,,,,,,,,,Car,U10
66210,,,14.0065602569,,,,,,,,,,,,,,,,Car,U10
66260,,,10.9174633963,,,,,,,,,,,,,,,,Car,U10
66418,,,,,,76.8040999729,,,,,,,,,,,,,Car,U10
66469,,,,,,76.8735635422,,,,,,,,,,,,,Car,U10
66520,,,8.92109233822,,,,,,,,,,,,,,,,Car,U10
66623,,,,,,,,,,,0.383651382789,,,,,,,,Car,U10
66675,,,,,,76.6724241957,,,,,,,,,,,,,Car,U10
66725,,,,,,76.6471669404,,,,,,,,,,,,,Car,U10
66780,,,6.71124414382,,,,,,,,,,,,,,,,Car,U10
66830,,,7.00811600644,,,,,,,,,,,,,,,,Car,U10
66880,,,12.5864010452,,,,,,,,,,,,,,,,Car,U10
66985,,,,,,,,,,,0.385099642138,,,,,,,,Car,U10
67037,,,,,,75.7474624551,,,,,,,,,,,,,Car,U10
67090,,,6.37422611115,,,,,,,,,,,,,,,,Car,U10
67249,,,,,,76.5236343895,,,,,,,,,,,,,Car,U10
67300,,,5.75875100855,,,,,,,,,,,,,,,,Car,U10
67350,,,11.312689621,,,,,,,,,,,,,,,,Car,U10
67400,,,9.25907314183,,,,,,,,,,,,,,,,Car,U10
67451,,,,,0.227629281948,,,,,,,,,,,,,,Car,U10
67504,,,13.5517360903,,,,,,,,,,,,,,,,Car,U10
67555,,,,,,78.1611913695,,,,,,,,,,,,,Car,U10
67605,,,,,,78.0993706761,,,,,,,,,,,,,Car,U10
67660,,,8.943774343,,,,,,,,,,,,,,,,Car,U10
67708,,,,,,78.4213306442,,,,,,,,,,,,,Car,U10
67761,,,7.22415058401,,,,,,,,,,,,,,,,Car,U10
67811,,,14.3427827388,,,,,,,,,,,,,,,,Car,U10
67863,,,,,,,,,,,0.38102193066,,,,,,,,Car,U10
67914,,,,,,,0.092763057437,,,,,,,,,,,,Car,U10
67970,,,,,,,,,,,,,,,,,,,Car,U10
68021,,,9.23783125583,,,,,,,,,,,,,,,,Car,U10
68072,,,,,,,,,0.627833128783,,,,,,,,,,Car,U10
68125,,,,,,,,,,,0.369657717052,,,,,,,,Car,U10
68181,,,12.2217056918,,,,,,,,,,,,,,,,Car,U10
68231,,,7.28652154111,,,,,,,,,,,,,,,,Car,U10
68285,,,,,,,,,,,0.361856006229,,,,,,,,Car,U10
68337,,,,,,78.8896178213,,,,,,,,,,,,,Car,U10
68390,,,8.29856158979,,,,,,,,,,,,,,,,Car,U10
68540,,,12.7258647524,,,,,,,,,,,,,,,,Car,U10
68590,,,7.98479449954,,,,,,,,,,,,,,,,Car,U10
68641,,,,9.80654842431,,,,,,,,,,,,,,,Car,U10
68692,,,,,,,,,,,0.354011683309,,,,,,,,Car,U10
68743,,,,,,,,,,,0.354164871933,,,,,,,,Car,U10
68797,,,,,,79.4869504398,,,,,,,,,,,,,Car,U10
68850,,,10.4127589965,,,,,,,,,,,,,,,,Car,U10
68902,,,8.7697461523,,,,,,,,,,,,,,,,Car,U10
68953,,,,,,,,,,,0.35673138515,,,,,,,,Car,U10
69004,,,,,,,0.063822993821,,,,,,,,,,,,Car,U10
69055,,,,,,80.1029356495,,,,,,,,,,,,,Car,U10
69109,,,,,,80.1443969757,,,,,,,,,,,,,Car,U10
69161,,,7.74834675225,,,,,,,,,,,,,,,,Car,U10
69213,,,,,,,,,0.640751908695,,,,,,,,,,Car,U10
69268,,,,,,79.7966814173,,,,,,,,,,,,,Car,U10
69319,,,,,,79.4654201509,,,,,,,,,,,,,Car,U10
69372,,,9.31368395902,,,,,,,,,,,,,,,,Car,U10
69474,,,,,,,,265.299425473,,,,,,,,,,,Car,U10
69530,,,8.38881816052,,,,,,,,,,,,,,,,Car,U10
69580,,,10.5410753207,,,,,,,,,,,,,,,,Car,U10
69630,,,9.14282160657,,,,,,,,,,,,,,,,Car,U10
69680,,,9.74964952732,,,,,,,,,,,,,,,,Car,U10
69782,,,,,,,,,0.640628474078,,,,,,,,,,Car,U10
69837,,,,,,79.5931075584,,,,,,,,,,,,,Car,U10
69889,,,,,,79.4744845199,,,,,,,,,,,,,Car,U10
69941,,,8.03297746662,,,,,,,,,,,,,,,,Car,U10
70045,,,,,,,,,,0.0573693202938,,,,,,,,,Car,U10
70101,,,9.9763767336,,,,,,,,,,,,,,,,Car,U10
70203,,,,,,,,,,,0.372281164713,,,,,,,,Car,U10
70253,,,,,,,,264.709023623,,,,,,,,,,,Car,U10
70306,,,,,,,,,,0.0434530894991,,,,,,,,,Car,U10
70358,,,,,,79.7288021985,,,,,,,,,,,,,Car,U10
70411,,,7.9903062438,,,,,,,,,,,,,,,,Car,U10
70515,,,,,,,,,,,,32.5987082758,,,,,,,Car,U10
70565,,,,,,79.4730602132,,,,,,,,,,,,,Car,U10
70620,,,7.04744996234,,,,,,,,,,,,,,,,Car,U10
70670,,,11.6871813844,,,,,,,,,,,,,,,,Car,U10
70770,,,11.5081111707,,,,,,,,,,,,,,,,Car,U10
70820,,,9.51923498833,,,,,,,,,,,,,,,,Car,U10
70870,,,10.4856579906,,,,,,,,,,,,,,,,Car,U10
70922,,,,,,,,,0.637736059189,,,,,,,,,,Car,U10
70973,,,,,,,,,,,0.373522797643,,,,,,,,Car,U10
71023,,,,,,,,,,,0.372500479162,,,,,,,,Car,U10
71075,,,,,,79.3615622976,,,,,,,,,,,,,Car,U10
71125,,,,,,79.358965467,,,,,,,,,,,,,Car,U10
71180,,,9.43872921385,,,,,,,,,,,,,,,,Car,U10
71230,,,10.6894454441,,,,,,,,,,,,,,,,Car,U10
71280,,,8.48383986354,,,,,,,,,,,,,,,,Car,U10
71330,,,11.8976669314,,,,,,,,,,,,,,,,Car,U10
71380,,,9.82497302951,,,,,,,,,,,,,,,,Car,U10
71431,,,10.1674260459,,,,,,,,,,,,,,,,Car,U10
71485,,,11.4589243724,,,,,,,,,,,,,,,,Car,U10
71532,,,,,,,,,,,0.368332820102,,,,,,,,Car,U10
71583,,,,,,,,,,,0.367519033172,,,,,,,,Car,U10
71634,,,,,,81.7883176071,,,,,,,,,,,,,Car,U10
71685,,,,,,81.8893503455,,,,,,,,,,,,,Car,U10
71740,,,8.23911562383,,,,,,,,,,,,,,,,Car,U10
71791,,,8.33151891045,,,,,,,,,,,,,,,,Car,U10
71840,,,8.56521576705,,,,,,,,,,,,,,,,Car,U10
71890,,,9.06035765364,,,,,,,,,,,,,,,,Car,U10
71940,,,10.4257334881,,,,,,,,,,,,,,,,Car,U10
71992,,,,9.8066012614,,,,,,,,,,,,,,,Car,U10
72046,,,,,,,,,,,0.362802643381,,,,,,,,Car,U10
72097,,,,,,81.4281626378,,,,,,,,,,,,,Car,U10
72151,,,10.8268163317,,,,,,,,,,,,,,,,Car,U10
72205,,,,,,,,,,,0.360619549707,,,,,,,,Car,U10
72258,,,,,,81.082033579,,,,,,,,,,,,,Car,U10
72311,,,,,,80.7743292641,,,,,,,,,,,,,Car,U10
72361,,,10.3653657797,,,,,,,,,,,,,,,,Car,U10
72413,,,,,,,,,,,0.36109509019,,,,,,,,Car,U10
72463,,,,,,,,,,,0.358665898635,,,,,,,,Car,U10
72514,,,,,,,0.090910216482,,,,,,,,,,,,Car,U10
72565,,,,,,80.6935625456,,,,,,,,,,,,,Car,U10
72621,,,7.58975104457,,,,,,,,,,,,,,,,Car,U10
72670,,,11.4904202325,,,,,,,,,,,,,,,,Car,U10
72720,,,9.42662839858,,,,,,,,,,,,,,,,Car,U10
72770,,,9.09498172069,,,,,,,,,,,,,,,,Car,U10
72820,,,11.5632085248,,,,,,,,,,,,,,,,Car,U10
72873,,,,,,,,,,,0.356658050204,,,,,,,,Car,U10
72923,,,,,,,,,,,0.356068123257,,,,,,,,Car,U10
72975,,,,,,,,266.841984199,,,,,,,,,,,Car,U10
73029,,,,,,79.8769090539,,,,,,,,,,,,,Car,U10
73081,,,9.43871872537,,,,,,,,,,,,,,,,Car,U10
73132,,,9.05961382823,,,,,,,,,,,,,,,,Car,U10
73185,,,,,,,,,,,0.357591779989,,,,,,,,Car,U10
73241,,,11.4258082197,,,,,,,,,,,,,,,,Car,U10
73291,,,8.307713001,,,,,,,,,,,,,,,,Car,U10
73341,,,,9.80661874603,,,,,,,,,,,,,,,Car,U10
73393,,,,,,,,,,,0.350696953051,,,,,,,,Car,U10
73444,,,,,,,,,,,0.349543865058,,,,,,,,Car,U10
73495,,,,,,80.5769979585,,,,,,,,,,,,,Car,U10
73545,,,,,,80.5924314064,,,,,,,,,,,,,Car,U10
73600,,,8.16337825334,,,,,,,,,,,,,,,,Car,U10
73650,,,11.2332390731,,,,,,,,,,,,,,,,Car,U10
73700,,,10.2414442738,,,,,,,,,,,,,,,,Car,U10
73750,,,11.5564489187,,,,,,,,,,,,,,,,Car,U10
73855,,,,,,,,,,,0.344863082383,,,,,,,,Car,U10
73908,,,,,,80.5673898031,,,,,,,,,,,,,Car,U10
73963,,,9.10847986001,,,,,,,,,,,,,,,,Car,U10
74063,,,,,,,,,,,0.348590840922,,,,,,,,Car,U10
74113,,,,,,,,,,,0.351011974926,,,,,,,,Car,U10
74166,,,,,,,,,,,0.353482864534,,,,,,,,Car,U10
74222,,,8.83637781927,,,,,,,,,,,,,,,,Car,U10
74272,,,8.48759026277,,,,,,,,,,,,,,,,Car,U10
74323,,,,,,,,,,,0.357406302965,,,,,,,,Car,U10
74374,,,,,,,,265.196433682,,,,,,,,,,,Car,U10
74424,,,,,,,,,,0.0338134741578,,,,,,,,,Car,U10
74481,,,7.25457524335,,,,,,,,,,,,,,,,Car,U10
74530,,,6.39070889495,,,,,,,,,,,,,,,,Car,U10
74580,,,10.2548503953,,,,,,,,,,,,,,,,Car,U10
74630,,,14.7329455097,,,,,,,,,,,,,,,,Car,U10
74680,,,12.5093378639,,,,,,,,,,,,,,,,Car,U10
74730,,,11.3898546143,,,,,,,,,,,,,,,,Car,U10
74783,,,,,,,,,,,0.35724424681,,,,,,,,Car,U10
74833,,,,,,83.0249067472,,,,,,,,,,,,,Car,U10
74883,,,,,,,,,,,0.357730162797,,,,,,,,Car,U10
74933,,,,,,,0.057239081975,,,,,,,,,,,,Car,U10
74985,,,,,,83.3080188217,,,,,,,,,,,,,Car,U10
75040,,,9.46661844214,,,,,,,,,,,,,,,,Car,U10
75090,,,13.6049493597,,,,,,,,,,,,,,,,Car,U10
75141,,,13.8586518775,,,,,,,,,,,,,,,,Car,U10
75191,,,11.5658132751,,,,,,,,,,,,,,,,Car,U10
75294,,,,,,,,265.487192193,,,,,,,,,,,Car,U10
75354,,,,,,83.3655158197,,,,,,,,,,,,,Car,U10
75401,,,14.2696148601,,,,,,,,,,,,,,,,Car,U10
75454,,,,,,,,,,,0.35834829743,,,,,,,,Car,U10
75504,,,11.4502974573,,,,,,,,,,,,,,,,Car,U10
75560,,,10.2859810946,,,,,,,,,,,,,,,,Car,U10
75606,,,,,,83.0776732943,,,,,,,,,,,,,Car,U10
75660,,,15.4781264784,,,,,,,,,,,,,,,,Car,U10
75711,,,12.346929505,,,,,,,,,,,,,,,,Car,U10
75760,,,9.99450263916,,,,,,,,,,,,,,,,Car,U10
75811,,,6.35164713892,,,,,,,,,,,,,,,,Car,U10
75915,,,,,,,,,,,0.357782366775,,,,,,,,Car,U10
75968,,,,,,82.6574381482,,,,,,,,,,,,,Car,U10
76021,,,6.35278054709,,,,,,,,,,,,,,,,Car,U10
76128,,,,,,,,265.305609451,,,,,,,,,,,Car,U10
76180,,,10.1914053294,,,,,,,,,,,,,,,,Car,U10
76230,,,7.66140343141,,,,,,,,,,,,,,,,Car,U10
76281,,,,,3.5261416435,,,,,,,,,,,,,,Car,U10
76334,,,,,,,,,,,0.359354829659,,,,,,,,Car,U10
76388,,,,,,80.9960573115,,,,,,,,,,,,,Car,U10
76543,,,,,,,,,,,0.363043991847,,,,,,,,Car,U10
76595,,,,,,79.8903935295,,,,,,,,,,,,,Car,U10
76646,,,,,,79.8735812215,,,,,,,,,,,,,Car,U10
76750,,,6.62677651776,,,,,,,,,,,,,,,,Car,U10
76853,,,,,,,,,,,0.369403743401,,,,,,,,Car,U10
76905,,,,,,,,,,,0.370413412704,,,,,,,,Car,U10
76960,,,6.79618016128,,,,,,,,,,,,,,,,Car,U10
77011,,,11.0794470106,,,,,,,,,,,,,,,,Car,U10
77065,,,,,,,,,,,0.372318558462,,,,,,,,Car,U10
77117,,,,,,79.4385006859,,,,,,,,,,,,,Car,U10
77168,,,,,,79.2873129826,,,,,,,,,,,,,Car,U10
77278,,,,,,,,,,,,31.6899653873,,,,,,,Car,U10
77330,,,15.3835892005,,,,,,,,,,,,,,,,Car,U10
77380,,,10.9382772035,,,,,,,,,,,,,,,,Car,U10
77483,,,,,,,,,,,,,,,,8.44756,,,Car,U10
77534,,,,,,80.2992739693,,,,,,,,,,,,,Car,U10
77585,,,,,,79.770513976,,,,,,,,,,,,,Car,U10
77640,,,5.59173995097,,,,,,,,,,,,,,,,Car,U10
77690,,,6.98585882658,,,,,,,,,,,,,,,,Car,U10
77740,,,13.5548765182,,,,,,,,,,,,,,,,Car,U10
77790,,,13.6250391394,,,,,,,,,,,,,,,,Car,U10
77842,,,,,,,,,0.635026928484,,,,,,,,,,Car,U10
77894,,,,,,,0.0537700212935,,,,,,,,,,,,Car,U10
77949,,,,,,78.8930072947,,,,,,,,,,,,,Car,U10
78000,,,16.8826495599,,,,,,,,,,,,,,,,Car,U10
78050,,,14.9647285014,,,,,,,,,,,,,,,,Car,U10
78101,,,,,,,,,0.634972183466,,,,,,,,,,Car,U10
78155,,,,,,,,,,,0.38098795729,,,,,,,,Car,U10
78209,,,,,,79.7643711189,,,,,,,,,,,,,Car,U10
78261,,,5.66501912823,,,,,,,,,,,,,,,,Car,U10
78312,,,,,5.0749420125,,,,,,,,,,,,,,Car,U10
78366,,,,,,,,,,,0.383576754925,,,,,,,,Car,U10
78418,,,,,,80.4942149325,,,,,,,,,,,,,Car,U10
78470,,,,,,,,,,,,,,,,,,,Car,U10
78521,,,,,,,,,0.65052481488,,,,,,,,,,Car,U10
78573,,,,,,,,,,,0.382005620901,,,,,,,,Car,U10
78623,,,,,,,,,,,0.382518095384,,,,,,,,Car,U10
78675,,,,,,81.0510265184,,,,,,,,,,,,,Car,U10
78726,,,,,,81.1512082553,,,,,,,,,,,,,Car,U10
78781,,,7.79576786495,,,,,,,,,,,,,,,,Car,U10
78834,,,,,,80.943462985,,,,,,,,,,,,,Car,U10
78885,,,,,,,,,,,0.384319866778,,,,,,,,Car,U10
78937,,,,,,80.7540170619,,,,,,,,,,,,,Car,U10
78991,,,6.64918736095,,,,,,,,,,,,,,,,Car,U10
79042,,,,,,,,,0.646394942733,,,,,,,,,,Car,U10
79097,,,,,,,0.177974731861,,,,,,,,,,,,Car,U10
79150,,,8.02346695515,,,,,,,,,,,,,,,,Car,U10
79200,,,7.78652131004,,,,,,,,,,,,,,,,Car,U10
79251,,,9.21637710881,,,,,,,,,,,,,,,,Car,U10
79302,,,,,,,,,0.630627085213,,,,,,,,,,Car,U10
79357,,,,,,76.7020312018,,,,,,,,,,,,,Car,U10
79408,,,,,,76.0477304066,,,,,,,,,,,,,Car,U10
79462,,,14.4659147432,,,,,,,,,,,,,,,,Car,U10
79511,,,12.0113658574,,,,,,,,,,,,,,,,Car,U10
79563,,,,,,,,,,,0.426242368986,,,,,,,,Car,U10
79615,,,,,,73.2823341604,,,,,,,,,,,,,Car,U10
79665,,,,,,72.7022581404,,,,,,,,,,,,,Car,U10
79720,,,7.36324438198,,,,,,,,,,,,,,,,Car,U10
79770,,,11.1550115735,,,,,,,,,,,,,,,,Car,U10
79820,,,13.1034522414,,,,,,,,,,,,,,,,Car,U10
79870,,,12.0007662216,,,,,,,,,,,,,,,,Car,U10
79920,,,7.5413934377,,,,,,,,,,,,,,,,Car,U10
79971,,,7.38861049044,,,,,,,,,,,,,,,,Car,U10
80025,,,,,,,,,,,0.484431853576,,,,,,,,Car,U10
80077,,,,,,66.7360149606,,,,,,,,,,,,,Car,U10
80130,,,9.07478120368,,,,,,,,,,,,,,,,Car,U10
80185,,,,,,,,,,,0.507404496172,,,,,,,,Car,U10
80235,,,,,,64.8758647554,,,,,,,,,,,,,Car,U10
80285,,,,,,64.1563504261,,,,,,,,,,,,,Car,U10
80340,,,8.33222895781,,,,,,,,,,,,,,,,Car,U10
80388,,,,,,62.0275433563,,,,,,,,,,,,,Car,U10
80441,,,7.85314466112,,,,,,,,,,,,,,,,Car,U10
80494,,,8.57562813557,,,,,,,,,,,,,,,,Car,U10
80545,,,,,,58.2475518799,,,,,,,,,,,,,Car,U10
80600,,,10.421194644,,,,,,,,,,,,,,,,Car,U10
80650,,,8.33036341683,,,,,,,,,,,,,,,,Car,U10
80700,,,7.76978898804,,,,,,,,,,,,,,,,Car,U10
80750,,,7.90054648784,,,,,,,,,,,,,,,,Car,U10
80852,,,,,,,,,,,0.615625358283,,,,,,,,Car,U10
80904,,,,,,,,,,,0.623306030386,,,,,,,,Car,U10
80956,,,,,,,0.549937537542,,,,,,,,,,,,Car,U10
81011,,,9.69224894346,,,,,,,,,,,,,,,,Car,U10
81114,,,,,,,,,,,0.657658729239,,,,,,,,Car,U10
81168,,,,,,43.4668804954,,,,,,,,,,,,,Car,U10
81221,,,11.0861041688,,,,,,,,,,,,,,,,Car,U10
81326,,,,,,,,,,,0.686059963105,,,,,,,,Car,U10
81381,,,8.0591260379,,,,,,,,,,,,,,,,Car,U10
81431,,,12.3162651194,,,,,,,,,,,,,,,,Car,U10
81484,,,12.8714632106,,,,,,,,,,,,,,,,Car,U10
81583,,,,,,,,,,,0.702192645811,,,,,,,,Car,U10
81633,,,,,,,,,,,,31.8830872094,,,,,,,Car,U10
81686,,,,,,48.8160309761,,,,,,,,,,,,,Car,U10
81741,,,6.89087033694,,,,,,,,,,,,,,,,Car,U10
81791,,,14.074199241,,,,,,,,,,,,,,,,Car,U10
81895,,,,,,47.476647944,,,,,,,,,,,,,Car,U10
81945,,,,,,47.2494804204,,,,,,,,,,,,,Car,U10
82000,,,10.7714770804,,,,,,,,,,,,,,,,Car,U10
82051,,,11.3020520078,,,,,,,,,,,,,,,,Car,U10
82151,,,10.3108459383,,,,,,,,,,,,,,,,Car,U10
82153,,,,,,,,,0.40273641522,,,,,,,,,,Car,U10
82205,,,,,,,,,,,0.713160289135,,,,,,,,Car,U10
82258,,,,,,46.7458778931,,,,,,,,,,,,,Car,U10
82310,,,8.7306454959,,,,,,,,,,,,,,,,Car,U10
82365,,,,,,,,,,,0.713119002798,,,,,,,,Car,U10
82418,,,,,,46.6276602412,,,,,,,,,,,,,Car,U10
82469,,,,,,,,,,,,,,,,,,,Car,U10
82521,,,10.5391309179,,,,,,,,,,,,,,,,Car,U10
82570,,,9.99536542899,,,,,,,,,,,,,,,,Car,U10
82620,,,10.3643615117,,,,,,,,,,,,,,,,Car,U10
82670,,,9.38770866632,,,,,,,,,,,,,,,,Car,U10
82773,,,,,,,,,,,0.712433135389,,,,,,,,Car,U10
82823,,,,,,,,,,,0.712581837461,,,,,,,,Car,U10
82873,,,,,,,,273.978935379,,,,,,,,,,,Car,U10
82925,,,,,,52.8124237241,,,,,,,,,,,,,Car,U10
82980,,,9.86954014847,,,,,,,,,,,,,,,,Car,U10
83030,,,10.979953689,,,,,,,,,,,,,,,,Car,U10
83080,,,8.88916043355,,,,,,,,,,,,,,,,Car,U10
83130,,,9.02687096334,,,,,,,,,,,,,,,,Car,U10
83237,,,,,,56.1498707604,,,,,,,,,,,,,Car,U10
83289,,,,,,56.1415879718,,,,,,,,,,,,,Car,U10
83341,,,8.1937069002,,,,,,,,,,,,,,,,Car,U10
83446,,,,,,,,,,,0.713576812313,,,,,,,,Car,U10
83501,,,7.55662855004,,,,,,,,,,,,,,,,Car,U10
83551,,,9.81927289293,,,,,,,,,,,,,,,,Car,U10
83653,,,,,,,,,,,0.712437075329,,,,,,,,Car,U10
83703,,,,,,,,,,,0.712398659021,,,,,,,,Car,U10
83755,,,,,,56.1665299536,,,,,,,,,,,,,Car,U10
83806,,,,,,,,,,0.0486549471477,,,,,,,,,Car,U10
83861,,,13.7975733308,,,,,,,,,,,,,,,,Car,U10
83911,,,10.4530352929,,,,,,,,,,,,,,,,Car,U10
83966,,,,,,,,,,,0.711405271611,,,,,,,,Car,U10
84018,,,,,,55.8793749663,,,,,,,,,,,,,Car,U10
84071,,,9.86174023892,,,,,,,,,,,,,,,,Car,U10
84122,,,10.4897641948,,,,,,,,,,,,,,,,Car,U10
84172,,,,,,,,,,,0.71081798136,,,,,,,,Car,U10
84224,,,,,,,,,,,0.710874380069,,,,,,,,Car,U10
84277,,,,,,55.7290103984,,,,,,,,,,,,,Car,U10
84329,,,,,,55.6568475643,,,,,,,,,,,,,Car,U10
84382,,,10.9405662748,,,,,,,,,,,,,,,,Car,U10
84435,,,,,,,,,,0.0193558505934,,,,,,,,,Car,U10
84497,,,,,,57.7262895049,,,,,,,,,,,,,Car,U10
84540,,,12.4322628631,,,,,,,,,,,,,,,,Car,U10
84590,,,11.2530823717,,,,,,,,,,,,,,,,Car,U10
84640,,,10.6359402276,,,,,,,,,,,,,,,,Car,U10
84743,,,,,,,,,,,0.709004455828,,,,,,,,Car,U10
84793,,,,,,,,,,,0.708596417578,,,,,,,,Car,U10
84846,,,,,,58.1683719903,,,,,,,,,,,,,Car,U10
84900,,,,,,,,,,,,,,,,,,,Car,U10
84951,,,10.7982432718,,,,,,,,,,,,,,,,Car,U10
85005,,,,,,,,,,,0.708017388187,,,,,,,,Car,U10
85058,,,,,,58.2812901023,,,,,,,,,,,,,Car,U10
85108,,,,,,58.2971454512,,,,,,,,,,,,,Car,U10
85161,,,9.73598236722,,,,,,,,,,,,,,,,Car,U10
85216,,,,,,,,,,,0.707268525367,,,,,,,,Car,U10
85270,,,10.1544955831,,,,,,,,,,,,,,,,Car,U10
85321,,,8.5112166915,,,,,,,,,,,,,,,,Car,U10
85428,,,,,,,,,,,0.705836283691,,,,,,,,Car,U10
85477,,,,,,58.5081546564,,,,,,,,,,,,,Car,U10
85530,,,10.2785728909,,,,,,,,,,,,,,,,Car,U10
85580,,,9.79491979905,,,,,,,,,,,,,,,,Car,U10
85630,,,9.41630997707,,,,,,,,,,,,,,,,Car,U10
85680,,,9.5019152104,,,,,,,,,,,,,,,,Car,U10
85730,,,10.9341221289,,,,,,,,,,,,,,,,Car,U10
85781,,,,,1.57936489997,,,,,,,,,,,,,,Car,U10
85833,,,,,,,,,,,0.705034507007,,,,,,,,Car,U10
85884,,,,,,,,,,,0.705037524604,,,,,,,,Car,U10
85938,,,,,,60.1665363803,,,,,,,,,,,,,Car,U10
85991,,,8.54881124259,,,,,,,,,,,,,,,,Car,U10
86047,,,,,,,,,,,0.7033497051,,,,,,,,Car,U10
86094,,,,,,,,,,,,29.4776133277,,,,,,,Car,U10
86150,,,11.1013241186,,,,,,,,,,,,,,,,Car,U10
86200,,,10.1109854779,,,,,,,,,,,,,,,,Car,U10
86251,,,10.1416577306,,,,,,,,,,,,,,,,Car,U10
86302,,,8.40374994883,,,,,,,,,,,,,,,,Car,U10
86352,,,,,,,,,,,0.703271876133,,,,,,,,Car,U10
86404,,,,,,,,,,0.0657695112249,,,,,,,,,Car,U10
86509,,,11.0360433651,,,,,,,,,,,,,,,,Car,U10
86610,,,9.74767046567,,,,,,,,,,,,,,,,Car,U10
86660,,,9.84861319637,,,,,,,,,,,,,,,,Car,U10
86813,,,,,,,,,,,0.703145494108,,,,,,,,Car,U10
86864,,,,,,59.7301142868,,,,,,,,,,,,,Car,U10
86914,,,,,,59.6690883116,,,,,,,,,,,,,Car,U10
87170,,,9.3642461911,,,,,,,,,,,,,,,,Car,U10
87222,,,,9.80657852362,,,,,,,,,,,,,,,Car,U10
87274,,,,,,,,,,,0.702866283383,,,,,,,,Car,U10
87328,,,,,,59.5681869793,,,,,,,,,,,,,Car,U10
87381,,,10.1986117604,,,,,,,,,,,,,,,,Car,U10
87433,,,10.0703251996,,,,,,,,,,,,,,,,Car,U10
87485,,,,,,,,,,,0.70295735445,,,,,,,,Car,U10
87540,,,9.15337288966,,,,,,,,,,,,,,,,Car,U10
87590,,,11.337418811,,,,,,,,,,,,,,,,Car,U10
87640,,,8.30119674403,,,,,,,,,,,,,,,,Car,U10
87690,,,8.82826808868,,,,,,,,,,,,,,,,Car,U10
87740,,,9.82511814138,,,,,,,,,,,,,,,,Car,U10
87791,,,10.7910253041,,,,,,,,,,,,,,,,Car,U10
87845,,,,,,,,,,,0.70208007976,,,,,,,,Car,U10
87897,,,,,,59.570827592,,,,,,,,,,,,,Car,U10
87951,,,10.6531079074,,,,,,,,,,,,,,,,Car,U10
88002,,,11.5657580466,,,,,,,,,,,,,,,,Car,U10
88053,,,,,,,,,,,0.702804544174,,,,,,,,Car,U10
88104,,,,,,,,,,,,32.7524450423,,,,,,,Car,U10
88157,,,,,,59.6106464374,,,,,,,,,,,,,Car,U10
88209,,,,,,59.5276840527,,,,,,,,,,,,,Car,U10
88315,,,,,,,,,,,0.70296241327,,,,,,,,Car,U10
88368,,,,,,59.5096594569,,,,,,,,,,,,,Car,U10
88422,,,10.6131279612,,,,,,,,,,,,,,,,Car,U10
88473,,,9.71317741083,,,,,,,,,,,,,,,,Car,U10
88523,,,,,,,,,,,0.702662807092,,,,,,,,Car,U10
88575,,,,,,59.3585534591,,,,,,,,,,,,,Car,U10
88625,,,,,,59.51752045,,,,,,,,,,,,,Car,U10
88680,,,9.70203343259,,,,,,,,,,,,,,,,Car,U10
88730,,,9.53940335775,,,,,,,,,,,,,,,,Car,U10
88780,,,9.92551419252,,,,,,,,,,,,,,,,Car,U10
88831,,,12.9215430892,,,,,,,,,,,,,,,,Car,U10
88885,,,,,,,,,,,0.700636898597,,,,,,,,Car,U10
88937,,,,,,59.3616203687,,,,,,,,,,,,,Car,U10
88988,,,,,,59.3591450406,,,,,,,,,,,,,Car,U10
89042,,,4.16276157942,,,,,,,,,,,,,,,,Car,U10
89095,,,,,,,,,,,0.69917660673,,,,,,,,Car,U10
89145,,,,,,,0.174159817977,,,,,,,,,,,,Car,U10
89200,,,14.2882617947,,,,,,,,,,,,,,,,Car,U10
89250,,,10.526980951,,,,,,,,,,,,,,,,Car,U10
89300,,,12.3660043775,,,,,,,,,,,,,,,,Car,U10
89350,,,9.21889411997,,,,,,,,,,,,,,,,Car,U10
89399,,,,,,,,,,,,,,,,,,,Car,U10
89450,,,9.09551688481,,,,,,,,,,,,,,,,Car,U10
89501,,,10.5724729013,,,,,,,,,,,,,,,,Car,U10
89553,,,,,,,,,,,0.696281309988,,,,,,,,Car,U10
89603,,,,,,,,,,,0.696800487783,,,,,,,,Car,U10
89655,,,,,,60.5379934462,,,,,,,,,,,,,Car,U10
89705,,,,,,60.4958882899,,,,,,,,,,,,,Car,U10
89760,,,8.69976902987,,,,,,,,,,,,,,,,Car,U10
89807,,,,,,60.5283586429,,,,,,,,,,,,,Car,U10
89861,,,11.8547332771,,,,,,,,,,,,,,,,Car,U10
89911,,,11.2595473706,,,,,,,,,,,,,,,,Car,U10
89965,,,,,,,,,,,0.696430753646,,,,,,,,Car,U10
90017,,,,,,61.2086832075,,,,,,,,,,,,,Car,U10
90071,,,9.69599073037,,,,,,,,,,,,,,,,Car,U10
90174,,,,,,,,,,,,32.6603017821,,,,,,,Car,U10
90231,,,10.0260795708,,,,,,,,,,,,,,,,Car,U10
90332,,,,,2.111192988,,,,,,,,,,,,,,Car,U10
90384,,,,,,,,,,,0.695963664332,,,,,,,,Car,U10
90434,,,,,,59.9840928914,,,,,,,,,,,,,Car,U10
90485,,,,,,59.7954387887,,,,,,,,,,,,,Car,U10
90540,,,10.7335626016,,,,,,,,,,,,,,,,Car,U10
90590,,,12.3015034369,,,,,,,,,,,,,,,,Car,U10
90641,,,7.06569777199,,,,,,,,,,,,,,,,Car,U10
90691,,,10.7266308507,,,,,,,,,,,,,,,,Car,U10
90795,,,,,,,,,,,0.697091680969,,,,,,,,Car,U10
90950,,,13.0414375913,,,,,,,,,,,,,,,,Car,U10
91000,,,7.89587218904,,,,,,,,,,,,,,,,Car,U10
91052,,,7.24775137642,,,,,,,,,,,,,,,,Car,U10
91105,,,,,,,,,,,0.697693895046,,,,,,,,Car,U10
91161,,,8.79625381323,,,,,,,,,,,,,,,,Car,U10
91211,,,10.1597956194,,,,,,,,,,,,,,,,Car,U10
91265,,,,,,,,,,,0.697001158607,,,,,,,,Car,U10
91318,,,,,,61.5434792437,,,,,,,,,,,,,Car,U10
91370,,,,,,,,,,,0.696758281159,,,,,,,,Car,U10
91421,,,,,,,,,0.511397975811,,,,,,,,,,Car,U10
91523,,,,,,,,,,,0.697041279293,,,,,,,,Car,U10
91574,,,,,,61.2299746856,,,,,,,,,,,,,Car,U10
91625,,,,,,60.7213209725,,,,,,,,,,,,,Car,U10
91680,,,7.9391903618,,,,,,,,,,,,,,,,Car,U10
91731,,,11.9382260922,,,,,,,,,,,,,,,,Car,U10
91780,,,7.42195758116,,,,,,,,,,,,,,,,Car,U10
91830,,,10.751056737,,,,,,,,,,,,,,,,Car,U10
91880,,,7.9318972135,,,,,,,,,,,,,,,,Car,U10
91934,,,,,,,,,,,0.698544106346,,,,,,,,Car,U10
91984,,,,,,,,272.888083745,,,,,,,,,,,Car,U10
92035,,,,,,58.8621066562,,,,,,,,,,,,,Car,U10
92088,,,,,,58.9193878821,,,,,,,,,,,,,Car,U10
92141,,,9.19202350524,,,,,,,,,,,,,,,,Car,U10
92194,,,,,,,,,,,0.699958008843,,,,,,,,Car,U10
92246,,,,,,,,276.078007828,,,,,,,,,,,Car,U10
92301,,,13.101540644,,,,,,,,,,,,,,,,Car,U10
92350,,,8.97097392903,,,,,,,,,,,,,,,,Car,U10
92505,,,,,,,,,,,0.698843097108,,,,,,,,Car,U10
92560,,,13.0813745509,,,,,,,,,,,,,,,,Car,U10
92610,,,6.74755178821,,,,,,,,,,,,,,,,Car,U10
92660,,,6.73922836182,,,,,,,,,,,,,,,,Car,U10
92710,,,12.0547657635,,,,,,,,,,,,,,,,Car,U10
92760,,,13.9355176312,,,,,,,,,,,,,,,,Car,U10
92810,,,11.0376053771,,,,,,,,,,,,,,,,Car,U10
92860,,,7.97270747715,,,,,,,,,,,,,,,,Car,U10
92965,,,,,,,,,,,0.695598230474,,,,,,,,Car,U10
93018,,,,,,57.0839688316,,,,,,,,,,,,,Car,U10
93070,,,12.4209883445,,,,,,,,,,,,,,,,Car,U10
93120,,,10.7064463801,,,,,,,,,,,,,,,,Car,U10
93171,,,7.63348998676,,,,,,,,,,,,,,,,Car,U10
93226,,,,,,,,,,,0.693557783605,,,,,,,,Car,U10
93275,,,,,,,,,,0.0724023521572,,,,,,,,,Car,U10
93329,,,,,,58.0574982237,,,,,,,,,,,,,Car,U10
93381,,,6.17624574771,,,,,,,,,,,,,,,,Car,U10
93434,,,5.7760215646,,,,,,,,,,,,,,,,Car,U10
93487,,,,,,,,,,,0.692489451772,,,,,,,,Car,U10
93540,,,7.48838952169,,,,,,,,,,,,,,,,Car,U10
93590,,,12.6098182909,,,,,,,,,,,,,,,,Car,U10
93640,,,11.7794333571,,,,,,,,,,,,,,,,Car,U10
93690,,,6.83080157442,,,,,,,,,,,,,,,,Car,U10
93741,,,,,,,,,0.492661558434,,,,,,,,,,Car,U10
93793,,,,,,,,,,,0.69026149132,,,,,,,,Car,U10
93844,,,,,,,,,,0.0200378696635,,,,,,,,,Car,U10
93897,,,,,,59.6364787693,,,,,,,,,,,,,Car,U10
93950,,,9.72851777699,,,,,,,,,,,,,,,,Car,U10
94004,,,,,,,,,,,0.689223292264,,,,,,,,Car,U10
94054,,,,,,,,,,,0.689002461475,,,,,,,,Car,U10
94107,,,,,,,,272.557720378,,,,,,,,,,,Car,U10
94162,,,7.1497387903,,,,,,,,,,,,,,,,Car,U10
94213,,,,,,,,,,,0.688208461755,,,,,,,,Car,U10
94264,,,,,,,,,,,0.687783399406,,,,,,,,Car,U10
94317,,,,,,,,274.050897702,,,,,,,,,,,Car,U10
94370,,,12.3332205905,,,,,,,,,,,,,,,,Car,U10
94426,,,8.30121883871,,,,,,,,,,,,,,,,Car,U10
94471,,,,9.80656892241,,,,,,,,,,,,,,,Car,U10
94523,,,,,,,0.0672839710057,,,,,,,,,,,,Car,U10
94574,,,,,,60.1289855228,,,,,,,,,,,,,Car,U10
94626,,,,,,60.199742873,,,,,,,,,,,,,Car,U10
94681,,,9.1520505528,,,,,,,,,,,,,,,,Car,U10
94730,,,11.3520470629,,,,,,,,,,,,,,,,Car,U10
94780,,,8.39069266971,,,,,,,,,,,,,,,,Car,U10
94833,,,,,,,,273.79202731,,,,,,,,,,,Car,U10
94885,,,,,,,,,,,0.682952271854,,,,,,,,Car,U10
94934,,,,,,,,273.638047884,,,,,,,,,,,Car,U10
