time,activityrecognition#0,activityrecognition#1,android.sensor.accelerometer#0,android.sensor.gravity#0,android.sensor.linear_acceleration#0,android.sensor.orientation#0,android.sensor.gyroscope_uncalibrated#0,android.sensor.magnetic_field_uncalibrated#0,android.sensor.rotation_vector#0,android.sensor.gyroscope#0,android.sensor.game_rotation_vector#0,android.sensor.magnetic_field#0,android.sensor.pressure#0,android.sensor.light#0,sound#0,speed#0,android.sensor.proximity#0,android.sensor.step_counter#0,target,user
6,,,,,,,,,,,,,,476.0,,,,,Car,U10
33,,,9.83855541552,,,,,,,,,,,,,,,,Car,U10
56,,,9.72216193128,,,,,,,,,,,,,,,,Car,U10
106,,,9.99833774099,,,,,,,,,,,,,,,,Car,U10
156,,,9.58287159314,,,,,,,,,,,,,,,,Car,U10
206,,,9.4244876842,,,,,,,,,,,,,,,,Car,U10
261,,,9.40009817068,,,,,,,,,,,,,,,,Car,U10
309,,,,,,74.3040520007,,,,,,,,,,,,,Car,U10
361,,,9.45657670749,,,,,,,,,,,,,,,,Car,U10
410,,,9.67227614609,,,,,,,,,,,,,,,,Car,U10
461,,,9.7636615142,,,,,,,,,,,,,,,,Car,U10
511,,,,,,,,,0.622245704136,,,,,,,,,,Car,U10
563,,,,,,,,,,,0.612370389518,,,,,,,,Car,U10
664,,,,,,,,,,,,38.2157730852,,,,,,,Car,U10
715,,,,,,76.0544126775,,,,,,,,,,,,,Car,U10
770,,,10.457723717,,,,,,,,,,,,,,,,Car,U10
820,,,10.528726653,,,,,,,,,,,,,,,,Car,U10
870,,,10.3062906949,,,,,,,,,,,,,,,,Car,U10
922,,,10.3924065033,,,,,,,,,,,,,,,,Car,U10
970,,,,,,,,,,,,,,,,,,,Car,U10
1020,,,10.3452605765,,,,,,,,,,,,,,,,Car,U10
1070,,,8.43310035427,,,,,,,,,,,,,,,,Car,U10
1120,,,9.20448723185,,,,,,,,,,,,,,,,Car,U10
1171,,,,,,,,,0.683345692004,,,,,,,,,,Car,U10
1224,,,,,,,,,,,0.554266893364,,,,,,,,Car,U10
1277,,,,,,97.1235295899,,,,,,,,,,,,,Car,U10
1328,,,,,,101.131534761,,,,,,,,,,,,,Car,U10
1385,,,,,,,,,,,0.530362453006,,,,,,,,Car,U10
1437,,,,,,107.77142167,,,,,,,,,,,,,Car,U10
1490,,,8.96508263749,,,,,,,,,,,,,,,,Car,U10
1540,,,11.0679265401,,,,,,,,,,,,,,,,Car,U10
1590,,,11.1074158262,,,,,,,,,,,,,,,,Car,U10
1640,,,11.9046867786,,,,,,,,,,,,,,,,Car,U10
1690,,,9.37479886864,,,,,,,,,,,,,,,,Car,U10
1740,,,7.72680371489,,,,,,,,,,,,,,,,Car,U10
1793,,,,,,,,,,,0.446749676798,,,,,,,,Car,U10
1846,,,,,,,,,,,0.517263818302,,,,,,,,Car,U10
1899,,,,,,,,,,,,,,,,,,,Car,U10
1950,,,10.9418864342,,,,,,,,,,,,,,,,Car,U10
2008,,,,,,,1.61171079851,,,,,,,,,,,,Car,U10
2060,,,13.129892261,,,,,,,,,,,,,,,,Car,U10
2110,,,10.7899721451,,,,,,,,,,,,,,,,Car,U10
2217,,,,,,94.023396047,,,,,,,,,,,,,Car,U10
2268,,,,,,91.8686594751,,,,,,,,,,,,,Car,U10
2320,,,8.9639369569,,,,,,,,,,,,,,,,Car,U10
2373,,,,,,,,,,,0.616236700691,,,,,,,,Car,U10
2426,,,,,,,,,,5.16042691432,,,,,,,,,Car,U10
2481,,,10.7288622186,,,,,,,,,,,,,,,,Car,U10
2530,,,27.7063506133,,,,,,,,,,,,,,,,Car,U10
2631,,,,,,,,,0.513549448836,,,,,,,,,,Car,U10
2690,,,10.5509684366,,,,,,,,,,,,,,,,Car,U10
2741,,,8.27635585651,,,,,,,,,,,,,,,,Car,U10
2790,,,12.2040462311,,,,,,,,,,,,,,,,Car,U10
2894,,,,,,,,301.150696807,,,,,,,,,,,Car,U10
2947,,,,,,,,302.194615997,,,,,,,,,,,Car,U10
3001,,,8.48302883873,,,,,,,,,,,,,,,,Car,U10
3054,,,,,,,,,,0.182054235239,,,,,,,,,Car,U10
3105,,,,,,63.4416765448,,,,,,,,,,,,,Car,U10
3160,,,8.61834973221,,,,,,,,,,,,,,,,Car,U10
3211,,,9.48200590134,,,,,,,,,,,,,,,,Car,U10
3317,,,,,,44.2560526934,,,,,,,,,,,,,Car,U10
3374,,,,9.80660226071,,,,,,,,,,,,,,,Car,U10
3426,,,,,,,0.0675717455659,,,,,,,,,,,,Car,U10
3481,,,8.91059980444,,,,,,,,,,,,,,,,Car,U10
3530,,,8.87090494614,,,,,,,,,,,,,,,,Car,U10
3583,,,,,,,,,,,0.591636288589,,,,,,,,Car,U10
3632,,,,,,,,,,,0.591584503643,,,,,,,,Car,U10
3683,,,,,,,0.143655974228,,,,,,,,,,,,Car,U10
3734,,,,,,32.218133093,,,,,,,,,,,,,Car,U10
3790,,,10.4060228044,,,,,,,,,,,,,,,,Car,U10
3840,,,11.3561060214,,,,,,,,,,,,,,,,Car,U10
3891,,,10.4681899632,,,,,,,,,,,,,,,,Car,U10
3940,,,7.81122883001,,,,,,,,,,,,,,,,Car,U10
3995,,,7.65537963023,,,,,,,,,,,,,,,,Car,U10
4045,,,,,,28.0578896327,,,,,,,,,,,,,Car,U10
4100,,,8.25798986249,,,,,,,,,,,,,,,,Car,U10
4150,,,7.6943786187,,,,,,,,,,,,,,,,Car,U10
4200,,,11.210497688,,,,,,,,,,,,,,,,Car,U10
4250,,,12.0050043861,,,,,,,,,,,,,,,,Car,U10
4300,,,9.81970660158,,,,,,,,,,,,,,,,Car,U10
4405,,,,,,,,,,,0.588987697525,,,,,,,,Car,U10
4457,,,,,,26.0125513578,,,,,,,,,,,,,Car,U10
4510,,,8.90035779651,,,,,,,,,,,,,,,,Car,U10
4560,,,7.31108112237,,,,,,,,,,,,,,,,Car,U10
4610,,,9.98804467757,,,,,,,,,,,,,,,,Car,U10
4660,,,11.8374678613,,,,,,,,,,,,,,,,Car,U10
4818,,,,,,23.8498218023,,,,,,,,,,,,,Car,U10
4865,,,,,,,,,,,0.588592333538,,,,,,,,Car,U10
4921,,,7.4349953324,,,,,,,,,,,,,,,,Car,U10
4974,,,,,,,,,,,0.588703570737,,,,,,,,Car,U10
5026,,,,,,,,,,,0.588317535945,,,,,,,,Car,U10
5081,,,7.9825142805,,,,,,,,,,,,,,,,Car,U10
5130,,,9.50256133551,,,,,,,,,,,,,,,,Car,U10
5232,,,,,,,,,,,0.588185563342,,,,,,,,Car,U10
5283,,,,,,,,,,,0.588237807911,,,,,,,,Car,U10
5335,,,,,,21.7229043252,,,,,,,,,,,,,Car,U10
5388,,,,,,21.552554373,,,,,,,,,,,,,Car,U10
5441,,,8.33726862133,,,,,,,,,,,,,,,,Car,U10
5495,,,8.91804915852,,,,,,,,,,,,,,,,Car,U10
5543,,,,,,,,,,,0.587664103868,,,,,,,,Car,U10
5593,,,,,,,0.0771240062788,,,,,,,,,,,,Car,U10
5643,,,,,,,,308.826293711,,,,,,,,,,,Car,U10
5695,,,,,,20.7546470131,,,,,,,,,,,,,Car,U10
5750,,,8.02974021478,,,,,,,,,,,,,,,,Car,U10
5800,,,7.78316917408,,,,,,,,,,,,,,,,Car,U10
5850,,,11.315571448,,,,,,,,,,,,,,,,Car,U10
5902,,,,9.8065667247,,,,,,,,,,,,,,,Car,U10
5957,,,,,,20.2813165253,,,,,,,,,,,,,Car,U10
6008,,,,,,20.1098930877,,,,,,,,,,,,,Car,U10
6060,,,10.3211766333,,,,,,,,,,,,,,,,Car,U10
6114,,,,,,,,,,,0.587507114884,,,,,,,,Car,U10
6168,,,,,,20.2081907132,,,,,,,,,,,,,Car,U10
6221,,,7.74902173513,,,,,,,,,,,,,,,,Car,U10
6270,,,8.37488330943,,,,,,,,,,,,,,,,Car,U10
6320,,,11.567537922,,,,,,,,,,,,,,,,Car,U10
6425,,,,,,,,,,,0.588255679424,,,,,,,,Car,U10
6477,,,,,,20.2618871707,,,,,,,,,,,,,Car,U10
6530,,,8.80120541938,,,,,,,,,,,,,,,,Car,U10
6580,,,9.06197730926,,,,,,,,,,,,,,,,Car,U10
6683,,,,,,,,,,,0.587895339351,,,,,,,,Car,U10
6736,,,,,,19.2709775175,,,,,,,,,,,,,Car,U10
6788,,,,,,19.0222523832,,,,,,,,,,,,,Car,U10
6840,,,7.38330216347,,,,,,,,,,,,,,,,Car,U10
6944,,,,,,,,,,,0.588790066326,,,,,,,,Car,U10
6997,,,,,,18.3546451886,,,,,,,,,,,,,Car,U10
7048,,,,,,18.2027823555,,,,,,,,,,,,,Car,U10
7101,,,8.43175684102,,,,,,,,,,,,,,,,Car,U10
7154,,,,,,,,,,,0.589257903617,,,,,,,,Car,U10
7208,,,,,,17.8500664021,,,,,,,,,,,,,Car,U10
7260,,,9.4367751961,,,,,,,,,,,,,,,,Car,U10
7368,,,,,,17.2547906391,,,,,,,,,,,,,Car,U10
7420,,,11.8217180046,,,,,,,,,,,,,,,,Car,U10
7470,,,8.64362375041,,,,,,,,,,,,,,,,Car,U10
7520,,,9.79770979983,,,,,,,,,,,,,,,,Car,U10
7623,,,,,,,,,,,0.589251047941,,,,,,,,Car,U10
7672,,,,,,,,,,,0.589348387084,,,,,,,,Car,U10
7723,,,,,,,,,,,0.58884634666,,,,,,,,Car,U10
7775,,,,,,16.4312802558,,,,,,,,,,,,,Car,U10
7825,,,,,,16.2206350061,,,,,,,,,,,,,Car,U10
7880,,,7.32864142265,,,,,,,,,,,,,,,,Car,U10
7983,,,,,,,,,,,0.589548471893,,,,,,,,Car,U10
8033,,,,,,,,316.06913677,,,,,,,,,,,Car,U10
8085,,,,,,15.519900126,,,,,,,,,,,,,Car,U10
8140,,,8.82784725978,,,,,,,,,,,,,,,,Car,U10
8188,,,,,,15.2027266139,,,,,,,,,,,,,Car,U10
8297,,,,,,15.3013560398,,,,,,,,,,,,,Car,U10
8348,,,,,,15.3932355273,,,,,,,,,,,,,Car,U10
8400,,,,,,,,,,,,,,,,,,,Car,U10
8454,,,,,,,,,,,0.588112684066,,,,,,,,Car,U10
8511,,,,,,,,,,,0.588134686812,,,,,,,,Car,U10
8560,,,8.25724031004,,,,,,,,,,,,,,,,Car,U10
8610,,,11.6048265008,,,,,,,,,,,,,,,,Car,U10
8660,,,11.4216823802,,,,,,,,,,,,,,,,Car,U10
8711,,,7.93425617033,,,,,,,,,,,,,,,,Car,U10
8761,,,,9.80663387611,,,,,,,,,,,,,,,Car,U10
8817,,,,,,14.4241672203,,,,,,,,,,,,,Car,U10
8870,,,11.5201820482,,,,,,,,,,,,,,,,Car,U10
8920,,,6.47399260626,,,,,,,,,,,,,,,,Car,U10
8970,,,,,,,,,,,,,,,,,,,Car,U10
9020,,,9.94131629397,,,,,,,,,,,,,,,,Car,U10
9072,,,,,1.14453375553,,,,,,,,,,,,,,Car,U10
9123,,,,,,,,,,,0.586168733625,,,,,,,,Car,U10
9175,,,,,,14.0145067698,,,,,,,,,,,,,Car,U10
9226,,,,,,13.6241366692,,,,,,,,,,,,,Car,U10
9281,,,7.17886275786,,,,,,,,,,,,,,,,Car,U10
9331,,,12.6202541198,,,,,,,,,,,,,,,,Car,U10
9385,,,,,,,,,,,0.585889432503,,,,,,,,Car,U10
9433,,,,,,,,,,0.0669838219514,,,,,,,,,Car,U10
9488,,,,,,,,,,,,,,,,13.9655285,,,Car,U10
9540,,,10.722137009,,,,,,,,,,,,,,,,Car,U10
9590,,,7.4960157494,,,,,,,,,,,,,,,,Car,U10
9640,,,12.0549784214,,,,,,,,,,,,,,,,Car,U10
9692,,,,,,,,,,,0.58449820699,,,,,,,,Car,U10
9743,,,,,,,,,,,0.584832615612,,,,,,,,Car,U10
9794,,,,,,,0.0801980216759,,,,,,,,,,,,Car,U10
9848,,,,,,358.418861808,,,,,,,,,,,,,Car,U10
9901,,,,,,,,,,,,,,,,,,,Car,U10
9952,,,,,2.35261868138,,,,,,,,,,,,,,Car,U10
10005,,,,,,,,,,,0.583611520543,,,,,,,,Car,U10
10060,,,12.4714176328,,,,,,,,,,,,,,,,Car,U10
10111,,,10.876643118,,,,,,,,,,,,,,,,Car,U10
10165,,,,,,,,,,,0.583651910563,,,,,,,,Car,U10
10218,,,,,,356.553781217,,,,,,,,,,,,,Car,U10
10270,,,12.0860746417,,,,,,,,,,,,,,,,Car,U10
10320,,,9.84732362719,,,,,,,,,,,,,,,,Car,U10
10371,,,,,1.37926186419,,,,,,,,,,,,,,Car,U10
10426,,,,,,,,,,,0.583283011615,,,,,,,,Car,U10
10477,,,,,,353.265896033,,,,,,,,,,,,,Car,U10
10530,,,8.64287126106,,,,,,,,,,,,,,,,Car,U10
10580,,,8.37053434961,,,,,,,,,,,,,,,,Car,U10
10630,,,10.8684902185,,,,,,,,,,,,,,,,Car,U10
10680,,,7.5071965132,,,,,,,,,,,,,,,,Car,U10
10731,,,12.333700287,,,,,,,,,,,,,,,,Car,U10
10833,,,,,,,0.0688626936163,,,,,,,,,,,,Car,U10
10883,,,,,,,,319.961991151,,,,,,,,,,,Car,U10
10935,,,,,,353.36043139,,,,,,,,,,,,,Car,U10
10988,,,,,,,0.0592255832119,,,,,,,,,,,,Car,U10
11041,,,10.9914627588,,,,,,,,,,,,,,,,Car,U10
11094,,,,,,,,,,,0.581834790771,,,,,,,,Car,U10
11145,,,,,,,0.060373764225,,,,,,,,,,,,Car,U10
11201,,,8.9378550176,,,,,,,,,,,,,,,,Car,U10
11250,,,11.400882011,,,,,,,,,,,,,,,,Car,U10
11306,,,,,,,,,,,0.58205139369,,,,,,,,Car,U10
11360,,,8.37052891049,,,,,,,,,,,,,,,,Car,U10
11410,,,10.4215811303,,,,,,,,,,,,,,,,Car,U10
11461,,,10.6300570872,,,,,,,,,,,,,,,,Car,U10
11510,,,8.83271393782,,,,,,,,,,,,,,,,Car,U10
11560,,,11.6303297617,,,,,,,,,,,,,,,,Car,U10
11610,,,8.33024749236,,,,,,,,,,,,,,,,Car,U10
11712,,,,,,,,,,,0.580418982181,,,,,,,,Car,U10
11763,,,,,,,,,,,0.580632176549,,,,,,,,Car,U10
11815,,,,,,345.786117381,,,,,,,,,,,,,Car,U10
11870,,,12.5647478043,,,,,,,,,,,,,,,,Car,U10
11920,,,7.63710566463,,,,,,,,,,,,,,,,Car,U10
11969,,,,,,,,,,,,,,,,,,,Car,U10
12020,,,9.24991574508,,,,,,,,,,,,,,,,Car,U10
12070,,,8.08112843425,,,,,,,,,,,,,,,,Car,U10
12120,,,10.7050107921,,,,,,,,,,,,,,,,Car,U10
12173,,,,,,,,,,,0.580848055739,,,,,,,,Car,U10
12227,,,,,,345.027244576,,,,,,,,,,,,,Car,U10
12281,,,12.6833010787,,,,,,,,,,,,,,,,Car,U10
12385,,,,,,,,,,,0.580273044278,,,,,,,,Car,U10
12442,,,10.6151160383,,,,,,,,,,,,,,,,Car,U10
12491,,,12.8815884335,,,,,,,,,,,,,,,,Car,U10
12543,,,,,,,,,,,0.580908312076,,,,,,,,Car,U10
12594,,,,,,343.291555501,,,,,,,,,,,,,Car,U10
12645,,,,,,343.022433523,,,,,,,,,,,,,Car,U10
12701,,,9.32743582326,,,,,,,,,,,,,,,,Car,U10
12751,,,9.43247905486,,,,,,,,,,,,,,,,Car,U10
12801,,,10.2947960005,,,,,,,,,,,,,,,,Car,U10
12853,,,,,,,,,,,0.579808200176,,,,,,,,Car,U10
12905,,,,,,,,,,,0.579541117395,,,,,,,,Car,U10
12957,,,,,,339.996055271,,,,,,,,,,,,,Car,U10
13011,,,8.17045866037,,,,,,,,,,,,,,,,Car,U10
13060,,,10.7841565229,,,,,,,,,,,,,,,,Car,U10
13111,,,,,,,,,0.209866736526,,,,,,,,,,Car,U10
13163,,,,,,,,,,,0.579100729117,,,,,,,,Car,U10
13215,,,,,,339.848140461,,,,,,,,,,,,,Car,U10
13265,,,,,,340.121953532,,,,,,,,,,,,,Car,U10
13320,,,8.51124370828,,,,,,,,,,,,,,,,Car,U10
13370,,,13.24054025,,,,,,,,,,,,,,,,Car,U10
13421,,,8.28236534136,,,,,,,,,,,,,,,,Car,U10
13472,,,10.5361713019,,,,,,,,,,,,,,,,Car,U10
13523,,,,,,,,,,,0.578768345658,,,,,,,,Car,U10
13573,,,,,,,,,,,0.578094247593,,,,,,,,Car,U10
13624,,,,,,,,318.708201916,,,,,,,,,,,Car,U10
13675,,,,,,337.454119844,,,,,,,,,,,,,Car,U10
13730,,,7.56457433759,,,,,,,,,,,,,,,,Car,U10
13781,,,11.1582785183,,,,,,,,,,,,,,,,Car,U10
13830,,,8.88136151769,,,,,,,,,,,,,,,,Car,U10
13885,,,,,,,,,,,0.576324420061,,,,,,,,Car,U10
13938,,,,,,337.738764432,,,,,,,,,,,,,Car,U10
13988,,,,,,337.955942987,,,,,,,,,,,,,Car,U10
14040,,,7.57678559721,,,,,,,,,,,,,,,,Car,U10
14097,,,,,,,,,,,0.577018607706,,,,,,,,Car,U10
14145,,,,,,336.907892606,,,,,,,,,,,,,Car,U10
14200,,,12.3467623398,,,,,,,,,,,,,,,,Car,U10
14250,,,6.49626654051,,,,,,,,,,,,,,,,Car,U10
14300,,,12.2113371147,,,,,,,,,,,,,,,,Car,U10
14353,,,,,,,,,,,0.575641762901,,,,,,,,Car,U10
14405,,,,,,,0.0757177232412,,,,,,,,,,,,Car,U10
14461,,,8.34529526073,,,,,,,,,,,,,,,,Car,U10
14512,,,13.1511910758,,,,,,,,,,,,,,,,Car,U10
14560,,,8.03544301328,,,,,,,,,,,,,,,,Car,U10
14610,,,12.0390973231,,,,,,,,,,,,,,,,Car,U10
14661,,,,,,,,,0.235707685543,,,,,,,,,,Car,U10
14713,,,,,,,,,,,0.57407745331,,,,,,,,Car,U10
14763,,,,,,,,,,,,35.2139110473,,,,,,,Car,U10
14815,,,,,,335.245357015,,,,,,,,,,,,,Car,U10
14870,,,7.44267641942,,,,,,,,,,,,,,,,Car,U10
14920,,,10.1457627836,,,,,,,,,,,,,,,,Car,U10
14968,,,,,,,,,,,,,,,,,,,Car,U10
15021,,,6.49029214131,,,,,,,,,,,,,,,,Car,U10
15125,,,,,,,,,,,0.572065412987,,,,,,,,Car,U10
15176,,,,,,334.516463272,,,,,,,,,,,,,Car,U10
15230,,,6.04970027635,,,,,,,,,,,,,,,,Car,U10
15280,,,11.8354458176,,,,,,,,,,,,,,,,Car,U10
15330,,,10.587930676,,,,,,,,,,,,,,,,Car,U10
15432,,,,,,,,,0.249141867038,,,,,,,,,,Car,U10
15488,,,,,,,,,,,0.571719720142,,,,,,,,Car,U10
15534,,,,,,333.429192,,,,,,,,,,,,,Car,U10
15585,,,,,,332.957855291,,,,,,,,,,,,,Car,U10
15640,,,11.79440413,,,,,,,,,,,,,,,,Car,U10
15690,,,13.2249494353,,,,,,,,,,,,,,,,Car,U10
15740,,,7.13716955464,,,,,,,,,,,,,,,,Car,U10
15790,,,12.168873611,,,,,,,,,,,,,,,,Car,U10
15840,,,9.36376161234,,,,,,,,,,,,,,,,Car,U10
15890,,,6.41086928981,,,,,,,,,,,,,,,,Car,U10
15945,,,,,,,,,,,0.571636477974,,,,,,,,Car,U10
15998,,,,,,332.782578404,,,,,,,,,,,,,Car,U10
16048,,,,,,333.002155098,,,,,,,,,,,,,Car,U10
16100,,,8.33033010865,,,,,,,,,,,,,,,,Car,U10
16150,,,7.72734363899,,,,,,,,,,,,,,,,Car,U10
16202,,,,,,,,,0.256289757891,,,,,,,,,,Car,U10
16256,,,,,,332.514100904,,,,,,,,,,,,,Car,U10
16310,,,,,,332.806315595,,,,,,,,,,,,,Car,U10
16361,,,,,0.675524979178,,,,,,,,,,,,,,Car,U10
16412,,,,,,,,,,,0.572286149652,,,,,,,,Car,U10
16463,,,,,,,,,,,0.572352059432,,,,,,,,Car,U10
16513,,,,,,,,,,0.0859737288373,,,,,,,,,Car,U10
16574,,,,,,,,,,,0.572921851477,,,,,,,,Car,U10
16625,,,,,,331.267658246,,,,,,,,,,,,,Car,U10
16674,,,,,,330.545868073,,,,,,,,,,,,,Car,U10
16730,,,9.02471635361,,,,,,,,,,,,,,,,Car,U10
16780,,,6.41184198464,,,,,,,,,,,,,,,,Car,U10
16830,,,12.3856325636,,,,,,,,,,,,,,,,Car,U10
16880,,,12.3220124985,,,,,,,,,,,,,,,,Car,U10
16930,,,5.48456796126,,,,,,,,,,,,,,,,Car,U10
16980,,,10.0424183249,,,,,,,,,,,,,,,,Car,U10
17083,,,,,,,,,0.276259781928,,,,,,,,,,Car,U10
17137,,,,,,329.882655786,,,,,,,,,,,,,Car,U10
17191,,,8.96759941602,,,,,,,,,,,,,,,,Car,U10
17245,,,,,,,,,,,0.573482230305,,,,,,,,Car,U10
17297,,,,,,330.19379128,,,,,,,,,,,,,Car,U10
17349,,,,,,330.307820979,,,,,,,,,,,,,Car,U10
17401,,,9.60230036408,,,,,,,,,,,,,,,,Car,U10
17451,,,,,,,,,0.274205922181,,,,,,,,,,Car,U10
17503,,,,,,,,,,,0.573889136952,,,,,,,,Car,U10
17553,,,,,,,,316.573432684,,,,,,,,,,,Car,U10
17603,,,,,,,,316.763941337,,,,,,,,,,,Car,U10
17654,,,,,,328.574514667,,,,,,,,,,,,,Car,U10
17705,,,,,,328.128028367,,,,,,,,,,,,,Car,U10
17760,,,13.6496066889,,,,,,,,,,,,,,,,Car,U10
17810,,,11.6759936428,,,,,,,,,,,,,,,,Car,U10
17860,,,7.50609698989,,,,,,,,,,,,,,,,Car,U10
17913,,,,,,,,,,,0.576111663099,,,,,,,,Car,U10
17965,,,,,,,0.0351765048284,,,,,,,,,,,,Car,U10
18020,,,4.72396787812,,,,,,,,,,,,,,,,Car,U10
18070,,,9.49679405671,,,,,,,,,,,,,,,,Car,U10
18120,,,14.858541935,,,,,,,,,,,,,,,,Car,U10
18225,,,,,,,,,,,0.577312905166,,,,,,,,Car,U10
18277,,,,,,327.510999474,,,,,,,,,,,,,Car,U10
18329,,,,,,327.694545406,,,,,,,,,,,,,Car,U10
18435,,,,,,,,,,,,31.0415548096,,,,,,,Car,U10
18488,,,,,,,,,,,0.577806197374,,,,,,,,Car,U10
18540,,,5.82977433704,,,,,,,,,,,,,,,,Car,U10
18590,,,6.18170050637,,,,,,,,,,,,,,,,Car,U10
18693,,,,,,,,,,,0.577474107401,,,,,,,,Car,U10
18743,,,,,,,,,,,0.577426036606,,,,,,,,Car,U10
18796,,,,,,,0.0905977189925,,,,,,,,,,,,Car,U10
18850,,,14.9370255547,,,,,,,,,,,,,,,,Car,U10
18905,,,,,,,,,,,0.577083712103,,,,,,,,Car,U10
18957,,,,,,328.325304233,,,,,,,,,,,,,Car,U10
19010,,,13.9555370267,,,,,,,,,,,,,,,,Car,U10
19061,,,,9.80656069357,,,,,,,,,,,,,,,Car,U10
19115,,,,,,,0.109853884339,,,,,,,,,,,,Car,U10
19170,,,10.2125856968,,,,,,,,,,,,,,,,Car,U10
19221,,,14.4899111758,,,,,,,,,,,,,,,,Car,U10
19270,,,14.9239777819,,,,,,,,,,,,,,,,Car,U10
19324,,,,,,,,,,,0.57605632702,,,,,,,,Car,U10
19377,,,,,,328.680928714,,,,,,,,,,,,,Car,U10
19429,,,,,,328.990203654,,,,,,,,,,,,,Car,U10
19532,,,,,,,,,,,0.576073354353,,,,,,,,Car,U10
19583,,,,,,,,,,,0.575910144754,,,,,,,,Car,U10
19635,,,,,,328.482369847,,,,,,,,,,,,,Car,U10
19685,,,,,,328.526963429,,,,,,,,,,,,,Car,U10
19740,,,13.691330588,,,,,,,,,,,,,,,,Car,U10
19790,,,12.9516003738,,,,,,,,,,,,,,,,Car,U10
19840,,,13.9791794212,,,,,,,,,,,,,,,,Car,U10
19891,,,11.9905713281,,,,,,,,,,,,,,,,Car,U10
19945,,,,,,,,,,,0.574721597122,,,,,,,,Car,U10
19997,,,,,,327.376358646,,,,,,,,,,,,,Car,U10
20049,,,,,,327.395839161,,,,,,,,,,,,,Car,U10
20101,,,13.3010119959,,,,,,,,,,,,,,,,Car,U10
20153,,,,,,,,,,,0.574054631992,,,,,,,,Car,U10
20209,,,,,,326.944045671,,,,,,,,,,,,,Car,U10
20260,,,6.92662698029,,,,,,,,,,,,,,,,Car,U10
20363,,,,,,,,,,,0.574255698295,,,,,,,,Car,U10
20413,,,,,,,,,,,0.574224333163,,,,,,,,Car,U10
20464,,,,,,,0.114933614036,,,,,,,,,,,,Car,U10
20515,,,,,,326.429299083,,,,,,,,,,,,,Car,U10
20570,,,13.2653572281,,,,,,,,,,,,,,,,Car,U10
20620,,,12.5936580485,,,,,,,,,,,,,,,,Car,U10
20670,,,14.2740714822,,,,,,,,,,,,,,,,Car,U10
20720,,,13.9758067879,,,,,,,,,,,,,,,,Car,U10
20770,,,11.9913289679,,,,,,,,,,,,,,,,Car,U10
20820,,,13.926047448,,,,,,,,,,,,,,,,Car,U10
20923,,,,,,,,,,,0.574633304881,,,,,,,,Car,U10
20976,,,,,,325.94920954,,,,,,,,,,,,,Car,U10
21028,,,,,,325.981556994,,,,,,,,,,,,,Car,U10
21081,,,9.36501495795,,,,,,,,,,,,,,,,Car,U10
21133,,,,,,,,,,,0.57587607489,,,,,,,,Car,U10
21188,,,,,,326.143678307,,,,,,,,,,,,,Car,U10
21241,,,6.28410015101,,,,,,,,,,,,,,,,Car,U10
21297,,,,,,326.038051099,,,,,,,,,,,,,Car,U10
21350,,,8.59966355712,,,,,,,,,,,,,,,,Car,U10
21399,,,,,,,,,,,,,,,,,,,Car,U10
21451,,,6.23416264635,,,,,,,,,,,,,,,,Car,U10
21501,,,6.07980152033,,,,,,,,,,,,,,,,Car,U10
21603,,,,,,,,,,,0.577373717448,,,,,,,,Car,U10
21652,,,,,,,,,,,0.577581538063,,,,,,,,Car,U10
21703,,,,,,,0.153904102487,,,,,,,,,,,,Car,U10
21755,,,,,,324.568639427,,,,,,,,,,,,,Car,U10
21810,,,,,,324.720536307,,,,,,,,,,,,,Car,U10
21861,,,12.7135632208,,,,,,,,,,,,,,,,Car,U10
21912,,,,,,,,,,,0.579631102822,,,,,,,,Car,U10
21963,,,,,,,,,,,0.579643755336,,,,,,,,Car,U10
22017,,,,,,325.035122689,,,,,,,,,,,,,Car,U10
22070,,,10.6944850327,,,,,,,,,,,,,,,,Car,U10
22122,,,,,,,,,0.307227803924,,,,,,,,,,Car,U10
22176,,,,,,325.813409331,,,,,,,,,,,,,Car,U10
22228,,,,,,325.794964356,,,,,,,,,,,,,Car,U10
22280,,,5.40153126891,,,,,,,,,,,,,,,,Car,U10
22333,,,,,,,,,,,0.579593142786,,,,,,,,Car,U10
22388,,,,,,326.128253606,,,,,,,,,,,,,Car,U10
22449,,,8.45762635394,,,,,,,,,,,,,,,,Car,U10
22494,,,13.4682663667,,,,,,,,,,,,,,,,Car,U10
22545,,,,,,325.614979525,,,,,,,,,,,,,Car,U10
22600,,,14.617561354,,,,,,,,,,,,,,,,Car,U10
22650,,,13.5316520098,,,,,,,,,,,,,,,,Car,U10
22700,,,7.63008899404,,,,,,,,,,,,,,,,Car,U10
22750,,,7.49435772239,,,,,,,,,,,,,,,,Car,U10
22800,,,14.1678588495,,,,,,,,,,,,,,,,Car,U10
22851,,,11.7866491398,,,,,,,,,,,,,,,,Car,U10
22901,,,8.37136720074,,,,,,,,,,,,,,,,Car,U10
22953,,,,,,,,,,,0.581553724032,,,,,,,,Car,U10
23003,,,,,,,,,,,0.581247253302,,,,,,,,Car,U10
23053,,,,,,,,,,,,30.7447912255,,,,,,,Car,U10
23105,,,,,,325.002432606,,,,,,,,,,,,,Car,U10
23160,,,6.85119974441,,,,,,,,,,,,,,,,Car,U10
23210,,,9.66370023841,,,,,,,,,,,,,,,,Car,U10
23260,,,9.34710575517,,,,,,,,,,,,,,,,Car,U10
23310,,,9.87619983618,,,,,,,,,,,,,,,,Car,U10
23360,,,9.66254774563,,,,,,,,,,,,,,,,Car,U10
23414,,,,,,,,,,,0.579647972748,,,,,,,,Car,U10
23465,,,,,,,0.127030598501,,,,,,,,,,,,Car,U10
23520,,,14.2996636231,,,,,,,,,,,,,,,,Car,U10
23571,,,11.2993860509,,,,,,,,,,,,,,,,Car,U10
23620,,,10.5775684625,,,,,,,,,,,,,,,,Car,U10
23670,,,11.7212522811,,,,,,,,,,,,,,,,Car,U10
23720,,,10.232135601,,,,,,,,,,,,,,,,Car,U10
23770,,,11.4596402465,,,,,,,,,,,,,,,,Car,U10
23821,,,,,,,,,0.324219147609,,,,,,,,,,Car,U10
23873,,,,,,,0.129647421948,,,,,,,,,,,,Car,U10
23928,,,,,,324.286954101,,,,,,,,,,,,,Car,U10
23981,,,8.90604371274,,,,,,,,,,,,,,,,Car,U10
24083,,,,,,,,,,,0.576833141347,,,,,,,,Car,U10
24135,,,,,,324.551845011,,,,,,,,,,,,,Car,U10
24185,,,,,,324.645973515,,,,,,,,,,,,,Car,U10
24240,,,13.1850128625,,,,,,,,,,,,,,,,Car,U10
24290,,,9.46434123012,,,,,,,,,,,,,,,,Car,U10
24340,,,10.0338883541,,,,,,,,,,,,,,,,Car,U10
24394,,,,,,,,,,,0.574087437211,,,,,,,,Car,U10
24451,,,7.25533997946,,,,,,,,,,,,,,,,Car,U10
24502,,,9.23268705458,,,,,,,,,,,,,,,,Car,U10
24552,,,,,,,,,,,0.572548289107,,,,,,,,Car,U10
24603,,,,,,,,,,,0.572084051495,,,,,,,,Car,U10
24654,,,,,,327.336304586,,,,,,,,,,,,,Car,U10
24705,,,,,,327.476237917,,,,,,,,,,,,,Car,U10
24760,,,10.7501695885,,,,,,,,,,,,,,,,Car,U10
24808,,,,,,328.081483019,,,,,,,,,,,,,Car,U10
24860,,,9.88794053048,,,,,,,,,,,,,,,,Car,U10
24910,,,9.59125271249,,,,,,,,,,,,,,,,Car,U10
24960,,,10.5423553577,,,,,,,,,,,,,,,,Car,U10
25010,,,8.35734800402,,,,,,,,,,,,,,,,Car,U10
25061,,,,,2.81024194578,,,,,,,,,,,,,,Car,U10
25113,,,,,,,,,0.288327017423,,,,,,,,,,Car,U10
25170,,,,,,328.355794636,,,,,,,,,,,,,Car,U10
25273,,,,,,,,,,,0.561691144305,,,,,,,,Car,U10
25324,,,,,,,,,,,0.56042526529,,,,,,,,Car,U10
25377,,,,,,329.399634942,,,,,,,,,,,,,Car,U10
25431,,,12.1384539929,,,,,,,,,,,,,,,,Car,U10
25534,,,,,,330.156243164,,,,,,,,,,,,,Car,U10
25893,,,,,,,,,,,0.538486714826,,,,,,,,Car,U10
25945,,,,,,,,,,,0.536229856327,,,,,,,,Car,U10
25998,,,,,,332.480573117,,,,,,,,,,,,,Car,U10
26050,,,8.73657288035,,,,,,,,,,,,,,,,Car,U10
26102,,,,,1.18366756313,,,,,,,,,,,,,,Car,U10
26155,,,,,,,,312.178897529,,,,,,,,,,,Car,U10
26208,,,,,,334.329532315,,,,,,,,,,,,,Car,U10
26261,,,10.0768264567,,,,,,,,,,,,,,,,Car,U10
26363,,,,,,,,,,,0.51603250696,,,,,,,,Car,U10
26413,,,,,,,0.153734284581,,,,,,,,,,,,Car,U10
26466,,,,,,,,,,,,28.0937326196,,,,,,,Car,U10
26520,,,8.64555014236,,,,,,,,,,,,,,,,Car,U10
26570,,,12.2380569703,,,,,,,,,,,,,,,,Car,U10
26621,,,8.8440039454,,,,,,,,,,,,,,,,Car,U10
26671,,,12.3460675902,,,,,,,,,,,,,,,,Car,U10
26773,,,,,,,,,,,0.492279827975,,,,,,,,Car,U10
26823,,,,,,,,,,,0.490027454487,,,,,,,,Car,U10
26875,,,,,,340.278035436,,,,,,,,,,,,,Car,U10
26925,,,,,,340.703103151,,,,,,,,,,,,,Car,U10
26980,,,8.27206025582,,,,,,,,,,,,,,,,Car,U10
27030,,,11.0795665413,,,,,,,,,,,,,,,,Car,U10
27080,,,8.22476560905,,,,,,,,,,,,,,,,Car,U10
27182,,,8.05536966546,,,,,,,,,,,,,,,,Car,U10
27233,,,,,,,,,,,0.466194979462,,,,,,,,Car,U10
27284,,,,,,,,,,,,27.1028855705,,,,,,,Car,U10
27334,,,,,,343.300237368,,,,,,,,,,,,,Car,U10
27385,,,,,,343.410455399,,,,,,,,,,,,,Car,U10
27590,,,8.94171242625,,,,,,,,,,,,,,,,Car,U10
27640,,,8.15574057341,,,,,,,,,,,,,,,,Car,U10
27792,,,,,,,,,,,0.471946853863,,,,,,,,Car,U10
27843,,,,,,,,,,,0.47639568495,,,,,,,,Car,U10
27895,,,,,,341.94596152,,,,,,,,,,,,,Car,U10
27945,,,,,,341.628383042,,,,,,,,,,,,,Car,U10
28000,,,12.1458309346,,,,,,,,,,,,,,,,Car,U10
28051,,,9.17908813684,,,,,,,,,,,,,,,,Car,U10
28103,,,10.1761805804,,,,,,,,,,,,,,,,Car,U10
28153,,,7.95337500133,,,,,,,,,,,,,,,,Car,U10
28208,,,,,,339.622560205,,,,,,,,,,,,,Car,U10
28261,,,8.96203932349,,,,,,,,,,,,,,,,Car,U10
28311,,,,,,338.329217009,,,,,,,,,,,,,Car,U10
28362,,,8.84080279476,,,,,,,,,,,,,,,,Car,U10
28415,,,,,,,,,,,0.507440158079,,,,,,,,Car,U10
28570,,,8.69186859478,,,,,,,,,,,,,,,,Car,U10
28620,,,6.08801773133,,,,,,,,,,,,,,,,Car,U10
28723,,,,,,,,,,,0.532360099628,,,,,,,,Car,U10
28773,,,,,,,,,,,0.544687642304,,,,,,,,Car,U10
28824,,,,,,,,,,,0.553790561191,,,,,,,,Car,U10
28877,,,,,,19.7147502216,,,,,,,,,,,,,Car,U10
28931,,,7.09380273606,,,,,,,,,,,,,,,,Car,U10
28985,,,,,,,,,,,0.569282471042,,,,,,,,Car,U10
29038,,,,,,25.027000527,,,,,,,,,,,,,Car,U10
29090,,,6.10014024846,,,,,,,,,,,,,,,,Car,U10
29140,,,10.926855086,,,,,,,,,,,,,,,,Car,U10
29191,,,7.66806240436,,,,,,,,,,,,,,,,Car,U10
29240,,,13.4868441456,,,,,,,,,,,,,,,,Car,U10
29292,,,,,,,,,0.207881582359,,,,,,,,,,Car,U10
29345,,,,,,,,,,,0.609518298344,,,,,,,,Car,U10
29400,,,,,,,,,,,,,,,,,,,Car,U10
29502,,,8.35344081888,,,,,,,,,,,,,,,,Car,U10
29552,,,,,,,,,,,0.623605753565,,,,,,,,Car,U10
29603,,,,,,,,,,,0.625128312841,,,,,,,,Car,U10
29708,,,,,,32.8975880575,,,,,,,,,,,,,Car,U10
29761,,,9.15269218293,,,,,,,,,,,,,,,,Car,U10
29814,,,,,,,,,,,0.631810363061,,,,,,,,Car,U10
29865,,,,,,,,,,,0.633770670321,,,,,,,,Car,U10
29971,,,,,,,,269.586916353,,,,,,,,,,,Car,U10
30023,,,,,,,,,,,0.635900561062,,,,,,,,Car,U10
30073,,,,,,,0.138966139793,,,,,,,,,,,,Car,U10
30124,,,,,,,,271.821381207,,,,,,,,,,,Car,U10
30175,,,,,,46.7715062832,,,,,,,,,,,,,Car,U10
30330,,,9.32250325042,,,,,,,,,,,,,,,,Car,U10
30434,,,,,,,,,,,0.617171066042,,,,,,,,Car,U10
30488,,,,,,,,,,,0.614104143753,,,,,,,,Car,U10
30540,,,7.34551088139,,,,,,,,,,,,,,,,Car,U10
30590,,,9.31533856393,,,,,,,,,,,,,,,,Car,U10
30640,,,5.99750511651,,,,,,,,,,,,,,,,Car,U10
30693,,,,,,,,,,,0.603559447674,,,,,,,,Car,U10
30743,,,,,,,,,,,0.602383254375,,,,,,,,Car,U10
30795,,,,,,57.5722125519,,,,,,,,,,,,,Car,U10
30846,,,,,,57.8110809423,,,,,,,,,,,,,Car,U10
30898,,,,,,58.2105600385,,,,,,,,,,,,,Car,U10
30951,,,11.9426464577,,,,,,,,,,,,,,,,Car,U10
31005,,,,,,,,,,,0.590357342494,,,,,,,,Car,U10
31057,,,,,,59.2654651344,,,,,,,,,,,,,Car,U10
31108,,,,,,59.3971757913,,,,,,,,,,,,,Car,U10
31161,,,8.64953730734,,,,,,,,,,,,,,,,Car,U10
31215,,,,,,,,,,,0.583157658887,,,,,,,,Car,U10
31270,,,10.6977689923,,,,,,,,,,,,,,,,Car,U10
31320,,,8.27044180211,,,,,,,,,,,,,,,,Car,U10
31370,,,9.4068719836,,,,,,,,,,,,,,,,Car,U10
31421,,,10.3230429361,,,,,,,,,,,,,,,,Car,U10
31525,,,,,,61.2739027007,,,,,,,,,,,,,Car,U10
31580,,,11.724683459,,,,,,,,,,,,,,,,Car,U10
31630,,,7.8940194269,,,,,,,,,,,,,,,,Car,U10
31680,,,11.4173568348,,,,,,,,,,,,,,,,Car,U10
31730,,,11.8810242036,,,,,,,,,,,,,,,,Car,U10
31781,,,9.192896622,,,,,,,,,,,,,,,,Car,U10
31830,,,12.1268430186,,,,,,,,,,,,,,,,Car,U10
31881,,,8.84656936346,,,,,,,,,,,,,,,,Car,U10
31985,,,,,,,,,,,0.560800447217,,,,,,,,Car,U10
32037,,,,,,61.9161064968,,,,,,,,,,,,,Car,U10
32090,,,8.98862242055,,,,,,,,,,,,,,,,Car,U10
32196,,,,,,,0.230324551963,,,,,,,,,,,,Car,U10
32248,,,,,,62.8615446835,,,,,,,,,,,,,Car,U10
32301,,,12.3475496392,,,,,,,,,,,,,,,,Car,U10
32355,,,,,,,,,,,0.558681929255,,,,,,,,Car,U10
32405,,,,,,64.3732806832,,,,,,,,,,,,,Car,U10
32461,,,10.4116494325,,,,,,,,,,,,,,,,Car,U10
32508,,,10.6565071521,,,,,,,,,,,,,,,,Car,U10
32560,,,8.34485581548,,,,,,,,,,,,,,,,Car,U10
32610,,,9.24107237456,,,,,,,,,,,,,,,,Car,U10
32660,,,6.40729874411,,,,,,,,,,,,,,,,Car,U10
32710,,,14.0757758061,,,,,,,,,,,,,,,,Car,U10
32762,,,,,0.55958360412,,,,,,,,,,,,,,Car,U10
32813,,,,,,,,,,0.0773848389881,,,,,,,,,Car,U10
32870,,,6.78450360637,,,,,,,,,,,,,,,,Car,U10
32971,,,,,,,,,0.525342275206,,,,,,,,,,Car,U10
33023,,,,,,,,,,,0.5580415621,,,,,,,,Car,U10
33073,,,,,,,,,,0.149461134828,,,,,,,,,Car,U10
33124,,,,,,,,270.555230614,,,,,,,,,,,Car,U10
33175,,,,,,63.0196272864,,,,,,,,,,,,,Car,U10
33230,,,8.26096597475,,,,,,,,,,,,,,,,Car,U10
33280,,,12.842483995,,,,,,,,,,,,,,,,Car,U10
33330,,,10.5602127585,,,,,,,,,,,,,,,,Car,U10
33381,,,8.22944747461,,,,,,,,,,,,,,,,Car,U10
33435,,,13.2557877844,,,,,,,,,,,,,,,,Car,U10
33495,,,12.0368543143,,,,,,,,,,,,,,,,Car,U10
33544,,,,,,,,269.53748,,,,,,,,,,,Car,U10
33595,,,,,,,,,,,,32.9010115726,,,,,,,Car,U10
33650,,,6.51521358173,,,,,,,,,,,,,,,,Car,U10
33702,,,13.1173067374,,,,,,,,,,,,,,,,Car,U10
33750,,,6.87485342118,,,,,,,,,,,,,,,,Car,U10
33805,,,,,,,,,,,0.551696418309,,,,,,,,Car,U10
33857,,,,,,63.9747977824,,,,,,,,,,,,,Car,U10
33909,,,,,,64.0048052599,,,,,,,,,,,,,Car,U10
33961,,,7.15285561783,,,,,,,,,,,,,,,,Car,U10
34014,,,,,,,0.0397954214065,,,,,,,,,,,,Car,U10
34065,,,,,,64.0674726628,,,,,,,,,,,,,Car,U10
34120,,,7.09680144299,,,,,,,,,,,,,,,,Car,U10
34170,,,13.4822561913,,,,,,,,,,,,,,,,Car,U10
34221,,,7.72952148242,,,,,,,,,,,,,,,,Car,U10
34270,,,11.1221365371,,,,,,,,,,,,,,,,Car,U10
34325,,,,,,,,,,,0.559587910483,,,,,,,,Car,U10
34377,,,,,,63.4348319143,,,,,,,,,,,,,Car,U10
34428,,,,,,,,,,,0.559245638334,,,,,,,,Car,U10
34480,,,8.1259641447,,,,,,,,,,,,,,,,Car,U10
34530,,,9.58317762515,,,,,,,,,,,,,,,,Car,U10
34580,,,8.62517867236,,,,,,,,,,,,,,,,Car,U10
34681,,,,,,,,,0.527970034028,,,,,,,,,,Car,U10
34733,,,,,,,,,,,0.557373314176,,,,,,,,Car,U10
34785,,,,,,,,,,,0.557081242043,,,,,,,,Car,U10
34837,,,,,,63.583584533,,,,,,,,,,,,,Car,U10
34888,,,,,,63.4908200567,,,,,,,,,,,,,Car,U10
34941,,,6.81759026666,,,,,,,,,,,,,,,,Car,U10
35150,,,11.4314546693,,,,,,,,,,,,,,,,Car,U10
35200,,,9.21379416343,,,,,,,,,,,,,,,,Car,U10
35303,,,,,,,,,,,0.56538519619,,,,,,,,Car,U10
35353,,,,,,,,,,,0.56528014276,,,,,,,,Car,U10
35405,,,,,,,,,,,0.564343608451,,,,,,,,Car,U10
35461,,,13.9936193673,,,,,,,,,,,,,,,,Car,U10
35510,,,7.93966389178,,,,,,,,,,,,,,,,Car,U10
35560,,,11.8835713916,,,,,,,,,,,,,,,,Car,U10
35663,,,,,,,,,,,0.562541572365,,,,,,,,Car,U10
35713,,,,,,,0.0835166928505,,,,,,,,,,,,Car,U10
35764,,,,,,,,,,,,30.3369102744,,,,,,,Car,U10
35815,,,,,,64.2138310647,,,,,,,,,,,,,Car,U10
35869,,,,,,64.1929170523,,,,,,,,,,,,,Car,U10
35921,,,8.69832374253,,,,,,,,,,,,,,,,Car,U10
35974,,,,,,,,,,,0.568161606509,,,,,,,,Car,U10
36026,,,,,,,,,,0.0573693190161,,,,,,,,,Car,U10
36081,,,10.2386315621,,,,,,,,,,,,,,,,Car,U10
36132,,,8.567672404,,,,,,,,,,,,,,,,Car,U10
36184,,,,,,,,,,,0.562764902345,,,,,,,,Car,U10
36235,,,,,,63.9319393612,,,,,,,,,,,,,Car,U10
36285,,,,,,63.9709076587,,,,,,,,,,,,,Car,U10
36387,,,,,,64.2969773384,,,,,,,,,,,,,Car,U10
36440,,,13.702696639,,,,,,,,,,,,,,,,Car,U10
36490,,,8.82140955343,,,,,,,,,,,,,,,,Car,U10
36540,,,8.26647001259,,,,,,,,,,,,,,,,Car,U10
36643,,,,,,,,,,,0.559445704525,,,,,,,,Car,U10
36693,,,,,,,,,,,0.560775348046,,,,,,,,Car,U10
36743,,,,,,,,,,0.0860778235262,,,,,,,,,Car,U10
36795,,,,,,65.4011641562,,,,,,,,,,,,,Car,U10
36849,,,,,,65.465402313,,,,,,,,,,,,,Car,U10
36900,,,,,,,,,,,,,,,,,,,Car,U10
36952,,,,,3.83239723411,,,,,,,,,,,,,,Car,U10
37005,,,,,,,,,,,0.559232296885,,,,,,,,Car,U10
37061,,,7.74728747173,,,,,,,,,,,,,,,,Car,U10
37111,,,9.42144624576,,,,,,,,,,,,,,,,Car,U10
37163,,,,,2.15947354651,,,,,,,,,,,,,,Car,U10
37218,,,,,,65.96436917,,,,,,,,,,,,,Car,U10
37270,,,12.893291659,,,,,,,,,,,,,,,,Car,U10
37320,,,8.04211755043,,,,,,,,,,,,,,,,Car,U10
37373,,,11.0697368994,,,,,,,,,,,,,,,,Car,U10
37421,,,12.0498190525,,,,,,,,,,,,,,,,Car,U10
37471,,,10.8537466042,,,,,,,,,,,,,,,,Car,U10
37573,,,,,,,,,,,0.560651304552,,,,,,,,Car,U10
37623,,,,,,,,,,,0.560156208777,,,,,,,,Car,U10
37674,,,,,,,,267.212944695,,,,,,,,,,,Car,U10
37725,,,,,,67.19227391,,,,,,,,,,,,,Car,U10
37781,,,10.6681764146,,,,,,,,,,,,,,,,Car,U10
37830,,,9.31481221389,,,,,,,,,,,,,,,,Car,U10
37880,,,10.0969066725,,,,,,,,,,,,,,,,Car,U10
37930,,,12.5206163347,,,,,,,,,,,,,,,,Car,U10
37980,,,7.72147807992,,,,,,,,,,,,,,,,Car,U10
38034,,,,,,,,,,,0.560502104002,,,,,,,,Car,U10
38085,,,,,,,,,,,0.559792239417,,,,,,,,Car,U10
38141,,,11.3936911172,,,,,,,,,,,,,,,,Car,U10
38191,,,9.71252955988,,,,,,,,,,,,,,,,Car,U10
38295,,,,,,,,268.039336549,,,,,,,,,,,Car,U10
38553,,,,,,,,266.803920569,,,,,,,,,,,Car,U10
38660,,,9.69973644976,,,,,,,,,,,,,,,,Car,U10
38710,,,10.1456716048,,,,,,,,,,,,,,,,Car,U10
38760,,,8.74958600909,,,,,,,,,,,,,,,,Car,U10
38810,,,9.8858863058,,,,,,,,,,,,,,,,Car,U10
38863,,,9.43262006848,,,,,,,,,,,,,,,,Car,U10
38969,,,,,,,,,,,,,,,,,,,Car,U10
39021,,,11.8845118962,,,,,,,,,,,,,,,,Car,U10
39071,,,11.1262300002,,,,,,,,,,,,,,,,Car,U10
39177,,,,,,64.2709335548,,,,,,,,,,,,,Car,U10
39231,,,10.5466859342,,,,,,,,,,,,,,,,Car,U10
39334,,,,,,,,,,,0.567227713779,,,,,,,,Car,U10
39388,,,,,,63.330900589,,,,,,,,,,,,,Car,U10
39440,,,8.25545752369,,,,,,,,,,,,,,,,Car,U10
39491,,,12.4801152568,,,,,,,,,,,,,,,,Car,U10
39540,,,7.02411618949,,,,,,,,,,,,,,,,Car,U10
39590,,,11.7741377869,,,,,,,,,,,,,,,,Car,U10
39641,,,,9.80660668376,,,,,,,,,,,,,,,Car,U10
39693,,,,,,,,,,,0.565061189252,,,,,,,,Car,U10
39748,,,,,,62.7072523716,,,,,,,,,,,,,Car,U10
39801,,,12.0838394955,,,,,,,,,,,,,,,,Car,U10
39851,,,10.0769399492,,,,,,,,,,,,,,,,Car,U10
39957,,,,,,62.1459717118,,,,,,,,,,,,,Car,U10
40011,,,8.18098143515,,,,,,,,,,,,,,,,Car,U10
40060,,,9.76457721373,,,,,,,,,,,,,,,,Car,U10
40164,,,,,,,,,,,0.578594998056,,,,,,,,Car,U10
40215,,,,,,,,,,,,33.0499739977,,,,,,,Car,U10
40269,,,,,,61.311275472,,,,,,,,,,,,,Car,U10
40321,,,9.12815386541,,,,,,,,,,,,,,,,Car,U10
40374,,,,,,,,,,,0.583701992196,,,,,,,,Car,U10
40428,,,,,,60.5299196477,,,,,,,,,,,,,Car,U10
40481,,,9.80430309101,,,,,,,,,,,,,,,,Car,U10
40530,,,10.8126261164,,,,,,,,,,,,,,,,Car,U10
40580,,,10.3706293939,,,,,,,,,,,,,,,,Car,U10
40632,,,,,,,,,,,0.58855662095,,,,,,,,Car,U10
40683,,,,,,,,,,,0.589396362106,,,,,,,,Car,U10
40733,,,,,,,0.0888677691472,,,,,,,,,,,,Car,U10
40785,,,,,,60.5136593924,,,,,,,,,,,,,Car,U10
40835,,,,,,60.6039482732,,,,,,,,,,,,,Car,U10
40889,,,,,,60.5623054063,,,,,,,,,,,,,Car,U10
40941,,,9.64194726284,,,,,,,,,,,,,,,,Car,U10
40994,,,,,,,,,,,0.596946561293,,,,,,,,Car,U10
41049,,,,,,60.0545934963,,,,,,,,,,,,,Car,U10
41100,,,13.5249504008,,,,,,,,,,,,,,,,Car,U10
41150,,,13.9532137394,,,,,,,,,,,,,,,,Car,U10
41203,,,,,,,,,,,0.600159966676,,,,,,,,Car,U10
41253,,,,,,,,,,,0.601591364286,,,,,,,,Car,U10
41308,,,,,,,,,,0.163012910717,,,,,,,,,Car,U10
41361,,,8.22273543803,,,,,,,,,,,,,,,,Car,U10
41411,,,10.8053409836,,,,,,,,,,,,,,,,Car,U10
41466,,,,,,,,,,,0.606225242093,,,,,,,,Car,U10
41517,,,,,,58.9616036016,,,,,,,,,,,,,Car,U10
41570,,,10.4312226075,,,,,,,,,,,,,,,,Car,U10
41620,,,7.49340942498,,,,,,,,,,,,,,,,Car,U10
41670,,,6.49703630299,,,,,,,,,,,,,,,,Car,U10
41720,,,7.70762839147,,,,,,,,,,,,,,,,Car,U10
41770,,,11.7137582114,,,,,,,,,,,,,,,,Car,U10
41821,,,7.46218246546,,,,,,,,,,,,,,,,Car,U10
41874,,,,,,,,,,,0.612622052022,,,,,,,,Car,U10
41978,,,,,,57.2130394026,,,,,,,,,,,,,Car,U10
41981,,,7.04017756645,,,,,,,,,,,,,,,,Car,U10
42031,,,9.50652738319,,,,,,,,,,,,,,,,Car,U10
42085,,,,,,,,,,,0.617307455581,,,,,,,,Car,U10
42136,,,,,,,,271.501474731,,,,,,,,,,,Car,U10
42188,,,,,,57.6240078096,,,,,,,,,,,,,Car,U10
42295,,,,,,57.7937356093,,,,,,,,,,,,,Car,U10
42345,,,,,,57.8657106745,,,,,,,,,,,,,Car,U10
42399,,,,,,,,,,,,,,,,,,,Car,U10
42502,,,,,,57.4278639944,,,,,,,,,,,,,Car,U10
42553,,,,,,,,,,,0.628108213705,,,,,,,,Car,U10
42603,,,,,,,,,,,0.628979358895,,,,,,,,Car,U10
42655,,,,,,57.379057155,,,,,,,,,,,,,Car,U10
42811,,,,,,57.4275665376,,,,,,,,,,,,,Car,U10
42913,,,,,,,,,,,0.635205707115,,,,,,,,Car,U10
42963,,,,,,,0.129405423075,,,,,,,,,,,,Car,U10
43015,,,,,,56.6910063414,,,,,,,,,,,,,Car,U10
43065,,,,,,56.5411750179,,,,,,,,,,,,,Car,U10
43121,,,10.5237120461,,,,,,,,,,,,,,,,Car,U10
43171,,,10.0353142983,,,,,,,,,,,,,,,,Car,U10
43222,,,7.15756583811,,,,,,,,,,,,,,,,Car,U10
43274,,,,,,,,274.370963809,,,,,,,,,,,Car,U10
43329,,,,,,55.5541663604,,,,,,,,,,,,,Car,U10
43381,,,9.19661679667,,,,,,,,,,,,,,,,Car,U10
43484,,,,9.80655204108,,,,,,,,,,,,,,,Car,U10
43535,,,,,,54.8903206403,,,,,,,,,,,,,Car,U10
43585,,,,,,54.9129729663,,,,,,,,,,,,,Car,U10
43640,,,9.25209762979,,,,,,,,,,,,,,,,Car,U10
43690,,,10.4924783834,,,,,,,,,,,,,,,,Car,U10
43740,,,11.2340226876,,,,,,,,,,,,,,,,Car,U10
43790,,,12.6345232974,,,,,,,,,,,,,,,,Car,U10
43946,,,,,,54.6340461617,,,,,,,,,,,,,Car,U10
44050,,,11.9080690068,,,,,,,,,,,,,,,,Car,U10
44101,,,10.1311079528,,,,,,,,,,,,,,,,Car,U10
44205,,,,,,,,,,,0.650545829217,,,,,,,,Car,U10
44257,,,,,,53.6279358171,,,,,,,,,,,,,Car,U10
44311,,,,,,53.4860719418,,,,,,,,,,,,,Car,U10
44362,,,,,0.879114204793,,,,,,,,,,,,,,Car,U10
44415,,,,,,,0.0558532637114,,,,,,,,,,,,Car,U10
44468,,,,,,52.9464511758,,,,,,,,,,,,,Car,U10
44570,,,11.7363167986,,,,,,,,,,,,,,,,Car,U10
44620,,,9.68012952035,,,,,,,,,,,,,,,,Car,U10
44723,,,,,,,,,,,0.656506921213,,,,,,,,Car,U10
44774,,,,,,,,,,,0.656986890582,,,,,,,,Car,U10
44824,,,,,,,,,,,,31.5508641918,,,,,,,Car,U10
44875,,,,,,53.3561945082,,,,,,,,,,,,,Car,U10
44925,,,,,,53.064494721,,,,,,,,,,,,,Car,U10
44980,,,8.82374759676,,,,,,,,,,,,,,,,Car,U10
45035,,,,,,53.275298216,,,,,,,,,,,,,Car,U10
45085,,,,,,53.1120125431,,,,,,,,,,,,,Car,U10
45140,,,9.8258688544,,,,,,,,,,,,,,,,Car,U10
45190,,,11.5975211936,,,,,,,,,,,,,,,,Car,U10
45241,,,9.79778943295,,,,,,,,,,,,,,,,Car,U10
45290,,,10.0252836783,,,,,,,,,,,,,,,,Car,U10
45341,,,8.71599419883,,,,,,,,,,,,,,,,Car,U10
45393,,,,,,,,,,,0.662673982842,,,,,,,,Car,U10
45447,,,,,,,,,,,0.663351443155,,,,,,,,Car,U10
45500,,,9.71991154485,,,,,,,,,,,,,,,,Car,U10
45550,,,10.9257974669,,,,,,,,,,,,,,,,Car,U10
45601,,,9.96924438729,,,,,,,,,,,,,,,,Car,U10
45650,,,11.8564613953,,,,,,,,,,,,,,,,Car,U10
45701,,,12.1714963296,,,,,,,,,,,,,,,,Car,U10
45753,,,,,,,,,,,0.666894667017,,,,,,,,Car,U10
45807,,,,,,,,,,0.0741339762661,,,,,,,,,Car,U10
45861,,,10.3717613232,,,,,,,,,,,,,,,,Car,U10
45910,,,11.0638200481,,,,,,,,,,,,,,,,Car,U10
45960,,,10.9454188259,,,,,,,,,,,,,,,,Car,U10
46010,,,12.7595169805,,,,,,,,,,,,,,,,Car,U10
46113,,,,,,,,,,,0.670926342771,,,,,,,,Car,U10
46163,,,,,,,,,,0.0879136785065,,,,,,,,,Car,U10
46215,,,,,,50.9097603932,,,,,,,,,,,,,Car,U10
46266,,,,,,,,,,,0.672724571092,,,,,,,,Car,U10
46318,,,,,,50.6714987073,,,,,,,,,,,,,Car,U10
46371,,,11.5614156104,,,,,,,,,,,,,,,,Car,U10
46475,,,,,,,,,,,0.676312310826,,,,,,,,Car,U10
46525,,,,,,49.9593774739,,,,,,,,,,,,,Car,U10
46580,,,11.5267914405,,,,,,,,,,,,,,,,Car,U10
46631,,,9.71364459653,,,,,,,,,,,,,,,,Car,U10
46680,,,11.928818725,,,,,,,,,,,,,,,,Car,U10
46730,,,11.8267443115,,,,,,,,,,,,,,,,Car,U10
46780,,,10.3629635032,,,,,,,,,,,,,,,,Car,U10
46832,,,,,,,,,0.419169492611,,,,,,,,,,Car,U10
46885,,,,,,,,,,,0.682373176483,,,,,,,,Car,U10
46937,,,,,,48.8146812924,,,,,,,,,,,,,Car,U10
46991,,,9.97236755314,,,,,,,,,,,,,,,,Car,U10
47046,,,,,,,,,,,0.684856461104,,,,,,,,Car,U10
47097,,,,,,48.6197552281,,,,,,,,,,,,,Car,U10
47148,,,,,,48.4325914099,,,,,,,,,,,,,Car,U10
47201,,,9.3452606335,,,,,,,,,,,,,,,,Car,U10
47253,,,,,,,,,,,0.689335759,,,,,,,,Car,U10
47304,,,,,,,,,,,0.689098171363,,,,,,,,Car,U10
47357,,,,,,47.8088213618,,,,,,,,,,,,,Car,U10
47409,,,,,,47.856813517,,,,,,,,,,,,,Car,U10
47563,,,,,,,,,,,0.693241879127,,,,,,,,Car,U10
47614,,,,,,,,,,,0.693335463547,,,,,,,,Car,U10
47665,,,,,,47.695451698,,,,,,,,,,,,,Car,U10
47771,,,11.7339101745,,,,,,,,,,,,,,,,Car,U10
47821,,,9.315969178,,,,,,,,,,,,,,,,Car,U10
47870,,,8.91886665177,,,,,,,,,,,,,,,,Car,U10
47920,,,12.1649533038,,,,,,,,,,,,,,,,Car,U10
47973,,,,,,,,,0.400837884685,,,,,,,,,,Car,U10
48029,,,,,,46.3196642907,,,,,,,,,,,,,Car,U10
48081,,,8.90935964305,,,,,,,,,,,,,,,,Car,U10
48185,,,,,,,,,,,0.700150798025,,,,,,,,Car,U10
48237,,,,,,46.0350912807,,,,,,,,,,,,,Car,U10
48291,,,12.2176673179,,,,,,,,,,,,,,,,Car,U10
48347,,,8.96356916624,,,,,,,,,,,,,,,,Car,U10
48603,,,,,,,,,,,0.702201771228,,,,,,,,Car,U10
48653,,,,,,,,,,,0.701401902795,,,,,,,,Car,U10
48704,,,,,,,,,,0.0407955547783,,,,,,,,,Car,U10
48757,,,,,,43.722742366,,,,,,,,,,,,,Car,U10
48810,,,,,,43.4644777555,,,,,,,,,,,,,Car,U10
48913,,,,,,,,,,,0.70678942,,,,,,,,Car,U10
48963,,,,,,,,,,0.104220126838,,,,,,,,,Car,U10
49015,,,,,,43.4380700626,,,,,,,,,,,,,Car,U10
49069,,,,,,43.5792335867,,,,,,,,,,,,,Car,U10
49121,,,5.16876166595,,,,,,,,,,,,,,,,Car,U10
49226,,,,,,,,,,,0.707236538558,,,,,,,,Car,U10
49280,,,12.4481132032,,,,,,,,,,,,,,,,Car,U10
49330,,,13.4901311996,,,,,,,,,,,,,,,,Car,U10
49380,,,10.9129296815,,,,,,,,,,,,,,,,Car,U10
49430,,,7.88662692288,,,,,,,,,,,,,,,,Car,U10
49481,,,,,,,,,,,0.707174555876,,,,,,,,Car,U10
49531,,,,,2.95224745745,,,,,,,,,,,,,,Car,U10
49583,,,,,,,,,,,0.706307660283,,,,,,,,Car,U10
49632,,,,,,,,,,,0.705425574631,,,,,,,,Car,U10
49684,,,,,,,,274.285250127,,,,,,,,,,,Car,U10
49736,,,,,,44.3149884351,,,,,,,,,,,,,Car,U10
49788,,,,,,44.309266727,,,,,,,,,,,,,Car,U10
49841,,,7.93802330891,,,,,,,,,,,,,,,,Car,U10
49894,,,,,,,,,,,0.698440630101,,,,,,,,Car,U10
49948,,,,,,,,,,,0.696738720307,,,,,,,,Car,U10
50001,,,5.50840423524,,,,,,,,,,,,,,,,Car,U10
50050,,,12.2950086654,,,,,,,,,,,,,,,,Car,U10
50101,,,12.0073645572,,,,,,,,,,,,,,,,Car,U10
50151,,,5.70749550132,,,,,,,,,,,,,,,,Car,U10
50203,,,,,3.06048368571,,,,,,,,,,,,,,Car,U10
50257,,,,,,,,,,0.199067094432,,,,,,,,,Car,U10
50310,,,,,,48.0782216809,,,,,,,,,,,,,Car,U10
50362,,,7.31254867483,,,,,,,,,,,,,,,,Car,U10
50414,,,,,,,,,,0.209322754925,,,,,,,,,Car,U10
50469,,,,,,,,,,,,,,,,,,,Car,U10
50521,,,6.99963019395,,,,,,,,,,,,,,,,Car,U10
50572,,,,,,,,,,,0.662719185309,,,,,,,,Car,U10
50623,,,,,,,,,,,0.66097718203,,,,,,,,Car,U10
50675,,,,,,51.2757428397,,,,,,,,,,,,,Car,U10
50728,,,,,,51.9653654058,,,,,,,,,,,,,Car,U10
50781,,,5.11101881723,,,,,,,,,,,,,,,,Car,U10
50831,,,12.8251574059,,,,,,,,,,,,,,,,Car,U10
50882,,,12.2480808704,,,,,,,,,,,,,,,,Car,U10
50934,,,,,,,,,,0.373587932747,,,,,,,,,Car,U10
50986,,,,,,,0.566332373802,,,,,,,,,,,,Car,U10
51041,,,9.42890957228,,,,,,,,,,,,,,,,Car,U10
51090,,,10.9575203126,,,,,,,,,,,,,,,,Car,U10
51193,,,,,,,,,,,0.623067588449,,,,,,,,Car,U10
51245,,,,,,,,,,0.286940253754,,,,,,,,,Car,U10
51300,,,9.46456970622,,,,,,,,,,,,,,,,Car,U10
51351,,,8.24200942796,,,,,,,,,,,,,,,,Car,U10
51458,,,,,,57.3154200381,,,,,,,,,,,,,Car,U10
51507,,,,,,57.9053045929,,,,,,,,,,,,,Car,U10
51560,,,10.4041371769,,,,,,,,,,,,,,,,Car,U10
51611,,,3.70702852404,,,,,,,,,,,,,,,,Car,U10
51660,,,8.795226457,,,,,,,,,,,,,,,,Car,U10
51710,,,8.36217553429,,,,,,,,,,,,,,,,Car,U10
51762,,,,,,,,,0.491772016105,,,,,,,,,,Car,U10
51815,,,,,,,0.224063511876,,,,,,,,,,,,Car,U10
51869,,,,,,61.2704143631,,,,,,,,,,,,,Car,U10
51921,,,5.94284666996,,,,,,,,,,,,,,,,Car,U10
51973,,,,,1.93677172893,,,,,,,,,,,,,,Car,U10
52026,,,,,,,,,,,,32.4838301121,,,,,,,Car,U10
52081,,,11.4458427959,,,,,,,,,,,,,,,,Car,U10
52131,,,16.22943811,,,,,,,,,,,,,,,,Car,U10
52183,,,,,,,,,,,0.543535778955,,,,,,,,Car,U10
52233,,,,,,,0.268541804513,,,,,,,,,,,,Car,U10
52285,,,,,,,,,,,0.537617252587,,,,,,,,Car,U10
52341,,,11.7348673202,,,,,,,,,,,,,,,,Car,U10
52390,,,13.1728893962,,,,,,,,,,,,,,,,Car,U10
52440,,,16.9434709934,,,,,,,,,,,,,,,,Car,U10
52490,,,,,,68.261111837,,,,,,,,,,,,,Car,U10
52540,,,10.8353863607,,,,,,,,,,,,,,,,Car,U10
52590,,,6.48107172078,,,,,,,,,,,,,,,,Car,U10
52641,,,,,,,,,0.561546767398,,,,,,,,,,Car,U10
52693,,,,,,,,,,,0.510267067078,,,,,,,,Car,U10
52743,,,,,,,,,,,0.504689392992,,,,,,,,Car,U10
52795,,,,,,71.1200811737,,,,,,,,,,,,,Car,U10
52845,,,,,,70.7732249068,,,,,,,,,,,,,Car,U10
52899,,,,,,,,,,,,,,,,,,,Car,U10
52951,,,9.11302511401,,,,,,,,,,,,,,,,Car,U10
53002,,,5.7160699258,,,,,,,,,,,,,,,,Car,U10
53055,,,,,,,0.182680375946,,,,,,,,,,,,Car,U10
53109,,,,,,68.8812463592,,,,,,,,,,,,,Car,U10
53161,,,5.45183631567,,,,,,,,,,,,,,,,Car,U10
53212,,,6.62839555319,,,,,,,,,,,,,,,,Car,U10
53266,,,,,,,,,,,0.474061006555,,,,,,,,Car,U10
53320,,,6.03363907293,,,,,,,,,,,,,,,,Car,U10
53370,,,6.84822703583,,,,,,,,,,,,,,,,Car,U10
53421,,,9.8427677758,,,,,,,,,,,,,,,,Car,U10
53472,,,11.9481792258,,,,,,,,,,,,,,,,Car,U10
53523,,,,,,,,,,,0.462743918313,,,,,,,,Car,U10
53572,,,,,,,,,,,0.461600346898,,,,,,,,Car,U10
53624,,,,,,,,267.217330206,,,,,,,,,,,Car,U10
53675,,,,,,68.6743285193,,,,,,,,,,,,,Car,U10
53729,,,,,,68.9841315086,,,,,,,,,,,,,Car,U10
53781,,,10.6295129105,,,,,,,,,,,,,,,,Car,U10
53834,,,,,,,,,,,0.457112273647,,,,,,,,Car,U10
53885,,,,,,69.4603367,,,,,,,,,,,,,Car,U10
53941,,,14.9558602311,,,,,,,,,,,,,,,,Car,U10
53989,,,,,,69.794372799,,,,,,,,,,,,,Car,U10
54042,,,12.1491518189,,,,,,,,,,,,,,,,Car,U10
54094,,,,,,,,,,,0.453016759067,,,,,,,,Car,U10
54149,,,,,,69.6141946732,,,,,,,,,,,,,Car,U10
54200,,,10.0792335625,,,,,,,,,,,,,,,,Car,U10
54251,,,14.0184332987,,,,,,,,,,,,,,,,Car,U10
54353,,,,,,,,,,,0.448818375149,,,,,,,,Car,U10
54404,,,,,,,,,,0.0362835451,,,,,,,,,Car,U10
54457,,,,,,70.4637103514,,,,,,,,,,,,,Car,U10
54510,,,11.7403492295,,,,,,,,,,,,,,,,Car,U10
54560,,,8.70814062468,,,,,,,,,,,,,,,,Car,U10
54610,,,11.9502276452,,,,,,,,,,,,,,,,Car,U10
54661,,,8.80559180499,,,,,,,,,,,,,,,,Car,U10
54763,,,,,,,,,,,0.444122648425,,,,,,,,Car,U10
54813,,,,,,,,268.748859009,,,,,,,,,,,Car,U10
54868,,,,,,71.4063813675,,,,,,,,,,,,,Car,U10
54921,,,8.67236827724,,,,,,,,,,,,,,,,Car,U10
54971,,,,,,,,,,,,,,,,,,,Car,U10
55023,,,,,,,,,,,0.439482810812,,,,,,,,Car,U10
55073,,,,,,,0.0460058985204,,,,,,,,,,,,Car,U10
55127,,,,,,71.8542218031,,,,,,,,,,,,,Car,U10
55181,,,11.1307260999,,,,,,,,,,,,,,,,Car,U10
55231,,,7.46159265532,,,,,,,,,,,,,,,,Car,U10
55337,,,,,,72.7156853781,,,,,,,,,,,,,Car,U10
55390,,,7.99980433982,,,,,,,,,,,,,,,,Car,U10
55441,,,12.1212069619,,,,,,,,,,,,,,,,Car,U10
55545,,,,,,72.7451043003,,,,,,,,,,,,,Car,U10
55700,,,7.73406423539,,,,,,,,,,,,,,,,Car,U10
55750,,,11.1172703315,,,,,,,,,,,,,,,,Car,U10
55800,,,7.77751683488,,,,,,,,,,,,,,,,Car,U10
55903,,,,,,,,,,,0.416167433921,,,,,,,,Car,U10
55955,,,,,,72.8163182261,,,,,,,,,,,,,Car,U10
56007,,,,,,73.0826496058,,,,,,,,,,,,,Car,U10
56061,,,6.26979576448,,,,,,,,,,,,,,,,Car,U10
56110,,,12.9167131505,,,,,,,,,,,,,,,,Car,U10
56160,,,8.60535113827,,,,,,,,,,,,,,,,Car,U10
56211,,,,9.80661746628,,,,,,,,,,,,,,,Car,U10
56265,,,,,,,,,,,0.4227764625,,,,,,,,Car,U10
56318,,,,,,74.1895755761,,,,,,,,,,,,,Car,U10
56371,,,9.68020035233,,,,,,,,,,,,,,,,Car,U10
56475,,,,,,,,,,,,30.7764748834,,,,,,,Car,U10
56525,,,,,,74.3106493041,,,,,,,,,,,,,Car,U10
56582,,,9.84300544018,,,,,,,,,,,,,,,,Car,U10
56627,,,,,,,,,,,,31.4129501559,,,,,,,Car,U10
56680,,,10.1007940182,,,,,,,,,,,,,,,,Car,U10
56730,,,8.6192164578,,,,,,,,,,,,,,,,Car,U10
56780,,,9.34584972061,,,,,,,,,,,,,,,,Car,U10
56830,,,10.2346456885,,,,,,,,,,,,,,,,Car,U10
56934,,,,,,,,,,,0.398896397557,,,,,,,,Car,U10
56988,,,,,,74.7767273933,,,,,,,,,,,,,Car,U10
57041,,,9.72653816935,,,,,,,,,,,,,,,,Car,U10
57145,,,,,,,,,,,0.390693087422,,,,,,,,Car,U10
57200,,,10.0711314622,,,,,,,,,,,,,,,,Car,U10
57250,,,9.82520114072,,,,,,,,,,,,,,,,Car,U10
57301,,,10.0767171881,,,,,,,,,,,,,,,,Car,U10
57350,,,9.1765350845,,,,,,,,,,,,,,,,Car,U10
57450,,,9.49773973701,,,,,,,,,,,,,,,,Car,U10
57451,,,,,,,,,0.602261327497,,,,,,,,,,Car,U10
57504,,,,,,,,,,,0.376767155065,,,,,,,,Car,U10
57554,,,,,,74.9300889962,,,,,,,,,,,,,Car,U10
57605,,,,,,74.8818307535,,,,,,,,,,,,,Car,U10
57660,,,9.93923490545,,,,,,,,,,,,,,,,Car,U10
57708,,,,,,74.8121086431,,,,,,,,,,,,,Car,U10
57760,,,9.3192762332,,,,,,,,,,,,,,,,Car,U10
57810,,,9.6274396372,,,,,,,,,,,,,,,,Car,U10
57917,,,,,,74.673950612,,,,,,,,,,,,,Car,U10
57968,,,,,,74.7258161548,,,,,,,,,,,,,Car,U10
58021,,,13.3168895096,,,,,,,,,,,,,,,,Car,U10
58074,,,,,,,,,,,0.372864011409,,,,,,,,Car,U10
58125,,,,,,,0.0233091323503,,,,,,,,,,,,Car,U10
58180,,,8.55451670416,,,,,,,,,,,,,,,,Car,U10
58230,,,10.2414755481,,,,,,,,,,,,,,,,Car,U10
58280,,,11.688887812,,,,,,,,,,,,,,,,Car,U10
58330,,,10.1551184647,,,,,,,,,,,,,,,,Car,U10
58381,,,10.6148909753,,,,,,,,,,,,,,,,Car,U10
58433,,,11.0882919972,,,,,,,,,,,,,,,,Car,U10
58485,,,,,,,,,,,0.370498661416,,,,,,,,Car,U10
58540,,,12.8719516776,,,,,,,,,,,,,,,,Car,U10
58590,,,11.3620322513,,,,,,,,,,,,,,,,Car,U10
58640,,,9.35049991785,,,,,,,,,,,,,,,,Car,U10
58690,,,8.97559426909,,,,,,,,,,,,,,,,Car,U10
58740,,,10.0724198347,,,,,,,,,,,,,,,,Car,U10
58790,,,11.0056679959,,,,,,,,,,,,,,,,Car,U10
58841,,,,,1.31170132919,,,,,,,,,,,,,,Car,U10
58893,,,,,,,,,,,0.368688513777,,,,,,,,Car,U10
58945,,,,,,,,268.004139427,,,,,,,,,,,Car,U10
59001,,,9.12595338156,,,,,,,,,,,,,,,,Car,U10
59050,,,10.3429651841,,,,,,,,,,,,,,,,Car,U10
59100,,,9.14611625134,,,,,,,,,,,,,,,,Car,U10
59152,,,10.4394308283,,,,,,,,,,,,,,,,Car,U10
59205,,,,,,,,,,,0.367969147832,,,,,,,,Car,U10
59254,,,,,,,0.0800116872659,,,,,,,,,,,,Car,U10
59310,,,,,,77.3844260817,,,,,,,,,,,,,Car,U10
59362,,,9.3964286191,,,,,,,,,,,,,,,,Car,U10
59414,,,,,,,,,,,,31.8664817049,,,,,,,Car,U10
59467,,,,,,,,265.783636453,,,,,,,,,,,Car,U10
59520,,,9.29426058513,,,,,,,,,,,,,,,,Car,U10
59570,,,11.3662368775,,,,,,,,,,,,,,,,Car,U10
59620,,,9.98557001697,,,,,,,,,,,,,,,,Car,U10
59670,,,8.10825863345,,,,,,,,,,,,,,,,Car,U10
59773,,,,,,,,,,,0.369290521682,,,,,,,,Car,U10
59825,,,,,,,,,,,0.36904884758,,,,,,,,Car,U10
59877,,,,,,77.2819836678,,,,,,,,,,,,,Car,U10
59931,,,9.59941055301,,,,,,,,,,,,,,,,Car,U10
59985,,,,,,,,,,,0.371519877496,,,,,,,,Car,U10
60037,,,,,,77.3137769094,,,,,,,,,,,,,Car,U10
60089,,,,,,77.2128829924,,,,,,,,,,,,,Car,U10
60140,,,12.1884537985,,,,,,,,,,,,,,,,Car,U10
60190,,,9.75350684258,,,,,,,,,,,,,,,,Car,U10
60242,,,,,,,,,0.625718433162,,,,,,,,,,Car,U10
60297,,,,,,77.4827800207,,,,,,,,,,,,,Car,U10
60348,,,,,,77.5198387511,,,,,,,,,,,,,Car,U10
60453,,,12.7951225437,,,,,,,,,,,,,,,,Car,U10
60504,,,,,,,,,,0.0283641514933,,,,,,,,,Car,U10
60555,,,,,,78.3493535391,,,,,,,,,,,,,Car,U10
60605,,,,,,78.3721436481,,,,,,,,,,,,,Car,U10
60660,,,12.6885756034,,,,,,,,,,,,,,,,Car,U10
60710,,,8.2922595759,,,,,,,,,,,,,,,,Car,U10
60760,,,12.459432685,,,,,,,,,,,,,,,,Car,U10
60810,,,8.42690406394,,,,,,,,,,,,,,,,Car,U10
60860,,,12.2452727054,,,,,,,,,,,,,,,,Car,U10
60914,,,,,,,,,,,0.370150000967,,,,,,,,Car,U10
60965,,,,,,,,,,,,33.6304015178,,,,,,,Car,U10
61021,,,8.77387583319,,,,,,,,,,,,,,,,Car,U10
61071,,,11.5937680163,,,,,,,,,,,,,,,,Car,U10
61178,,,,,,78.8003515221,,,,,,,,,,,,,Car,U10
61230,,,9.64731500052,,,,,,,,,,,,,,,,Car,U10
61280,,,11.4116404817,,,,,,,,,,,,,,,,Car,U10
61330,,,9.53794681584,,,,,,,,,,,,,,,,Car,U10
61385,,,,,,,,,,,0.372024276454,,,,,,,,Car,U10
61437,,,,,,,,,,0.0384990509377,,,,,,,,,Car,U10
61491,,,,,,78.9351081585,,,,,,,,,,,,,Car,U10
61543,,,,,,,,,,,0.37018011616,,,,,,,,Car,U10
61592,,,,,,,,,,,0.370335666114,,,,,,,,Car,U10
61643,,,,,,,,,,,0.371772176237,,,,,,,,Car,U10
61694,,,,,,79.5841911357,,,,,,,,,,,,,Car,U10
61745,,,,,,79.5205784686,,,,,,,,,,,,,Car,U10
61800,,,9.72438376267,,,,,,,,,,,,,,,,Car,U10
61850,,,11.8499971262,,,,,,,,,,,,,,,,Car,U10
61899,,,,,,,,,,,,,,,,,,,Car,U10
61950,,,10.7531849462,,,,,,,,,,,,,,,,Car,U10
62001,,,8.70395319612,,,,,,,,,,,,,,,,Car,U10
62052,,,10.0136128981,,,,,,,,,,,,,,,,Car,U10
62103,,,,,,,,,,,0.369956694221,,,,,,,,Car,U10
62153,,,,,,,,266.582956425,,,,,,,,,,,Car,U10
62205,,,,,,78.7620949442,,,,,,,,,,,,,Car,U10
62260,,,8.76174277792,,,,,,,,,,,,,,,,Car,U10
62307,,,,,,78.6739537567,,,,,,,,,,,,,Car,U10
62361,,,8.81624482693,,,,,,,,,,,,,,,,Car,U10
62565,,,,,,79.0747391427,,,,,,,,,,,,,Car,U10
62620,,,9.10562511731,,,,,,,,,,,,,,,,Car,U10
62671,,,10.5892080072,,,,,,,,,,,,,,,,Car,U10
62720,,,8.9170364637,,,,,,,,,,,,,,,,Car,U10
62771,,,10.2293391729,,,,,,,,,,,,,,,,Car,U10
62820,,,9.75307421407,,,,,,,,,,,,,,,,Car,U10
62870,,,8.66974502335,,,,,,,,,,,,,,,,Car,U10
62977,,,,,,79.0115008889,,,,,,,,,,,,,Car,U10
63029,,,,,,78.8954675504,,,,,,,,,,,,,Car,U10
63081,,,8.60176389411,,,,,,,,,,,,,,,,Car,U10
63134,,,11.2479338366,,,,,,,,,,,,,,,,Car,U10
63185,,,,,,,,,,,0.366312213741,,,,,,,,Car,U10
63241,,,10.7632318145,,,,,,,,,,,,,,,,Car,U10
63395,,,,,,78.4326193226,,,,,,,,,,,,,Car,U10
63399,,,,,,,,,,,,,,,,,,,Car,U10
63450,,,7.23675236287,,,,,,,,,,,,,,,,Car,U10
63501,,,10.6939147413,,,,,,,,,,,,,,,,Car,U10
63550,,,7.66985037179,,,,,,,,,,,,,,,,Car,U10
63600,,,10.597826891,,,,,,,,,,,,,,,,Car,U10
63703,,,,,,,,,,,0.363818140147,,,,,,,,Car,U10
63753,,,,,,,,,,,0.363464625976,,,,,,,,Car,U10
63806,,,,,,,,,,0.0966480740933,,,,,,,,,Car,U10
63858,,,,,,79.2535209273,,,,,,,,,,,,,Car,U10
63911,,,10.0410710754,,,,,,,,,,,,,,,,Car,U10
64013,,,,,,,,,,,0.360202859683,,,,,,,,Car,U10
64065,,,,,,,,,,,0.360916846927,,,,,,,,Car,U10
64118,,,,,,79.5570160307,,,,,,,,,,,,,Car,U10
64171,,,7.6251109767,,,,,,,,,,,,,,,,Car,U10
64222,,,,,,,,,0.637368674724,,,,,,,,,,Car,U10
64274,,,,,,,,265.184060489,,,,,,,,,,,Car,U10
64328,,,,,,79.1460491749,,,,,,,,,,,,,Car,U10
64381,,,9.58114941773,,,,,,,,,,,,,,,,Car,U10
64432,,,,,3.93042669258,,,,,,,,,,,,,,Car,U10
64501,,,,,,,,,,,,31.324785514,,,,,,,Car,U10
64552,,,,,,,,,,,0.364465223185,,,,,,,,Car,U10
64603,,,,,,,,,,,0.364145683808,,,,,,,,Car,U10
64653,,,,,,,,263.130062303,,,,,,,,,,,Car,U10
64705,,,,,,80.5564466694,,,,,,,,,,,,,Car,U10
64755,,,,,,80.6789693935,,,,,,,,,,,,,Car,U10
64806,,,,,,,,,,0.068264023244,,,,,,,,,Car,U10
64860,,,8.61697111284,,,,,,,,,,,,,,,,Car,U10
64912,,,14.4685988796,,,,,,,,,,,,,,,,Car,U10
64965,,,,,,,,,,,0.364222402738,,,,,,,,Car,U10
65021,,,8.91470076559,,,,,,,,,,,,,,,,Car,U10
65070,,,5.71769016353,,,,,,,,,,,,,,,,Car,U10
65123,,,,,,,,,,,0.362820622511,,,,,,,,Car,U10
65173,,,,,,,,,,0.043863358087,,,,,,,,,Car,U10
65223,,,,,,,,,,,0.36336208401,,,,,,,,Car,U10
65275,,,,,,80.9254675612,,,,,,,,,,,,,Car,U10
65325,,,,,,80.6915094663,,,,,,,,,,,,,Car,U10
65380,,,10.4395582551,,,,,,,,,,,,,,,,Car,U10
65431,,,5.0042917272,,,,,,,,,,,,,,,,Car,U10
65482,,,13.6960464146,,,,,,,,,,,,,,,,Car,U10
65530,,,10.6756699201,,,,,,,,,,,,,,,,Car,U10
65580,,,5.67910290997,,,,,,,,,,,,,,,,Car,U10
65631,,,13.0223834797,,,,,,,,,,,,,,,,Car,U10
65682,,,,,1.75156885518,,,,,,,,,,,,,,Car,U10
65734,,,,,,,0.11259159784,,,,,,,,,,,,Car,U10
65789,,,,,,79.2753106184,,,,,,,,,,,,,Car,U10
65841,,,6.51851400291,,,,,,,,,,,,,,,,Car,U10
65892,,,12.1294409711,,,,,,,,,,,,,,,,Car,U10
65945,,,,,,,,,,,0.374707696146,,,,,,,,Car,U10
65998,,,,,,78.8174461848,,,,,,,,,,,,,Car,U10
66051,,,5.6214306421,,,,,,,,,,,,,,,,Car,U10
66103,,,,,,,,,0.632429443142,,,,,,,,,,Car,U10
66159,,,,,,77.9134082566,,,,,,,,,,,,,Car,U10
66210,,,14.0065602569,,,,,,,,,,,,,,,,Car,U10
66260,,,10.9174633963,,,,,,,,,,,,,,,,Car,U10
66365,,,,,,,,,,,0.379757676162,,,,,,,,Car,U10
66418,,,,,,76.8040999729,,,,,,,,,,,,,Car,U10
66469,,,,,,76.8735635422,,,,,,,,,,,,,Car,U10
66520,,,8.92109233822,,,,,,,,,,,,,,,,Car,U10
66623,,,,,,,,,,,0.383651382789,,,,,,,,Car,U10
66675,,,,,,76.6724241957,,,,,,,,,,,,,Car,U10
66725,,,,,,76.6471669404,,,,,,,,,,,,,Car,U10
66780,,,6.71124414382,,,,,,,,,,,,,,,,Car,U10
66830,,,7.00811600644,,,,,,,,,,,,,,,,Car,U10
66880,,,12.5864010452,,,,,,,,,,,,,,,,Car,U10
66985,,,,,,,,,,,0.385099642138,,,,,,,,Car,U10
67037,,,,,,75.7474624551,,,,,,,,,,,,,Car,U10
67090,,,6.37422611115,,,,,,,,,,,,,,,,Car,U10
67145,,,,,,,,,,,0.383622496603,,,,,,,,Car,U10
67197,,,,,,76.3029973199,,,,,,,,,,,,,Car,U10
67249,,,,,,76.5236343895,,,,,,,,,,,,,Car,U10
67300,,,5.75875100855,,,,,,,,,,,,,,,,Car,U10
67350,,,11.312689621,,,,,,,,,,,,,,,,Car,U10
67400,,,9.25907314183,,,,,,,,,,,,,,,,Car,U10
67553,,,,,,,,265.620624964,,,,,,,,,,,Car,U10
67605,,,,,,78.0993706761,,,,,,,,,,,,,Car,U10
67660,,,8.943774343,,,,,,,,,,,,,,,,Car,U10
67708,,,,,,78.4213306442,,,,,,,,,,,,,Car,U10
67761,,,7.22415058401,,,,,,,,,,,,,,,,Car,U10
67811,,,14.3427827388,,,,,,,,,,,,,,,,Car,U10
67863,,,,,,,,,,,0.38102193066,,,,,,,,Car,U10
67914,,,,,,,0.092763057437,,,,,,,,,,,,Car,U10
67970,,,,,,,,,,,,,,,,,,,Car,U10
68021,,,9.23783125583,,,,,,,,,,,,,,,,Car,U10
68072,,,,,,,,,0.627833128783,,,,,,,,,,Car,U10
68125,,,,,,,,,,,0.369657717052,,,,,,,,Car,U10
68181,,,12.2217056918,,,,,,,,,,,,,,,,Car,U10
68231,,,7.28652154111,,,,,,,,,,,,,,,,Car,U10
68285,,,,,,,,,,,0.361856006229,,,,,,,,Car,U10
68443,,,13.0173365477,,,,,,,,,,,,,,,,Car,U10
68491,,,8.57770218842,,,,,,,,,,,,,,,,Car,U10
68543,,,,,,,,,,,0.35528770166,,,,,,,,Car,U10
68592,,,,,,,,,,,0.354428812473,,,,,,,,Car,U10
68643,,,,,,,,,,,0.354072439588,,,,,,,,Car,U10
68693,,,,,,,0.0520348214785,,,,,,,,,,,,Car,U10
68746,,,,,,79.4575573449,,,,,,,,,,,,,Car,U10
68797,,,,,,79.4869504398,,,,,,,,,,,,,Car,U10
68850,,,10.4127589965,,,,,,,,,,,,,,,,Car,U10
68902,,,8.7697461523,,,,,,,,,,,,,,,,Car,U10
68953,,,,,,,,,,,0.35673138515,,,,,,,,Car,U10
69004,,,,,,,0.063822993821,,,,,,,,,,,,Car,U10
69055,,,,,,80.1029356495,,,,,,,,,,,,,Car,U10
69109,,,,,,80.1443969757,,,,,,,,,,,,,Car,U10
69161,,,7.74834675225,,,,,,,,,,,,,,,,Car,U10
69213,,,,,,,,,0.640751908695,,,,,,,,,,Car,U10
69268,,,,,,79.7966814173,,,,,,,,,,,,,Car,U10
69319,,,,,,79.4654201509,,,,,,,,,,,,,Car,U10
69372,,,9.31368395902,,,,,,,,,,,,,,,,Car,U10
69474,,,,,,,,265.299425473,,,,,,,,,,,Car,U10
69530,,,8.38881816052,,,,,,,,,,,,,,,,Car,U10
69580,,,10.5410753207,,,,,,,,,,,,,,,,Car,U10
69630,,,9.14282160657,,,,,,,,,,,,,,,,Car,U10
69680,,,9.74964952732,,,,,,,,,,,,,,,,Car,U10
69782,,,,,,,,,0.640628474078,,,,,,,,,,Car,U10
69837,,,,,,79.5931075584,,,,,,,,,,,,,Car,U10
69889,,,,,,79.4744845199,,,,,,,,,,,,,Car,U10
69941,,,8.03297746662,,,,,,,,,,,,,,,,Car,U10
70045,,,,,,,,,,0.0573693202938,,,,,,,,,Car,U10
70101,,,9.9763767336,,,,,,,,,,,,,,,,Car,U10
70152,,,9.27711817007,,,,,,,,,,,,,,,,Car,U10
70203,,,,,,,,,,,0.372281164713,,,,,,,,Car,U10
70253,,,,,,,,264.709023623,,,,,,,,,,,Car,U10
70306,,,,,,,,,,0.0434530894991,,,,,,,,,Car,U10
70358,,,,,,79.7288021985,,,,,,,,,,,,,Car,U10
70411,,,7.9903062438,,,,,,,,,,,,,,,,Car,U10
70514,,,,,,,,,,,0.368017156175,,,,,,,,Car,U10
70620,,,7.04744996234,,,,,,,,,,,,,,,,Car,U10
70670,,,11.6871813844,,,,,,,,,,,,,,,,Car,U10
70721,,,9.58083269984,,,,,,,,,,,,,,,,Car,U10
70770,,,11.5081111707,,,,,,,,,,,,,,,,Car,U10
70870,,,10.4856579906,,,,,,,,,,,,,,,,Car,U10
70922,,,,,,,,,0.637736059189,,,,,,,,,,Car,U10
70973,,,,,,,,,,,0.373522797643,,,,,,,,Car,U10
71023,,,,,,,,,,,0.372500479162,,,,,,,,Car,U10
71075,,,,,,79.3615622976,,,,,,,,,,,,,Car,U10
71125,,,,,,79.358965467,,,,,,,,,,,,,Car,U10
71180,,,9.43872921385,,,,,,,,,,,,,,,,Car,U10
71230,,,10.6894454441,,,,,,,,,,,,,,,,Car,U10
71280,,,8.48383986354,,,,,,,,,,,,,,,,Car,U10
71330,,,11.8976669314,,,,,,,,,,,,,,,,Car,U10
71431,,,10.1674260459,,,,,,,,,,,,,,,,Car,U10
71485,,,11.4589243724,,,,,,,,,,,,,,,,Car,U10
71532,,,,,,,,,,,0.368332820102,,,,,,,,Car,U10
71583,,,,,,,,,,,0.367519033172,,,,,,,,Car,U10
71634,,,,,,81.7883176071,,,,,,,,,,,,,Car,U10
71685,,,,,,81.8893503455,,,,,,,,,,,,,Car,U10
71740,,,8.23911562383,,,,,,,,,,,,,,,,Car,U10
71791,,,8.33151891045,,,,,,,,,,,,,,,,Car,U10
71840,,,8.56521576705,,,,,,,,,,,,,,,,Car,U10
71890,,,9.06035765364,,,,,,,,,,,,,,,,Car,U10
71940,,,10.4257334881,,,,,,,,,,,,,,,,Car,U10
71992,,,,9.8066012614,,,,,,,,,,,,,,,Car,U10
72046,,,,,,,,,,,0.362802643381,,,,,,,,Car,U10
72097,,,,,,81.4281626378,,,,,,,,,,,,,Car,U10
72151,,,10.8268163317,,,,,,,,,,,,,,,,Car,U10
72205,,,,,,,,,,,0.360619549707,,,,,,,,Car,U10
72258,,,,,,81.082033579,,,,,,,,,,,,,Car,U10
72311,,,,,,80.7743292641,,,,,,,,,,,,,Car,U10
72361,,,10.3653657797,,,,,,,,,,,,,,,,Car,U10
72413,,,,,,,,,,,0.36109509019,,,,,,,,Car,U10
72463,,,,,,,,,,,0.358665898635,,,,,,,,Car,U10
72514,,,,,,,0.090910216482,,,,,,,,,,,,Car,U10
72565,,,,,,80.6935625456,,,,,,,,,,,,,Car,U10
72621,,,7.58975104457,,,,,,,,,,,,,,,,Car,U10
72670,,,11.4904202325,,,,,,,,,,,,,,,,Car,U10
72720,,,9.42662839858,,,,,,,,,,,,,,,,Car,U10
72770,,,9.09498172069,,,,,,,,,,,,,,,,Car,U10
72820,,,11.5632085248,,,,,,,,,,,,,,,,Car,U10
72873,,,,,,,,,,,0.356658050204,,,,,,,,Car,U10
72923,,,,,,,,,,,0.356068123257,,,,,,,,Car,U10
72975,,,,,,,,266.841984199,,,,,,,,,,,Car,U10
73029,,,,,,79.8769090539,,,,,,,,,,,,,Car,U10
73081,,,9.43871872537,,,,,,,,,,,,,,,,Car,U10
73132,,,9.05961382823,,,,,,,,,,,,,,,,Car,U10
73185,,,,,,,,,,,0.357591779989,,,,,,,,Car,U10
73241,,,11.4258082197,,,,,,,,,,,,,,,,Car,U10
73291,,,8.307713001,,,,,,,,,,,,,,,,Car,U10
73341,,,,9.80661874603,,,,,,,,,,,,,,,Car,U10
73393,,,,,,,,,,,0.350696953051,,,,,,,,Car,U10
73444,,,,,,,,,,,0.349543865058,,,,,,,,Car,U10
73495,,,,,,80.5769979585,,,,,,,,,,,,,Car,U10
73545,,,,,,80.5924314064,,,,,,,,,,,,,Car,U10
73600,,,8.16337825334,,,,,,,,,,,,,,,,Car,U10
73650,,,11.2332390731,,,,,,,,,,,,,,,,Car,U10
73700,,,10.2414442738,,,,,,,,,,,,,,,,Car,U10
73750,,,11.5564489187,,,,,,,,,,,,,,,,Car,U10
73855,,,,,,,,,,,0.344863082383,,,,,,,,Car,U10
73908,,,,,,80.5673898031,,,,,,,,,,,,,Car,U10
73963,,,9.10847986001,,,,,,,,,,,,,,,,Car,U10
74063,,,,,,,,,,,0.348590840922,,,,,,,,Car,U10
74166,,,,,,,,,,,0.353482864534,,,,,,,,Car,U10
74272,,,8.48759026277,,,,,,,,,,,,,,,,Car,U10
74373,,,,,,,,,,,0.357983270581,,,,,,,,Car,U10
74481,,,7.25457524335,,,,,,,,,,,,,,,,Car,U10
74530,,,6.39070889495,,,,,,,,,,,,,,,,Car,U10
74580,,,10.2548503953,,,,,,,,,,,,,,,,Car,U10
74630,,,14.7329455097,,,,,,,,,,,,,,,,Car,U10
74680,,,12.5093378639,,,,,,,,,,,,,,,,Car,U10
74781,,,9.6046211661,,,,,,,,,,,,,,,,Car,U10
74883,,,,,,,,,,,0.357730162797,,,,,,,,Car,U10
74933,,,,,,,0.057239081975,,,,,,,,,,,,Car,U10
74985,,,,,,83.3080188217,,,,,,,,,,,,,Car,U10
75040,,,9.46661844214,,,,,,,,,,,,,,,,Car,U10
75090,,,13.6049493597,,,,,,,,,,,,,,,,Car,U10
75141,,,13.8586518775,,,,,,,,,,,,,,,,Car,U10
75191,,,11.5658132751,,,,,,,,,,,,,,,,Car,U10
75297,,,,,,83.3936860898,,,,,,,,,,,,,Car,U10
75354,,,,,,83.3655158197,,,,,,,,,,,,,Car,U10
75401,,,14.2696148601,,,,,,,,,,,,,,,,Car,U10
75504,,,11.4502974573,,,,,,,,,,,,,,,,Car,U10
75560,,,10.2859810946,,,,,,,,,,,,,,,,Car,U10
75606,,,,,,83.0776732943,,,,,,,,,,,,,Car,U10
75660,,,15.4781264784,,,,,,,,,,,,,,,,Car,U10
75711,,,12.346929505,,,,,,,,,,,,,,,,Car,U10
75760,,,9.99450263916,,,,,,,,,,,,,,,,Car,U10
75811,,,6.35164713892,,,,,,,,,,,,,,,,Car,U10
75915,,,,,,,,,,,0.357782366775,,,,,,,,Car,U10
75968,,,,,,82.6574381482,,,,,,,,,,,,,Car,U10
76021,,,6.35278054709,,,,,,,,,,,,,,,,Car,U10
76128,,,,,,,,265.305609451,,,,,,,,,,,Car,U10
76180,,,10.1914053294,,,,,,,,,,,,,,,,Car,U10
76230,,,7.66140343141,,,,,,,,,,,,,,,,Car,U10
76281,,,,,3.5261416435,,,,,,,,,,,,,,Car,U10
76334,,,,,,,,,,,0.359354829659,,,,,,,,Car,U10
76388,,,,,,80.9960573115,,,,,,,,,,,,,Car,U10
76441,,,12.448839283,,,,,,,,,,,,,,,,Car,U10
76500,,,8.65648572967,,,,,,,,,,,,,,,,Car,U10
76550,,,9.31766247122,,,,,,,,,,,,,,,,Car,U10
76600,,,13.2817913613,,,,,,,,,,,,,,,,Car,U10
76651,,,14.1478349651,,,,,,,,,,,,,,,,Car,U10
76701,,,11.2368757777,,,,,,,,,,,,,,,,Car,U10
76750,,,6.62677651776,,,,,,,,,,,,,,,,Car,U10
76853,,,,,,,,,,,0.369403743401,,,,,,,,Car,U10
76905,,,,,,,,,,,0.370413412704,,,,,,,,Car,U10
76960,,,6.79618016128,,,,,,,,,,,,,,,,Car,U10
77011,,,11.0794470106,,,,,,,,,,,,,,,,Car,U10
77065,,,,,,,,,,,0.372318558462,,,,,,,,Car,U10
77117,,,,,,79.4385006859,,,,,,,,,,,,,Car,U10
77168,,,,,,79.2873129826,,,,,,,,,,,,,Car,U10
77278,,,,,,,,,,,,31.6899653873,,,,,,,Car,U10
77330,,,15.3835892005,,,,,,,,,,,,,,,,Car,U10
77380,,,10.9382772035,,,,,,,,,,,,,,,,Car,U10
77483,,,,,,,,,,,,,,,,8.44756,,,Car,U10
77534,,,,,,80.2992739693,,,,,,,,,,,,,Car,U10
77585,,,,,,79.770513976,,,,,,,,,,,,,Car,U10
77640,,,5.59173995097,,,,,,,,,,,,,,,,Car,U10
77690,,,6.98585882658,,,,,,,,,,,,,,,,Car,U10
77740,,,13.5548765182,,,,,,,,,,,,,,,,Car,U10
77790,,,13.6250391394,,,,,,,,,,,,,,,,Car,U10
77842,,,,,,,,,0.635026928484,,,,,,,,,,Car,U10
78050,,,14.9647285014,,,,,,,,,,,,,,,,Car,U10
78101,,,,,,,,,0.634972183466,,,,,,,,,,Car,U10
78155,,,,,,,,,,,0.38098795729,,,,,,,,Car,U10
78209,,,,,,79.7643711189,,,,,,,,,,,,,Car,U10
78261,,,5.66501912823,,,,,,,,,,,,,,,,Car,U10
78312,,,,,5.0749420125,,,,,,,,,,,,,,Car,U10
78366,,,,,,,,,,,0.383576754925,,,,,,,,Car,U10
78418,,,,,,80.4942149325,,,,,,,,,,,,,Car,U10
78470,,,,,,,,,,,,,,,,,,,Car,U10
78521,,,,,,,,,0.65052481488,,,,,,,,,,Car,U10
78573,,,,,,,,,,,0.382005620901,,,,,,,,Car,U10
78623,,,,,,,,,,,0.382518095384,,,,,,,,Car,U10
78675,,,,,,81.0510265184,,,,,,,,,,,,,Car,U10
78726,,,,,,81.1512082553,,,,,,,,,,,,,Car,U10
78781,,,7.79576786495,,,,,,,,,,,,,,,,Car,U10
78834,,,,,,80.943462985,,,,,,,,,,,,,Car,U10
78885,,,,,,,,,,,0.384319866778,,,,,,,,Car,U10
78937,,,,,,80.7540170619,,,,,,,,,,,,,Car,U10
78991,,,6.64918736095,,,,,,,,,,,,,,,,Car,U10
79042,,,,,,,,,0.646394942733,,,,,,,,,,Car,U10
79097,,,,,,,0.177974731861,,,,,,,,,,,,Car,U10
79150,,,8.02346695515,,,,,,,,,,,,,,,,Car,U10
79200,,,7.78652131004,,,,,,,,,,,,,,,,Car,U10
79251,,,9.21637710881,,,,,,,,,,,,,,,,Car,U10
79302,,,,,,,,,0.630627085213,,,,,,,,,,Car,U10
79357,,,,,,76.7020312018,,,,,,,,,,,,,Car,U10
79408,,,,,,76.0477304066,,,,,,,,,,,,,Car,U10
79511,,,12.0113658574,,,,,,,,,,,,,,,,Car,U10
79613,,,,,,,,,,,0.429632140306,,,,,,,,Car,U10
79664,,,,,,,,,,,,30.6462936177,,,,,,,Car,U10
79714,,,,,,72.4889038033,,,,,,,,,,,,,Car,U10
79770,,,11.1550115735,,,,,,,,,,,,,,,,Car,U10
79820,,,13.1034522414,,,,,,,,,,,,,,,,Car,U10
79870,,,12.0007662216,,,,,,,,,,,,,,,,Car,U10
79920,,,7.5413934377,,,,,,,,,,,,,,,,Car,U10
79971,,,7.38861049044,,,,,,,,,,,,,,,,Car,U10
80025,,,,,,,,,,,0.484431853576,,,,,,,,Car,U10
80077,,,,,,66.7360149606,,,,,,,,,,,,,Car,U10
80340,,,8.33222895781,,,,,,,,,,,,,,,,Car,U10
80388,,,,,,62.0275433563,,,,,,,,,,,,,Car,U10
80545,,,,,,58.2475518799,,,,,,,,,,,,,Car,U10
80600,,,10.421194644,,,,,,,,,,,,,,,,Car,U10
80650,,,8.33036341683,,,,,,,,,,,,,,,,Car,U10
80700,,,7.76978898804,,,,,,,,,,,,,,,,Car,U10
80750,,,7.90054648784,,,,,,,,,,,,,,,,Car,U10
80852,,,,,,,,,,,0.615625358283,,,,,,,,Car,U10
80904,,,,,,,,,,,0.623306030386,,,,,,,,Car,U10
80956,,,,,,,0.549937537542,,,,,,,,,,,,Car,U10
81011,,,9.69224894346,,,,,,,,,,,,,,,,Car,U10
81114,,,,,,,,,,,0.657658729239,,,,,,,,Car,U10
81168,,,,,,43.4668804954,,,,,,,,,,,,,Car,U10
81221,,,11.0861041688,,,,,,,,,,,,,,,,Car,U10
81326,,,,,,,,,,,0.686059963105,,,,,,,,Car,U10
81431,,,12.3162651194,,,,,,,,,,,,,,,,Car,U10
81484,,,12.8714632106,,,,,,,,,,,,,,,,Car,U10
81583,,,,,,,,,,,0.702192645811,,,,,,,,Car,U10
81633,,,,,,,,,,,,31.8830872094,,,,,,,Car,U10
81686,,,,,,48.8160309761,,,,,,,,,,,,,Car,U10
81741,,,6.89087033694,,,,,,,,,,,,,,,,Car,U10
81791,,,14.074199241,,,,,,,,,,,,,,,,Car,U10
81895,,,,,,47.476647944,,,,,,,,,,,,,Car,U10
81945,,,,,,47.2494804204,,,,,,,,,,,,,Car,U10
82000,,,10.7714770804,,,,,,,,,,,,,,,,Car,U10
82051,,,11.3020520078,,,,,,,,,,,,,,,,Car,U10
82101,,,9.03857777171,,,,,,,,,,,,,,,,Car,U10
82153,,,,,,,,,0.40273641522,,,,,,,,,,Car,U10
82205,,,,,,,,,,,0.713160289135,,,,,,,,Car,U10
82258,,,,,,46.7458778931,,,,,,,,,,,,,Car,U10
82310,,,8.7306454959,,,,,,,,,,,,,,,,Car,U10
82365,,,,,,,,,,,0.713119002798,,,,,,,,Car,U10
82418,,,,,,46.6276602412,,,,,,,,,,,,,Car,U10
82469,,,,,,,,,,,,,,,,,,,Car,U10
82521,,,10.5391309179,,,,,,,,,,,,,,,,Car,U10
82570,,,9.99536542899,,,,,,,,,,,,,,,,Car,U10
82620,,,10.3643615117,,,,,,,,,,,,,,,,Car,U10
82670,,,9.38770866632,,,,,,,,,,,,,,,,Car,U10
82773,,,,,,,,,,,0.712433135389,,,,,,,,Car,U10
82823,,,,,,,,,,,0.712581837461,,,,,,,,Car,U10
82873,,,,,,,,273.978935379,,,,,,,,,,,Car,U10
82925,,,,,,52.8124237241,,,,,,,,,,,,,Car,U10
82980,,,9.86954014847,,,,,,,,,,,,,,,,Car,U10
83030,,,10.979953689,,,,,,,,,,,,,,,,Car,U10
83080,,,8.88916043355,,,,,,,,,,,,,,,,Car,U10
83130,,,9.02687096334,,,,,,,,,,,,,,,,Car,U10
83237,,,,,,56.1498707604,,,,,,,,,,,,,Car,U10
83289,,,,,,56.1415879718,,,,,,,,,,,,,Car,U10
83341,,,8.1937069002,,,,,,,,,,,,,,,,Car,U10
83446,,,,,,,,,,,0.713576812313,,,,,,,,Car,U10
83501,,,7.55662855004,,,,,,,,,,,,,,,,Car,U10
83551,,,9.81927289293,,,,,,,,,,,,,,,,Car,U10
83653,,,,,,,,,,,0.712437075329,,,,,,,,Car,U10
83703,,,,,,,,,,,0.712398659021,,,,,,,,Car,U10
83755,,,,,,56.1665299536,,,,,,,,,,,,,Car,U10
83806,,,,,,,,,,0.0486549471477,,,,,,,,,Car,U10
83861,,,13.7975733308,,,,,,,,,,,,,,,,Car,U10
83911,,,10.4530352929,,,,,,,,,,,,,,,,Car,U10
83966,,,,,,,,,,,0.711405271611,,,,,,,,Car,U10
84018,,,,,,55.8793749663,,,,,,,,,,,,,Car,U10
84071,,,9.86174023892,,,,,,,,,,,,,,,,Car,U10
84122,,,10.4897641948,,,,,,,,,,,,,,,,Car,U10
84172,,,,,,,,,,,0.71081798136,,,,,,,,Car,U10
84224,,,,,,,,,,,0.710874380069,,,,,,,,Car,U10
84277,,,,,,55.7290103984,,,,,,,,,,,,,Car,U10
84329,,,,,,55.6568475643,,,,,,,,,,,,,Car,U10
84382,,,10.9405662748,,,,,,,,,,,,,,,,Car,U10
84435,,,,,,,,,,0.0193558505934,,,,,,,,,Car,U10
84497,,,,,,57.7262895049,,,,,,,,,,,,,Car,U10
84540,,,12.4322628631,,,,,,,,,,,,,,,,Car,U10
84590,,,11.2530823717,,,,,,,,,,,,,,,,Car,U10
84640,,,10.6359402276,,,,,,,,,,,,,,,,Car,U10
84743,,,,,,,,,,,0.709004455828,,,,,,,,Car,U10
84846,,,,,,58.1683719903,,,,,,,,,,,,,Car,U10
84900,,,,,,,,,,,,,,,,,,,Car,U10
84951,,,10.7982432718,,,,,,,,,,,,,,,,Car,U10
85005,,,,,,,,,,,0.708017388187,,,,,,,,Car,U10
85058,,,,,,58.2812901023,,,,,,,,,,,,,Car,U10
85108,,,,,,58.2971454512,,,,,,,,,,,,,Car,U10
85161,,,9.73598236722,,,,,,,,,,,,,,,,Car,U10
85216,,,,,,,,,,,0.707268525367,,,,,,,,Car,U10
85270,,,10.1544955831,,,,,,,,,,,,,,,,Car,U10
85321,,,8.5112166915,,,,,,,,,,,,,,,,Car,U10
85371,,,10.5034570997,,,,,,,,,,,,,,,,Car,U10
85428,,,,,,,,,,,0.705836283691,,,,,,,,Car,U10
85477,,,,,,58.5081546564,,,,,,,,,,,,,Car,U10
85530,,,10.2785728909,,,,,,,,,,,,,,,,Car,U10
85580,,,9.79491979905,,,,,,,,,,,,,,,,Car,U10
85630,,,9.41630997707,,,,,,,,,,,,,,,,Car,U10
85680,,,9.5019152104,,,,,,,,,,,,,,,,Car,U10
85730,,,10.9341221289,,,,,,,,,,,,,,,,Car,U10
85781,,,,,1.57936489997,,,,,,,,,,,,,,Car,U10
85833,,,,,,,,,,,0.705034507007,,,,,,,,Car,U10
85884,,,,,,,,,,,0.705037524604,,,,,,,,Car,U10
85938,,,,,,60.1665363803,,,,,,,,,,,,,Car,U10
86042,,,11.0384905177,,,,,,,,,,,,,,,,Car,U10
86047,,,,,,,,,,,0.7033497051,,,,,,,,Car,U10
86094,,,,,,,,,,,,29.4776133277,,,,,,,Car,U10
86150,,,11.1013241186,,,,,,,,,,,,,,,,Car,U10
86200,,,10.1109854779,,,,,,,,,,,,,,,,Car,U10
86251,,,10.1416577306,,,,,,,,,,,,,,,,Car,U10
86302,,,8.40374994883,,,,,,,,,,,,,,,,Car,U10
86352,,,,,,,,,,,0.703271876133,,,,,,,,Car,U10
86404,,,,,,,,,,0.0657695112249,,,,,,,,,Car,U10
86456,,,,,,59.7179668833,,,,,,,,,,,,,Car,U10
86515,,,10.04117559,,,,,,,,,,,,,,,,Car,U10
86560,,,9.85198879999,,,,,,,,,,,,,,,,Car,U10
86663,,,,,,,,,,,0.70241057795,,,,,,,,Car,U10
86712,,,,,,,,,,,0.702730645457,,,,,,,,Car,U10
86763,,,,,,,,,,,0.703183918997,,,,,,,,Car,U10
86814,,,,,,,,,,0.0455330279437,,,,,,,,,Car,U10
86870,,,9.30196388272,,,,,,,,,,,,,,,,Car,U10
86921,,,10.0976107058,,,,,,,,,,,,,,,,Car,U10
86968,,,,,,,,,,,,,,,,,,,Car,U10
87020,,,9.09832454209,,,,,,,,,,,,,,,,Car,U10
87070,,,10.9922757511,,,,,,,,,,,,,,,,Car,U10
87120,,,9.96992055205,,,,,,,,,,,,,,,,Car,U10
87170,,,9.3642461911,,,,,,,,,,,,,,,,Car,U10
87222,,,,9.80657852362,,,,,,,,,,,,,,,Car,U10
87274,,,,,,,,,,,0.702866283383,,,,,,,,Car,U10
87328,,,,,,59.5681869793,,,,,,,,,,,,,Car,U10
87381,,,10.1986117604,,,,,,,,,,,,,,,,Car,U10
87485,,,,,,,,,,,0.70295735445,,,,,,,,Car,U10
87540,,,9.15337288966,,,,,,,,,,,,,,,,Car,U10
87590,,,11.337418811,,,,,,,,,,,,,,,,Car,U10
87640,,,8.30119674403,,,,,,,,,,,,,,,,Car,U10
87690,,,8.82826808868,,,,,,,,,,,,,,,,Car,U10
87740,,,9.82511814138,,,,,,,,,,,,,,,,Car,U10
87791,,,10.7910253041,,,,,,,,,,,,,,,,Car,U10
87845,,,,,,,,,,,0.70208007976,,,,,,,,Car,U10
87897,,,,,,59.570827592,,,,,,,,,,,,,Car,U10
87951,,,10.6531079074,,,,,,,,,,,,,,,,Car,U10
88002,,,11.5657580466,,,,,,,,,,,,,,,,Car,U10
88053,,,,,,,,,,,0.702804544174,,,,,,,,Car,U10
88104,,,,,,,,,,,,32.7524450423,,,,,,,Car,U10
88157,,,,,,59.6106464374,,,,,,,,,,,,,Car,U10
88209,,,,,,59.5276840527,,,,,,,,,,,,,Car,U10
88315,,,,,,,,,,,0.70296241327,,,,,,,,Car,U10
88368,,,,,,59.5096594569,,,,,,,,,,,,,Car,U10
88422,,,10.6131279612,,,,,,,,,,,,,,,,Car,U10
88473,,,9.71317741083,,,,,,,,,,,,,,,,Car,U10
88523,,,,,,,,,,,0.702662807092,,,,,,,,Car,U10
88575,,,,,,59.3585534591,,,,,,,,,,,,,Car,U10
88625,,,,,,59.51752045,,,,,,,,,,,,,Car,U10
88680,,,9.70203343259,,,,,,,,,,,,,,,,Car,U10
88730,,,9.53940335775,,,,,,,,,,,,,,,,Car,U10
88780,,,9.92551419252,,,,,,,,,,,,,,,,Car,U10
88831,,,12.9215430892,,,,,,,,,,,,,,,,Car,U10
88885,,,,,,,,,,,0.700636898597,,,,,,,,Car,U10
88937,,,,,,59.3616203687,,,,,,,,,,,,,Car,U10
88988,,,,,,59.3591450406,,,,,,,,,,,,,Car,U10
89042,,,4.16276157942,,,,,,,,,,,,,,,,Car,U10
89095,,,,,,,,,,,0.69917660673,,,,,,,,Car,U10
89145,,,,,,,0.174159817977,,,,,,,,,,,,Car,U10
89200,,,14.2882617947,,,,,,,,,,,,,,,,Car,U10
89250,,,10.526980951,,,,,,,,,,,,,,,,Car,U10
89300,,,12.3660043775,,,,,,,,,,,,,,,,Car,U10
89350,,,9.21889411997,,,,,,,,,,,,,,,,Car,U10
89399,,,,,,,,,,,,,,,,,,,Car,U10
89450,,,9.09551688481,,,,,,,,,,,,,,,,Car,U10
89501,,,10.5724729013,,,,,,,,,,,,,,,,Car,U10
89553,,,,,,,,,,,0.696281309988,,,,,,,,Car,U10
89603,,,,,,,,,,,0.696800487783,,,,,,,,Car,U10
89655,,,,,,60.5379934462,,,,,,,,,,,,,Car,U10
89705,,,,,,60.4958882899,,,,,,,,,,,,,Car,U10
89760,,,8.69976902987,,,,,,,,,,,,,,,,Car,U10
89807,,,,,,60.5283586429,,,,,,,,,,,,,Car,U10
89861,,,11.8547332771,,,,,,,,,,,,,,,,Car,U10
89911,,,11.2595473706,,,,,,,,,,,,,,,,Car,U10
89965,,,,,,,,,,,0.696430753646,,,,,,,,Car,U10
90017,,,,,,61.2086832075,,,,,,,,,,,,,Car,U10
90071,,,9.69599073037,,,,,,,,,,,,,,,,Car,U10
90174,,,,,,,,,,,,32.6603017821,,,,,,,Car,U10
90231,,,10.0260795708,,,,,,,,,,,,,,,,Car,U10
90332,,,,,2.111192988,,,,,,,,,,,,,,Car,U10
90384,,,,,,,,,,,0.695963664332,,,,,,,,Car,U10
90434,,,,,,59.9840928914,,,,,,,,,,,,,Car,U10
90485,,,,,,59.7954387887,,,,,,,,,,,,,Car,U10
90540,,,10.7335626016,,,,,,,,,,,,,,,,Car,U10
90590,,,12.3015034369,,,,,,,,,,,,,,,,Car,U10
90641,,,7.06569777199,,,,,,,,,,,,,,,,Car,U10
90691,,,10.7266308507,,,,,,,,,,,,,,,,Car,U10
90742,,,11.6984882315,,,,,,,,,,,,,,,,Car,U10
90798,,,,,,59.8809418756,,,,,,,,,,,,,Car,U10
90850,,,9.44592601924,,,,,,,,,,,,,,,,Car,U10
90898,,,,,,,,,,,,,,,,,,,Car,U10
90950,,,13.0414375913,,,,,,,,,,,,,,,,Car,U10
91000,,,7.89587218904,,,,,,,,,,,,,,,,Car,U10
91052,,,7.24775137642,,,,,,,,,,,,,,,,Car,U10
91105,,,,,,,,,,,0.697693895046,,,,,,,,Car,U10
91161,,,8.79625381323,,,,,,,,,,,,,,,,Car,U10
91211,,,10.1597956194,,,,,,,,,,,,,,,,Car,U10
91265,,,,,,,,,,,0.697001158607,,,,,,,,Car,U10
91318,,,,,,61.5434792437,,,,,,,,,,,,,Car,U10
91420,,,10.5168684858,,,,,,,,,,,,,,,,Car,U10
91421,,,,,,,,,0.511397975811,,,,,,,,,,Car,U10
91523,,,,,,,,,,,0.697041279293,,,,,,,,Car,U10
91574,,,,,,61.2299746856,,,,,,,,,,,,,Car,U10
91625,,,,,,60.7213209725,,,,,,,,,,,,,Car,U10
91680,,,7.9391903618,,,,,,,,,,,,,,,,Car,U10
91731,,,11.9382260922,,,,,,,,,,,,,,,,Car,U10
91780,,,7.42195758116,,,,,,,,,,,,,,,,Car,U10
91830,,,10.751056737,,,,,,,,,,,,,,,,Car,U10
91880,,,7.9318972135,,,,,,,,,,,,,,,,Car,U10
91934,,,,,,,,,,,0.698544106346,,,,,,,,Car,U10
91984,,,,,,,,272.888083745,,,,,,,,,,,Car,U10
92035,,,,,,58.8621066562,,,,,,,,,,,,,Car,U10
92088,,,,,,58.9193878821,,,,,,,,,,,,,Car,U10
92141,,,9.19202350524,,,,,,,,,,,,,,,,Car,U10
92194,,,,,,,,,,,0.699958008843,,,,,,,,Car,U10
92246,,,,,,,,276.078007828,,,,,,,,,,,Car,U10
92301,,,13.101540644,,,,,,,,,,,,,,,,Car,U10
92350,,,8.97097392903,,,,,,,,,,,,,,,,Car,U10
92505,,,,,,,,,,,0.698843097108,,,,,,,,Car,U10
92560,,,13.0813745509,,,,,,,,,,,,,,,,Car,U10
92610,,,6.74755178821,,,,,,,,,,,,,,,,Car,U10
92660,,,6.73922836182,,,,,,,,,,,,,,,,Car,U10
92710,,,12.0547657635,,,,,,,,,,,,,,,,Car,U10
92760,,,13.9355176312,,,,,,,,,,,,,,,,Car,U10
92810,,,11.0376053771,,,,,,,,,,,,,,,,Car,U10
92860,,,7.97270747715,,,,,,,,,,,,,,,,Car,U10
92965,,,,,,,,,,,0.695598230474,,,,,,,,Car,U10
93018,,,,,,57.0839688316,,,,,,,,,,,,,Car,U10
93070,,,12.4209883445,,,,,,,,,,,,,,,,Car,U10
93120,,,10.7064463801,,,,,,,,,,,,,,,,Car,U10
93171,,,7.63348998676,,,,,,,,,,,,,,,,Car,U10
93226,,,,,,,,,,,0.693557783605,,,,,,,,Car,U10
93275,,,,,,,,,,0.0724023521572,,,,,,,,,Car,U10
93329,,,,,,58.0574982237,,,,,,,,,,,,,Car,U10
93381,,,6.17624574771,,,,,,,,,,,,,,,,Car,U10
93487,,,,,,,,,,,0.692489451772,,,,,,,,Car,U10
93540,,,7.48838952169,,,,,,,,,,,,,,,,Car,U10
93590,,,12.6098182909,,,,,,,,,,,,,,,,Car,U10
93640,,,11.7794333571,,,,,,,,,,,,,,,,Car,U10
93690,,,6.83080157442,,,,,,,,,,,,,,,,Car,U10
93741,,,,,,,,,0.492661558434,,,,,,,,,,Car,U10
93793,,,,,,,,,,,0.69026149132,,,,,,,,Car,U10
93844,,,,,,,,,,0.0200378696635,,,,,,,,,Car,U10
93897,,,,,,59.6364787693,,,,,,,,,,,,,Car,U10
93950,,,9.72851777699,,,,,,,,,,,,,,,,Car,U10
94004,,,,,,,,,,,0.689223292264,,,,,,,,Car,U10
94054,,,,,,,,,,,0.689002461475,,,,,,,,Car,U10
94107,,,,,,,,272.557720378,,,,,,,,,,,Car,U10
94162,,,7.1497387903,,,,,,,,,,,,,,,,Car,U10
94213,,,,,,,,,,,0.688208461755,,,,,,,,Car,U10
94264,,,,,,,,,,,0.687783399406,,,,,,,,Car,U10
94317,,,,,,,,274.050897702,,,,,,,,,,,Car,U10
94370,,,12.3332205905,,,,,,,,,,,,,,,,Car,U10
94426,,,8.30121883871,,,,,,,,,,,,,,,,Car,U10
94471,,,,9.80656892241,,,,,,,,,,,,,,,Car,U10
94523,,,,,,,0.0672839710057,,,,,,,,,,,,Car,U10
94574,,,,,,60.1289855228,,,,,,,,,,,,,Car,U10
94626,,,,,,60.199742873,,,,,,,,,,,,,Car,U10
94681,,,9.1520505528,,,,,,,,,,,,,,,,Car,U10
94730,,,11.3520470629,,,,,,,,,,,,,,,,Car,U10
94832,,,10.6104321062,,,,,,,,,,,,,,,,Car,U10
