time,activityrecognition#0,activityrecognition#1,android.sensor.accelerometer#0,android.sensor.gravity#0,android.sensor.linear_acceleration#0,android.sensor.orientation#0,android.sensor.gyroscope_uncalibrated#0,android.sensor.magnetic_field_uncalibrated#0,android.sensor.rotation_vector#0,android.sensor.gyroscope#0,android.sensor.game_rotation_vector#0,android.sensor.magnetic_field#0,android.sensor.pressure#0,android.sensor.light#0,sound#0,speed#0,android.sensor.proximity#0,android.sensor.step_counter#0,target,user
4,,,10.0308817214,,,,,,,,,,,,,,,,Train,U7
57,,,12.5000413508,,,,,,,,,,,,,,,,Train,U7
107,,,10.9671504234,,,,,,,,,,,,,,,,Train,U7
157,,,,,,,0.666502970529,,,,,,,,,,,,Train,U7
216,,,,,,,0.292422672966,,,,,,,,,,,,Train,U7
262,,,,,,,,,,,,,,,,,,,Train,U7
314,,,,,,135.319988277,,,,,,,,,,,,,Train,U7
367,,,,,,,,,,,0.330374299091,,,,,,,,Train,U7
417,,,,,,136.465819236,,,,,,,,,,,,,Train,U7
465,,,,,1.14099680972,,,,,,,,,,,,,,Train,U7
516,,,,,,,0.325049193319,,,,,,,,,,,,Train,U7
576,,,,,,,1.27577098795,,,,,,,,,,,,Train,U7
675,,,,,,134.401202299,,,,,,,,,,,,,Train,U7
728,,,,,,139.769519365,,,,,,,,,,,,,Train,U7
777,,,,,,146.907406927,,,,,,,,,,,,,Train,U7
828,,,,,,152.033811277,,,,,,,,,,,,,Train,U7
879,,,,,,,1.32089636142,,,,,,,,,,,,Train,U7
939,,,,,,,0.797415718262,,,,,,,,,,,,Train,U7
987,,,,,,165.143160622,,,,,,,,,,,,,Train,U7
1036,,,,,,160.791249805,,,,,,,,,,,,,Train,U7
1141,,,,,,155.957140424,,,,,,,,,,,,,Train,U7
1189,,,,,,153.647829693,,,,,,,,,,,,,Train,U7
1240,,,10.3218204239,,,,,,,,,,,,,,,,Train,U7
1297,,,,,,,0.888380379888,,,,,,,,,,,,Train,U7
1348,,,,,,,0.578623198929,,,,,,,,,,,,Train,U7
1398,,,,,,153.054163657,,,,,,,,,,,,,Train,U7
1448,,,,9.80664746065,,,,,,,,,,,,,,,Train,U7
1506,,,,,,152.604115606,,,,,,,,,,,,,Train,U7
1556,,,,,,152.68229583,,,,,,,,,,,,,Train,U7
1609,,,,,,151.847450222,,,,,,,,,,,,,Train,U7
1660,,,,,,,1.095763516,,,,,,,,,,,,Train,U7
1708,,,,,,148.856975026,,,,,,,,,,,,,Train,U7
1764,,,,,,,,,,,,,,,78.22741414232276,,,,Train,U7
1815,,,,,,139.210666386,,,,,,,,,,,,,Train,U7
1871,,,,,3.60199276231,,,,,,,,,,,,,,Train,U7
1913,,,10.6141790888,,,,,,,,,,,,,,,,Train,U7
1967,,,,,7.05378603015,,,,,,,,,,,,,,Train,U7
2020,,,,,,,1.13822082191,,,,,,,,,,,,Train,U7
2068,,,,,,,,,,,0.189171828939,,,,,,,,Train,U7
2122,,,12.0459398663,,,,,,,,,,,,,,,,Train,U7
2176,,,,,,127.440327033,,,,,,,,,,,,,Train,U7
2227,,,,,,131.050215347,,,,,,,,,,,,,Train,U7
2278,,,,,,132.920811833,,,,,,,,,,,,,Train,U7
2327,,,,,,131.299694785,,,,,,,,,,,,,Train,U7
2380,,,,,,,0.952627855207,,,,,,,,,,,,Train,U7
2442,,,,,,,2.3650950836,,,,,,,,,,,,Train,U7
2486,,,,,,130.429258138,,,,,,,,,,,,,Train,U7
2536,,,,,,,,,,,0.282891217425,,,,,,,,Train,U7
2589,,,,,,132.39792595,,,,,,,,,,,,,Train,U7
2638,,,,,,126.302610511,,,,,,,,,,,,,Train,U7
2690,,,,,,122.496737285,,,,,,,,,,,,,Train,U7
2741,,,,,,,0.572153477538,,,,,,,,,,,,Train,U7
2800,,,,,,,1.20805117,,,,,,,,,,,,Train,U7
2847,,,,,,129.005757825,,,,,,,,,,,,,Train,U7
2899,,,,,,129.086276919,,,,,,,,,,,,,Train,U7
2948,,,,,,128.901141483,,,,,,,,,,,,,Train,U7
3000,,,,,,128.249794361,,,,,,,,,,,,,Train,U7
3051,,,,,,127.501839376,,,,,,,,,,,,,Train,U7
3103,,,,,,,1.26406424571,,,,,,,,,,,,Train,U7
3162,,,,,,,1.11947984261,,,,,,,,,,,,Train,U7
3208,,,,,,122.047707927,,,,,,,,,,,,,Train,U7
3258,,,,,,120.050980757,,,,,,,,,,,,,Train,U7
3310,,,,,,119.151755695,,,,,,,,,,,,,Train,U7
3361,,,,,,118.828447824,,,,,,,,,,,,,Train,U7
3409,,,,,,118.082332176,,,,,,,,,,,,,Train,U7
3484,,,,,,,0.292402256748,,,,,,,,,,,,Train,U7
3509,,,,,,,,,,,0.225102882645,,,,,,,,Train,U7
3560,,,,,,,,191.083777438,,,,,,,,,,,Train,U7
3611,,,12.268673325,,,,,,,,,,,,,,,,Train,U7
3664,,,10.0388431904,,,,,,,,,,,,,,,,Train,U7
3714,,,9.97385598489,,,,,,,,,,,,,,,,Train,U7
3772,,,,,1.20634390252,,,,,,,,,,,,,,Train,U7
3821,,,,,,,0.526466610388,,,,,,,,,,,,Train,U7
3873,,,,,0.767872568257,,,,,,,,,,,,,,Train,U7
3921,,,,,,118.14021177,,,,,,,,,,,,,Train,U7
3974,,,,,0.810152585582,,,,,,,,,,,,,,Train,U7
4022,,,,,,116.854754836,,,,,,,,,,,,,Train,U7
4076,,,,,1.43903746207,,,,,,,,,,,,,,Train,U7
4126,,,9.71589281748,,,,,,,,,,,,,,,,Train,U7
4181,,,,,,,0.239153552944,,,,,,,,,,,,Train,U7
4231,,,,,,109.644056952,,,,,,,,,,,,,Train,U7
4281,,,,,,111.522753216,,,,,,,,,,,,,Train,U7
4333,,,,,,113.864430582,,,,,,,,,,,,,Train,U7
4381,,,,,,,0.668009548597,,,,,,,,,,,,Train,U7
4431,,,,,,,0.256543028085,,,,,,,,,,,,Train,U7
4483,,,,,,,0.462003157255,,,,,,,,,,,,Train,U7
4534,,,,,,,,,,,,77.6199716568,,,,,,,Train,U7
4585,,,9.81907501184,,,,,,,,,,,,,,,,Train,U7
4640,,,,,,118.708525092,,,,,,,,,,,,,Train,U7
4692,,,,,,119.003176734,,,,,,,,,,,,,Train,U7
4741,,,,,,118.86589639,,,,,,,,,,,,,Train,U7
4794,,,,,,118.646430439,,,,,,,,,,,,,Train,U7
4842,,,,,,,0.0532820208314,,,,,,,,,,,,Train,U7
4897,,,,,,118.489502295,,,,,,,,,,,,,Train,U7
4945,,,9.76178776127,,,,,,,,,,,,,,,,Train,U7
4994,,,,,,,,,,0.0593766026602,,,,,,,,,Train,U7
5054,,,,,,118.753410151,,,,,,,,,,,,,Train,U7
5103,,,,,,118.715037522,,,,,,,,,,,,,Train,U7
5155,,,,,,118.583200533,,,,,,,,,,,,,Train,U7
5203,,,,,,,0.143119873711,,,,,,,,,,,,Train,U7
5261,,,,,,,,,,,,,,,76.07733268569969,,,,Train,U7
5307,,,9.73813155495,,,,,,,,,,,,,,,,Train,U7
5363,,,,,,118.119401498,,,,,,,,,,,,,Train,U7
5415,,,,,,118.132729081,,,,,,,,,,,,,Train,U7
5462,,,,,,118.151432781,,,,,,,,,,,,,Train,U7
5515,,,,,,118.163853736,,,,,,,,,,,,,Train,U7
5565,,,,,,,0.0923518307178,,,,,,,,,,,,Train,U7
5623,,,,,,,0.109724727844,,,,,,,,,,,,Train,U7
5673,,,,,0.141067310525,,,,,,,,,,,,,,Train,U7
5722,,,,,,117.924552286,,,,,,,,,,,,,Train,U7
5774,,,,,0.0523771712126,,,,,,,,,,,,,,Train,U7
5824,,,,,,117.858885706,,,,,,,,,,,,,Train,U7
5876,,,,,0.197384504298,,,,,,,,,,,,,,Train,U7
5925,,,,,,,0.071290878885,,,,,,,,,,,,Train,U7
5973,,,,,0.148222296179,,,,,,,,,,,,,,Train,U7
6025,,,9.85647344414,,,,,,,,,,,,,,,,Train,U7
6075,,,,,0.0974923106305,,,,,,,,,,,,,,Train,U7
6126,,,9.70757929548,,,,,,,,,,,,,,,,Train,U7
6179,,,9.76675167251,,,,,,,,,,,,,,,,Train,U7
6234,,,,,,117.459737863,,,,,,,,,,,,,Train,U7
6284,,,,,,,0.0310521493026,,,,,,,,,,,,Train,U7
6334,,,,,,117.385796491,,,,,,,,,,,,,Train,U7
6383,,,,,,117.393024811,,,,,,,,,,,,,Train,U7
6435,,,,,,117.424462927,,,,,,,,,,,,,Train,U7
6485,,,,,,,,,,,,75.6895633492,,,,,,,Train,U7
6536,,,9.78985903167,,,,,,,,,,,,,,,,Train,U7
6596,,,,,,117.446597836,,,,,,,,,,,,,Train,U7
6645,,,,,,,0.0452205341096,,,,,,,,,,,,Train,U7
6694,,,,,,117.562859596,,,,,,,,,,,,,Train,U7
6740,,,9.90746901578,,,,,,,,,,,,,,,,Train,U7
6794,,,,,,117.393910842,,,,,,,,,,,,,Train,U7
6843,,,,,,117.340219735,,,,,,,,,,,,,Train,U7
6895,,,,,,117.237119504,,,,,,,,,,,,,Train,U7
6946,,,,,,,0.0323470308099,,,,,,,,,,,,Train,U7
6996,,,,,,,0.0382071680091,,,,,,,,,,,,Train,U7
7056,,,,,,117.142143165,,,,,,,,,,,,,Train,U7
7104,,,,,,117.045096035,,,,,,,,,,,,,Train,U7
7156,,,,,,117.022523352,,,,,,,,,,,,,Train,U7
7206,,,,,,117.120351294,,,,,,,,,,,,,Train,U7
7257,,,,,,117.201867372,,,,,,,,,,,,,Train,U7
7305,,,,,,,0.0782193821061,,,,,,,,,,,,Train,U7
7355,,,,9.80664873938,,,,,,,,,,,,,,,Train,U7
7407,,,,,,,,,,0.0202969114507,,,,,,,,,Train,U7
7463,,,,,,117.045568343,,,,,,,,,,,,,Train,U7
7515,,,,,,117.123382019,,,,,,,,,,,,,Train,U7
7563,,,,,,117.113748365,,,,,,,,,,,,,Train,U7
7616,,,,,,117.079819382,,,,,,,,,,,,,Train,U7
7666,,,,,,,0.0943188577579,,,,,,,,,,,,Train,U7
7716,,,,,,116.222228404,,,,,,,,,,,,,Train,U7
7765,,,,,,116.904883625,,,,,,,,,,,,,Train,U7
7816,,,,,,117.577138949,,,,,,,,,,,,,Train,U7
7868,,,9.4290955516,,,,,,,,,,,,,,,,Train,U7
7918,,,,,,,,192.827824756,,,,,,,,,,,Train,U7
7971,,,9.91859783059,,,,,,,,,,,,,,,,Train,U7
8027,,,,,,,0.0658602255966,,,,,,,,,,,,Train,U7
8077,,,,,0.138358141948,,,,,,,,,,,,,,Train,U7
8124,,,,,,117.69754196,,,,,,,,,,,,,Train,U7
8175,,,,,0.122060147733,,,,,,,,,,,,,,Train,U7
8226,,,,,,117.740438628,,,,,,,,,,,,,Train,U7
8277,,,,,0.204370586573,,,,,,,,,,,,,,Train,U7
8327,,,,,,,,193.149527569,,,,,,,,,,,Train,U7
8387,,,,,,118.13723431,,,,,,,,,,,,,Train,U7
8446,,,,,,,0.0600142051625,,,,,,,,,,,,Train,U7
8496,,,,,,118.245331836,,,,,,,,,,,,,Train,U7
8545,,,,,,118.197450625,,,,,,,,,,,,,Train,U7
8597,,,,,,118.211960997,,,,,,,,,,,,,Train,U7
8645,,,,,,118.288548613,,,,,,,,,,,,,Train,U7
8699,,,,,,118.328763393,,,,,,,,,,,,,Train,U7
8748,,,,,,,0.0197754352748,,,,,,,,,,,,Train,U7
8797,,,,,,118.272500701,,,,,,,,,,,,,Train,U7
8850,,,9.75176248811,,,,,,,,,,,,,,,,Train,U7
8899,,,,,,,,,0.853576208066,,,,,,,,,,Train,U7
8951,,,9.76909633302,,,,,,,,,,,,,,,,Train,U7
9007,,,,,,118.175587215,,,,,,,,,,,,,Train,U7
9058,,,,,,118.166403543,,,,,,,,,,,,,Train,U7
9110,,,,,,,0.0544458833854,,,,,,,,,,,,Train,U7
9159,,,,,,118.11098983,,,,,,,,,,,,,Train,U7
9206,,,,,,118.10651864,,,,,,,,,,,,,Train,U7
9258,,,,,,118.130684573,,,,,,,,,,,,,Train,U7
9311,,,9.83498631158,,,,,,,,,,,,,,,,Train,U7
9360,,,9.76289155563,,,,,,,,,,,,,,,,Train,U7
9417,,,,,,118.121636805,,,,,,,,,,,,,Train,U7
9469,,,,,,,0.0492495317808,,,,,,,,,,,,Train,U7
9518,,,,,,118.096095973,,,,,,,,,,,,,Train,U7
9568,,,,,,118.030188032,,,,,,,,,,,,,Train,U7
9617,,,,,,118.122392317,,,,,,,,,,,,,Train,U7
9669,,,10.2012541056,,,,,,,,,,,,,,,,Train,U7
9718,,,,,,117.984045197,,,,,,,,,,,,,Train,U7
9769,,,9.38922388561,,,,,,,,,,,,,,,,Train,U7
9824,,,,,,118.110862772,,,,,,,,,,,,,Train,U7
9877,,,,,0.192314835555,,,,,,,,,,,,,,Train,U7
9925,,,,,,118.077346981,,,,,,,,,,,,,Train,U7
9976,,,,,0.0704099624636,,,,,,,,,,,,,,Train,U7
10025,,,,,,118.019996877,,,,,,,,,,,,,Train,U7
10077,,,,,,118.014201724,,,,,,,,,,,,,Train,U7
10126,,,,,,,0.0423396194236,,,,,,,,,,,,Train,U7
10176,,,,,,118.007459192,,,,,,,,,,,,,Train,U7
10225,,,,,,117.988276488,,,,,,,,,,,,,Train,U7
10276,,,,,,117.990237803,,,,,,,,,,,,,Train,U7
10325,,,,,,117.917478542,,,,,,,,,,,,,Train,U7
10377,,,,,,117.773577744,,,,,,,,,,,,,Train,U7
10427,,,,,,,0.460968171917,,,,,,,,,,,,Train,U7
10487,,,,,,,0.766450636811,,,,,,,,,,,,Train,U7
10529,,,,,,,,,,0.463729997116,,,,,,,,,Train,U7
10579,,,10.3227436945,,,,,,,,,,,,,,,,Train,U7
10685,,,,,,116.606874711,,,,,,,,,,,,,Train,U7
10800,,,,,,,0.402099706987,,,,,,,,,,,,Train,U7
10841,,,,,,116.559037735,,,,,,,,,,,,,Train,U7
10888,,,,,,117.510108823,,,,,,,,,,,,,Train,U7
10938,,,,,,118.382687126,,,,,,,,,,,,,Train,U7
10990,,,9.45804225326,,,,,,,,,,,,,,,,Train,U7
11040,,,10.1000393067,,,,,,,,,,,,,,,,Train,U7
11091,,,10.3019383631,,,,,,,,,,,,,,,,Train,U7
11147,,,,,,,0.082690490187,,,,,,,,,,,,Train,U7
11197,,,,,,117.159833657,,,,,,,,,,,,,Train,U7
11246,,,,,,117.321847871,,,,,,,,,,,,,Train,U7
11297,,,,,,117.315367358,,,,,,,,,,,,,Train,U7
11346,,,,,,117.187720774,,,,,,,,,,,,,Train,U7
11397,,,,,,117.122511336,,,,,,,,,,,,,Train,U7
11446,,,,,,,0.0368347167225,,,,,,,,,,,,Train,U7
11500,,,,,,117.080012884,,,,,,,,,,,,,Train,U7
11560,,,9.78100614173,,,,,,,,,,,,,,,,Train,U7
11607,,,,,,116.941189983,,,,,,,,,,,,,Train,U7
11658,,,,,0.0339992490684,,,,,,,,,,,,,,Train,U7
11707,,,,,,116.891178077,,,,,,,,,,,,,Train,U7
11759,,,,,0.0553578698472,,,,,,,,,,,,,,Train,U7
11809,,,,,,,0.0520061270555,,,,,,,,,,,,Train,U7
11867,,,,,,,0.0401873194233,,,,,,,,,,,,Train,U7
11932,,,,,,,0.0452205338178,,,,,,,,,,,,Train,U7
11964,,,,,,,,,,,0.251254726839,,,,,,,,Train,U7
12018,,,,,0.0835590131629,,,,,,,,,,,,,,Train,U7
12069,,,9.55734078994,,,,,,,,,,,,,,,,Train,U7
12120,,,,,,116.595678798,,,,,,,,,,,,,Train,U7
12168,,,,,,,0.0978223968064,,,,,,,,,,,,Train,U7
12219,,,9.76724030258,,,,,,,,,,,,,,,,Train,U7
12271,,,9.84629017051,,,,,,,,,,,,,,,,Train,U7
12329,,,,,,113.634593686,,,,,,,,,,,,,Train,U7
12384,,,,,,,,,,,0.238677045815,,,,,,,,Train,U7
12428,,,,,,105.117443617,,,,,,,,,,,,,Train,U7
12481,,,,,,,,,,,0.313521808554,,,,,,,,Train,U7
12531,,,,,,,2.7524631442,,,,,,,,,,,,Train,U7
12581,,,,,3.59715038405,,,,,,,,,,,,,,Train,U7
12638,,,,,,77.8281111829,,,,,,,,,,,,,Train,U7
12685,,,7.33026899507,,,,,,,,,,,,,,,,Train,U7
12734,,,12.7416877868,,,,,,,,,,,,,,,,Train,U7
12789,,,,,,78.5897896908,,,,,,,,,,,,,Train,U7
12838,,,,,,,,,,,0.477181068333,,,,,,,,Train,U7
12889,,,,,,,1.05866592268,,,,,,,,,,,,Train,U7
12938,,,,,,76.9740267262,,,,,,,,,,,,,Train,U7
12990,,,11.6227920242,,,,,,,,,,,,,,,,Train,U7
13040,,,10.1030319879,,,,,,,,,,,,,,,,Train,U7
13100,,,,,,71.2478299073,,,,,,,,,,,,,Train,U7
13147,,,,,,71.0740205721,,,,,,,,,,,,,Train,U7
13201,,,,,,71.1485761433,,,,,,,,,,,,,Train,U7
13251,,,,,,,0.75121826016,,,,,,,,,,,,Train,U7
13301,,,,,,74.8333610544,,,,,,,,,,,,,Train,U7
13346,,,9.46734235039,,,,,,,,,,,,,,,,Train,U7
13398,,,,,,74.9863275989,,,,,,,,,,,,,Train,U7
13447,,,,,,75.1140609667,,,,,,,,,,,,,Train,U7
13500,,,,,,77.3549132037,,,,,,,,,,,,,Train,U7
13561,,,,,,78.2476347771,,,,,,,,,,,,,Train,U7
13607,,,,,,,0.11296878397,,,,,,,,,,,,Train,U7
13709,,,,,,79.4349381168,,,,,,,,,,,,,Train,U7
13760,,,9.88886568286,,,,,,,,,,,,,,,,Train,U7
13810,,,9.63781894669,,,,,,,,,,,,,,,,Train,U7
13860,,,9.74980630046,,,,,,,,,,,,,,,,Train,U7
13918,,,,,,80.3605877432,,,,,,,,,,,,,Train,U7
13966,,,,,,,0.102952087238,,,,,,,,,,,,Train,U7
14017,,,,,0.345619050855,,,,,,,,,,,,,,Train,U7
14066,,,,,,82.1305995703,,,,,,,,,,,,,Train,U7
14117,,,,,,81.6183481682,,,,,,,,,,,,,Train,U7
14166,,,,,,81.254211086,,,,,,,,,,,,,Train,U7
14217,,,,,,80.9075246468,,,,,,,,,,,,,Train,U7
14267,,,,,,,1.1486677181,,,,,,,,,,,,Train,U7
14317,,,,,,,,,,,0.659615744499,,,,,,,,Train,U7
14366,,,,,,75.2463209739,,,,,,,,,,,,,Train,U7
14418,,,,,,70.856573372,,,,,,,,,,,,,Train,U7
14466,,,,,2.76572432944,,,,,,,,,,,,,,Train,U7
14518,,,,,0.431160676388,,,,,,,,,,,,,,Train,U7
14567,,,,,,,0.311359158647,,,,,,,,,,,,Train,U7
14617,,,,,,62.7185987211,,,,,,,,,,,,,Train,U7
14666,,,,,,62.6208597041,,,,,,,,,,,,,Train,U7
14718,,,,,0.252296228156,,,,,,,,,,,,,,Train,U7
14766,,,,,0.296232019739,,,,,,,,,,,,,,Train,U7
14817,,,,,,61.7205915031,,,,,,,,,,,,,Train,U7
14868,,,,,,,0.116552061782,,,,,,,,,,,,Train,U7
14926,,,,,,,0.0648438512058,,,,,,,,,,,,Train,U7
14969,,,,,,,0.250395139027,,,,,,,,,,,,Train,U7
15019,,,8.90534175953,,,,,,,,,,,,,,,,Train,U7
15120,,,9.57991847852,,,,,,,,,,,,,,,,Train,U7
15180,,,,,,,,,,,0.565700184443,,,,,,,,Train,U7
15228,,,,,,,2.47860185798,,,,,,,,,,,,Train,U7
15282,,,,,1.51401056667,,,,,,,,,,,,,,Train,U7
15332,,,9.34202604534,,,,,,,,,,,,,,,,Train,U7
15381,,,,,,,0.943722531276,,,,,,,,,,,,Train,U7
15437,,,,,,40.6656463769,,,,,,,,,,,,,Train,U7
15482,,,11.2061175391,,,,,,,,,,,,,,,,Train,U7
15537,,,,,,42.5500223232,,,,,,,,,,,,,Train,U7
15588,,,,,,,0.574163930795,,,,,,,,,,,,Train,U7
15637,,,,,,43.6388884123,,,,,,,,,,,,,Train,U7
15686,,,,,,45.0236699508,,,,,,,,,,,,,Train,U7
15741,,,,,,45.468941896,,,,,,,,,,,,,Train,U7
15789,,,9.00546628331,,,,,,,,,,,,,,,,Train,U7
15839,,,,,,,,,,0.124754174836,,,,,,,,,Train,U7
15898,,,,,,46.1642202862,,,,,,,,,,,,,Train,U7
15950,,,,,,,0.115030974034,,,,,,,,,,,,Train,U7
15998,,,,,,46.2242702925,,,,,,,,,,,,,Train,U7
16049,,,,,,46.1302127727,,,,,,,,,,,,,Train,U7
16101,,,,,,46.0992932005,,,,,,,,,,,,,Train,U7
16149,,,,,,46.0576723115,,,,,,,,,,,,,Train,U7
16206,,,,,,46.1016000114,,,,,,,,,,,,,Train,U7
16255,,,,,,,0.116788747865,,,,,,,,,,,,Train,U7
16309,,,,,,,0.438539976163,,,,,,,,,,,,Train,U7
16358,,,,,,45.7333427064,,,,,,,,,,,,,Train,U7
16411,,,10.3521129156,,,,,,,,,,,,,,,,Train,U7
16460,,,9.8246373998,,,,,,,,,,,,,,,,Train,U7
16511,,,,,0.328363357288,,,,,,,,,,,,,,Train,U7
16569,,,,,,45.1339261637,,,,,,,,,,,,,Train,U7
16617,,,,,,45.0695684833,,,,,,,,,,,,,Train,U7
16668,,,,,,,0.0418253151327,,,,,,,,,,,,Train,U7
16718,,,,,,45.1154338043,,,,,,,,,,,,,Train,U7
16778,,,,,0.0963330543873,,,,,,,,,,,,,,Train,U7
16827,,,,,,45.0838868544,,,,,,,,,,,,,Train,U7
16878,,,,,0.179130637949,,,,,,,,,,,,,,Train,U7
16930,,,9.822737957,,,,,,,,,,,,,,,,Train,U7
16979,,,,,0.0693022712241,,,,,,,,,,,,,,Train,U7
17029,,,9.61775328048,,,,,,,,,,,,,,,,Train,U7
17087,,,,,,,0.0455166378892,,,,,,,,,,,,Train,U7
17131,,,9.76958525788,,,,,,,,,,,,,,,,Train,U7
17185,,,,,,45.1458632553,,,,,,,,,,,,,Train,U7
17236,,,,,,45.1539918211,,,,,,,,,,,,,Train,U7
17287,,,,,,45.2201928174,,,,,,,,,,,,,Train,U7
17338,,,,,,45.2028850823,,,,,,,,,,,,,Train,U7
17387,,,,,,,0.0761109660933,,,,,,,,,,,,Train,U7
17438,,,,,,45.143184523,,,,,,,,,,,,,Train,U7
17490,,,9.72821775,,,,,,,,,,,,,,,,Train,U7
17546,,,,,,45.1635765574,,,,,,,,,,,,,Train,U7
17597,,,,,,45.1842380499,,,,,,,,,,,,,Train,U7
17646,,,,,,45.1990874626,,,,,,,,,,,,,Train,U7
17699,,,,,,45.2129718238,,,,,,,,,,,,,Train,U7
17750,,,9.85248713157,,,,,,,,,,,,,,,,Train,U7
17808,,,,,,,0.0333691253639,,,,,,,,,,,,Train,U7
17856,,,,,,45.3042275825,,,,,,,,,,,,,Train,U7
17906,,,,,,45.3568838874,,,,,,,,,,,,,Train,U7
17954,,,10.0726591878,,,,,,,,,,,,,,,,Train,U7
18007,,,,,,44.7466645367,,,,,,,,,,,,,Train,U7
18059,,,,,,44.5382890144,,,,,,,,,,,,,Train,U7
18108,,,,,,,0.0113298629387,,,,,,,,,,,,Train,U7
18166,,,,,,,0.0163456399405,,,,,,,,,,,,Train,U7
18210,,,9.80007413579,,,,,,,,,,,,,,,,Train,U7
18262,,,,,,,,,,,,,,,68.71051702997309,,,,Train,U7
18317,,,,,,44.6761011921,,,,,,,,,,,,,Train,U7
18365,,,,,,45.1188751984,,,,,,,,,,,,,Train,U7
18417,,,,,,46.5279415928,,,,,,,,,,,,,Train,U7
18468,,,,,,,0.949331775874,,,,,,,,,,,,Train,U7
18517,,,,,,50.6752767843,,,,,,,,,,,,,Train,U7
18566,,,,,,50.9791881622,,,,,,,,,,,,,Train,U7
18617,,,,,0.466485129163,,,,,,,,,,,,,,Train,U7
18668,,,,,,,,174.069478997,,,,,,,,,,,Train,U7
18720,,,10.2767289848,,,,,,,,,,,,,,,,Train,U7
18772,,,,,,,0.705543801957,,,,,,,,,,,,Train,U7
18827,,,,,,,0.484825382948,,,,,,,,,,,,Train,U7
18877,,,,,1.41327119056,,,,,,,,,,,,,,Train,U7
18927,,,,,,42.6616481612,,,,,,,,,,,,,Train,U7
18980,,,10.1272220946,,,,,,,,,,,,,,,,Train,U7
19086,,,,,,31.8380142621,,,,,,,,,,,,,Train,U7
19137,,,,,,29.1929855182,,,,,,,,,,,,,Train,U7
19188,,,,,,,0.534052754451,,,,,,,,,,,,Train,U7
19238,,,,,,27.9007224292,,,,,,,,,,,,,Train,U7
19293,,,9.54720828136,,,,,,,,,,,,,,,,Train,U7
19347,,,,,,32.9965141055,,,,,,,,,,,,,Train,U7
19398,,,,,,33.7738709926,,,,,,,,,,,,,Train,U7
19460,,,,9.8066496344,,,,,,,,,,,,,,,Train,U7
19498,,,,,,35.9463918232,,,,,,,,,,,,,Train,U7
19553,,,,,,,0.69756851757,,,,,,,,,,,,Train,U7
19608,,,,,,,1.07036073647,,,,,,,,,,,,Train,U7
19657,,,,,,41.2117491076,,,,,,,,,,,,,Train,U7
19707,,,,,,,0.97238464465,,,,,,,,,,,,Train,U7
19757,,,,,,39.2948877467,,,,,,,,,,,,,Train,U7
19812,,,,,,42.4101382423,,,,,,,,,,,,,Train,U7
19859,,,11.6762961473,,,,,,,,,,,,,,,,Train,U7
19917,,,8.49915090867,,,,,,,,,,,,,,,,Train,U7
19967,,,,,,,1.63997964316,,,,,,,,,,,,Train,U7
20029,,,,,,,0.986978299279,,,,,,,,,,,,Train,U7
20071,,,,,,,,,,,0.652532196048,,,,,,,,Train,U7
20126,,,,,,49.2180212426,,,,,,,,,,,,,Train,U7
20178,,,,,,,,,,,0.728539305723,,,,,,,,Train,U7
20233,,,,,,,1.2310157448,,,,,,,,,,,,Train,U7
20278,,,,,1.676141238,,,,,,,,,,,,,,Train,U7
20328,,,,,,,1.99564093411,,,,,,,,,,,,Train,U7
20379,,,,,3.41762418824,,,,,,,,,,,,,,Train,U7
20430,,,6.65567535429,,,,,,,,,,,,,,,,Train,U7
20486,,,,,,64.5684590343,,,,,,,,,,,,,Train,U7
20537,,,,,,59.9919120066,,,,,,,,,,,,,Train,U7
20586,,,,,,60.4574657907,,,,,,,,,,,,,Train,U7
20638,,,,,,65.0080085511,,,,,,,,,,,,,Train,U7
20688,,,,,,,0.574355002019,,,,,,,,,,,,Train,U7
20738,,,,,,59.718959845,,,,,,,,,,,,,Train,U7
20787,,,,9.80664743802,,,,,,,,,,,,,,,Train,U7
20841,,,10.6271631073,,,,,,,,,,,,,,,,Train,U7
20895,,,10.5625148343,,,,,,,,,,,,,,,,Train,U7
20947,,,,,,58.5274836585,,,,,,,,,,,,,Train,U7
20998,,,,,,59.3248634148,,,,,,,,,,,,,Train,U7
21048,,,,,,,0.559956541837,,,,,,,,,,,,Train,U7
21098,,,,,,60.6944257272,,,,,,,,,,,,,Train,U7
21147,,,,,,58.5497734315,,,,,,,,,,,,,Train,U7
21198,,,,,,56.9696605887,,,,,,,,,,,,,Train,U7
21252,,,12.9161215116,,,,,,,,,,,,,,,,Train,U7
21299,,,,,,,,,,,,112.889016568,,,,,,,Train,U7
21350,,,,9.80664834783,,,,,,,,,,,,,,,Train,U7
21410,,,,,,,0.871265206217,,,,,,,,,,,,Train,U7
21458,,,,,,53.1944029052,,,,,,,,,,,,,Train,U7
21509,,,,,,55.3367343197,,,,,,,,,,,,,Train,U7
21559,,,,,,54.6126588989,,,,,,,,,,,,,Train,U7
21608,,,,,,51.9577294496,,,,,,,,,,,,,Train,U7
21658,,,,,,50.5346088024,,,,,,,,,,,,,Train,U7
21710,,,,,,,0.370589349706,,,,,,,,,,,,Train,U7
21761,,,,,,,,,,,,,,,67.45087601518141,,,,Train,U7
21814,,,,,,,0.132561980901,,,,,,,,,,,,Train,U7
21868,,,,,,48.9626419846,,,,,,,,,,,,,Train,U7
21918,,,,,,48.779271002,,,,,,,,,,,,,Train,U7
21967,,,,,,49.1309581741,,,,,,,,,,,,,Train,U7
22018,,,,,,49.4071793881,,,,,,,,,,,,,Train,U7
22071,,,,,,,,,,,0.599979999479,,,,,,,,Train,U7
22130,,,,,,,0.182214049769,,,,,,,,,,,,Train,U7
22174,,,,,,,0.267692821948,,,,,,,,,,,,Train,U7
22230,,,,,,53.0337143094,,,,,,,,,,,,,Train,U7
22282,,,,,2.21411436057,,,,,,,,,,,,,,Train,U7
22330,,,,,,46.8563895058,,,,,,,,,,,,,Train,U7
22391,,,,,,43.5012993376,,,,,,,,,,,,,Train,U7
22444,,,9.21237825677,,,,,,,,,,,,,,,,Train,U7
22555,,,,,,,0.896826760923,,,,,,,,,,,,Train,U7
22599,,,,,,38.869822576,,,,,,,,,,,,,Train,U7
22649,,,,,,37.2959173961,,,,,,,,,,,,,Train,U7
22702,,,,,,35.7616134465,,,,,,,,,,,,,Train,U7
22761,,,,,,31.9859911755,,,,,,,,,,,,,Train,U7
22811,,,,,,29.3824329759,,,,,,,,,,,,,Train,U7
22863,,,,,,29.1993500562,,,,,,,,,,,,,Train,U7
22915,,,,,,,0.496601496669,,,,,,,,,,,,Train,U7
22973,,,,,,,0.881248009053,,,,,,,,,,,,Train,U7
23015,,,11.6096120315,,,,,,,,,,,,,,,,Train,U7
23070,,,,,,41.7273987323,,,,,,,,,,,,,Train,U7
23116,,,8.54521529628,,,,,,,,,,,,,,,,Train,U7
23170,,,,,,44.6584792086,,,,,,,,,,,,,Train,U7
23223,,,,,,39.9357281641,,,,,,,,,,,,,Train,U7
23276,,,,,,,,,,1.1926305031,,,,,,,,,Train,U7
23334,,,,,,,1.59091030767,,,,,,,,,,,,Train,U7
23382,,,,,1.88724587701,,,,,,,,,,,,,,Train,U7
23432,,,,,,43.523441543,,,,,,,,,,,,,Train,U7
23482,,,,,,43.8613405779,,,,,,,,,,,,,Train,U7
23535,,,10.6026223004,,,,,,,,,,,,,,,,Train,U7
23584,,,,9.80664664612,,,,,,,,,,,,,,,Train,U7
23634,,,,,,,0.350298074005,,,,,,,,,,,,Train,U7
23688,,,,,0.905418697238,,,,,,,,,,,,,,Train,U7
23742,,,,,,45.4501314044,,,,,,,,,,,,,Train,U7
23784,,,,,,,0.926369015133,,,,,,,,,,,,Train,U7
23842,,,,,,43.193911595,,,,,,,,,,,,,Train,U7
23891,,,,,,,,,,,0.617731608936,,,,,,,,Train,U7
23942,,,,,,41.0197531469,,,,,,,,,,,,,Train,U7
23995,,,,,,,,,,0.674578882304,,,,,,,,,Train,U7
24052,,,,,,,0.57078877601,,,,,,,,,,,,Train,U7
24101,,,,,,38.9738516751,,,,,,,,,,,,,Train,U7
24158,,,,,,37.7172424554,,,,,,,,,,,,,Train,U7
24203,,,,,,38.3995927613,,,,,,,,,,,,,Train,U7
24251,,,,,,39.1717480965,,,,,,,,,,,,,Train,U7
24305,,,,,,39.3041964491,,,,,,,,,,,,,Train,U7
24352,,,,,,,0.379031911248,,,,,,,,,,,,Train,U7
24402,,,,,,40.5963104589,,,,,,,,,,,,,Train,U7
24454,,,,,,41.3513331411,,,,,,,,,,,,,Train,U7
24505,,,10.186097385,,,,,,,,,,,,,,,,Train,U7
24558,,,,,,,0.431936581689,,,,,,,,,,,,Train,U7
24611,,,,,,40.6513590221,,,,,,,,,,,,,Train,U7
24662,,,,,,40.0371735135,,,,,,,,,,,,,Train,U7
24721,,,,,,,0.361677626956,,,,,,,,,,,,Train,U7
24762,,,,,,,,,,,,,,,68.81503400958371,,,,Train,U7
24809,,,,,,38.031006506,,,,,,,,,,,,,Train,U7
24861,,,,,,38.6325950687,,,,,,,,,,,,,Train,U7
24912,,,,9.80664991645,,,,,,,,,,,,,,,Train,U7
24965,,,,,,40.6016470827,,,,,,,,,,,,,Train,U7
25016,,,,,,,0.322069105268,,,,,,,,,,,,Train,U7
25074,,,,,,,0.353403355045,,,,,,,,,,,,Train,U7
25121,,,,,,37.7081625371,,,,,,,,,,,,,Train,U7
25176,,,,,,37.0935009853,,,,,,,,,,,,,Train,U7
25222,,,,,,37.0642528054,,,,,,,,,,,,,Train,U7
25277,,,9.72450619727,,,,,,,,,,,,,,,,Train,U7
25331,,,,,,37.3595859758,,,,,,,,,,,,,Train,U7
25382,,,,,,37.4265589937,,,,,,,,,,,,,Train,U7
25435,,,,,,,0.0928997331198,,,,,,,,,,,,Train,U7
25482,,,,,0.292698330889,,,,,,,,,,,,,,Train,U7
25530,,,,,,37.7834935593,,,,,,,,,,,,,Train,U7
25582,,,,,0.440943302795,,,,,,,,,,,,,,Train,U7
25635,,,9.24269938753,,,,,,,,,,,,,,,,Train,U7
25690,,,,,,37.791860301,,,,,,,,,,,,,Train,U7
25742,,,,,,37.8601153226,,,,,,,,,,,,,Train,U7
25795,,,,,,,0.11005072366,,,,,,,,,,,,Train,U7
25846,,,9.82407884524,,,,,,,,,,,,,,,,Train,U7
25891,,,,,,38.3743113947,,,,,,,,,,,,,Train,U7
25940,,,,,,38.3805619557,,,,,,,,,,,,,Train,U7
25992,,,,,,,,172.594119251,,,,,,,,,,,Train,U7
26044,,,9.60303062408,,,,,,,,,,,,,,,,Train,U7
26093,,,,,,,,172.90680551,,,,,,,,,,,Train,U7
26153,,,,,,,0.421427967227,,,,,,,,,,,,Train,U7
26201,,,,,,41.0584262505,,,,,,,,,,,,,Train,U7
26250,,,,,,40.8226839625,,,,,,,,,,,,,Train,U7
26300,,,,,,41.097911329,,,,,,,,,,,,,Train,U7
26350,,,,,,40.8201812793,,,,,,,,,,,,,Train,U7
26403,,,,,,40.7714608641,,,,,,,,,,,,,Train,U7
26452,,,,,,,0.352047108425,,,,,,,,,,,,Train,U7
26514,,,,,,,0.149141210958,,,,,,,,,,,,Train,U7
26554,,,10.0449645906,,,,,,,,,,,,,,,,Train,U7
26614,,,,,,39.2154802928,,,,,,,,,,,,,Train,U7
26658,,,9.04107808261,,,,,,,,,,,,,,,,Train,U7
26712,,,,,,40.8503114461,,,,,,,,,,,,,Train,U7
26761,,,,,,,,,,,,,,,68.73279263385322,,,,Train,U7
26815,,,10.634695856,,,,,,,,,,,,,,,,Train,U7
26873,,,,,,,0.364980622594,,,,,,,,,,,,Train,U7
26913,,,,,,43.0016068145,,,,,,,,,,,,,Train,U7
26969,,,,,,43.486913615,,,,,,,,,,,,,Train,U7
27020,,,,,,39.4362215284,,,,,,,,,,,,,Train,U7
27077,,,,,,37.4725360231,,,,,,,,,,,,,Train,U7
27123,,,,,,37.8553426016,,,,,,,,,,,,,Train,U7
27178,,,9.41607664577,,,,,,,,,,,,,,,,Train,U7
27232,,,,,,,0.0346850983146,,,,,,,,,,,,Train,U7
27281,,,,,,38.1076990145,,,,,,,,,,,,,Train,U7
27342,,,,,,37.82656683,,,,,,,,,,,,,Train,U7
27393,,,,,,37.6272389553,,,,,,,,,,,,,Train,U7
27441,,,,,,,,,,,0.637771047417,,,,,,,,Train,U7
27494,,,9.66344316346,,,,,,,,,,,,,,,,Train,U7
27544,,,,,,,,,,0.0277792611118,,,,,,,,,Train,U7
27595,,,,9.80664976533,,,,,,,,,,,,,,,Train,U7
27653,,,,,,,0.0394185608947,,,,,,,,,,,,Train,U7
27701,,,,,,37.8554337974,,,,,,,,,,,,,Train,U7
27750,,,,,,37.7062637454,,,,,,,,,,,,,Train,U7
27801,,,,,,,,,0.319396994912,,,,,,,,,,Train,U7
27859,,,,,,37.6982311897,,,,,,,,,,,,,Train,U7
27910,,,,,,37.8628224461,,,,,,,,,,,,,Train,U7
27961,,,,,,37.9003813036,,,,,,,,,,,,,Train,U7
28012,,,,,,,0.0156934124209,,,,,,,,,,,,Train,U7
28062,,,,,,37.5825864077,,,,,,,,,,,,,Train,U7
28114,,,,,,37.3152964425,,,,,,,,,,,,,Train,U7
28163,,,,,,,0.0626546463209,,,,,,,,,,,,Train,U7
28213,,,,,,,,,0.318326913155,,,,,,,,,,Train,U7
28272,,,,,,37.4418737938,,,,,,,,,,,,,Train,U7
28323,,,,,,37.5173760633,,,,,,,,,,,,,Train,U7
28372,,,,,,,0.0932765431607,,,,,,,,,,,,Train,U7
28422,,,,,,,,,,0.174831295873,,,,,,,,,Train,U7
28473,,,,,,37.6009467734,,,,,,,,,,,,,Train,U7
28541,,,,,,,0.189147404578,,,,,,,,,,,,Train,U7
28575,,,9.83164174311,,,,,,,,,,,,,,,,Train,U7
28626,,,9.73707217328,,,,,,,,,,,,,,,,Train,U7
28734,,,,,,,0.0906800604139,,,,,,,,,,,,Train,U7
28783,,,,,0.806773748162,,,,,,,,,,,,,,Train,U7
28833,,,,,,37.2850304699,,,,,,,,,,,,,Train,U7
28883,,,,,0.154193021724,,,,,,,,,,,,,,Train,U7
28936,,,9.89275799101,,,,,,,,,,,,,,,,Train,U7
28985,,,9.60430902526,,,,,,,,,,,,,,,,Train,U7
29043,,,,,,37.4846448814,,,,,,,,,,,,,Train,U7
29093,,,,,,,0.0668499859729,,,,,,,,,,,,Train,U7
29145,,,,,,37.2304695784,,,,,,,,,,,,,Train,U7
29195,,,,,,,,,,,0.636225684008,,,,,,,,Train,U7
29245,,,,,,,0.0599644451426,,,,,,,,,,,,Train,U7
29303,,,,,,37.5152526744,,,,,,,,,,,,,Train,U7
29353,,,,,,37.5024984905,,,,,,,,,,,,,Train,U7
29404,,,,,,37.4561929369,,,,,,,,,,,,,Train,U7
29454,,,,,,,0.0369358852103,,,,,,,,,,,,Train,U7
29503,,,,,,37.4287834129,,,,,,,,,,,,,Train,U7
29556,,,9.81357888745,,,,,,,,,,,,,,,,Train,U7
29614,,,,,,37.5259727685,,,,,,,,,,,,,Train,U7
29662,,,9.78349452185,,,,,,,,,,,,,,,,Train,U7
29714,,,,,,37.442994006,,,,,,,,,,,,,Train,U7
29765,,,,9.80664983625,,,,,,,,,,,,,,,Train,U7
29817,,,9.77874499983,,,,,,,,,,,,,,,,Train,U7
29876,,,,,,,0.0418431578707,,,,,,,,,,,,Train,U7
29924,,,,,,37.4764165966,,,,,,,,,,,,,Train,U7
29974,,,,,,37.471402605,,,,,,,,,,,,,Train,U7
30024,,,,,,37.4353603848,,,,,,,,,,,,,Train,U7
30074,,,,,,37.421663849,,,,,,,,,,,,,Train,U7
30124,,,,,,37.4150919133,,,,,,,,,,,,,Train,U7
30178,,,9.80806967757,,,,,,,,,,,,,,,,Train,U7
30235,,,,,,,0.0567940447736,,,,,,,,,,,,Train,U7
30284,,,,,0.0442139983332,,,,,,,,,,,,,,Train,U7
30333,,,,,,37.3947327021,,,,,,,,,,,,,Train,U7
30385,,,,,0.0646654980044,,,,,,,,,,,,,,Train,U7
30434,,,,,,37.3450336566,,,,,,,,,,,,,Train,U7
30486,,,,,0.07929344848,,,,,,,,,,,,,,Train,U7
30536,,,,,,,0.0429347459699,,,,,,,,,,,,Train,U7
30585,,,,,,,,,0.316156651284,,,,,,,,,,Train,U7
30644,,,,,,37.2788446471,,,,,,,,,,,,,Train,U7
30693,,,,,,37.287757588,,,,,,,,,,,,,Train,U7
30744,,,,,,37.2866472202,,,,,,,,,,,,,Train,U7
30793,,,,,,37.2668500917,,,,,,,,,,,,,Train,U7
30845,,,,,,37.2556098565,,,,,,,,,,,,,Train,U7
30895,,,,,,,0.0360979503906,,,,,,,,,,,,Train,U7
30944,,,,,,37.2521574914,,,,,,,,,,,,,Train,U7
30997,,,9.76024782506,,,,,,,,,,,,,,,,Train,U7
31053,,,,,,37.3059674036,,,,,,,,,,,,,Train,U7
31103,,,,,,37.2992240224,,,,,,,,,,,,,Train,U7
31154,,,,,,37.2978803072,,,,,,,,,,,,,Train,U7
31204,,,,,,37.292777089,,,,,,,,,,,,,Train,U7
31257,,,,,,,0.0478038625248,,,,,,,,,,,,Train,U7
31304,,,,,,37.2695851777,,,,,,,,,,,,,Train,U7
31357,,,9.76085612824,,,,,,,,,,,,,,,,Train,U7
31414,,,,,,37.2674847323,,,,,,,,,,,,,Train,U7
31464,,,,,,37.262651984,,,,,,,,,,,,,Train,U7
31514,,,,,,37.2576108722,,,,,,,,,,,,,Train,U7
31567,,,,,,37.2725980967,,,,,,,,,,,,,Train,U7
31620,,,,,,,0.0408504008723,,,,,,,,,,,,Train,U7
31665,,,,,,37.2752954432,,,,,,,,,,,,,Train,U7
31717,,,9.75095606471,,,,,,,,,,,,,,,,Train,U7
31774,,,9.78917430671,,,,,,,,,,,,,,,,Train,U7
31824,,,,,,37.2779374299,,,,,,,,,,,,,Train,U7
31875,,,,,,,,172.185162376,,,,,,,,,,,Train,U7
31927,,,9.78318968432,,,,,,,,,,,,,,,,Train,U7
31985,,,,,,,,,,,0.636721323001,,,,,,,,Train,U7
32040,,,9.83080755986,,,,,,,,,,,,,,,,Train,U7
32085,,,,,0.0564935308394,,,,,,,,,,,,,,Train,U7
32134,,,,,,37.2589542221,,,,,,,,,,,,,Train,U7
32185,,,,,0.026854437881,,,,,,,,,,,,,,Train,U7
32235,,,,,,37.2566301208,,,,,,,,,,,,,Train,U7
32285,,,,,,,,,,,0.636804875433,,,,,,,,Train,U7
32340,,,9.7786632676,,,,,,,,,,,,,,,,Train,U7
32396,,,9.773406433,,,,,,,,,,,,,,,,Train,U7
32437,,,9.74939468146,,,,,,,,,,,,,,,,Train,U7
32493,,,,,,37.2616102859,,,,,,,,,,,,,Train,U7
32543,,,,,,37.2651471916,,,,,,,,,,,,,Train,U7
32594,,,,,,37.2582407514,,,,,,,,,,,,,Train,U7
32651,,,,,,37.246845977,,,,,,,,,,,,,Train,U7
32697,,,9.7866572132,,,,,,,,,,,,,,,,Train,U7
32745,,,,,,37.249400142,,,,,,,,,,,,,Train,U7
32794,,,,,,37.2661646844,,,,,,,,,,,,,Train,U7
32845,,,,,,,,,,,0.636717689868,,,,,,,,Train,U7
32896,,,9.78641464289,,,,,,,,,,,,,,,,Train,U7
32954,,,,,,37.2806230244,,,,,,,,,,,,,Train,U7
33004,,,,,,37.2727250965,,,,,,,,,,,,,Train,U7
33055,,,9.79197213283,,,,,,,,,,,,,,,,Train,U7
33103,,,,,,37.2874265098,,,,,,,,,,,,,Train,U7
33154,,,,,,37.2879088706,,,,,,,,,,,,,Train,U7
33205,,,,,,37.287179267,,,,,,,,,,,,,Train,U7
33256,,,,,,37.2797945918,,,,,,,,,,,,,Train,U7
33317,,,9.72841301202,,,,,,,,,,,,,,,,Train,U7
33358,,,9.7984825626,,,,,,,,,,,,,,,,Train,U7
33421,,,9.76239792546,,,,,,,,,,,,,,,,Train,U7
33461,,,9.73520083542,,,,,,,,,,,,,,,,Train,U7
33514,,,,,,37.2979407589,,,,,,,,,,,,,Train,U7
33565,,,,,,37.2862507134,,,,,,,,,,,,,Train,U7
33620,,,,,,37.2948386621,,,,,,,,,,,,,Train,U7
33675,,,,,,37.2934699135,,,,,,,,,,,,,Train,U7
33725,,,,,,37.3032042455,,,,,,,,,,,,,Train,U7
33776,,,9.76130762443,,,,,,,,,,,,,,,,Train,U7
33825,,,,,,37.2992422296,,,,,,,,,,,,,Train,U7
33876,,,,,,37.2917928433,,,,,,,,,,,,,Train,U7
33928,,,9.7469512683,,,,,,,,,,,,,,,,Train,U7
33979,,,9.80320185478,,,,,,,,,,,,,,,,Train,U7
34037,,,,,,37.2870012268,,,,,,,,,,,,,Train,U7
34085,,,,,,,,,,,0.636854513797,,,,,,,,Train,U7
34137,,,9.73921921306,,,,,,,,,,,,,,,,Train,U7
34185,,,,,,,,,,,0.636813350736,,,,,,,,Train,U7
34236,,,,,,37.2912511864,,,,,,,,,,,,,Train,U7
34285,,,,,0.0619653267527,,,,,,,,,,,,,,Train,U7
34336,,,,,,37.2890248069,,,,,,,,,,,,,Train,U7
34385,,,,,,,,,,,,112.044009211,,,,,,,Train,U7
34438,,,,,,37.2757626463,,,,,,,,,,,,,Train,U7
34494,,,9.73466435197,,,,,,,,,,,,,,,,Train,U7
34541,,,,,,,,,,,,112.036825064,,,,,,,Train,U7
34595,,,,,,37.2769386637,,,,,,,,,,,,,Train,U7
34646,,,,,,37.2702009203,,,,,,,,,,,,,Train,U7
34696,,,,,,37.2717642206,,,,,,,,,,,,,Train,U7
34747,,,,,,37.2647121022,,,,,,,,,,,,,Train,U7
34856,,,9.74157897087,,,,,,,,,,,,,,,,Train,U7
34907,,,,,0.0466450824873,,,,,,,,,,,,,,Train,U7
34957,,,,,,37.2643873079,,,,,,,,,,,,,Train,U7
35006,,,,,,37.2675732086,,,,,,,,,,,,,Train,U7
35059,,,9.77891136263,,,,,,,,,,,,,,,,Train,U7
35113,,,9.75523286879,,,,,,,,,,,,,,,,Train,U7
35165,,,,,,37.2600068903,,,,,,,,,,,,,Train,U7
35216,,,9.77140039575,,,,,,,,,,,,,,,,Train,U7
35265,,,,,,37.2475142691,,,,,,,,,,,,,Train,U7
35318,,,,,,37.2462000301,,,,,,,,,,,,,Train,U7
35365,,,,,,37.2384392636,,,,,,,,,,,,,Train,U7
35416,,,,,,,,172.317555693,,,,,,,,,,,Train,U7
35469,,,9.79418177139,,,,,,,,,,,,,,,,Train,U7
35519,,,,,,,,,,0.0036651915,,,,,,,,,Train,U7
35576,,,9.77270436748,,,,,,,,,,,,,,,,Train,U7
35625,,,,,,37.2213045914,,,,,,,,,,,,,Train,U7
35675,,,,,,37.2114186188,,,,,,,,,,,,,Train,U7
35725,,,,,,37.2360643274,,,,,,,,,,,,,Train,U7
35776,,,9.74687280788,,,,,,,,,,,,,,,,Train,U7
35831,,,,,,37.2077177824,,,,,,,,,,,,,Train,U7
35879,,,,,,,,,,0.00386345116176,,,,,,,,,Train,U7
35937,,,9.77633161686,,,,,,,,,,,,,,,,Train,U7
35985,,,,,,,,,,,0.637622473098,,,,,,,,Train,U7
36037,,,,,,37.1815307022,,,,,,,,,,,,,Train,U7
36086,,,,,,,,,,,0.637771047417,,,,,,,,Train,U7
36137,,,9.78694610136,,,,,,,,,,,,,,,,Train,U7
36195,,,,,,37.1269094965,,,,,,,,,,,,,Train,U7
36246,,,,,,37.1204183182,,,,,,,,,,,,,Train,U7
36298,,,9.7532965757,,,,,,,,,,,,,,,,Train,U7
36345,,,,,,,,,0.31491161833,,,,,,,,,,Train,U7
36399,,,9.75821142382,,,,,,,,,,,,,,,,Train,U7
36446,,,9.73626303729,,,,,,,,,,,,,,,,Train,U7
36511,,,9.77219790518,,,,,,,,,,,,,,,,Train,U7
36566,,,,,,37.0734707988,,,,,,,,,,,,,Train,U7
36616,,,,,,37.0516952122,,,,,,,,,,,,,Train,U7
36666,,,,,,37.0311708032,,,,,,,,,,,,,Train,U7
36716,,,9.75295819957,,,,,,,,,,,,,,,,Train,U7
36765,,,,,,37.0387492937,,,,,,,,,,,,,Train,U7
36815,,,,,,37.0312569044,,,,,,,,,,,,,Train,U7
36866,,,,,,37.0429419714,,,,,,,,,,,,,Train,U7
36918,,,9.72449233469,,,,,,,,,,,,,,,,Train,U7
36985,,,9.76373678875,,,,,,,,,,,,,,,,Train,U7
37030,,,9.76971424891,,,,,,,,,,,,,,,,Train,U7
37079,,,9.76576851752,,,,,,,,,,,,,,,,Train,U7
37135,,,9.76860722683,,,,,,,,,,,,,,,,Train,U7
37185,,,,,,,,,,,0.638020955486,,,,,,,,Train,U7
37236,,,,,,37.0538526298,,,,,,,,,,,,,Train,U7
37285,,,,,,,,,,,0.63794612111,,,,,,,,Train,U7
37335,,,9.75215465962,,,,,,,,,,,,,,,,Train,U7
37386,,,,,,,,,,,0.637871271928,,,,,,,,Train,U7
37447,,,9.77259027423,,,,,,,,,,,,,,,,Train,U7
37496,,,9.75217977565,,,,,,,,,,,,,,,,Train,U7
37547,,,,,,37.0808194491,,,,,,,,,,,,,Train,U7
37596,,,,,,37.0770321689,,,,,,,,,,,,,Train,U7
37645,,,,,0.0360190789807,,,,,,,,,,,,,,Train,U7
37699,,,9.72483855212,,,,,,,,,,,,,,,,Train,U7
37749,,,9.77411432428,,,,,,,,,,,,,,,,Train,U7
37801,,,9.74093584489,,,,,,,,,,,,,,,,Train,U7
37857,,,9.76585835255,,,,,,,,,,,,,,,,Train,U7
37906,,,,,,37.0948289726,,,,,,,,,,,,,Train,U7
37956,,,,,,37.1062406899,,,,,,,,,,,,,Train,U7
38007,,,,,,37.0997480056,,,,,,,,,,,,,Train,U7
38055,,,,,,37.112518179,,,,,,,,,,,,,Train,U7
38112,,,,,,37.0912614123,,,,,,,,,,,,,Train,U7
38157,,,,,,,,,,,0.637574143672,,,,,,,,Train,U7
38216,,,9.76411395914,,,,,,,,,,,,,,,,Train,U7
38261,,,9.73133687419,,,,,,,,,,,,,,,,Train,U7
38315,,,,,,37.0334203242,,,,,,,,,,,,,Train,U7
38367,,,,,,36.9877589368,,,,,,,,,,,,,Train,U7
38415,,,,,,36.9694624486,,,,,,,,,,,,,Train,U7
38467,,,,,,36.96360611,,,,,,,,,,,,,Train,U7
38517,,,9.76498911393,,,,,,,,,,,,,,,,Train,U7
38576,,,9.76476955417,,,,,,,,,,,,,,,,Train,U7
38620,,,9.77089113655,,,,,,,,,,,,,,,,Train,U7
38672,,,9.74441052207,,,,,,,,,,,,,,,,Train,U7
38725,,,,,,36.9072021162,,,,,,,,,,,,,Train,U7
38779,,,,,,36.9296182659,,,,,,,,,,,,,Train,U7
38831,,,9.7690836623,,,,,,,,,,,,,,,,Train,U7
38887,,,,,,,,,,,0.637037272152,,,,,,,,Train,U7
38937,,,9.77854312009,,,,,,,,,,,,,,,,Train,U7
38986,,,,,0.0755922298559,,,,,,,,,,,,,,Train,U7
39036,,,,,,36.9964932025,,,,,,,,,,,,,Train,U7
39089,,,9.73155438718,,,,,,,,,,,,,,,,Train,U7
39137,,,,,,,0.0513417605815,,,,,,,,,,,,Train,U7
39195,,,,,,36.9490021044,,,,,,,,,,,,,Train,U7
39246,,,,,,36.8987217506,,,,,,,,,,,,,Train,U7
39297,,,9.77974553335,,,,,,,,,,,,,,,,Train,U7
39345,,,,,,36.809679237,,,,,,,,,,,,,Train,U7
39399,,,9.79510217613,,,,,,,,,,,,,,,,Train,U7
39451,,,9.73836360272,,,,,,,,,,,,,,,,Train,U7
39505,,,,,,36.7670909637,,,,,,,,,,,,,Train,U7
39556,,,,,,36.7189982094,,,,,,,,,,,,,Train,U7
39606,,,,,,36.7179545981,,,,,,,,,,,,,Train,U7
39657,,,9.81601597337,,,,,,,,,,,,,,,,Train,U7
39720,,,9.77948158582,,,,,,,,,,,,,,,,Train,U7
39760,,,9.72434618573,,,,,,,,,,,,,,,,Train,U7
39819,,,9.77832781958,,,,,,,,,,,,,,,,Train,U7
39865,,,,,,36.7295284116,,,,,,,,,,,,,Train,U7
39916,,,,,,36.6411532007,,,,,,,,,,,,,Train,U7
39967,,,,,,36.5841062264,,,,,,,,,,,,,Train,U7
40017,,,9.79898918449,,,,,,,,,,,,,,,,Train,U7
40076,,,9.76389694889,,,,,,,,,,,,,,,,Train,U7
40125,,,,,,36.5517130132,,,,,,,,,,,,,Train,U7
40176,,,,,,36.6264429069,,,,,,,,,,,,,Train,U7
40230,,,9.75418746376,,,,,,,,,,,,,,,,Train,U7
40282,,,9.75135136674,,,,,,,,,,,,,,,,Train,U7
40332,,,9.76905922298,,,,,,,,,,,,,,,,Train,U7
40381,,,,,,36.6938994153,,,,,,,,,,,,,Train,U7
40437,,,9.78450963899,,,,,,,,,,,,,,,,Train,U7
40486,,,,,0.0833351478923,,,,,,,,,,,,,,Train,U7
40537,,,,,,36.6641182586,,,,,,,,,,,,,Train,U7
40587,,,,,,,,,,,0.63660867967,,,,,,,,Train,U7
40640,,,9.79536333217,,,,,,,,,,,,,,,,Train,U7
40695,,,,,,36.6421955149,,,,,,,,,,,,,Train,U7
40740,,,,,,,,,,,,,,68.0,,,,,Train,U7
40799,,,9.78089150688,,,,,,,,,,,,,,,,Train,U7
40845,,,,,,36.5417359784,,,,,,,,,,,,,Train,U7
40896,,,,,,36.5544097514,,,,,,,,,,,,,Train,U7
40945,,,9.81941152115,,,,,,,,,,,,,,,,Train,U7
40999,,,9.80431425963,,,,,,,,,,,,,,,,Train,U7
41050,,,9.70953600608,,,,,,,,,,,,,,,,Train,U7
41100,,,9.79351729065,,,,,,,,,,,,,,,,Train,U7
41157,,,9.79831713527,,,,,,,,,,,,,,,,Train,U7
41205,,,,,,36.4625023188,,,,,,,,,,,,,Train,U7
41255,,,,,,36.5434259097,,,,,,,,,,,,,Train,U7
41305,,,,,,36.6093378813,,,,,,,,,,,,,Train,U7
41356,,,,,,36.5516506253,,,,,,,,,,,,,Train,U7
41411,,,9.75343828532,,,,,,,,,,,,,,,,Train,U7
41460,,,,,,,,,,,,,,66.0,,,,,Train,U7
41517,,,9.76364319875,,,,,,,,,,,,,,,,Train,U7
41565,,,,,,36.371652535,,,,,,,,,,,,,Train,U7
41619,,,9.72921081448,,,,,,,,,,,,,,,,Train,U7
41675,,,,,,36.3554098829,,,,,,,,,,,,,Train,U7
41725,,,,,,36.42939028,,,,,,,,,,,,,Train,U7
41775,,,,,,36.4796919116,,,,,,,,,,,,,Train,U7
41826,,,,,,36.4924795032,,,,,,,,,,,,,Train,U7
41878,,,9.82825873213,,,,,,,,,,,,,,,,Train,U7
41938,,,9.7086926113,,,,,,,,,,,,,,,,Train,U7
41980,,,9.85082196064,,,,,,,,,,,,,,,,Train,U7
42038,,,,,,36.3703627536,,,,,,,,,,,,,Train,U7
42085,,,,,,,,,,,0.637067521646,,,,,,,,Train,U7
42137,,,,,,36.3030269686,,,,,,,,,,,,,Train,U7
42186,,,,,,,,,,,0.637292502008,,,,,,,,Train,U7
42242,,,9.74685411174,,,,,,,,,,,,,,,,Train,U7
42285,,,,,,,,174.157007806,,,,,,,,,,,Train,U7
42337,,,,9.80664922263,,,,,,,,,,,,,,,Train,U7
42390,,,9.78041810282,,,,,,,,,,,,,,,,Train,U7
42445,,,,,,36.4310112739,,,,,,,,,,,,,Train,U7
42495,,,,,,36.3738852566,,,,,,,,,,,,,Train,U7
42545,,,,,,36.359220326,,,,,,,,,,,,,Train,U7
42595,,,9.80032392306,,,,,,,,,,,,,,,,Train,U7
42645,,,,,,36.3906632202,,,,,,,,,,,,,Train,U7
42695,,,,,,36.2835263026,,,,,,,,,,,,,Train,U7
42749,,,9.78548914264,,,,,,,,,,,,,,,,Train,U7
42801,,,9.76982468853,,,,,,,,,,,,,,,,Train,U7
42848,,,9.8009272824,,,,,,,,,,,,,,,,Train,U7
42899,,,,,,,0.0331897203062,,,,,,,,,,,,Train,U7
42958,,,9.71916248957,,,,,,,,,,,,,,,,Train,U7
43005,,,,,,36.4654683472,,,,,,,,,,,,,Train,U7
43056,,,,,,36.3747116604,,,,,,,,,,,,,Train,U7
43109,,,9.71218560445,,,,,,,,,,,,,,,,Train,U7
43164,,,,,,36.2724285808,,,,,,,,,,,,,Train,U7
43215,,,,,,36.2468236651,,,,,,,,,,,,,Train,U7
43265,,,,,,36.2699329712,,,,,,,,,,,,,Train,U7
43316,,,9.74859512467,,,,,,,,,,,,,,,,Train,U7
43365,,,,,,36.3670666706,,,,,,,,,,,,,Train,U7
43416,,,,,,36.387289287,,,,,,,,,,,,,Train,U7
43464,,,,,,36.390392589,,,,,,,,,,,,,Train,U7
43515,,,,,,36.3635723522,,,,,,,,,,,,,Train,U7
43566,,,,,,,,175.210416464,,,,,,,,,,,Train,U7
43618,,,9.79373292408,,,,,,,,,,,,,,,,Train,U7
43675,,,9.75636263352,,,,,,,,,,,,,,,,Train,U7
43724,,,,,,36.2325163083,,,,,,,,,,,,,Train,U7
43776,,,,,,36.2136701058,,,,,,,,,,,,,Train,U7
43825,,,,,,36.2499445225,,,,,,,,,,,,,Train,U7
43877,,,,,,36.2323183222,,,,,,,,,,,,,Train,U7
43926,,,,,,36.2096628198,,,,,,,,,,,,,Train,U7
43975,,,9.82722788495,,,,,,,,,,,,,,,,Train,U7
44035,,,9.81638655137,,,,,,,,,,,,,,,,Train,U7
44078,,,9.75031616746,,,,,,,,,,,,,,,,Train,U7
44135,,,,,,36.2915788438,,,,,,,,,,,,,Train,U7
44185,,,,,0.124212937026,,,,,,,,,,,,,,Train,U7
44235,,,,,,36.2088510103,,,,,,,,,,,,,Train,U7
44286,,,,,,36.1840566007,,,,,,,,,,,,,Train,U7
44336,,,9.74587738303,,,,,,,,,,,,,,,,Train,U7
44385,,,,,0.0371198560324,,,,,,,,,,,,,,Train,U7
44437,,,,,,36.216031714,,,,,,,,,,,,,Train,U7
44488,,,9.79935457731,,,,,,,,,,,,,,,,Train,U7
44544,,,,,,36.1535953667,,,,,,,,,,,,,Train,U7
44594,,,,,,36.1544161981,,,,,,,,,,,,,Train,U7
44645,,,,,,36.1382209457,,,,,,,,,,,,,Train,U7
44695,,,9.83576642187,,,,,,,,,,,,,,,,Train,U7
44747,,,,,,36.0996401409,,,,,,,,,,,,,Train,U7
44795,,,,,,36.1545982449,,,,,,,,,,,,,Train,U7
44847,,,,,,36.2200443598,,,,,,,,,,,,,Train,U7
44899,,,9.81648612013,,,,,,,,,,,,,,,,Train,U7
44950,,,9.70508801008,,,,,,,,,,,,,,,,Train,U7
45006,,,,,,36.1925727584,,,,,,,,,,,,,Train,U7
45056,,,9.7593076328,,,,,,,,,,,,,,,,Train,U7
45105,,,,,,36.0459766196,,,,,,,,,,,,,Train,U7
45157,,,,,,35.9833685962,,,,,,,,,,,,,Train,U7
45208,,,9.72715063135,,,,,,,,,,,,,,,,Train,U7
45258,,,9.87277969553,,,,,,,,,,,,,,,,Train,U7
45307,,,,,,,0.0394753205544,,,,,,,,,,,,Train,U7
45365,,,,,,35.9714301031,,,,,,,,,,,,,Train,U7
45416,,,9.68705961385,,,,,,,,,,,,,,,,Train,U7
45460,,,9.86088234275,,,,,,,,,,,,,,,,Train,U7
45517,,,,,,35.9235511072,,,,,,,,,,,,,Train,U7
45564,,,,,,35.9091365732,,,,,,,,,,,,,Train,U7
45617,,,,,,35.994645924,,,,,,,,,,,,,Train,U7
45671,,,9.76690543322,,,,,,,,,,,,,,,,Train,U7
45718,,,9.78693193649,,,,,,,,,,,,,,,,Train,U7
45774,,,9.75183769832,,,,,,,,,,,,,,,,Train,U7
45819,,,,,,,0.0544869869164,,,,,,,,,,,,Train,U7
45875,,,,,,36.053431833,,,,,,,,,,,,,Train,U7
45925,,,9.82264692224,,,,,,,,,,,,,,,,Train,U7
45985,,,,,0.0700515493328,,,,,,,,,,,,,,Train,U7
46035,,,,,,35.9360811039,,,,,,,,,,,,,Train,U7
46090,,,,,0.0939943716545,,,,,,,,,,,,,,Train,U7
46135,,,9.8076493391,,,,,,,,,,,,,,,,Train,U7
46185,,,,,,35.8484144512,,,,,,,,,,,,,Train,U7
46235,,,,,,,,176.144344218,,,,,,,,,,,Train,U7
46285,,,9.73768953439,,,,,,,,,,,,,,,,Train,U7
46336,,,,,,,,,,0.0156457843523,,,,,,,,,Train,U7
46394,,,,,,35.7241659423,,,,,,,,,,,,,Train,U7
46440,,,9.7077620148,,,,,,,,,,,,,,,,Train,U7
46496,,,,,,,0.0363657277327,,,,,,,,,,,,Train,U7
46545,,,,,,35.7882224978,,,,,,,,,,,,,Train,U7
46601,,,9.83237306867,,,,,,,,,,,,,,,,Train,U7
46647,,,9.78535387088,,,,,,,,,,,,,,,,Train,U7
46704,,,,,,35.8656941835,,,,,,,,,,,,,Train,U7
46755,,,,,,35.8489952298,,,,,,,,,,,,,Train,U7
46805,,,,,,35.771265603,,,,,,,,,,,,,Train,U7
46856,,,,,,,0.0441347491084,,,,,,,,,,,,Train,U7
46905,,,,,,35.7356140619,,,,,,,,,,,,,Train,U7
46954,,,,,,35.697457494,,,,,,,,,,,,,Train,U7
47005,,,,,0.0600458360343,,,,,,,,,,,,,,Train,U7
47059,,,9.76530785689,,,,,,,,,,,,,,,,Train,U7
47114,,,,,,35.6367627471,,,,,,,,,,,,,Train,U7
47159,,,9.75463305879,,,,,,,,,,,,,,,,Train,U7
47214,,,,,,,0.0501653904497,,,,,,,,,,,,Train,U7
47264,,,,,,35.5769294693,,,,,,,,,,,,,Train,U7
47317,,,9.80050673954,,,,,,,,,,,,,,,,Train,U7
47368,,,9.83457511727,,,,,,,,,,,,,,,,Train,U7
47424,,,,,,35.509674913,,,,,,,,,,,,,Train,U7
47473,,,,,,35.4754475089,,,,,,,,,,,,,Train,U7
47524,,,,,,35.5162634817,,,,,,,,,,,,,Train,U7
47576,,,,,,,0.0435388808886,,,,,,,,,,,,Train,U7
47624,,,,,,35.5830350667,,,,,,,,,,,,,Train,U7
47676,,,,,,35.6199424605,,,,,,,,,,,,,Train,U7
47727,,,,,,,0.0397954214065,,,,,,,,,,,,Train,U7
47784,,,,,0.0486427164252,,,,,,,,,,,,,,Train,U7
47841,,,,,,35.6614468762,,,,,,,,,,,,,Train,U7
47885,,,,,,35.640822999,,,,,,,,,,,,,Train,U7
47936,,,,,,,0.0363657277327,,,,,,,,,,,,Train,U7
47984,,,,,,35.5741721819,,,,,,,,,,,,,Train,U7
48037,,,9.76286419369,,,,,,,,,,,,,,,,Train,U7
48088,,,9.75225075083,,,,,,,,,,,,,,,,Train,U7
48144,,,,,,35.4913455807,,,,,,,,,,,,,Train,U7
48194,,,,,,35.4765346724,,,,,,,,,,,,,Train,U7
48241,,,9.78337277724,,,,,,,,,,,,,,,,Train,U7
48294,,,,,,,0.0538809448429,,,,,,,,,,,,Train,U7
48344,,,,,,35.5943897885,,,,,,,,,,,,,Train,U7
48394,,,,,,35.5724198588,,,,,,,,,,,,,Train,U7
48444,,,,,,35.5644504214,,,,,,,,,,,,,Train,U7
48497,,,9.89694150792,,,,,,,,,,,,,,,,Train,U7
48547,,,,,,,,,,,,106.964573575,,,,,,,Train,U7
48598,,,,,,,0.0414849025958,,,,,,,,,,,,Train,U7
48655,,,,,,,0.0362835451505,,,,,,,,,,,,Train,U7
48706,,,,,,35.5652008274,,,,,,,,,,,,,Train,U7
48755,,,,,,35.5642339775,,,,,,,,,,,,,Train,U7
48809,,,9.68230081364,,,,,,,,,,,,,,,,Train,U7
48864,,,,,,35.5551452578,,,,,,,,,,,,,Train,U7
48916,,,,,,35.5228374599,,,,,,,,,,,,,Train,U7
48966,,,,,,35.5566235513,,,,,,,,,,,,,Train,U7
49015,,,,,,,0.0273460285777,,,,,,,,,,,,Train,U7
49065,,,,,,,,180.398032209,,,,,,,,,,,Train,U7
49118,,,9.68394212805,,,,,,,,,,,,,,,,Train,U7
49168,,,9.88379928829,,,,,,,,,,,,,,,,Train,U7
49225,,,,,,35.5572908591,,,,,,,,,,,,,Train,U7
49274,,,,,,35.550664865,,,,,,,,,,,,,Train,U7
49325,,,,,,35.523995809,,,,,,,,,,,,,Train,U7
49376,,,,,,,0.0237845555811,,,,,,,,,,,,Train,U7
49426,,,,,,35.53782805,,,,,,,,,,,,,Train,U7
49475,,,,,,35.5350942488,,,,,,,,,,,,,Train,U7
49526,,,,,0.172477299032,,,,,,,,,,,,,,Train,U7
49586,,,,,0.12501394876,,,,,,,,,,,,,,Train,U7
49636,,,,,,35.5446915503,,,,,,,,,,,,,Train,U7
49689,,,,,0.0689856729584,,,,,,,,,,,,,,Train,U7
49738,,,,,,,0.0749549344766,,,,,,,,,,,,Train,U7
49787,,,,,,,,,,,,106.761322585,,,,,,,Train,U7
49839,,,9.65492945735,,,,,,,,,,,,,,,,Train,U7
49895,,,,,,35.4488915782,,,,,,,,,,,,,Train,U7
49945,,,,,,35.4324798836,,,,,,,,,,,,,Train,U7
49995,,,,,,35.4799713171,,,,,,,,,,,,,Train,U7
50046,,,,,,35.4486770995,,,,,,,,,,,,,Train,U7
50100,,,,,,,0.0275634959755,,,,,,,,,,,,Train,U7
50156,,,,,,,0.0777888373005,,,,,,,,,,,,Train,U7
50198,,,9.78703377441,,,,,,,,,,,,,,,,Train,U7
50250,,,9.78681328686,,,,,,,,,,,,,,,,Train,U7
50305,,,,,,35.4684320615,,,,,,,,,,,,,Train,U7
50356,,,,,,35.4323320335,,,,,,,,,,,,,Train,U7
50403,,,,,,,0.0442529598562,,,,,,,,,,,,Train,U7
50457,,,,,,,,,0.301601736805,,,,,,,,,,Train,U7
50516,,,,,,,0.0250082002797,,,,,,,,,,,,Train,U7
50565,,,,,,35.3974684038,,,,,,,,,,,,,Train,U7
50617,,,,,,35.4000456627,,,,,,,,,,,,,Train,U7
50662,,,,,,35.4566879571,,,,,,,,,,,,,Train,U7
50715,,,,,,35.5089705611,,,,,,,,,,,,,Train,U7
50766,,,,,,35.481334299,,,,,,,,,,,,,Train,U7
50816,,,,,,,0.0444044827185,,,,,,,,,,,,Train,U7
50866,,,,,0.0916297332748,,,,,,,,,,,,,,Train,U7
50922,,,,,,,,,,,,106.080818538,,,,,,,Train,U7
50976,,,,,,35.4117954284,,,,,,,,,,,,,Train,U7
51027,,,,,,,0.0452205368572,,,,,,,,,,,,Train,U7
51085,,,,,,,,,,,0.638679342292,,,,,,,,Train,U7
51136,,,,,,35.4181020218,,,,,,,,,,,,,Train,U7
51186,,,,,0.0671612411221,,,,,,,,,,,,,,Train,U7
51237,,,,,,,0.036631547776,,,,,,,,,,,,Train,U7
51285,,,,,,,,,,,0.638645606733,,,,,,,,Train,U7
51338,,,9.94841033172,,,,,,,,,,,,,,,,Train,U7
51387,,,,,,,,,,0.0303471570849,,,,,,,,,Train,U7
51437,,,,,,,,,0.302504363764,,,,,,,,,,Train,U7
51494,,,,,,35.4941037754,,,,,,,,,,,,,Train,U7
51551,,,,,,,0.0350063632132,,,,,,,,,,,,Train,U7
51597,,,,,,,0.0516027483481,,,,,,,,,,,,Train,U7
51645,,,,,,35.4930948755,,,,,,,,,,,,,Train,U7
51695,,,,,,35.5110630324,,,,,,,,,,,,,Train,U7
51748,,,9.47223107481,,,,,,,,,,,,,,,,Train,U7
51798,,,9.99958266424,,,,,,,,,,,,,,,,Train,U7
51856,,,,,,35.4866493678,,,,,,,,,,,,,Train,U7
51906,,,,,,35.4935332722,,,,,,,,,,,,,Train,U7
51958,,,,,,,0.0391144608808,,,,,,,,,,,,Train,U7
52005,,,,,,35.4202449374,,,,,,,,,,,,,Train,U7
52057,,,,,,35.4816139535,,,,,,,,,,,,,Train,U7
52106,,,,,,35.4761893371,,,,,,,,,,,,,Train,U7
52158,,,9.64442229072,,,,,,,,,,,,,,,,Train,U7
52209,,,9.90095440558,,,,,,,,,,,,,,,,Train,U7
52263,,,,,,,,,,,,,,,71.45975416396409,,,,Train,U7
52315,,,,,,,0.0364477250731,,,,,,,,,,,,Train,U7
52369,,,,,,35.4249217506,,,,,,,,,,,,,Train,U7
52417,,,9.65888230627,,,,,,,,,,,,,,,,Train,U7
52467,,,9.73590952089,,,,,,,,,,,,,,,,Train,U7
52525,,,,,,35.4121696154,,,,,,,,,,,,,Train,U7
52574,,,,,,35.4511692853,,,,,,,,,,,,,Train,U7
52625,,,,,,35.4590673207,,,,,,,,,,,,,Train,U7
52676,,,,,,,0.026174703871,,,,,,,,,,,,Train,U7
52726,,,,,,35.4215147662,,,,,,,,,,,,,Train,U7
52778,,,,,,35.4433691108,,,,,,,,,,,,,Train,U7
52828,,,9.92186981132,,,,,,,,,,,,,,,,Train,U7
52878,,,,,,,,183.022331009,,,,,,,,,,,Train,U7
52933,,,9.8159972372,,,,,,,,,,,,,,,,Train,U7
52986,,,,,0.123347440087,,,,,,,,,,,,,,Train,U7
53035,,,,9.80665023561,,,,,,,,,,,,,,,Train,U7
53095,,,,,,,0.0407955558264,,,,,,,,,,,,Train,U7
53138,,,9.75928224644,,,,,,,,,,,,,,,,Train,U7
53194,,,,,,35.3392153093,,,,,,,,,,,,,Train,U7
53244,,,,,,35.2807408549,,,,,,,,,,,,,Train,U7
53295,,,,,,35.2932834078,,,,,,,,,,,,,Train,U7
53345,,,,,,35.3143962517,,,,,,,,,,,,,Train,U7
53400,,,,,,,0.0520778291052,,,,,,,,,,,,Train,U7
53458,,,,,,,0.0492495309572,,,,,,,,,,,,Train,U7
53505,,,,,,35.3275334986,,,,,,,,,,,,,Train,U7
53555,,,,,,35.3340596588,,,,,,,,,,,,,Train,U7
53604,,,,,,35.3124200765,,,,,,,,,,,,,Train,U7
53655,,,,,,35.2348154604,,,,,,,,,,,,,Train,U7
53706,,,,,,35.2550763468,,,,,,,,,,,,,Train,U7
53758,,,,,,,0.0505211778018,,,,,,,,,,,,Train,U7
53815,,,,,,,0.0410508725052,,,,,,,,,,,,Train,U7
53858,,,9.8543139337,,,,,,,,,,,,,,,,Train,U7
53908,,,9.81238735367,,,,,,,,,,,,,,,,Train,U7
53964,,,,,,35.2264227216,,,,,,,,,,,,,Train,U7
54015,,,,,,35.2233685883,,,,,,,,,,,,,Train,U7
54065,,,,,,35.235974994,,,,,,,,,,,,,Train,U7
54117,,,,,,,0.0302239443554,,,,,,,,,,,,Train,U7
54165,,,,,,35.2060182604,,,,,,,,,,,,,Train,U7
54218,,,9.64246787998,,,,,,,,,,,,,,,,Train,U7
54282,,,,,,35.2205599997,,,,,,,,,,,,,Train,U7
54325,,,,,,35.2729736333,,,,,,,,,,,,,Train,U7
54375,,,,,,35.2067223841,,,,,,,,,,,,,Train,U7
54426,,,,,,,,,,0.0243734474015,,,,,,,,,Train,U7
54477,,,,,,,,,0.300826137427,,,,,,,,,,Train,U7
54544,,,,,,,0.0349423459822,,,,,,,,,,,,Train,U7
54585,,,,,0.257919877987,,,,,,,,,,,,,,Train,U7
54635,,,,,,35.1667100674,,,,,,,,,,,,,Train,U7
54685,,,9.71718712224,,,,,,,,,,,,,,,,Train,U7
54737,,,,,,35.2056810962,,,,,,,,,,,,,Train,U7
54787,,,,,,35.1858263156,,,,,,,,,,,,,Train,U7
54836,,,,,,,,189.737750084,,,,,,,,,,,Train,U7
54895,,,9.702065914,,,,,,,,,,,,,,,,Train,U7
54938,,,9.76801047322,,,,,,,,,,,,,,,,Train,U7
54996,,,,,,35.2266405102,,,,,,,,,,,,,Train,U7
55050,,,,,,35.2314570267,,,,,,,,,,,,,Train,U7
55099,,,9.8565231143,,,,,,,,,,,,,,,,Train,U7
55148,,,9.73450864511,,,,,,,,,,,,,,,,Train,U7
55205,,,,,,35.1967190269,,,,,,,,,,,,,Train,U7
55256,,,9.73296224082,,,,,,,,,,,,,,,,Train,U7
55307,,,,,,35.2021930096,,,,,,,,,,,,,Train,U7
55355,,,,,,35.1981292124,,,,,,,,,,,,,Train,U7
55406,,,,,,,,188.596430963,,,,,,,,,,,Train,U7
55458,,,9.64831134114,,,,,,,,,,,,,,,,Train,U7
55508,,,9.71987513565,,,,,,,,,,,,,,,,Train,U7
55558,,,9.84397679529,,,,,,,,,,,,,,,,Train,U7
55619,,,9.68118749642,,,,,,,,,,,,,,,,Train,U7
55665,,,9.9697330609,,,,,,,,,,,,,,,,Train,U7
55716,,,9.75289424911,,,,,,,,,,,,,,,,Train,U7
55764,,,9.92903619598,,,,,,,,,,,,,,,,Train,U7
55816,,,,,,35.2072010027,,,,,,,,,,,,,Train,U7
55866,,,,,,35.1875377325,,,,,,,,,,,,,Train,U7
55916,,,9.66655176572,,,,,,,,,,,,,,,,Train,U7
55976,,,9.89557785799,,,,,,,,,,,,,,,,Train,U7
56022,,,9.92385818159,,,,,,,,,,,,,,,,Train,U7
56076,,,,,,35.1915207783,,,,,,,,,,,,,Train,U7
56125,,,,,,35.1765159678,,,,,,,,,,,,,Train,U7
56177,,,,,,,0.0324391875171,,,,,,,,,,,,Train,U7
56228,,,10.0227403219,,,,,,,,,,,,,,,,Train,U7
56286,,,,,,,,,,,0.640350298751,,,,,,,,Train,U7
56337,,,9.86082042516,,,,,,,,,,,,,,,,Train,U7
56385,,,,,,,,,,,0.640602104173,,,,,,,,Train,U7
56437,,,9.96952380004,,,,,,,,,,,,,,,,Train,U7
56485,,,9.77527799805,,,,,,,,,,,,,,,,Train,U7
56541,,,,9.80665010621,,,,,,,,,,,,,,,Train,U7
56591,,,9.79154768496,,,,,,,,,,,,,,,,Train,U7
56646,,,,,,35.2134733885,,,,,,,,,,,,,Train,U7
56695,,,9.51441236659,,,,,,,,,,,,,,,,Train,U7
56745,,,,,,35.1797326242,,,,,,,,,,,,,Train,U7
56796,,,,,,35.1294405087,,,,,,,,,,,,,Train,U7
56845,,,,,,,,189.020316368,,,,,,,,,,,Train,U7
56904,,,,,,35.1392487689,,,,,,,,,,,,,Train,U7
56960,,,,,,35.1886544134,,,,,,,,,,,,,Train,U7
57008,,,9.69607906329,,,,,,,,,,,,,,,,Train,U7
57058,,,9.85280638542,,,,,,,,,,,,,,,,Train,U7
57117,,,9.60063548917,,,,,,,,,,,,,,,,Train,U7
57164,,,,,,35.0825471142,,,,,,,,,,,,,Train,U7
57215,,,,,,35.0474641035,,,,,,,,,,,,,Train,U7
57264,,,,,,35.1040219663,,,,,,,,,,,,,Train,U7
57316,,,,,,35.1126444897,,,,,,,,,,,,,Train,U7
57366,,,,,,35.0875201805,,,,,,,,,,,,,Train,U7
57420,,,9.78467962419,,,,,,,,,,,,,,,,Train,U7
57480,,,9.88228207671,,,,,,,,,,,,,,,,Train,U7
57526,,,9.66731267759,,,,,,,,,,,,,,,,Train,U7
57574,,,,,,35.0635764058,,,,,,,,,,,,,Train,U7
57625,,,,,,35.0207181322,,,,,,,,,,,,,Train,U7
57674,,,,,,34.989033943,,,,,,,,,,,,,Train,U7
57725,,,,,,34.9759903551,,,,,,,,,,,,,Train,U7
57775,,,10.1108957825,,,,,,,,,,,,,,,,Train,U7
57824,,,,,,35.04915538,,,,,,,,,,,,,Train,U7
57876,,,,,,,,,,,0.641562219086,,,,,,,,Train,U7
57927,,,9.48778929695,,,,,,,,,,,,,,,,Train,U7
57978,,,9.76078976499,,,,,,,,,,,,,,,,Train,U7
58029,,,9.32995923892,,,,,,,,,,,,,,,,Train,U7
58085,,,,,0.0970158114735,,,,,,,,,,,,,,Train,U7
58135,,,9.71138821422,,,,,,,,,,,,,,,,Train,U7
58184,,,,,,,,,,,0.641546675577,,,,,,,,Train,U7
58234,,,,,,,,,0.298920555861,,,,,,,,,,Train,U7
58288,,,9.77376948101,,,,,,,,,,,,,,,,Train,U7
58338,,,9.87131466123,,,,,,,,,,,,,,,,Train,U7
58388,,,,,,,0.0602252403525,,,,,,,,,,,,Train,U7
58445,,,,,,35.0192722258,,,,,,,,,,,,,Train,U7
58497,,,9.76471672494,,,,,,,,,,,,,,,,Train,U7
58545,,,,,,35.0130973044,,,,,,,,,,,,,Train,U7
58598,,,9.73622770803,,,,,,,,,,,,,,,,Train,U7
58648,,,9.87087688333,,,,,,,,,,,,,,,,Train,U7
58696,,,,,,,,,,0.00634829770502,,,,,,,,,Train,U7
58754,,,,,,35.0333430911,,,,,,,,,,,,,Train,U7
58806,,,,,,35.026724023,,,,,,,,,,,,,Train,U7
58858,,,9.95371908337,,,,,,,,,,,,,,,,Train,U7
58905,,,,,,35.0040597963,,,,,,,,,,,,,Train,U7
58954,,,,,,35.0110720335,,,,,,,,,,,,,Train,U7
59006,,,,,,35.1148463512,,,,,,,,,,,,,Train,U7
59054,,,,,,35.1809719519,,,,,,,,,,,,,Train,U7
59110,,,,,,35.1088963925,,,,,,,,,,,,,Train,U7
59157,,,9.77225412301,,,,,,,,,,,,,,,,Train,U7
59215,,,10.0592333272,,,,,,,,,,,,,,,,Train,U7
59261,,,9.58745413205,,,,,,,,,,,,,,,,Train,U7
59315,,,,,,35.0695995001,,,,,,,,,,,,,Train,U7
59365,,,,,,35.1449402792,,,,,,,,,,,,,Train,U7
59415,,,,,,35.3320725291,,,,,,,,,,,,,Train,U7
59465,,,,,,35.4378713583,,,,,,,,,,,,,Train,U7
59516,,,10.0726947858,,,,,,,,,,,,,,,,Train,U7
59566,,,,,,35.42889737,,,,,,,,,,,,,Train,U7
59615,,,,,,35.4500507105,,,,,,,,,,,,,Train,U7
59666,,,,,,,0.03054326232,,,,,,,,,,,,Train,U7
59719,,,9.65176776661,,,,,,,,,,,,,,,,Train,U7
59771,,,9.78426354203,,,,,,,,,,,,,,,,Train,U7
59825,,,,,,35.3636816661,,,,,,,,,,,,,Train,U7
59880,,,10.0008859302,,,,,,,,,,,,,,,,Train,U7
59925,,,,,,35.5321578016,,,,,,,,,,,,,Train,U7
59978,,,,,,,,,0.302775203998,,,,,,,,,,Train,U7
60035,,,,,,35.6543939388,,,,,,,,,,,,,Train,U7
60086,,,,,0.195783068652,,,,,,,,,,,,,,Train,U7
60137,,,,,,35.7044318583,,,,,,,,,,,,,Train,U7
60187,,,,,0.380740733063,,,,,,,,,,,,,,Train,U7
60238,,,9.89872896776,,,,,,,,,,,,,,,,Train,U7
60295,,,9.669583492,,,,,,,,,,,,,,,,Train,U7
60339,,,10.0969474445,,,,,,,,,,,,,,,,Train,U7
60391,,,9.620897093,,,,,,,,,,,,,,,,Train,U7
60445,,,,,,35.9939391146,,,,,,,,,,,,,Train,U7
60496,,,,,,36.0423415246,,,,,,,,,,,,,Train,U7
60550,,,,,,35.9748972697,,,,,,,,,,,,,Train,U7
60597,,,9.69482610674,,,,,,,,,,,,,,,,Train,U7
60646,,,,,,35.872999965,,,,,,,,,,,,,Train,U7
60699,,,9.89302671982,,,,,,,,,,,,,,,,Train,U7
60749,,,,,,,0.0313630372801,,,,,,,,,,,,Train,U7
60806,,,,,,36.0865491498,,,,,,,,,,,,,Train,U7
60855,,,9.89619737237,,,,,,,,,,,,,,,,Train,U7
60907,,,9.64802973993,,,,,,,,,,,,,,,,Train,U7
60957,,,9.79607656932,,,,,,,,,,,,,,,,Train,U7
61007,,,,,,35.9827499595,,,,,,,,,,,,,Train,U7
61060,,,9.83092843499,,,,,,,,,,,,,,,,Train,U7
61113,,,9.78242788354,,,,,,,,,,,,,,,,Train,U7
61165,,,9.8466380407,,,,,,,,,,,,,,,,Train,U7
61215,,,9.94141414869,,,,,,,,,,,,,,,,Train,U7
61261,,,,,,,,,,,,,,,72.94374595791979,,,,Train,U7
61316,,,9.95677354983,,,,,,,,,,,,,,,,Train,U7
61366,,,9.49336948535,,,,,,,,,,,,,,,,Train,U7
61417,,,9.96812767548,,,,,,,,,,,,,,,,Train,U7
61466,,,9.57890670676,,,,,,,,,,,,,,,,Train,U7
61517,,,,,,35.5929580733,,,,,,,,,,,,,Train,U7
61570,,,9.69928288157,,,,,,,,,,,,,,,,Train,U7
61619,,,9.5710838044,,,,,,,,,,,,,,,,Train,U7
61677,,,9.81756479127,,,,,,,,,,,,,,,,Train,U7
61722,,,9.45312674077,,,,,,,,,,,,,,,,Train,U7
61779,,,9.88408322802,,,,,,,,,,,,,,,,Train,U7
61826,,,,,,,0.029926163282,,,,,,,,,,,,Train,U7
61879,,,9.71436100248,,,,,,,,,,,,,,,,Train,U7
61929,,,9.81124553068,,,,,,,,,,,,,,,,Train,U7
61979,,,9.66324685501,,,,,,,,,,,,,,,,Train,U7
62038,,,9.99971209828,,,,,,,,,,,,,,,,Train,U7
62085,,,9.82947651125,,,,,,,,,,,,,,,,Train,U7
62136,,,9.88555816274,,,,,,,,,,,,,,,,Train,U7
62188,,,9.98471436694,,,,,,,,,,,,,,,,Train,U7
62240,,,9.8517560204,,,,,,,,,,,,,,,,Train,U7
62295,,,10.0987792442,,,,,,,,,,,,,,,,Train,U7
