time,activityrecognition#0,activityrecognition#1,android.sensor.accelerometer#0,android.sensor.gravity#0,android.sensor.linear_acceleration#0,android.sensor.orientation#0,android.sensor.gyroscope_uncalibrated#0,android.sensor.magnetic_field_uncalibrated#0,android.sensor.rotation_vector#0,android.sensor.gyroscope#0,android.sensor.game_rotation_vector#0,android.sensor.magnetic_field#0,android.sensor.pressure#0,android.sensor.light#0,sound#0,speed#0,android.sensor.proximity#0,android.sensor.step_counter#0,target,user
2,,,9.43266767657,,,,,,,,,,,,,,,,Train,U7
54,,,,,,,,,,,,107.99379916,,,,,,,Train,U7
110,,,,,,,,,,,,108.056424321,,,,,,,Train,U7
208,,,,,,,,,,,,107.924560861,,,,,,,Train,U7
260,,,10.0304188863,,,,,,,,,,,,,,,,Train,U7
314,,,,,,,,192.812914572,,,,,,,,,,,Train,U7
366,,,,,,,,,,,,107.700560105,,,,,,,Train,U7
415,,,,,,,,,,,,107.562865339,,,,,,,Train,U7
466,,,,,,,,,,,0.115357839023,,,,,,,,Train,U7
518,,,,,,,,,,1.56414376987,,,,,,,,,Train,U7
566,,,,,,,,,,1.17577076009,,,,,,,,,Train,U7
618,,,9.85957596507,,,,,,,,,,,,,,,,Train,U7
669,,,9.35275803549,,,,,,,,,,,,,,,,Train,U7
725,,,,,,,,,,,,106.539949418,,,,,,,Train,U7
776,,,,,,,,,,,,106.459804621,,,,,,,Train,U7
827,,,,,,,,,,,,106.155263755,,,,,,,Train,U7
879,,,,,,,,,,1.5795127958,,,,,,,,,Train,U7
928,,,,,,,,,,,,105.548945992,,,,,,,Train,U7
978,,,,,,,,,,,,104.995765091,,,,,,,Train,U7
1031,,,,,,,,,,,,104.453769695,,,,,,,Train,U7
1088,,,,,,,,,,,,104.15325247,,,,,,,Train,U7
1138,,,,,,,,209.239695087,,,,,,,,,,,Train,U7
1189,,,,,,,,210.015832736,,,,,,,,,,,Train,U7
1240,,,,,,,0.842236762101,,,,,,,,,,,,Train,U7
1289,,,,,,,,,0.430228545775,,,,,,,,,,Train,U7
1346,,,,,,,,,,,,102.383641271,,,,,,,Train,U7
1398,,,,,,,,,,,,101.943955191,,,,,,,Train,U7
1447,,,,,,,,212.749759119,,,,,,,,,,,Train,U7
1497,,,,,,,,,,,,101.21566446,,,,,,,Train,U7
1551,,,9.8348874628,,,,,,,,,,,,,,,,Train,U7
1601,,,,,,,0.495339004926,,,,,,,,,,,,Train,U7
1658,,,,,,,,,,0.523166046445,,,,,,,,,Train,U7
1707,,,,,,,,,,,,100.008499639,,,,,,,Train,U7
1756,,,,,,,,214.832097229,,,,,,,,,,,Train,U7
1811,,,9.37375230637,,,,,,,,,,,,,,,,Train,U7
1865,,,,,,,,,,,,99.5201020247,,,,,,,Train,U7
1914,,,,,,,,,,,,99.8640575983,,,,,,,Train,U7
1965,,,,,,,,213.839051636,,,,,,,,,,,Train,U7
2018,,,,,,,,,,4.20412518089,,,,,,,,,Train,U7
2067,,,,,,,,,,,,104.946938974,,,,,,,Train,U7
2120,,,9.15170669193,,,,,,,,,,,,,,,,Train,U7
2169,,,,,,,,195.654951521,,,,,,,,,,,Train,U7
2221,,,9.05341679274,,,,,,,,,,,,,,,,Train,U7
2277,,,,,,,,,,,,109.294556132,,,,,,,Train,U7
2331,,,9.78399814818,,,,,,,,,,,,,,,,Train,U7
2388,,,,,,,,,,,,108.739965054,,,,,,,Train,U7
2443,,,,,,,1.22284302619,,,,,,,,,,,,Train,U7
2487,,,9.58697472008,,,,,,,,,,,,,,,,Train,U7
2538,,,,,,,,188.864104583,,,,,,,,,,,Train,U7
2590,,,,,,,,,,,,108.450453835,,,,,,,Train,U7
2641,,,10.9178028793,,,,,,,,,,,,,,,,Train,U7
2698,,,,,,,,,,,,108.216542398,,,,,,,Train,U7
2751,,,,,,,,,,,,108.457645867,,,,,,,Train,U7
2804,,,,,,,,,,0.497682369091,,,,,,,,,Train,U7
2857,,,,,,,,,,0.275551003164,,,,,,,,,Train,U7
2915,,,,,,,0.195945910552,,,,,,,,,,,,Train,U7
2957,,,,,,,,,,,,108.607367301,,,,,,,Train,U7
3009,,,,,,,,191.77541565,,,,,,,,,,,Train,U7
3058,,,,,,,,,,,,108.695216086,,,,,,,Train,U7
3109,,,,,,,,,,,,108.714350479,,,,,,,Train,U7
3161,,,,,,,,,,2.40844136428,,,,,,,,,Train,U7
3218,,,,,,,,,,2.77996152734,,,,,,,,,Train,U7
3269,,,,,,,,,,,,108.777851408,,,,,,,Train,U7
3318,,,,,,,,,,,,108.890178423,,,,,,,Train,U7
3372,,,,,,,,,,,,108.932915136,,,,,,,Train,U7
3420,,,,,,,0.168319699851,,,,,,,,,,,,Train,U7
3470,,,10.0689280001,,,,,,,,,,,,,,,,Train,U7
3523,,,10.0679067713,,,,,,,,,,,,,,,,Train,U7
3576,,,,,,,,,,0.324826413235,,,,,,,,,Train,U7
3619,,,9.28788661521,,,,,,,,,,,,,,,,Train,U7
3676,,,,,,,,190.781157351,,,,,,,,,,,Train,U7
3727,,,,,,,,191.054426406,,,,,,,,,,,Train,U7
3776,,,,,,,,,,,,109.387567849,,,,,,,Train,U7
3827,,,,,,,,,,,,109.426688639,,,,,,,Train,U7
3877,,,,,,,0.0833019482123,,,,,,,,,,,,Train,U7
3927,,,,,,,,,,,,109.268888527,,,,,,,Train,U7
3976,,,,,,,,,,,,109.268888527,,,,,,,Train,U7
4027,,,,,,,,,,,,109.266737848,,,,,,,Train,U7
4079,,,9.73785239551,,,,,,,,,,,,,,,,Train,U7
4128,,,,9.80665035893,,,,,,,,,,,,,,,Train,U7
4180,,,9.92407534336,,,,,,,,,,,,,,,,Train,U7
4237,,,,,,,0.0680669479579,,,,,,,,,,,,Train,U7
4282,,,9.84627509761,,,,,,,,,,,,,,,,Train,U7
4333,,,,9.8066494911,,,,,,,,,,,,,,,Train,U7
4391,,,,,,,,,,,,109.206867916,,,,,,,Train,U7
4448,,,,,,,,191.330368734,,,,,,,,,,,Train,U7
4499,,,,,,,,,,,,109.229803625,,,,,,,Train,U7
4547,,,,,,,,,,,,109.206867916,,,,,,,Train,U7
4599,,,,,,,0.0785716159449,,,,,,,,,,,,Train,U7
4647,,,,,,,,,,,,109.490232245,,,,,,,Train,U7
4696,,,,,,,,,0.533961169861,,,,,,,,,,Train,U7
4749,,,9.70036885728,,,,,,,,,,,,,,,,Train,U7
4799,,,9.83090349749,,,,,,,,,,,,,,,,Train,U7
4849,,,9.64636001523,,,,,,,,,,,,,,,,Train,U7
4899,,,9.92189594727,,,,,,,,,,,,,,,,Train,U7
4956,,,,,,,1.7211203756,,,,,,,,,,,,Train,U7
5006,,,,,,,,191.39240776,,,,,,,,,,,Train,U7
5055,,,,,,,,,,,,110.072749761,,,,,,,Train,U7
5107,,,,,,,,,,,,110.266994155,,,,,,,Train,U7
5156,,,,,,,,,,,,110.556908643,,,,,,,Train,U7
5210,,,,,,,,,,,0.183578784109,,,,,,,,Train,U7
5259,,,,,,,0.850291060948,,,,,,,,,,,,Train,U7
5306,,,,,,,,,,,,111.437651945,,,,,,,Train,U7
5355,,,,,,,,,,,,111.400049066,,,,,,,Train,U7
5407,,,,,,,,,,,,111.494439323,,,,,,,Train,U7
5459,,,,,,,0.20712566433,,,,,,,,,,,,Train,U7
5507,,,,,,,,189.125418011,,,,,,,,,,,Train,U7
5558,,,,,,,,,,0.942385946491,,,,,,,,,Train,U7
5616,,,,,,,,,,0.369104182212,,,,,,,,,Train,U7
5659,,,9.70534084603,,,,,,,,,,,,,,,,Train,U7
5715,,,,,,,,,,,,113.463782768,,,,,,,Train,U7
5766,,,,,,,,,,,,113.514625606,,,,,,,Train,U7
5816,,,,,,,,,,,,113.644401534,,,,,,,Train,U7
5866,,,,,,,,,,,,113.417547143,,,,,,,Train,U7
5916,,,,,,,0.0784004542574,,,,,,,,,,,,Train,U7
5967,,,,,,,,,,,,112.989690046,,,,,,,Train,U7
6016,,,,,,,,,,,,112.71064749,,,,,,,Train,U7
6067,,,,,,,,,,,,112.552698768,,,,,,,Train,U7
6117,,,,,,,,,,,,112.424779084,,,,,,,Train,U7
6167,,,,,,,,,,,,112.370325264,,,,,,,Train,U7
6216,,,,,,48.6231277483,,,,,,,,,,,,,Train,U7
6276,,,10.2979096349,,,,,,,,,,,,,,,,Train,U7
6330,,,,,,,,,,,,111.413693846,,,,,,,Train,U7
6387,,,,,,,,,,,,110.746964827,,,,,,,Train,U7
6437,,,,,,,,201.684853174,,,,,,,,,,,Train,U7
6487,,,10.8864978497,,,,,,,,,,,,,,,,Train,U7
6554,,,,,,,,201.589012597,,,,,,,,,,,Train,U7
6594,,,,,,,,201.696529585,,,,,,,,,,,Train,U7
6637,,,8.96939479522,,,,,,,,,,,,,,,,Train,U7
6688,,,,,,,,,,,,111.129204082,,,,,,,Train,U7
6737,,,,,,,,,,,,111.373292285,,,,,,,Train,U7
6788,,,,,,,,,,,,111.544210808,,,,,,,Train,U7
6837,,,,,,,,,,,,111.77030017,,,,,,,Train,U7
6888,,,,,,,,,,,,111.860409321,,,,,,,Train,U7
6937,,,9.65828148879,,,,,,,,,,,,,,,,Train,U7
6988,,,,,,,,,,,,112.380692292,,,,,,,Train,U7
7040,,,9.90686261806,,,,,,,,,,,,,,,,Train,U7
7088,,,,,,,,,,,,113.160638033,,,,,,,Train,U7
7140,,,9.75336352919,,,,,,,,,,,,,,,,Train,U7
7188,,,,9.80664723275,,,,,,,,,,,,,,,Train,U7
7239,,,,,,42.9542625655,,,,,,,,,,,,,Train,U7
7296,,,10.1819169855,,,,,,,,,,,,,,,,Train,U7
7340,,,9.56393435845,,,,,,,,,,,,,,,,Train,U7
7396,,,,,,,,,,,,116.282844822,,,,,,,Train,U7
7441,,,9.2383605295,,,,,,,,,,,,,,,,Train,U7
7497,,,,,,,,,,,,116.449302274,,,,,,,Train,U7
7547,,,,,,,,,,,,117.09099026,,,,,,,Train,U7
7596,,,10.3963967756,,,,,,,,,,,,,,,,Train,U7
7647,,,9.20908105641,,,,,,,,,,,,,,,,Train,U7
7696,,,9.47702539847,,,,,,,,,,,,,,,,Train,U7
7747,,,,,,,,,,,,117.2670897,,,,,,,Train,U7
7797,,,,,,,,,,,,116.933357766,,,,,,,Train,U7
7847,,,,,,,,,,,,115.397834314,,,,,,,Train,U7
7896,,,9.46035591042,,,,,,,,,,,,,,,,Train,U7
7947,,,,,,,,,,,,114.913624768,,,,,,,Train,U7
7997,,,,,,,,,,,,113.975523688,,,,,,,Train,U7
8048,,,,,,,,169.696376368,,,,,,,,,,,Train,U7
8099,,,,,,,,,,,,113.776495582,,,,,,,Train,U7
8151,,,10.6218673842,,,,,,,,,,,,,,,,Train,U7
8207,,,,,,,,,,,,113.471538282,,,,,,,Train,U7
8257,,,10.8675567401,,,,,,,,,,,,,,,,Train,U7
8308,,,,,,,,,,,,113.227337688,,,,,,,Train,U7
8385,,,9.71866217348,,,,,,,,,,,,,,,,Train,U7
8438,,,9.00793570976,,,,,,,,,,,,,,,,Train,U7
8488,,,,,,,,,,,,112.562382704,,,,,,,Train,U7
8540,,,9.08264533144,,,,,,,,,,,,,,,,Train,U7
8590,,,10.8874463762,,,,,,,,,,,,,,,,Train,U7
8649,,,,,,,,,,,0.253532000093,,,,,,,,Train,U7
8698,,,,,,,,,,,,115.392114115,,,,,,,Train,U7
8744,,,10.1723447626,,,,,,,,,,,,,,,,Train,U7
8805,,,9.33579534146,,,,,,,,,,,,,,,,Train,U7
8849,,,,,,,,173.400067758,,,,,,,,,,,Train,U7
8898,,,,,,,,,,0.318820165173,,,,,,,,,Train,U7
8949,,,,,,,,,,0.574370589881,,,,,,,,,Train,U7
9000,,,,,,,,,,,0.178670310122,,,,,,,,Train,U7
9050,,,,,,,,,,,,114.163786545,,,,,,,Train,U7
9103,,,9.69113037171,,,,,,,,,,,,,,,,Train,U7
9160,,,9.89386704234,,,,,,,,,,,,,,,,Train,U7
9210,,,,,,,,,,,,113.752059155,,,,,,,Train,U7
9259,,,,,,,,,,,,113.534356034,,,,,,,Train,U7
9310,,,,,,,,,,,,113.35104829,,,,,,,Train,U7
9359,,,,,,,,,,,,113.328063603,,,,,,,Train,U7
9410,,,10.1620028706,,,,,,,,,,,,,,,,Train,U7
9463,,,9.8270839023,,,,,,,,,,,,,,,,Train,U7
9511,,,,9.80665014747,,,,,,,,,,,,,,,Train,U7
9573,,,9.74182762308,,,,,,,,,,,,,,,,Train,U7
9618,,,,,,,,,,,,113.177166235,,,,,,,Train,U7
9670,,,8.85975963597,,,,,,,,,,,,,,,,Train,U7
9723,,,8.94902574984,,,,,,,,,,,,,,,,Train,U7
9772,,,12.5829355514,,,,,,,,,,,,,,,,Train,U7
9822,,,,,,,0.100523997273,,,,,,,,,,,,Train,U7
9879,,,10.676082995,,,,,,,,,,,,,,,,Train,U7
9929,,,,,,,,,,,,113.234270431,,,,,,,Train,U7
9979,,,,,,,,,,,,113.265926033,,,,,,,Train,U7
10039,,,,,,,,170.517829468,,,,,,,,,,,Train,U7
10090,,,,,,,,,,,,113.380245193,,,,,,,Train,U7
10143,,,,,,,,170.425907797,,,,,,,,,,,Train,U7
10199,,,,,,,,,,,,113.667102296,,,,,,,Train,U7
10250,,,,,,,,,,,,113.75346212,,,,,,,Train,U7
10299,,,9.99189334876,,,,,,,,,,,,,,,,Train,U7
10350,,,,,,,,,,,,113.847134351,,,,,,,Train,U7
10400,,,,,,,,,,,,113.931562624,,,,,,,Train,U7
10451,,,,,,,,,,,,114.059020671,,,,,,,Train,U7
10502,,,,,,,,,,,,114.070241518,,,,,,,Train,U7
10552,,,,,,24.9342870609,,,,,,,,,,,,,Train,U7
10602,,,,,,,,,0.215915738787,,,,,,,,,,Train,U7
10661,,,9.74993517218,,,,,,,,,,,,,,,,Train,U7
10706,,,9.90644210047,,,,,,,,,,,,,,,,Train,U7
10759,,,,,,,,,,,,114.102103399,,,,,,,Train,U7
10811,,,,,,,,,,,,114.218431087,,,,,,,Train,U7
10861,,,,,,,,,,,,114.271650887,,,,,,,Train,U7
10911,,,,,,,,,,,,114.336215594,,,,,,,Train,U7
10963,,,9.78548157887,,,,,,,,,,,,,,,,Train,U7
11020,,,9.59764112725,,,,,,,,,,,,,,,,Train,U7
11064,,,,9.80664973496,,,,,,,,,,,,,,,Train,U7
11120,,,,,,,,,,,,114.96856092,,,,,,,Train,U7
11171,,,,,,,,,,,,115.263264739,,,,,,,Train,U7
11220,,,9.65086169723,,,,,,,,,,,,,,,,Train,U7
11271,,,9.60022942353,,,,,,,,,,,,,,,,Train,U7
11324,,,9.66018156766,,,,,,,,,,,,,,,,Train,U7
11371,,,9.76505077598,,,,,,,,,,,,,,,,Train,U7
11425,,,9.68863884939,,,,,,,,,,,,,,,,Train,U7
11486,,,9.88699970562,,,,,,,,,,,,,,,,Train,U7
11530,,,,,,,,,,,,115.290590225,,,,,,,Train,U7
11580,,,,,,,,,,,,115.403726831,,,,,,,Train,U7
11631,,,9.76036266989,,,,,,,,,,,,,,,,Train,U7
11685,,,9.87447799647,,,,,,,,,,,,,,,,Train,U7
11731,,,,,,,,,,,,115.439252258,,,,,,,Train,U7
11785,,,9.94340636147,,,,,,,,,,,,,,,,Train,U7
11834,,,9.7808111521,,,,,,,,,,,,,,,,Train,U7
11890,,,,,,,,,,,,115.464501707,,,,,,,Train,U7
11941,,,,,,,,169.943441439,,,,,,,,,,,Train,U7
11991,,,10.014992828,,,,,,,,,,,,,,,,Train,U7
12045,,,9.68613690742,,,,,,,,,,,,,,,,Train,U7
12092,,,,,,,,,,,,115.366112875,,,,,,,Train,U7
12140,,,,,,,,,,,,,1038.5222,,,,,,Train,U7
12193,,,9.76115831284,,,,,,,,,,,,,,,,Train,U7
12251,,,,,,,,,,,,115.280054485,,,,,,,Train,U7
12301,,,,,,,,,,,,115.316871975,,,,,,,Train,U7
12353,,,,,,,,,,,,115.268083015,,,,,,,Train,U7
12400,,,9.18085027549,,,,,,,,,,,,,,,,Train,U7
12451,,,,,,,,,,,,115.087663799,,,,,,,Train,U7
12503,,,,,,,,,,,,114.794124227,,,,,,,Train,U7
12551,,,,,,,,171.363269249,,,,,,,,,,,Train,U7
12604,,,9.63733820332,,,,,,,,,,,,,,,,Train,U7
12662,,,,,,,,,,,,113.591240859,,,,,,,Train,U7
12711,,,,,,,,,,,,113.14322861,,,,,,,Train,U7
12762,,,10.2312681748,,,,,,,,,,,,,,,,Train,U7
12812,,,,,,,,,,,,112.710869806,,,,,,,Train,U7
12870,,,,,,,,,,,,,,,77.82182452935447,,,,Train,U7
12922,,,,,,,,,,,,112.589920385,,,,,,,Train,U7
12972,,,,,,,,,,,,112.691526622,,,,,,,Train,U7
13028,,,9.97598721502,,,,,,,,,,,,,,,,Train,U7
13093,,,,,,,,,,,,112.59178478,,,,,,,Train,U7
13132,,,,,,,,,,,,112.630236457,,,,,,,Train,U7
13183,,,9.88323077295,,,,,,,,,,,,,,,,Train,U7
13231,,,,,,,,,,,,112.260326661,,,,,,,Train,U7
13284,,,9.52359267868,,,,,,,,,,,,,,,,Train,U7
13339,,,9.43192246267,,,,,,,,,,,,,,,,Train,U7
13391,,,,,,,,,,,,111.31348127,,,,,,,Train,U7
13441,,,,,,,,175.646415955,,,,,,,,,,,Train,U7
13495,,,,,,,,,,,,111.030671438,,,,,,,Train,U7
13547,,,9.5651147975,,,,,,,,,,,,,,,,Train,U7
13602,,,9.87188299479,,,,,,,,,,,,,,,,Train,U7
13654,,,,,,,,,,,,111.562986694,,,,,,,Train,U7
13704,,,9.69290527834,,,,,,,,,,,,,,,,Train,U7
13763,,,,,,,,,,,,111.750481808,,,,,,,Train,U7
13811,,,,,,,,175.304478162,,,,,,,,,,,Train,U7
13861,,,,,,,,,,,,111.096579605,,,,,,,Train,U7
13911,,,,,,,,,,,,110.853507677,,,,,,,Train,U7
13963,,,9.49474567553,,,,,,,,,,,,,,,,Train,U7
14011,,,,,,,,,,,,110.681796155,,,,,,,Train,U7
14060,,,,,,,,175.457155888,,,,,,,,,,,Train,U7
14114,,,9.60955834805,,,,,,,,,,,,,,,,Train,U7
14161,,,9.78981445033,,,,,,,,,,,,,,,,Train,U7
14221,,,,,,,,,,,,111.456987966,,,,,,,Train,U7
14271,,,,,,,,,,,,111.59274592,,,,,,,Train,U7
14324,,,9.74111509935,,,,,,,,,,,,,,,,Train,U7
14369,,,,,,,,,,,,,,,75.18428862468488,,,,Train,U7
14424,,,,,,,,,,,,112.472623122,,,,,,,Train,U7
14472,,,,,,,,,,,,112.877721451,,,,,,,Train,U7
14526,,,9.89277837004,,,,,,,,,,,,,,,,Train,U7
14573,,,,,,24.3135177922,,,,,,,,,,,,,Train,U7
14631,,,,,,,,,,,,113.216606556,,,,,,,Train,U7
14682,,,9.71639314142,,,,,,,,,,,,,,,,Train,U7
14732,,,,,,,,,,,,113.195848715,,,,,,,Train,U7
14780,,,,,,,0.05444588168,,,,,,,,,,,,Train,U7
14831,,,,,,,,173.841795895,,,,,,,,,,,Train,U7
14890,,,,,,,,,,,,113.316591901,,,,,,,Train,U7
14941,,,,,,,,174.175113453,,,,,,,,,,,Train,U7
14992,,,,,,,,,,,,113.573325057,,,,,,,Train,U7
15046,,,9.57799292904,,,,,,,,,,,,,,,,Train,U7
15091,,,,,,,,,,,,113.716713644,,,,,,,Train,U7
15145,,,9.69953042667,,,,,,,,,,,,,,,,Train,U7
15194,,,9.69120158878,,,,,,,,,,,,,,,,Train,U7
15252,,,,,,,,,,,,114.054416837,,,,,,,Train,U7
15301,,,,,,,,,,,,114.043637005,,,,,,,Train,U7
15351,,,,,,,,,,,,113.920586375,,,,,,,Train,U7
15403,,,9.89218431335,,,,,,,,,,,,,,,,Train,U7
15452,,,,,,,,,,,,113.558223676,,,,,,,Train,U7
15501,,,,,,,,,,,,113.280933965,,,,,,,Train,U7
15552,,,,,,24.60200039,,,,,,,,,,,,,Train,U7
15611,,,,,,,,171.365136478,,,,,,,,,,,Train,U7
15663,,,,,,,,,,,,112.176378975,,,,,,,Train,U7
15711,,,,,0.49928236485,,,,,,,,,,,,,,Train,U7
15776,,,9.71270539857,,,,,,,,,,,,,,,,Train,U7
15824,,,9.93012260698,,,,,,,,,,,,,,,,Train,U7
15869,,,,,,,,,,,,,,,75.56447253532193,,,,Train,U7
15924,,,,,,,,,,,,110.047898662,,,,,,,Train,U7
15974,,,,,,,,,,,,109.414532856,,,,,,,Train,U7
16024,,,,,,,,,,,,108.917680399,,,,,,,Train,U7
16074,,,,,,,,,,,,108.35109598,,,,,,,Train,U7
16125,,,9.78544662863,,,,,,,,,,,,,,,,Train,U7
16183,,,9.49671589033,,,,,,,,,,,,,,,,Train,U7
16234,,,,,,,,,,,,107.105279641,,,,,,,Train,U7
16283,,,,,,,,,,,,107.099253032,,,,,,,Train,U7
16334,,,,,,,,178.240792189,,,,,,,,,,,Train,U7
16384,,,,,,,,,,,,107.180735976,,,,,,,Train,U7
16435,,,,,,,,,,,,107.177796208,,,,,,,Train,U7
16484,,,9.80695992298,,,,,,,,,,,,,,,,Train,U7
16544,,,9.86578622008,,,,,,,,,,,,,,,,Train,U7
16593,,,,,,,,,,,,107.491022881,,,,,,,Train,U7
16643,,,,,,,,179.393320997,,,,,,,,,,,Train,U7
16693,,,,,,,,179.457126335,,,,,,,,,,,Train,U7
16745,,,,,,,,179.317985713,,,,,,,,,,,Train,U7
16794,,,,,,,,,,,,108.113505169,,,,,,,Train,U7
16845,,,9.94237056272,,,,,,,,,,,,,,,,Train,U7
16893,,,,,,,0.0935082913344,,,,,,,,,,,,Train,U7
16945,,,,,,,,,,,0.233935992306,,,,,,,,Train,U7
16997,,,9.16796471518,,,,,,,,,,,,,,,,Train,U7
17050,,,,,,,,,,,,110.224680423,,,,,,,Train,U7
17105,,,,,,,,,,,,110.870063484,,,,,,,Train,U7
17154,,,,,,,,,,,,111.463088061,,,,,,,Train,U7
17204,,,,,,,0.0358489927051,,,,,,,,,,,,Train,U7
17266,,,10.0188540717,,,,,,,,,,,,,,,,Train,U7
17313,,,,,,,,,,,,112.460348568,,,,,,,Train,U7
17366,,,,,,,,,,,,112.47017927,,,,,,,Train,U7
17413,,,,,,,,,,,,112.595781449,,,,,,,Train,U7
17464,,,,,,,,,,,,112.600977148,,,,,,,Train,U7
17514,,,,,,,,,,,,112.803058469,,,,,,,Train,U7
17566,,,9.39279864333,,,,,,,,,,,,,,,,Train,U7
17629,,,9.69506758571,,,,,,,,,,,,,,,,Train,U7
17673,,,,,,,,,,,,113.114013279,,,,,,,Train,U7
17724,,,,,,,,,,,,112.968181361,,,,,,,Train,U7
17774,,,,,,,,171.487638038,,,,,,,,,,,Train,U7
17825,,,,,,,,,,,,112.614075497,,,,,,,Train,U7
17875,,,,,,,,,,,,112.398309596,,,,,,,Train,U7
17926,,,9.9054485106,,,,,,,,,,,,,,,,Train,U7
17977,,,,,,,,,,,,112.080109596,,,,,,,Train,U7
18027,,,9.913723399,,,,,,,,,,,,,,,,Train,U7
18087,,,,,,,,,,,,112.063241074,,,,,,,Train,U7
18129,,,9.62352805784,,,,,,,,,,,,,,,,Train,U7
18185,,,,,,,,,,,,112.421261334,,,,,,,Train,U7
18235,,,,,,,,,,,,112.429223616,,,,,,,Train,U7
18285,,,9.65706974195,,,,,,,,,,,,,,,,Train,U7
18336,,,,,,,,,,,,112.835455421,,,,,,,Train,U7
18390,,,9.77577148964,,,,,,,,,,,,,,,,Train,U7
18445,,,,,,,,172.128818185,,,,,,,,,,,Train,U7
18495,,,,,,,,172.032817259,,,,,,,,,,,Train,U7
18547,,,,,,,,171.74553866,,,,,,,,,,,Train,U7
18595,,,,,,,,,,,,113.723568358,,,,,,,Train,U7
18650,,,9.8629727876,,,,,,,,,,,,,,,,Train,U7
18707,,,9.71045824688,,,,,,,,,,,,,,,,Train,U7
18754,,,,,,,,,,,,114.131196436,,,,,,,Train,U7
18805,,,,,,,,,,,,114.281450813,,,,,,,Train,U7
18855,,,,,,,,,,,,114.423556108,,,,,,,Train,U7
18904,,,,,,,,,,,,114.549989088,,,,,,,Train,U7
18955,,,,,,,,,,,,114.617014444,,,,,,,Train,U7
19006,,,9.6076588024,,,,,,,,,,,,,,,,Train,U7
19056,,,9.77933515958,,,,,,,,,,,,,,,,Train,U7
19105,,,,,,,,,,,,114.69289496,,,,,,,Train,U7
19158,,,10.2224001422,,,,,,,,,,,,,,,,Train,U7
19206,,,10.048446937,,,,,,,,,,,,,,,,Train,U7
19258,,,9.94704852605,,,,,,,,,,,,,,,,Train,U7
19315,,,9.92244979723,,,,,,,,,,,,,,,,Train,U7
19365,,,9.80996566489,,,,,,,,,,,,,,,,Train,U7
19415,,,,,,,,,,,,114.465894318,,,,,,,Train,U7
19465,,,,,,,,,,,,114.424210725,,,,,,,Train,U7
19515,,,,,,,,,,,,114.51677238,,,,,,,Train,U7
19565,,,,,,,,,,,,114.508213513,,,,,,,Train,U7
19615,,,9.53035574459,,,,,,,,,,,,,,,,Train,U7
19674,,,,,,,,,,,,114.608769972,,,,,,,Train,U7
19727,,,9.70294164732,,,,,,,,,,,,,,,,Train,U7
19775,,,,,,,,,,,,114.541258942,,,,,,,Train,U7
19824,,,,,,,,,,0.0316001002016,,,,,,,,,Train,U7
19874,,,,,,,,,,0.109969321684,,,,,,,,,Train,U7
19928,,,9.81506759426,,,,,,,,,,,,,,,,Train,U7
19979,,,,,,,0.126854224915,,,,,,,,,,,,Train,U7
20035,,,,,,,,,,,,114.684349412,,,,,,,Train,U7
20085,,,9.60044466181,,,,,,,,,,,,,,,,Train,U7
20137,,,9.67466397955,,,,,,,,,,,,,,,,Train,U7
20187,,,9.62988128991,,,,,,,,,,,,,,,,Train,U7
20244,,,,,,,,,,,0.232982198116,,,,,,,,Train,U7
20294,,,9.63262338109,,,,,,,,,,,,,,,,Train,U7
20345,,,9.45217524353,,,,,,,,,,,,,,,,Train,U7
20397,,,,,,,,170.097883585,,,,,,,,,,,Train,U7
20447,,,9.67864643701,,,,,,,,,,,,,,,,Train,U7
20495,,,,,,,,,,,,114.786411192,,,,,,,Train,U7
20546,,,,,,,,170.037202266,,,,,,,,,,,Train,U7
20596,,,,,,,,,0.208314003744,,,,,,,,,,Train,U7
20649,,,10.0036029231,,,,,,,,,,,,,,,,Train,U7
20700,,,9.90217171092,,,,,,,,,,,,,,,,Train,U7
20757,,,,,,,,,,,,115.217750369,,,,,,,Train,U7
20855,,,,,,,,,,,,115.330178871,,,,,,,Train,U7
20907,,,9.61550927248,,,,,,,,,,,,,,,,Train,U7
20958,,,9.68887276835,,,,,,,,,,,,,,,,Train,U7
21008,,,9.82458113532,,,,,,,,,,,,,,,,Train,U7
21059,,,9.91825269082,,,,,,,,,,,,,,,,Train,U7
21115,,,,,,,,,,,,115.525278619,,,,,,,Train,U7
21167,,,10.1213159616,,,,,,,,,,,,,,,,Train,U7
21212,,,9.86707693057,,,,,,,,,,,,,,,,Train,U7
21265,,,,,,,,,,,,115.317344749,,,,,,,Train,U7
21316,,,9.51401149681,,,,,,,,,,,,,,,,Train,U7
21368,,,,,,,,,,,,,,,76.95392041468331,,,,Train,U7
21417,,,,,,,,,,,,114.91379532,,,,,,,Train,U7
21477,,,,,,,,,,,,114.829352347,,,,,,,Train,U7
21528,,,9.86787755656,,,,,,,,,,,,,,,,Train,U7
21575,,,,,,,,,,,,114.864311255,,,,,,,Train,U7
21626,,,,,,,,,,,,114.990134194,,,,,,,Train,U7
21678,,,,,,,,,,,,115.031691285,,,,,,,Train,U7
21726,,,10.7356633573,,,,,,,,,,,,,,,,Train,U7
21777,,,,,,,,,,,,114.91379532,,,,,,,Train,U7
21829,,,10.6151180147,,,,,,,,,,,,,,,,Train,U7
21885,,,9.98678567889,,,,,,,,,,,,,,,,Train,U7
21937,,,,,,,,,,,,114.676851171,,,,,,,Train,U7
21985,,,,,,,,,,,,114.593237996,,,,,,,Train,U7
22031,,,,,,,,,0.208492339006,,,,,,,,,,Train,U7
22086,,,,,,,,,,,,114.27082286,,,,,,,Train,U7
22151,,,9.07788797044,,,,,,,,,,,,,,,,Train,U7
22189,,,9.66683456282,,,,,,,,,,,,,,,,Train,U7
22246,,,9.11360898486,,,,,,,,,,,,,,,,Train,U7
22289,,,9.99751975618,,,,,,,,,,,,,,,,Train,U7
22346,,,,,,,,171.585139655,,,,,,,,,,,Train,U7
22398,,,10.2063891764,,,,,,,,,,,,,,,,Train,U7
22448,,,,,,,,171.866954357,,,,,,,,,,,Train,U7
22496,,,,,,,,,,,,113.699124698,,,,,,,Train,U7
22547,,,,9.80665068723,,,,,,,,,,,,,,,Train,U7
22606,,,10.2048555703,,,,,,,,,,,,,,,,Train,U7
22657,,,,,,,,,,,,114.207447754,,,,,,,Train,U7
22700,,,,,,,0.0421275626365,,,,,,,,,,,,Train,U7
22755,,,,,,,,,,,,114.367696488,,,,,,,Train,U7
22805,,,,,,,,,,,,114.479081059,,,,,,,Train,U7
22856,,,,,,,,,,,,114.610035287,,,,,,,Train,U7
22909,,,9.80757944474,,,,,,,,,,,,,,,,Train,U7
22956,,,,,,,,171.328962257,,,,,,,,,,,Train,U7
23009,,,9.7795719598,,,,,,,,,,,,,,,,Train,U7
23058,,,9.90895326569,,,,,,,,,,,,,,,,Train,U7
23115,,,9.63925770021,,,,,,,,,,,,,,,,Train,U7
23166,,,9.57420250569,,,,,,,,,,,,,,,,Train,U7
23223,,,9.6420374136,,,,,,,,,,,,,,,,Train,U7
23265,,,,,,,,171.342026368,,,,,,,,,,,Train,U7
23317,,,,,,,0.0498070641279,,,,,,,,,,,,Train,U7
23369,,,9.32999602908,,,,,,,,,,,,,,,,Train,U7
23425,,,,,,,,,,,,114.446931625,,,,,,,Train,U7
23470,,,,,,24.1574562237,,,,,,,,,,,,,Train,U7
23525,,,,,,,,,,,,114.446931625,,,,,,,Train,U7
23576,,,10.0530882614,,,,,,,,,,,,,,,,Train,U7
23627,,,9.89905241465,,,,,,,,,,,,,,,,Train,U7
23676,,,,,,,,,,0.0585411625903,,,,,,,,,Train,U7
23729,,,10.0339166704,,,,,,,,,,,,,,,,Train,U7
23782,,,9.93348909251,,,,,,,,,,,,,,,,Train,U7
23837,,,,,,,,,,,,114.377882477,,,,,,,Train,U7
23882,,,,,,,0.0907212035956,,,,,,,,,,,,Train,U7
23936,,,,,,,,,,,,114.385052303,,,,,,,Train,U7
23985,,,10.008656313,,,,,,,,,,,,,,,,Train,U7
24036,,,,,,,,,,,,114.420627511,,,,,,,Train,U7
24088,,,9.97939378215,,,,,,,,,,,,,,,,Train,U7
24140,,,9.6668341462,,,,,,,,,,,,,,,,Train,U7
24195,,,,,,,,,,,,114.62224998,,,,,,,Train,U7
24246,,,,,,,,170.91029811,,,,,,,,,,,Train,U7
24296,,,,,,,,,,,,114.873761003,,,,,,,Train,U7
24348,,,9.5874764996,,,,,,,,,,,,,,,,Train,U7
24408,,,9.69191965758,,,,,,,,,,,,,,,,Train,U7
24449,,,9.78255558952,,,,,,,,,,,,,,,,Train,U7
24500,,,,,,,0.0343825439487,,,,,,,,,,,,Train,U7
24555,,,,,,,,,,,,114.782447083,,,,,,,Train,U7
24608,,,,,,,,,,,,114.755217746,,,,,,,Train,U7
24658,,,10.0646370115,,,,,,,,,,,,,,,,Train,U7
24715,,,9.44996921373,,,,,,,,,,,,,,,,Train,U7
24772,,,9.94581040957,,,,,,,,,,,,,,,,Train,U7
24815,,,,,,,,,,,,115.537267383,,,,,,,Train,U7
24865,,,,,,,0.0254225645089,,,,,,,,,,,,Train,U7
24917,,,,,,,0.0939621192183,,,,,,,,,,,,Train,U7
24970,,,9.77572649779,,,,,,,,,,,,,,,,Train,U7
25019,,,9.91056605557,,,,,,,,,,,,,,,,Train,U7
25078,,,,,,,,,,,,115.476880803,,,,,,,Train,U7
25125,,,10.152054731,,,,,,,,,,,,,,,,Train,U7
25177,,,,,,,,,,,,115.072933394,,,,,,,Train,U7
25225,,,,,,,,,,,,114.775824981,,,,,,,Train,U7
25276,,,,9.80664849893,,,,,,,,,,,,,,,Train,U7
25328,,,10.1784097334,,,,,,,,,,,,,,,,Train,U7
25379,,,9.32822881481,,,,,,,,,,,,,,,,Train,U7
25435,,,10.0789918611,,,,,,,,,,,,,,,,Train,U7
25485,,,9.51494264069,,,,,,,,,,,,,,,,Train,U7
25535,,,9.71806117922,,,,,,,,,,,,,,,,Train,U7
25583,,,9.78489590422,,,,,,,,,,,,,,,,Train,U7
25635,,,9.49113745854,,,,,,,,,,,,,,,,Train,U7
25689,,,10.0880901365,,,,,,,,,,,,,,,,Train,U7
25738,,,9.69772367083,,,,,,,,,,,,,,,,Train,U7
25795,,,9.93513939199,,,,,,,,,,,,,,,,Train,U7
25845,,,9.61715631884,,,,,,,,,,,,,,,,Train,U7
25895,,,9.86707314728,,,,,,,,,,,,,,,,Train,U7
25946,,,9.66450019269,,,,,,,,,,,,,,,,Train,U7
25998,,,9.68443740489,,,,,,,,,,,,,,,,Train,U7
26055,,,9.89920606534,,,,,,,,,,,,,,,,Train,U7
26105,,,,,,,,,0.205847892736,,,,,,,,,,Train,U7
26158,,,,,,,0.0449556974446,,,,,,,,,,,,Train,U7
26215,,,,,,,,,,,,115.178339978,,,,,,,Train,U7
26269,,,10.0048757849,,,,,,,,,,,,,,,,Train,U7
26315,,,9.70738124628,,,,,,,,,,,,,,,,Train,U7
26367,,,9.8720768525,,,,,,,,,,,,,,,,Train,U7
26416,,,9.54394943867,,,,,,,,,,,,,,,,Train,U7
26466,,,,,,,,,0.203696899446,,,,,,,,,,Train,U7
26519,,,9.59403827358,,,,,,,,,,,,,,,,Train,U7
26568,,,,,,,,,,,0.236924766996,,,,,,,,Train,U7
26625,,,9.49747722946,,,,,,,,,,,,,,,,Train,U7
26676,,,9.95050638833,,,,,,,,,,,,,,,,Train,U7
26725,,,9.60812314264,,,,,,,,,,,,,,,,Train,U7
26777,,,10.1874499172,,,,,,,,,,,,,,,,Train,U7
26828,,,9.71523158425,,,,,,,,,,,,,,,,Train,U7
26876,,,10.087277862,,,,,,,,,,,,,,,,Train,U7
26926,,,9.45021023877,,,,,,,,,,,,,,,,Train,U7
26985,,,10.0009121409,,,,,,,,,,,,,,,,Train,U7
27035,,,9.5596619073,,,,,,,,,,,,,,,,Train,U7
27085,,,9.92382715243,,,,,,,,,,,,,,,,Train,U7
27135,,,9.6934563662,,,,,,,,,,,,,,,,Train,U7
27187,,,10.0493627414,,,,,,,,,,,,,,,,Train,U7
27236,,,9.98633059335,,,,,,,,,,,,,,,,Train,U7
27286,,,9.75721732428,,,,,,,,,,,,,,,,Train,U7
27337,,,10.1778938527,,,,,,,,,,,,,,,,Train,U7
27389,,,9.72043303774,,,,,,,,,,,,,,,,Train,U7
27444,,,9.85041855421,,,,,,,,,,,,,,,,Train,U7
27496,,,9.7002854156,,,,,,,,,,,,,,,,Train,U7
27546,,,9.82672035565,,,,,,,,,,,,,,,,Train,U7
27595,,,9.07777056,,,,,,,,,,,,,,,,Train,U7
27650,,,9.98563482908,,,,,,,,,,,,,,,,Train,U7
27706,,,9.06233757539,,,,,,,,,,,,,,,,Train,U7
27748,,,9.8424402341,,,,,,,,,,,,,,,,Train,U7
27806,,,9.08619702595,,,,,,,,,,,,,,,,Train,U7
27858,,,10.2331479982,,,,,,,,,,,,,,,,Train,U7
27905,,,9.5931622376,,,,,,,,,,,,,,,,Train,U7
27957,,,10.0253710192,,,,,,,,,,,,,,,,Train,U7
28006,,,10.279055812,,,,,,,,,,,,,,,,Train,U7
28064,,,9.7537641804,,,,,,,,,,,,,,,,Train,U7
28109,,,10.007004497,,,,,,,,,,,,,,,,Train,U7
28158,,,9.29518730005,,,,,,,,,,,,,,,,Train,U7
28209,,,10.1869442384,,,,,,,,,,,,,,,,Train,U7
28265,,,9.73502274855,,,,,,,,,,,,,,,,Train,U7
28315,,,10.038776816,,,,,,,,,,,,,,,,Train,U7
28366,,,9.66878049462,,,,,,,,,,,,,,,,Train,U7
28415,,,9.42655027281,,,,,,,,,,,,,,,,Train,U7
28475,,,9.81727255716,,,,,,,,,,,,,,,,Train,U7
28515,,,9.65824297992,,,,,,,,,,,,,,,,Train,U7
28569,,,9.94161283326,,,,,,,,,,,,,,,,Train,U7
28618,,,9.49344863897,,,,,,,,,,,,,,,,Train,U7
28668,,,9.71645206414,,,,,,,,,,,,,,,,Train,U7
28725,,,9.55006570933,,,,,,,,,,,,,,,,Train,U7
28775,,,9.74286295094,,,,,,,,,,,,,,,,Train,U7
28826,,,9.60173872432,,,,,,,,,,,,,,,,Train,U7
28875,,,,,,,0.0270165463003,,,,,,,,,,,,Train,U7
28928,,,9.72364361728,,,,,,,,,,,,,,,,Train,U7
28976,,,,,,,0.0411416705542,,,,,,,,,,,,Train,U7
29028,,,10.0660907946,,,,,,,,,,,,,,,,Train,U7
29085,,,9.77977604618,,,,,,,,,,,,,,,,Train,U7
29135,,,9.94005790966,,,,,,,,,,,,,,,,Train,U7
29184,,,9.91139217874,,,,,,,,,,,,,,,,Train,U7
29233,,,9.74301798637,,,,,,,,,,,,,,,,Train,U7
29287,,,9.99871360646,,,,,,,,,,,,,,,,Train,U7
29335,,,9.50179642238,,,,,,,,,,,,,,,,Train,U7
29385,,,,,,,,,,0.018966357295,,,,,,,,,Train,U7
29447,,,9.25293647537,,,,,,,,,,,,,,,,Train,U7
29488,,,9.75086634397,,,,,,,,,,,,,,,,Train,U7
29539,,,,,,,,,,0.0671173863938,,,,,,,,,Train,U7
29595,,,9.55164928302,,,,,,,,,,,,,,,,Train,U7
29649,,,9.77266299564,,,,,,,,,,,,,,,,Train,U7
29697,,,9.548434131,,,,,,,,,,,,,,,,Train,U7
29746,,,,,,,,173.827797886,,,,,,,,,,,Train,U7
29813,,,9.44524629755,,,,,,,,,,,,,,,,Train,U7
29855,,,9.870453052,,,,,,,,,,,,,,,,Train,U7
29904,,,9.44508268738,,,,,,,,,,,,,,,,Train,U7
29955,,,10.128332409,,,,,,,,,,,,,,,,Train,U7
30005,,,9.8808901304,,,,,,,,,,,,,,,,Train,U7
30060,,,9.75565294331,,,,,,,,,,,,,,,,Train,U7
30118,,,9.69230528641,,,,,,,,,,,,,,,,Train,U7
30175,,,9.92806167112,,,,,,,,,,,,,,,,Train,U7
30224,,,9.59444231323,,,,,,,,,,,,,,,,Train,U7
30275,,,9.53679902095,,,,,,,,,,,,,,,,Train,U7
30331,,,10.0284728044,,,,,,,,,,,,,,,,Train,U7
30375,,,9.69238633416,,,,,,,,,,,,,,,,Train,U7
30425,,,10.2455435142,,,,,,,,,,,,,,,,Train,U7
30476,,,9.77406738632,,,,,,,,,,,,,,,,Train,U7
30526,,,9.98252382443,,,,,,,,,,,,,,,,Train,U7
30584,,,10.134548918,,,,,,,,,,,,,,,,Train,U7
30634,,,10.0566044395,,,,,,,,,,,,,,,,Train,U7
30682,,,,,,23.7014816056,,,,,,,,,,,,,Train,U7
30735,,,9.89176965933,,,,,,,,,,,,,,,,Train,U7
30785,,,9.41408977398,,,,,,,,,,,,,,,,Train,U7
30835,,,9.46430010412,,,,,,,,,,,,,,,,Train,U7
30886,,,,,,,,,,,,112.587481396,,,,,,,Train,U7
30944,,,9.45633834308,,,,,,,,,,,,,,,,Train,U7
30994,,,9.33883008107,,,,,,,,,,,,,,,,Train,U7
31044,,,9.64961317551,,,,,,,,,,,,,,,,Train,U7
31095,,,9.65749392449,,,,,,,,,,,,,,,,Train,U7
31145,,,9.91942205854,,,,,,,,,,,,,,,,Train,U7
31195,,,10.0725710483,,,,,,,,,,,,,,,,Train,U7
31247,,,9.93586278367,,,,,,,,,,,,,,,,Train,U7
31295,,,10.3590123864,,,,,,,,,,,,,,,,Train,U7
