time,activityrecognition#0,activityrecognition#1,android.sensor.accelerometer#0,android.sensor.gravity#0,android.sensor.linear_acceleration#0,android.sensor.orientation#0,android.sensor.gyroscope_uncalibrated#0,android.sensor.magnetic_field_uncalibrated#0,android.sensor.rotation_vector#0,android.sensor.gyroscope#0,android.sensor.game_rotation_vector#0,android.sensor.magnetic_field#0,android.sensor.pressure#0,android.sensor.light#0,sound#0,speed#0,android.sensor.proximity#0,android.sensor.step_counter#0,target,user
9,,,,,,,,,,,,40.7197710625,,,,,,,Still,U2
175,,,9.70265943626,,,,,,,,,,,,,,,,Still,U2
226,,,,,,,,,,0.0272682799841,,,,,,,,,Still,U2
295,,,,,,,,,,0.183624639065,,,,,,,,,Still,U2
345,,,,,,,,,,0.108287844056,,,,,,,,,Still,U2
397,,,,,,,,,0.556780190355,,,,,,,,,,Still,U2
450,,,,,,,,,,0.631886918215,,,,,,,,,Still,U2
500,,,8.99793891222,,,,,,,,,,,,,,,,Still,U2
550,,,,9.80665003237,,,,,,,,,,,,,,,Still,U2
600,,,,,,,3.48467976996,,,,,,,,,,,,Still,U2
652,,,9.96268849715,,,,,,,,,,,,,,,,Still,U2
704,,,,,,,,,,0.665828297015,,,,,,,,,Still,U2
754,,,,,,,,,,0.827274187372,,,,,,,,,Still,U2
809,,,,,,,,,,1.67774016501,,,,,,,,,Still,U2
859,,,,,,,,,,1.16833961859,,,,,,,,,Still,U2
911,,,,9.80665021413,,,,,,,,,,,,,,,Still,U2
964,,,9.23724977783,,,,,,,,,,,,,,,,Still,U2
1016,,,9.62741594336,,,,,,,,,,,,,,,,Still,U2
1068,,,,,,,,,,0.680645558308,,,,,,,,,Still,U2
1119,,,,,,,,,,0.464517356782,,,,,,,,,Still,U2
1173,,,8.93512767749,,,,,,,,,,,,,,,,Still,U2
1224,,,7.57874147792,,,,,,,,,,,,,,,,Still,U2
1278,,,,,,,,,,1.26819280912,,,,,,,,,Still,U2
1328,,,,,,,,,,1.02326996873,,,,,,,,,Still,U2
1380,,,,9.8066503505,,,,,,,,,,,,,,,Still,U2
1430,,,,,,,1.09137762729,,,,,,,,,,,,Still,U2
1481,,,,,,,,,0.781743828987,,,,,,,,,,Still,U2
1533,,,,,,,,,,,0.927589091775,,,,,,,,Still,U2
1585,,,,,,,,,,1.49116145714,,,,,,,,,Still,U2
1637,,,6.65399929824,,,,,,,,,,,,,,,,Still,U2
1687,,,,,3.04377149799,,,,,,,,,,,,,,Still,U2
1738,,,,,,,,,,2.11855961615,,,,,,,,,Still,U2
1794,,,,,,,,,,3.02130243583,,,,,,,,,Still,U2
1847,,,,,,,,,,2.25553276648,,,,,,,,,Still,U2
1899,,,,,,,2.75388288174,,,,,,,,,,,,Still,U2
1952,,,,,,,,,,1.23527463559,,,,,,,,,Still,U2
2005,,,,9.80665039619,,,,,,,,,,,,,,,Still,U2
2056,,,,,,,0.680456056338,,,,,,,,,,,,Still,U2
2107,,,,,,,,,,0.584481168289,,,,,,,,,Still,U2
2161,,,,,,,,,,0.51154135786,,,,,,,,,Still,U2
2210,,,,,,,,,,0.66899982205,,,,,,,,,Still,U2
2265,,,,,,,,,,0.351551487014,,,,,,,,,Still,U2
2316,,,,,,,,,,0.496469035058,,,,,,,,,Still,U2
2367,,,,,,,,,,0.496727460943,,,,,,,,,Still,U2
2418,,,,,,,,,,,0.85078616339,,,,,,,,Still,U2
2471,,,,,,,,,,0.490316195197,,,,,,,,,Still,U2
2521,,,,,,,0.569067851686,,,,,,,,,,,,Still,U2
2573,,,,,,,,,,0.687423097341,,,,,,,,,Still,U2
2624,,,,,,,,,,0.984341975497,,,,,,,,,Still,U2
2675,,,,,,,,,,1.09396166523,,,,,,,,,Still,U2
2731,,,,,,,,,,1.17270933229,,,,,,,,,Still,U2
2779,,,,,,,,,,1.11554563461,,,,,,,,,Still,U2
2888,,,,,,,,,,0.495585589079,,,,,,,,,Still,U2
2942,,,,9.80665026337,,,,,,,,,,,,,,,Still,U2
2993,,,,,,,0.227271761884,,,,,,,,,,,,Still,U2
3045,,,10.2229891189,,,,,,,,,,,,,,,,Still,U2
3095,,,,,,,,,0.839777050707,,,,,,,,,,Still,U2
3149,,,,,,,,,,0.995928574878,,,,,,,,,Still,U2
3199,,,,,,,,,,0.533271056125,,,,,,,,,Still,U2
3253,,,10.0908671826,,,,,,,,,,,,,,,,Still,U2
3303,,,,,,,,,,0.73584378576,,,,,,,,,Still,U2
3351,,,9.62569983821,,,,,,,,,,,,,,,,Still,U2
3403,,,,,,,0.335460209762,,,,,,,,,,,,Still,U2
3455,,,,9.80665070691,,,,,,,,,,,,,,,Still,U2
3508,,,,,,,,,,,,,,47.0,,,,,Still,U2
3561,,,,,,,,,0.833448592051,,,,,,,,,,Still,U2
3620,,,8.66271653112,,,,,,,,,,,,,,,,Still,U2
3670,,,9.70829976777,,,,,,,,,,,,,,,,Still,U2
3722,,,,,,,,,,1.14676468086,,,,,,,,,Still,U2
3775,,,10.0914299414,,,,,,,,,,,,,,,,Still,U2
3828,,,9.21963253474,,,,,,,,,,,,,,,,Still,U2
3881,,,,,1.11825280222,,,,,,,,,,,,,,Still,U2
3932,,,,,,,,,,0.343029833027,,,,,,,,,Still,U2
3988,,,,,,,,,,0.0791628695032,,,,,,,,,Still,U2
4037,,,,,,,,,,0.182383306953,,,,,,,,,Still,U2
4090,,,,,,,,,,0.127340277138,,,,,,,,,Still,U2
4143,,,,,1.55196611645,,,,,,,,,,,,,,Still,U2
4200,,,,,,,0.422884521963,,,,,,,,,,,,Still,U2
4309,,,,,,,1.42279715571,,,,,,,,,,,,Still,U2
4419,,,7.05900172645,,,,,,,,,,,,,,,,Still,U2
4472,,,,,,,,,0.827430250721,,,,,,,,,,Still,U2
4526,,,,,,,,,,1.85197717617,,,,,,,,,Still,U2
4578,,,8.47705025509,,,,,,,,,,,,,,,,Still,U2
4631,,,,,,,,,,,,45.6595166333,,,,,,,Still,U2
4684,,,,,,,,,,,,,1020.689,,,,,,Still,U2
4738,,,9.82775962262,,,,,,,,,,,,,,,,Still,U2
4791,,,,,,,0.471642434666,,,,,,,,,,,,Still,U2
4845,,,,,,,,,,0.926402976198,,,,,,,,,Still,U2
4899,,,9.86673911067,,,,,,,,,,,,,,,,Still,U2
4950,,,,,,,,,,0.463750236189,,,,,,,,,Still,U2
5004,,,,,,,,,,0.101971934903,,,,,,,,,Still,U2
5054,,,9.06400790753,,,,,,,,,,,,,,,,Still,U2
5112,,,,9.80664967693,,,,,,,,,,,,,,,Still,U2
5165,,,,,,,,,,1.15397314708,,,,,,,,,Still,U2
5270,,,,,0.324910932445,,,,,,,,,,,,,,Still,U2
5322,,,,,,,,,,,,,1020.689,,,,,,Still,U2
5426,,,,,,,1.53031418669,,,,,,,,,,,,Still,U2
5479,,,,,,,,,0.87189234459,,,,,,,,,,Still,U2
5532,,,,,,253.677515306,,,,,,,,,,,,,Still,U2
5587,,,,,,,1.2991506604,,,,,,,,,,,,Still,U2
5644,,,,,,,,,,1.27853543106,,,,,,,,,Still,U2
5697,,,,,,,1.16760135747,,,,,,,,,,,,Still,U2
5753,,,,,,,,,,1.43654556807,,,,,,,,,Still,U2
5809,,,,9.80665005965,,,,,,,,,,,,,,,Still,U2
5855,,,,,,,1.19950117015,,,,,,,,,,,,Still,U2
5907,,,,,,,,,,,0.949067373078,,,,,,,,Still,U2
5964,,,,,,,,,,1.0938108967,,,,,,,,,Still,U2
6019,,,,,,,,,,,,55.9781453562,,,,,,,Still,U2
6072,,,,,,,,,,3.16591749755,,,,,,,,,Still,U2
6127,,,,,5.93642882096,,,,,,,,,,,,,,Still,U2
6174,,,,,,224.104106013,,,,,,,,,,,,,Still,U2
6232,,,,,,,,,,0.551995755854,,,,,,,,,Still,U2
6289,,,,,,,,,,0.581674148083,,,,,,,,,Still,U2
6337,,,,,,,,,,0.770669474602,,,,,,,,,Still,U2
6388,,,,,,,,,0.924459419579,,,,,,,,,,Still,U2
6443,,,,,,,,,,0.780948514065,,,,,,,,,Still,U2
6496,,,,,,,0.317107532555,,,,,,,,,,,,Still,U2
6550,,,,,,,,,,0.540240545394,,,,,,,,,Still,U2
6602,,,9.68986308666,,,,,,,,,,,,,,,,Still,U2
6646,,,,,,233.36839994,,,,,,,,,,,,,Still,U2
6704,,,,,,,,125.352677104,,,,,,,,,,,Still,U2
6757,,,,,,234.104135411,,,,,,,,,,,,,Still,U2
6811,,,,9.80664999276,,,,,,,,,,,,,,,Still,U2
6866,,,,,,,,,,,,,,,75.60922665723436,,,,Still,U2
6918,,,,,,,1.53901697824,,,,,,,,,,,,Still,U2
6970,,,,,1.70689717325,,,,,,,,,,,,,,Still,U2
7022,,,,,,,,,,0.60777633971,,,,,,,,,Still,U2
7074,,,,,,,,,,0.298781463515,,,,,,,,,Still,U2
7126,,,,,,,0.703135289422,,,,,,,,,,,,Still,U2
7181,,,,,,,1.23820031673,,,,,,,,,,,,Still,U2
7230,,,,,,,1.05490877396,,,,,,,,,,,,Still,U2
7286,,,,,,,,,,1.00843569393,,,,,,,,,Still,U2
7341,,,,9.80665012231,,,,,,,,,,,,,,,Still,U2
7391,,,,,,,,,,0.461176024301,,,,,,,,,Still,U2
7445,,,,9.80665025161,,,,,,,,,,,,,,,Still,U2
7499,,,,,,,,,0.780831461198,,,,,,,,,,Still,U2
7553,,,,,,,,,,0.477847226711,,,,,,,,,Still,U2
7608,,,8.63324245192,,,,,,,,,,,,,,,,Still,U2
7656,,,9.01550360271,,,,,,,,,,,,,,,,Still,U2
7711,,,,,,,0.449429757383,,,,,,,,,,,,Still,U2
7818,,,,,,272.856767875,,,,,,,,,,,,,Still,U2
7872,,,,,,,1.7705680278,,,,,,,,,,,,Still,U2
7925,,,11.0527865863,,,,,,,,,,,,,,,,Still,U2
7978,,,,,,,0.283364345794,,,,,,,,,,,,Still,U2
8033,,,,,0.369674317018,,,,,,,,,,,,,,Still,U2
8089,,,,9.80664991847,,,,,,,,,,,,,,,Still,U2
8141,,,,,,,0.141535871242,,,,,,,,,,,,Still,U2
8193,,,,,,,,,0.695555985461,,,,,,,,,,Still,U2
8248,,,,,,,,,,0.159674291961,,,,,,,,,Still,U2
8303,,,,,,,,,,0.082202582964,,,,,,,,,Still,U2
8354,,,,,,,,,,,0.789761523882,,,,,,,,Still,U2
8405,,,,,,,0.0837862188452,,,,,,,,,,,,Still,U2
8458,,,,,,,,,,0.0576223656833,,,,,,,,,Still,U2
8514,,,,,,,,,,0.0202379462722,,,,,,,,,Still,U2
8561,,,,,,,,,,0.0229637987206,,,,,,,,,Still,U2
8615,,,9.61887700816,,,,,,,,,,,,,,,,Still,U2
8669,,,9.60695558175,,,,,,,,,,,,,,,,Still,U2
8720,,,,,,,,,,0.0343963021446,,,,,,,,,Still,U2
8771,,,,,0.113544737818,,,,,,,,,,,,,,Still,U2
8822,,,9.35045492521,,,,,,,,,,,,,,,,Still,U2
8875,,,,,,,,,,0.0780231241738,,,,,,,,,Still,U2
8930,,,,,,,,,,0.400426982102,,,,,,,,,Still,U2
8988,,,9.0758561027,,,,,,,,,,,,,,,,Still,U2
9068,,,,,,,,,0.689256405261,,,,,,,,,,Still,U2
9164,,,,,,,,,,0.265466599917,,,,,,,,,Still,U2
9255,,,,,,,,,,0.106416004226,,,,,,,,,Still,U2
9340,,,,,,,,,,0.0711009243727,,,,,,,,,Still,U2
9434,,,9.24167952436,,,,,,,,,,,,,,,,Still,U2
9524,,,,,,,,,,0.53411520951,,,,,,,,,Still,U2
9613,,,,,,,0.8172140868,,,,,,,,,,,,Still,U2
9701,,,,,,,,,0.705740226458,,,,,,,,,,Still,U2
9786,,,,,,,,,,,,,1020.689,,,,,,Still,U2
9879,,,8.11872714288,,,,,,,,,,,,,,,,Still,U2
9973,,,9.32708744677,,,,,,,,,,,,,,,,Still,U2
10067,,,,,,,,,,2.46239647542,,,,,,,,,Still,U2
10148,,,,,1.16903118339,,,,,,,,,,,,,,Still,U2
10239,,,9.68980217095,,,,,,,,,,,,,,,,Still,U2
10296,,,,,,,,,,0.411849079171,,,,,,,,,Still,U2
10394,,,,,,,,,,0.646534078782,,,,,,,,,Still,U2
10488,,,9.93020732982,,,,,,,,,,,,,,,,Still,U2
10577,,,,,,,,,,0.568959089138,,,,,,,,,Still,U2
10666,,,10.0142551822,,,,,,,,,,,,,,,,Still,U2
10751,,,,,,,,,,,0.937116962658,,,,,,,,Still,U2
10830,,,,,,,,,,0.339029258221,,,,,,,,,Still,U2
10922,,,,,,,,,,1.26260393302,,,,,,,,,Still,U2
11071,,,,,,,,,0.878365821215,,,,,,,,,,Still,U2
11151,,,,,,,0.378510921982,,,,,,,,,,,,Still,U2
11242,,,,,,,,,0.831133889073,,,,,,,,,,Still,U2
11330,,,,,,,,,,,0.882016190211,,,,,,,,Still,U2
11426,,,9.38837131887,,,,,,,,,,,,,,,,Still,U2
11518,,,,,,,,,,2.32466307142,,,,,,,,,Still,U2
11609,,,,,,,,,,2.73468288449,,,,,,,,,Still,U2
11699,,,,,,,,,,1.58734295617,,,,,,,,,Still,U2
11783,,,,,,,,,,0.404163101744,,,,,,,,,Still,U2
11870,,,,,,,1.35788869932,,,,,,,,,,,,Still,U2
11959,,,,,,,,,,0.341279680583,,,,,,,,,Still,U2
12048,,,,,,,,,,0.355522850536,,,,,,,,,Still,U2
12132,,,9.81004930099,,,,,,,,,,,,,,,,Still,U2
12221,,,,,,,,,0.645545160288,,,,,,,,,,Still,U2
12312,,,,,,,0.384924036295,,,,,,,,,,,,Still,U2
12405,,,,,,,,106.555087318,,,,,,,,,,,Still,U2
12501,,,9.25876523255,,,,,,,,,,,,,,,,Still,U2
12592,,,9.88158153796,,,,,,,,,,,,,,,,Still,U2
12669,,,9.76607750806,,,,,,,,,,,,,,,,Still,U2
12852,,,9.94710320626,,,,,,,,,,,,,,,,Still,U2
12926,,,,,,,,,,0.554159980252,,,,,,,,,Still,U2
12997,,,,,,,,,,0.591625532333,,,,,,,,,Still,U2
13092,,,,,,288.207294155,,,,,,,,,,,,,Still,U2
13188,,,9.22715996725,,,,,,,,,,,,,,,,Still,U2
13268,,,,,,,,,,,,39.3047872342,,,,,,,Still,U2
13369,,,,,2.27141754093,,,,,,,,,,,,,,Still,U2
13467,,,,,,,,,,0.309778963454,,,,,,,,,Still,U2
13559,,,,,,298.490497141,,,,,,,,,,,,,Still,U2
13642,,,,,,,,,,0.200029300287,,,,,,,,,Still,U2
13736,,,9.67703612107,,,,,,,,,,,,,,,,Still,U2
13798,,,9.50695115308,,,,,,,,,,,,,,,,Still,U2
13885,,,,,,,,115.81682741,,,,,,,,,,,Still,U2
13975,,,,,,302.300648014,,,,,,,,,,,,,Still,U2
14120,,,8.94965333851,,,,,,,,,,,,,,,,Still,U2
14179,,,,,,302.977333336,,,,,,,,,,,,,Still,U2
14281,,,9.69291542347,,,,,,,,,,,,,,,,Still,U2
14370,,,9.56730166376,,,,,,,,,,,,,,,,Still,U2
14458,,,,,,,,,,0.077998141223,,,,,,,,,Still,U2
14543,,,,,,,0.0744019977628,,,,,,,,,,,,Still,U2
14602,,,,,0.202767124569,,,,,,,,,,,,,,Still,U2
14664,,,9.45184295227,,,,,,,,,,,,,,,,Still,U2
14754,,,,,,,,,,0.0468137611069,,,,,,,,,Still,U2
14852,,,,,,305.602188921,,,,,,,,,,,,,Still,U2
14942,,,,,,,,,,,0.660022194502,,,,,,,,Still,U2
15033,,,,,,,,,0.477809330364,,,,,,,,,,Still,U2
15132,,,,9.80664980123,,,,,,,,,,,,,,,Still,U2
15224,,,,,,,,,,,0.659045580663,,,,,,,,Still,U2
15313,,,9.41317741157,,,,,,,,,,,,,,,,Still,U2
15504,,,,,,,,,,0.107351337041,,,,,,,,,Still,U2
15595,,,9.51099671172,,,,,,,,,,,,,,,,Still,U2
15677,,,,,,,0.0543313469894,,,,,,,,,,,,Still,U2
15771,,,,,,,,,,,0.649438172787,,,,,,,,Still,U2
15871,,,9.40559603085,,,,,,,,,,,,,,,,Still,U2
15965,,,,,,,0.0385350408729,,,,,,,,,,,,Still,U2
16144,,,,,,,,,,0.0291905897626,,,,,,,,,Still,U2
16231,,,,,,,,,,0.0207177158857,,,,,,,,,Still,U2
16345,,,,,,309.608641025,,,,,,,,,,,,,Still,U2
16439,,,9.4829604125,,,,,,,,,,,,,,,,Still,U2
16513,,,,,,,,,,,,38.4053101102,,,,,,,Still,U2
16612,,,,,,,,110.334807277,,,,,,,,,,,Still,U2
16709,,,,,,309.585637893,,,,,,,,,,,,,Still,U2
16805,,,,,,,,,,0.0689709707899,,,,,,,,,Still,U2
16900,,,,,,,,,,,,39.1188165551,,,,,,,Still,U2
16989,,,,,,,0.00765623341665,,,,,,,,,,,,Still,U2
17083,,,,,,,0.0303808356481,,,,,,,,,,,,Still,U2
17173,,,,,,,,,,,0.652195789992,,,,,,,,Still,U2
17268,,,,,,310.425740262,,,,,,,,,,,,,Still,U2
17354,,,,,,310.652164787,,,,,,,,,,,,,Still,U2
17442,,,,,,,0.0216414012722,,,,,,,,,,,,Still,U2
17537,,,,,,,,113.287294617,,,,,,,,,,,Still,U2
17623,,,9.47013201537,,,,,,,,,,,,,,,,Still,U2
17712,,,,,,,,,,,,39.2703717797,,,,,,,Still,U2
17812,,,9.5286380346,,,,,,,,,,,,,,,,Still,U2
17997,,,,,,,,,,,0.652590544932,,,,,,,,Still,U2
18096,,,,,,,0.057891705378,,,,,,,,,,,,Still,U2
18191,,,,,,,,,,0.0227897611398,,,,,,,,,Still,U2
18285,,,,,,,,,,0.0348840977793,,,,,,,,,Still,U2
18351,,,,,,,,,,0.0254835206877,,,,,,,,,Still,U2
18444,,,,9.80665010658,,,,,,,,,,,,,,,Still,U2
18513,,,9.48701301701,,,,,,,,,,,,,,,,Still,U2
18608,,,,,,,,,0.435890431186,,,,,,,,,,Still,U2
18703,,,,9.80664981013,,,,,,,,,,,,,,,Still,U2
18789,,,,,,,,,,0.0290683333662,,,,,,,,,Still,U2
18876,,,,,,,,,,0.0521471806435,,,,,,,,,Still,U2
18968,,,,,,,0.0471516489926,,,,,,,,,,,,Still,U2
19054,,,,,,,0.049916455246,,,,,,,,,,,,Still,U2
19142,,,,,,,0.0395359138589,,,,,,,,,,,,Still,U2
19215,,,,,,,,,,0.0446401893206,,,,,,,,,Still,U2
19313,,,,,,,,,,0.0395430186851,,,,,,,,,Still,U2
19375,,,,,,,0.0522108822061,,,,,,,,,,,,Still,U2
19464,,,,,,,,,,0.0625000642064,,,,,,,,,Still,U2
19555,,,9.4605857455,,,,,,,,,,,,,,,,Still,U2
19645,,,,,,,,,,0.0292888189762,,,,,,,,,Still,U2
19734,,,,,,,,,,0.0222477697025,,,,,,,,,Still,U2
19813,,,,,,311.757888978,,,,,,,,,,,,,Still,U2
19904,,,9.5292124967,,,,,,,,,,,,,,,,Still,U2
20174,,,,,0.193972884826,,,,,,,,,,,,,,Still,U2
20273,,,,,,,,,,0.0254702277919,,,,,,,,,Still,U2
20363,,,,9.80665065201,,,,,,,,,,,,,,,Still,U2
20453,,,,,,,,,,0.0218149348783,,,,,,,,,Still,U2
20547,,,,,,,,,,,0.650035665734,,,,,,,,Still,U2
20643,,,,,,,,,,0.020386381903,,,,,,,,,Still,U2
20740,,,,,,,,,,0.014029749357,,,,,,,,,Still,U2
20794,,,,,,,0.0316478837669,,,,,,,,,,,,Still,U2
20882,,,,,,,,,,0.0178475265223,,,,,,,,,Still,U2
20975,,,9.47685267392,,,,,,,,,,,,,,,,Still,U2
21063,,,,,,,,,,0.0410822771334,,,,,,,,,Still,U2
21154,,,,,,,,,,0.0253653264318,,,,,,,,,Still,U2
21243,,,,9.80665058336,,,,,,,,,,,,,,,Still,U2
21340,,,,,,,0.0168395657138,,,,,,,,,,,,Still,U2
21435,,,,,,,,,,,0.650478579198,,,,,,,,Still,U2
21532,,,,,,,,,,0.0248121848082,,,,,,,,,Still,U2
21633,,,,,,,0.0486973008118,,,,,,,,,,,,Still,U2
21695,,,9.39526815893,,,,,,,,,,,,,,,,Still,U2
21779,,,,,,,,,0.432359949878,,,,,,,,,,Still,U2
21873,,,,,,,0.0740744099927,,,,,,,,,,,,Still,U2
21976,,,,,,,,,0.428814782183,,,,,,,,,,Still,U2
22065,,,9.49573325041,,,,,,,,,,,,,,,,Still,U2
22154,,,9.40891307462,,,,,,,,,,,,,,,,Still,U2
22242,,,9.36587164649,,,,,,,,,,,,,,,,Still,U2
22334,,,,,,,,,,0.0283142982426,,,,,,,,,Still,U2
22428,,,,,,,,,,,0.649444565739,,,,,,,,Still,U2
22516,,,,,,,0.0586824080788,,,,,,,,,,,,Still,U2
22610,,,,,,,,,,0.0673721583284,,,,,,,,,Still,U2
22682,,,,,,,,,,0.0737440124828,,,,,,,,,Still,U2
22773,,,,,,,,,,,0.650668692826,,,,,,,,Still,U2
22865,,,,,,,,,,0.0485489952239,,,,,,,,,Still,U2
22943,,,,,,,,,,0.0412851097206,,,,,,,,,Still,U2
23051,,,,,,,,,,0.0159437336598,,,,,,,,,Still,U2
23142,,,,,,,,,,0.0198543528493,,,,,,,,,Still,U2
23237,,,,,,,,,,0.0431612077856,,,,,,,,,Still,U2
23327,,,,9.80664996006,,,,,,,,,,,,,,,Still,U2
23423,,,9.54709510894,,,,,,,,,,,,,,,,Still,U2
23519,,,9.44304177892,,,,,,,,,,,,,,,,Still,U2
23601,,,,,,,,,,0.0572818979484,,,,,,,,,Still,U2
23690,,,,,,,,,,,0.650429593516,,,,,,,,Still,U2
23781,,,,,0.358418613088,,,,,,,,,,,,,,Still,U2
23877,,,,,,,,,,0.063936012497,,,,,,,,,Still,U2
23970,,,,,,,,,,0.0187136834957,,,,,,,,,Still,U2
24055,,,,,,,,,,0.0199502701023,,,,,,,,,Still,U2
24148,,,,,,,,,,0.0189951144203,,,,,,,,,Still,U2
24235,,,,,,,0.0531647981391,,,,,,,,,,,,Still,U2
24325,,,,,,,,,,0.0580587077419,,,,,,,,,Still,U2
24418,,,,,,,,,,0.0625243541096,,,,,,,,,Still,U2
24512,,,,,,,,,,0.0627744328445,,,,,,,,,Still,U2
24608,,,,,,,,,,0.0538222756923,,,,,,,,,Still,U2
24695,,,,,,,,,0.428302959739,,,,,,,,,,Still,U2
24794,,,,,,,,,,,,39.189742847,,,,,,,Still,U2
24893,,,9.45368484621,,,,,,,,,,,,,,,,Still,U2
24978,,,,,,,,,,,,,,,56.91436035933317,,,,Still,U2
25064,,,,,,,0.0372718419868,,,,,,,,,,,,Still,U2
25151,,,,9.80664992705,,,,,,,,,,,,,,,Still,U2
25242,,,,,,312.005658864,,,,,,,,,,,,,Still,U2
25338,,,,,,,,,,0.0562681150353,,,,,,,,,Still,U2
25424,,,,,,,0.0412151795339,,,,,,,,,,,,Still,U2
25516,,,,,,,,,0.431299316903,,,,,,,,,,Still,U2
25603,,,,,,,,,,,0.650880930525,,,,,,,,Still,U2
25692,,,,,,,0.0285591511304,,,,,,,,,,,,Still,U2
25789,,,,,,,,,,0.0226071772317,,,,,,,,,Still,U2
25844,,,,,,,,,0.433474151991,,,,,,,,,,Still,U2
25937,,,,,,,,,,0.0521231936217,,,,,,,,,Still,U2
26012,,,,,,,,,,,0.650794059539,,,,,,,,Still,U2
26106,,,,,0.0519306135413,,,,,,,,,,,,,,Still,U2
26185,,,9.43729988068,,,,,,,,,,,,,,,,Still,U2
26274,,,,,,,0.0186202121699,,,,,,,,,,,,Still,U2
26336,,,,,,,,,,,,,1020.709,,,,,,Still,U2
26434,,,,,,,,,,0.0281717664035,,,,,,,,,Still,U2
26529,,,,,,,,,,0.0198369011382,,,,,,,,,Still,U2
26612,,,,,,,,,,,,,1020.709,,,,,,Still,U2
26702,,,9.4968218942,,,,,,,,,,,,,,,,Still,U2
26795,,,,9.80665017407,,,,,,,,,,,,,,,Still,U2
26894,,,,9.80665074292,,,,,,,,,,,,,,,Still,U2
26984,,,,,,,,,,0.0604483617522,,,,,,,,,Still,U2
27073,,,,,,,,,,,0.649895123407,,,,,,,,Still,U2
27163,,,,,,,0.0210948222358,,,,,,,,,,,,Still,U2
27319,,,,,,,,,,0.00997455695464,,,,,,,,,Still,U2
27410,,,,,,,,111.849317374,,,,,,,,,,,Still,U2
27508,,,,,,,,,,0.016110333021,,,,,,,,,Still,U2
27597,,,,,,,,,,0.0189277940863,,,,,,,,,Still,U2
27691,,,9.43911668094,,,,,,,,,,,,,,,,Still,U2
27778,,,,,,,,,0.428941331004,,,,,,,,,,Still,U2
27867,,,,,,,0.022273008767,,,,,,,,,,,,Still,U2
27975,,,,,,,,,,,,38.7754143248,,,,,,,Still,U2
28080,,,9.49645548263,,,,,,,,,,,,,,,,Still,U2
28175,,,,,,,,,,0.0239011721753,,,,,,,,,Still,U2
28267,,,,,,,0.0207449786632,,,,,,,,,,,,Still,U2
28364,,,,,,312.167210897,,,,,,,,,,,,,Still,U2
28451,,,,9.80665046553,,,,,,,,,,,,,,,Still,U2
28545,,,,,,,,,,0.0472200970732,,,,,,,,,Still,U2
28636,,,,9.80665026692,,,,,,,,,,,,,,,Still,U2
28723,,,,,,,0.007736762949,,,,,,,,,,,,Still,U2
28811,,,,9.80664967707,,,,,,,,,,,,,,,Still,U2
28903,,,,,,,,,,0.0144133623433,,,,,,,,,Still,U2
28993,,,,,,,0.0287165260639,,,,,,,,,,,,Still,U2
29080,,,,,,,,112.83294362,,,,,,,,,,,Still,U2
29156,,,,,,,,,,,,,1020.689,,,,,,Still,U2
29244,,,,9.80665030936,,,,,,,,,,,,,,,Still,U2
29342,,,,,,,,,,0.0359845408936,,,,,,,,,Still,U2
29433,,,9.46116141496,,,,,,,,,,,,,,,,Still,U2
29527,,,,,,,0.0410357408719,,,,,,,,,,,,Still,U2
29608,,,,,,,,,,,0.649778077678,,,,,,,,Still,U2
29703,,,,,,,0.0569561803369,,,,,,,,,,,,Still,U2
29792,,,9.47094971269,,,,,,,,,,,,,,,,Still,U2
29883,,,,9.80665067815,,,,,,,,,,,,,,,Still,U2
29992,,,,,0.253085563711,,,,,,,,,,,,,,Still,U2
30088,,,,,,,,,,0.00786664203173,,,,,,,,,Still,U2
30173,,,,,,,0.0322638104063,,,,,,,,,,,,Still,U2
30266,,,,,,,,,,0.0517598164062,,,,,,,,,Still,U2
30360,,,,,,,,,,0.0563768580366,,,,,,,,,Still,U2
30452,,,,,,,0.0701471205832,,,,,,,,,,,,Still,U2
30544,,,,,,,,,,0.0574953314004,,,,,,,,,Still,U2
30632,,,,,,,,111.760901294,,,,,,,,,,,Still,U2
30733,,,9.47734129949,,,,,,,,,,,,,,,,Still,U2
30824,,,,,,312.310487389,,,,,,,,,,,,,Still,U2
30919,,,,,,,0.0476354714375,,,,,,,,,,,,Still,U2
31014,,,,,,,,,,,0.649722787872,,,,,,,,Still,U2
31104,,,,,,,,,,0.0469202635483,,,,,,,,,Still,U2
31190,,,9.43218807213,,,,,,,,,,,,,,,,Still,U2
31282,,,,,,,,,,0.0319140411475,,,,,,,,,Still,U2
31372,,,,,,312.490485866,,,,,,,,,,,,,Still,U2
31462,,,9.35598953092,,,,,,,,,,,,,,,,Still,U2
31528,,,,,,,,,,0.0480511214229,,,,,,,,,Still,U2
31613,,,,,,,,,,,0.650021695703,,,,,,,,Still,U2
31704,,,9.68974414484,,,,,,,,,,,,,,,,Still,U2
31798,,,,,,,,111.713925564,,,,,,,,,,,Still,U2
31961,,,,,,,,,0.433205034526,,,,,,,,,,Still,U2
32054,,,,,0.223448976246,,,,,,,,,,,,,,Still,U2
32146,,,,,,,0.0221670136121,,,,,,,,,,,,Still,U2
32235,,,,,,,,,,0.0319733972706,,,,,,,,,Still,U2
32336,,,,,,,,,,0.0238492628688,,,,,,,,,Still,U2
32432,,,,,,,,,,0.0463986979435,,,,,,,,,Still,U2
32513,,,,,0.138678115148,,,,,,,,,,,,,,Still,U2
32610,,,,,,312.10286329,,,,,,,,,,,,,Still,U2
32704,,,,,,312.463456895,,,,,,,,,,,,,Still,U2
32768,,,,,,,0.00776008054441,,,,,,,,,,,,Still,U2
32864,,,,,,,,,,0.0435595724844,,,,,,,,,Still,U2
32952,,,9.39289574865,,,,,,,,,,,,,,,,Still,U2
33047,,,,,,,,,,0.0102011596346,,,,,,,,,Still,U2
33132,,,9.45209929698,,,,,,,,,,,,,,,,Still,U2
33223,,,,,,,0.0236348344498,,,,,,,,,,,,Still,U2
33312,,,,,,,0.00875308037223,,,,,,,,,,,,Still,U2
33408,,,,,,,,,,0.03337659844,,,,,,,,,Still,U2
33493,,,,,,,0.0212562655287,,,,,,,,,,,,Still,U2
33582,,,,9.80664962151,,,,,,,,,,,,,,,Still,U2
33674,,,,,,312.301971581,,,,,,,,,,,,,Still,U2
33763,,,,,0.0421315471111,,,,,,,,,,,,,,Still,U2
33942,,,,,,,,,,0.0119063935061,,,,,,,,,Still,U2
34035,,,,,,,,,,0.0370074807954,,,,,,,,,Still,U2
34124,,,,,,,,,,,0.649941431018,,,,,,,,Still,U2
34217,,,,,,312.131339654,,,,,,,,,,,,,Still,U2
34312,,,9.54054016756,,,,,,,,,,,,,,,,Still,U2
34402,,,,,,,0.056024550663,,,,,,,,,,,,Still,U2
34493,,,9.53460362963,,,,,,,,,,,,,,,,Still,U2
34667,,,9.55804193133,,,,,,,,,,,,,,,,Still,U2
34765,,,,,,,,,,0.0776874482501,,,,,,,,,Still,U2
34855,,,,,0.418073653126,,,,,,,,,,,,,,Still,U2
34943,,,,,,,,,0.430897453786,,,,,,,,,,Still,U2
35031,,,,,,,,,,0.0395294536771,,,,,,,,,Still,U2
35123,,,,,,,,,,0.0328699428995,,,,,,,,,Still,U2
35218,,,,,,,,,,0.0163965113328,,,,,,,,,Still,U2
35305,,,9.5116878033,,,,,,,,,,,,,,,,Still,U2
35395,,,,,,,,,,,0.649538620886,,,,,,,,Still,U2
35489,,,,,,,,,,0.0344626300291,,,,,,,,,Still,U2
35575,,,,,,,0.0538188199184,,,,,,,,,,,,Still,U2
35670,,,,,,,0.0150291942311,,,,,,,,,,,,Still,U2
35771,,,,,,,,,,,0.64966789948,,,,,,,,Still,U2
35864,,,,,,,,,,,0.649727105122,,,,,,,,Still,U2
35952,,,,,,,,110.334807277,,,,,,,,,,,Still,U2
36038,,,,,,,0.0439136733838,,,,,,,,,,,,Still,U2
36134,,,,,,,,,,,0.648713800398,,,,,,,,Still,U2
36241,,,,,,312.280239111,,,,,,,,,,,,,Still,U2
36323,,,,,,,0.00266719096855,,,,,,,,,,,,Still,U2
36417,,,,,,,0.02229167543,,,,,,,,,,,,Still,U2
36512,,,9.46987566916,,,,,,,,,,,,,,,,Still,U2
36608,,,,,,,,,,,,,1020.699,,,,,,Still,U2
36703,,,,9.80664915908,,,,,,,,,,,,,,,Still,U2
36784,,,,,,,0.0273697295447,,,,,,,,,,,,Still,U2
0,vehicle,,,,,,,,,,,,,,,,,,Still,U2
36923,,,,,,,,,,0.0454544371746,,,,,,,,,Still,U2
37015,,,,,,,0.0370916716493,,,,,,,,,,,,Still,U2
37118,,,,,,,0.0423595940189,,,,,,,,,,,,Still,U2
37203,,,,,,,,,,0.0492583274145,,,,,,,,,Still,U2
37294,,,9.47181488741,,,,,,,,,,,,,,,,Still,U2
37387,,,,,0.252601697725,,,,,,,,,,,,,,Still,U2
37479,,,,9.80665095546,,,,,,,,,,,,,,,Still,U2
37545,,,9.50666124314,,,,,,,,,,,,,,,,Still,U2
37639,,,9.44720323113,,,,,,,,,,,,,,,,Still,U2
37723,,,,,,,,,,,,38.0313321001,,,,,,,Still,U2
37814,,,,9.80664990092,,,,,,,,,,,,,,,Still,U2
37906,,,,,,,,,,,,,,,57.89739313490506,,,,Still,U2
37997,,,,,,,,,,0.0185545557451,,,,,,,,,Still,U2
38091,,,,,,,,,,0.0403054797614,,,,,,,,,Still,U2
38181,,,,,0.160467210266,,,,,,,,,,,,,,Still,U2
38250,,,9.43636056847,,,,,,,,,,,,,,,,Still,U2
38345,,,9.47740951364,,,,,,,,,,,,,,,,Still,U2
38441,,,9.47542659196,,,,,,,,,,,,,,,,Still,U2
38532,,,,,,,,,0.429254662558,,,,,,,,,,Still,U2
38630,,,,,0.153517470576,,,,,,,,,,,,,,Still,U2
38716,,,,,,,,,,0.0349583949922,,,,,,,,,Still,U2
38811,,,9.49285717945,,,,,,,,,,,,,,,,Still,U2
38892,,,,,,,0.0348386728584,,,,,,,,,,,,Still,U2
38997,,,,,0.116687289453,,,,,,,,,,,,,,Still,U2
39084,,,,,,,,,,0.0381018410182,,,,,,,,,Still,U2
39184,,,,9.8066507638,,,,,,,,,,,,,,,Still,U2
39271,,,9.45648230766,,,,,,,,,,,,,,,,Still,U2
39362,,,9.53384911981,,,,,,,,,,,,,,,,Still,U2
39456,,,,9.80664968595,,,,,,,,,,,,,,,Still,U2
39544,,,,,,,,,,,0.64898629249,,,,,,,,Still,U2
39623,,,,,,,,,,0.0240536070637,,,,,,,,,Still,U2
39714,,,,,,,,,0.430359870603,,,,,,,,,,Still,U2
39803,,,9.54622206472,,,,,,,,,,,,,,,,Still,U2
39895,,,,,,312.354286136,,,,,,,,,,,,,Still,U2
39993,,,,9.80665100477,,,,,,,,,,,,,,,Still,U2
40083,,,,,,,,,0.433282629682,,,,,,,,,,Still,U2
40175,,,,,,,,,0.430428240738,,,,,,,,,,Still,U2
40271,,,,,,,,,,0.0490039449928,,,,,,,,,Still,U2
40363,,,,,,,,,,0.033538075446,,,,,,,,,Still,U2
40456,,,,,,,0.0630090401216,,,,,,,,,,,,Still,U2
40543,,,9.56852107576,,,,,,,,,,,,,,,,Still,U2
40636,,,,,,,0.0666711035264,,,,,,,,,,,,Still,U2
40718,,,,,,,0.0657244580267,,,,,,,,,,,,Still,U2
40785,,,,9.8066505222,,,,,,,,,,,,,,,Still,U2
40871,,,,,,,0.017787187092,,,,,,,,,,,,Still,U2
40966,,,,,,,,,,0.00582616056581,,,,,,,,,Still,U2
41054,,,,,,,,,,,0.64906521448,,,,,,,,Still,U2
41125,,,,9.80665050687,,,,,,,,,,,,,,,Still,U2
41220,,,,,,,0.0278037998531,,,,,,,,,,,,Still,U2
41320,,,,9.8066497252,,,,,,,,,,,,,,,Still,U2
41414,,,,,,312.500155196,,,,,,,,,,,,,Still,U2
41494,,,,,,,,,,,,,1020.699,,,,,,Still,U2
41586,,,,,,,,,,0.0282462109879,,,,,,,,,Still,U2
41683,,,,,,,,,,0.0207753109763,,,,,,,,,Still,U2
41770,,,,,,,,,,0.073906509557,,,,,,,,,Still,U2
41872,,,,,,,,,0.428797148497,,,,,,,,,,Still,U2
41965,,,,,,,,,0.429067139372,,,,,,,,,,Still,U2
42053,,,,9.80665016681,,,,,,,,,,,,,,,Still,U2
42147,,,,,,,0.0357734024809,,,,,,,,,,,,Still,U2
42242,,,,9.80665020725,,,,,,,,,,,,,,,Still,U2
42336,,,,,,,,,,0.0284920366954,,,,,,,,,Still,U2
42438,,,,,,,,,,,,38.4257316156,,,,,,,Still,U2
42534,,,,,,,0.0101059961544,,,,,,,,,,,,Still,U2
42632,,,,,,,,,,,0.649270348138,,,,,,,,Still,U2
42725,,,,,,,,,,0.0295136178485,,,,,,,,,Still,U2
42818,,,,,,,0.062153730452,,,,,,,,,,,,Still,U2
42903,,,9.42812016208,,,,,,,,,,,,,,,,Still,U2
42998,,,9.53584221649,,,,,,,,,,,,,,,,Still,U2
43062,,,,,0.166342887047,,,,,,,,,,,,,,Still,U2
43138,,,,,,,,112.484852887,,,,,,,,,,,Still,U2
43191,,,,,,,,,,,,,1020.689,,,,,,Still,U2
43281,,,,,,312.652711976,,,,,,,,,,,,,Still,U2
43372,,,,,,,,,,,,,,,56.028074200347106,,,,Still,U2
43448,,,,,,,0.0487530807319,,,,,,,,,,,,Still,U2
43533,,,,,,,,,,,0.648124492375,,,,,,,,Still,U2
43634,,,,,,,,,,,0.648834743451,,,,,,,,Still,U2
43723,,,,,,312.891474526,,,,,,,,,,,,,Still,U2
43813,,,9.42986994608,,,,,,,,,,,,,,,,Still,U2
43903,,,,,,312.552615716,,,,,,,,,,,,,Still,U2
43967,,,,9.80664953041,,,,,,,,,,,,,,,Still,U2
44065,,,,,0.232781684465,,,,,,,,,,,,,,Still,U2
44161,,,,,,,,,,0.0698391404639,,,,,,,,,Still,U2
44256,,,,,0.309086408394,,,,,,,,,,,,,,Still,U2
44342,,,,9.8066502251,,,,,,,,,,,,,,,Still,U2
44433,,,9.41020164189,,,,,,,,,,,,,,,,Still,U2
44519,,,,,0.186179054018,,,,,,,,,,,,,,Still,U2
44613,,,,,,,0.0272523727646,,,,,,,,,,,,Still,U2
44710,,,9.53697228042,,,,,,,,,,,,,,,,Still,U2
44783,,,,,,,,,0.42651039584,,,,,,,,,,Still,U2
44964,,,,,,,,,,0.0159493470483,,,,,,,,,Still,U2
45057,,,,,,312.746087688,,,,,,,,,,,,,Still,U2
45141,,,,,,,,,,0.0555685144866,,,,,,,,,Still,U2
45237,,,,,,,,,,,0.648504242532,,,,,,,,Still,U2
45334,,,,,,,,,,0.0696550767462,,,,,,,,,Still,U2
45421,,,,,,,0.0646478392415,,,,,,,,,,,,Still,U2
45515,,,,,0.228712302345,,,,,,,,,,,,,,Still,U2
45603,,,,,,,,,,0.0205821271601,,,,,,,,,Still,U2
45690,,,,,,,0.0229424296335,,,,,,,,,,,,Still,U2
45782,,,9.45101920608,,,,,,,,,,,,,,,,Still,U2
45875,,,,,0.290971435018,,,,,,,,,,,,,,Still,U2
45965,,,,,0.24337802811,,,,,,,,,,,,,,Still,U2
46059,,,,,,,0.071406015868,,,,,,,,,,,,Still,U2
46158,,,,,,,,,,0.0715049562973,,,,,,,,,Still,U2
46246,,,,,,,,,,0.0712596069136,,,,,,,,,Still,U2
46321,,,,,,,,,0.426269893974,,,,,,,,,,Still,U2
46378,,,,,,,0.0279376722452,,,,,,,,,,,,Still,U2
46479,,,,,,,,,,,,,1020.669,,,,,,Still,U2
46575,,,,,,,,,0.42759941342,,,,,,,,,,Still,U2
46670,,,9.58237931193,,,,,,,,,,,,,,,,Still,U2
46759,,,,,0.169827600812,,,,,,,,,,,,,,Still,U2
46857,,,,9.80664998979,,,,,,,,,,,,,,,Still,U2
47053,,,,,,,,,,,,38.6794072484,,,,,,,Still,U2
47231,,,,9.80664971712,,,,,,,,,,,,,,,Still,U2
47391,,,,,,,,,,,0.648304456476,,,,,,,,Still,U2
47484,,,,,,,,,,0.0328355132816,,,,,,,,,Still,U2
47572,,,,,,,,,,0.0398893665857,,,,,,,,,Still,U2
47664,,,9.51812099242,,,,,,,,,,,,,,,,Still,U2
47760,,,,,,,,,,0.0469212132112,,,,,,,,,Still,U2
47855,,,,,,,,,,,0.648221768269,,,,,,,,Still,U2
47942,,,,,0.199274262244,,,,,,,,,,,,,,Still,U2
48022,,,,,,,,,0.431482995102,,,,,,,,,,Still,U2
48108,,,9.40969712359,,,,,,,,,,,,,,,,Still,U2
48195,,,,,,,,,,0.0524090562442,,,,,,,,,Still,U2
48278,,,,9.80664956259,,,,,,,,,,,,,,,Still,U2
48373,,,,,,,,112.027247459,,,,,,,,,,,Still,U2
48465,,,,,,,0.0572038505284,,,,,,,,,,,,Still,U2
48557,,,9.56756695189,,,,,,,,,,,,,,,,Still,U2
48646,,,,,,,,,,0.0222734729827,,,,,,,,,Still,U2
48736,,,,,,,,,,0.00729328614836,,,,,,,,,Still,U2
48833,,,,9.80664969729,,,,,,,,,,,,,,,Still,U2
48918,,,,,,,0.054369720939,,,,,,,,,,,,Still,U2
49015,,,,9.80664987706,,,,,,,,,,,,,,,Still,U2
49106,,,,,,,0.0484999907244,,,,,,,,,,,,Still,U2
49203,,,,,,,,,,,0.647975651482,,,,,,,,Still,U2
49292,,,9.47295146458,,,,,,,,,,,,,,,,Still,U2
49381,,,,,,,0.0338972025098,,,,,,,,,,,,Still,U2
49473,,,,,,,0.0287026341526,,,,,,,,,,,,Still,U2
49564,,,,,,,,,,0.023664684444,,,,,,,,,Still,U2
49652,,,,,,,,,,0.0363483026141,,,,,,,,,Still,U2
49743,,,,,,,,,,0.0379534724495,,,,,,,,,Still,U2
49828,,,,9.80664999317,,,,,,,,,,,,,,,Still,U2
49920,,,,,,312.55745792,,,,,,,,,,,,,Still,U2
50003,,,,,,,,,,0.00995687104862,,,,,,,,,Still,U2
50090,,,,,,,0.00596706427392,,,,,,,,,,,,Still,U2
50187,,,,,,,,,,0.00881610790625,,,,,,,,,Still,U2
50265,,,,,0.0516402205155,,,,,,,,,,,,,,Still,U2
50356,,,,,,,,,,,,38.2132314532,,,,,,,Still,U2
50452,,,,,,,0.0378132471153,,,,,,,,,,,,Still,U2
50522,,,,9.80665085267,,,,,,,,,,,,,,,Still,U2
50608,,,,,0.242192378801,,,,,,,,,,,,,,Still,U2
50696,,,,9.80665027028,,,,,,,,,,,,,,,Still,U2
50892,,,,,0.0905942038648,,,,,,,,,,,,,,Still,U2
50993,,,,,,,,112.976622678,,,,,,,,,,,Still,U2
51092,,,,9.80664997918,,,,,,,,,,,,,,,Still,U2
51187,,,9.46881428355,,,,,,,,,,,,,,,,Still,U2
51274,,,,,,,,,,0.0168536972712,,,,,,,,,Still,U2
51365,,,,,,,,,,0.00605372143649,,,,,,,,,Still,U2
51448,,,,,,,,,0.430023908282,,,,,,,,,,Still,U2
51540,,,,,,312.888751457,,,,,,,,,,,,,Still,U2
51637,,,,,,,,,,,,37.9654879026,,,,,,,Still,U2
51734,,,,,,,,,,0.0443292613818,,,,,,,,,Still,U2
51833,,,,,,,,,,0.0301582043707,,,,,,,,,Still,U2
51922,,,,,,,,,,,0.647263491094,,,,,,,,Still,U2
52003,,,,,,,0.0186783786759,,,,,,,,,,,,Still,U2
52094,,,,,,,,,,,0.647415851434,,,,,,,,Still,U2
52187,,,,,,,,,,0.00918691894285,,,,,,,,,Still,U2
52273,,,,,,,0.044889197057,,,,,,,,,,,,Still,U2
52366,,,,9.80664959735,,,,,,,,,,,,,,,Still,U2
52457,,,9.53738921391,,,,,,,,,,,,,,,,Still,U2
52552,,,9.52344420469,,,,,,,,,,,,,,,,Still,U2
52607,,,,,,,0.00706722472636,,,,,,,,,,,,Still,U2
52699,,,,,,,,,,0.00988813057129,,,,,,,,,Still,U2
52794,,,,,0.137596639467,,,,,,,,,,,,,,Still,U2
52882,,,9.489489016,,,,,,,,,,,,,,,,Still,U2
52976,,,,,,,0.0271835830038,,,,,,,,,,,,Still,U2
53063,,,,,,,0.0407823217477,,,,,,,,,,,,Still,U2
53154,,,,,,,,111.854294358,,,,,,,,,,,Still,U2
53241,,,,,0.117995271362,,,,,,,,,,,,,,Still,U2
53305,,,,,,,,,,0.0213808304907,,,,,,,,,Still,U2
53375,,,,,,,,113.542763504,,,,,,,,,,,Still,U2
53464,,,9.51785520058,,,,,,,,,,,,,,,,Still,U2
53513,,,,,,,,,0.426161288167,,,,,,,,,,Still,U2
53611,,,,,,,,,0.427106237156,,,,,,,,,,Still,U2
53703,,,,,,,,,,,,38.8642482061,,,,,,,Still,U2
53782,,,,,,,,,,0.0243621655134,,,,,,,,,Still,U2
53872,,,,,,,,,,0.0267927738192,,,,,,,,,Still,U2
53962,,,,,,,,,,0.038959241165,,,,,,,,,Still,U2
54055,,,,,0.133213704182,,,,,,,,,,,,,,Still,U2
54150,,,,,,,,,,,0.647316482757,,,,,,,,Still,U2
54242,,,,,,,,,,0.0254010307358,,,,,,,,,Still,U2
54335,,,9.45084578081,,,,,,,,,,,,,,,,Still,U2
54425,,,,,0.0752881391716,,,,,,,,,,,,,,Still,U2
54518,,,,,,,,,,0.0308722221691,,,,,,,,,Still,U2
54604,,,,,,,,,,,0.647715140951,,,,,,,,Still,U2
54708,,,,,,,,,0.426639859194,,,,,,,,,,Still,U2
54801,,,,,,,,,,0.0186656843714,,,,,,,,,Still,U2
54891,,,,,,313.201795243,,,,,,,,,,,,,Still,U2
54988,,,,,,,,,,0.0343582022276,,,,,,,,,Still,U2
55091,,,9.53894612227,,,,,,,,,,,,,,,,Still,U2
55182,,,,9.80665077431,,,,,,,,,,,,,,,Still,U2
55282,,,,,,,0.0474325273099,,,,,,,,,,,,Still,U2
55376,,,,,,,,,,0.0530479739876,,,,,,,,,Still,U2
55464,,,,,,,,,,,0.647074238145,,,,,,,,Still,U2
55555,,,,,,,0.0616242053855,,,,,,,,,,,,Still,U2
55653,,,,,,,0.0460329379365,,,,,,,,,,,,Still,U2
55843,,,,,,,,,,0.036973840604,,,,,,,,,Still,U2
55936,,,,,,,,113.326024976,,,,,,,,,,,Still,U2
56022,,,,,,,0.0121493981372,,,,,,,,,,,,Still,U2
56113,,,,,,,0.0212269278236,,,,,,,,,,,,Still,U2
56203,,,,,,,,,,0.0372773844427,,,,,,,,,Still,U2
56293,,,,,,,,,,,0.646924568311,,,,,,,,Still,U2
56393,,,,,,,,,,0.0353352643038,,,,,,,,,Still,U2
56494,,,9.51610913316,,,,,,,,,,,,,,,,Still,U2
56589,,,,,,,,,,,,,1020.689,,,,,,Still,U2
56762,,,,,,,0.0474376097364,,,,,,,,,,,,Still,U2
56854,,,9.47991925907,,,,,,,,,,,,,,,,Still,U2
56942,,,,,0.17661731494,,,,,,,,,,,,,,Still,U2
57032,,,9.45970903066,,,,,,,,,,,,,,,,Still,U2
57123,,,9.42527588734,,,,,,,,,,,,,,,,Still,U2
57213,,,,,,,,,,0.0139447049655,,,,,,,,,Still,U2
57301,,,9.46356694515,,,,,,,,,,,,,,,,Still,U2
57402,,,,,,313.23976712,,,,,,,,,,,,,Still,U2
57481,,,,,,,,,,0.0618856792878,,,,,,,,,Still,U2
57570,,,,,,,,,,0.0386959070423,,,,,,,,,Still,U2
57664,,,,,0.154796844614,,,,,,,,,,,,,,Still,U2
57758,,,,,,,0.0465130412307,,,,,,,,,,,,Still,U2
57842,,,,,,,0.0315498961601,,,,,,,,,,,,Still,U2
57898,,,,,,,,,,0.0391858473673,,,,,,,,,Still,U2
57995,,,,,,,,,,0.0251280017055,,,,,,,,,Still,U2
58084,,,,,,,,,,0.0183075643521,,,,,,,,,Still,U2
58174,,,,,,,,,,0.0160791077604,,,,,,,,,Still,U2
58271,,,9.48099638187,,,,,,,,,,,,,,,,Still,U2
58368,,,,,0.12391156015,,,,,,,,,,,,,,Still,U2
58464,,,9.48869287137,,,,,,,,,,,,,,,,Still,U2
58549,,,,,,,,,,,0.646954389178,,,,,,,,Still,U2
58640,,,,,,,0.0252336871161,,,,,,,,,,,,Still,U2
58734,,,,,,,0.0486903041143,,,,,,,,,,,,Still,U2
58821,,,,,,,,,,0.0403697240502,,,,,,,,,Still,U2
58916,,,,,0.376173512458,,,,,,,,,,,,,,Still,U2
59006,,,,,,,,,,0.0188979282868,,,,,,,,,Still,U2
59102,,,,,,,,,,0.0336962264286,,,,,,,,,Still,U2
59207,,,,,,,,,0.425768012299,,,,,,,,,,Still,U2
59301,,,,,,,,,,0.00674605891632,,,,,,,,,Still,U2
59395,,,,9.80664957432,,,,,,,,,,,,,,,Still,U2
59485,,,,9.80664984779,,,,,,,,,,,,,,,Still,U2
59574,,,,,,,,,,,,37.8272999877,,,,,,,Still,U2
59752,,,,,,,,,,0.0345212658111,,,,,,,,,Still,U2
59830,,,,,,,0.00768185707678,,,,,,,,,,,,Still,U2
59924,,,9.52652075588,,,,,,,,,,,,,,,,Still,U2
60017,,,,,,,,,,,,38.1138032578,,,,,,,Still,U2
60103,,,,,,,,,,0.0419982219702,,,,,,,,,Still,U2
60193,,,,,,,,,,0.0728177397479,,,,,,,,,Still,U2
60283,,,,,0.145750867016,,,,,,,,,,,,,,Still,U2
60373,,,,,,,0.0445784527359,,,,,,,,,,,,Still,U2
60467,,,,,,313.361012266,,,,,,,,,,,,,Still,U2
60555,,,,,,,,,,0.0273318184272,,,,,,,,,Still,U2
60650,,,9.43571902395,,,,,,,,,,,,,,,,Still,U2
60739,,,,9.8066500942,,,,,,,,,,,,,,,Still,U2
60845,,,9.45470642809,,,,,,,,,,,,,,,,Still,U2
60938,,,,,,,,,0.426223904593,,,,,,,,,,Still,U2
61017,,,,,,,,,,0.0485117975589,,,,,,,,,Still,U2
61112,,,9.52755658673,,,,,,,,,,,,,,,,Still,U2
61206,,,,,,,0.04443963725,,,,,,,,,,,,Still,U2
61300,,,,,,,,,0.4261278103,,,,,,,,,,Still,U2
61397,,,,,,,,,,,0.646483344124,,,,,,,,Still,U2
61493,,,,,,312.989225019,,,,,,,,,,,,,Still,U2
61585,,,,,,,,,0.43065611483,,,,,,,,,,Still,U2
61685,,,,,,,,,,0.0247999777156,,,,,,,,,Still,U2
61757,,,9.48736719479,,,,,,,,,,,,,,,,Still,U2
61842,,,,,0.170438333693,,,,,,,,,,,,,,Still,U2
61936,,,9.48972802937,,,,,,,,,,,,,,,,Still,U2
62022,,,9.48225088134,,,,,,,,,,,,,,,,Still,U2
62115,,,,,,,,,0.431237811437,,,,,,,,,,Still,U2
62201,,,,,,,,,0.429548961914,,,,,,,,,,Still,U2
62291,,,,,,,,,0.429744022664,,,,,,,,,,Still,U2
62381,,,,,,,,,,,0.646587959044,,,,,,,,Still,U2
62441,,,,,,,,112.301776683,,,,,,,,,,,Still,U2
62625,,,,,,,0.0369071664753,,,,,,,,,,,,Still,U2
62720,,,,,,,,,,0.0297985675505,,,,,,,,,Still,U2
62814,,,,,,,,110.866238478,,,,,,,,,,,Still,U2
62914,,,,9.80665083806,,,,,,,,,,,,,,,Still,U2
62998,,,,,,,0.0647502069023,,,,,,,,,,,,Still,U2
63094,,,,,,,,,,,0.645486002375,,,,,,,,Still,U2
63180,,,,,,,,,0.430844381836,,,,,,,,,,Still,U2
63281,,,,,,,,,,0.0355037905144,,,,,,,,,Still,U2
63373,,,,,0.220759508897,,,,,,,,,,,,,,Still,U2
63464,,,,,,,0.0531507079875,,,,,,,,,,,,Still,U2
63555,,,,,,,,,,0.061071872942,,,,,,,,,Still,U2
63655,,,,,,,,,0.42879251345,,,,,,,,,,Still,U2
63741,,,9.46075951611,,,,,,,,,,,,,,,,Still,U2
63837,,,9.45639821237,,,,,,,,,,,,,,,,Still,U2
63925,,,,,,,,,,0.0503652153841,,,,,,,,,Still,U2
64010,,,9.45906516945,,,,,,,,,,,,,,,,Still,U2
64101,,,,,,,0.0365026272712,,,,,,,,,,,,Still,U2
64198,,,,,,,,,,0.0516274157347,,,,,,,,,Still,U2
64295,,,,9.80664941079,,,,,,,,,,,,,,,Still,U2
64390,,,,,,,,,0.424764888811,,,,,,,,,,Still,U2
64483,,,,,,,,,,,,,1020.719,,,,,,Still,U2
64544,,,,,,,0.0445455204175,,,,,,,,,,,,Still,U2
64635,,,,,,,0.0576142859636,,,,,,,,,,,,Still,U2
64740,,,,,,,0.0534256509455,,,,,,,,,,,,Still,U2
64923,,,,,,,,,,0.05023144651,,,,,,,,,Still,U2
64983,,,,,,312.943589277,,,,,,,,,,,,,Still,U2
65076,,,,,,,,112.665302654,,,,,,,,,,,Still,U2
65165,,,,,,,0.0496367083632,,,,,,,,,,,,Still,U2
65261,,,,9.80665010055,,,,,,,,,,,,,,,Still,U2
65348,,,,,0.0868120834268,,,,,,,,,,,,,,Still,U2
65441,,,,,,,,,,0.0331103661191,,,,,,,,,Still,U2
65518,,,,9.80665045179,,,,,,,,,,,,,,,Still,U2
65625,,,,,,,,,,0.0386598154093,,,,,,,,,Still,U2
65711,,,9.53620316356,,,,,,,,,,,,,,,,Still,U2
65806,,,,,,,,,,0.0340575930671,,,,,,,,,Still,U2
65911,,,,,,,0.0360198869138,,,,,,,,,,,,Still,U2
66004,,,,,,,,,,0.0160316796506,,,,,,,,,Still,U2
66102,,,,,,,0.0347654823237,,,,,,,,,,,,Still,U2
66196,,,,,,,0.0218108844799,,,,,,,,,,,,Still,U2
66293,,,,9.80665091871,,,,,,,,,,,,,,,Still,U2
66455,,,,,,,,,,0.047538220513,,,,,,,,,Still,U2
66552,,,,,,,,,,,0.645769095271,,,,,,,,Still,U2
66648,,,,,,,,,,0.0528389679861,,,,,,,,,Still,U2
66738,,,9.54381774882,,,,,,,,,,,,,,,,Still,U2
66831,,,,,,,,,0.426232945901,,,,,,,,,,Still,U2
66921,,,,,,,,,,0.0278382794631,,,,,,,,,Still,U2
67016,,,,,0.276568181043,,,,,,,,,,,,,,Still,U2
67113,,,,,,,0.0525939795252,,,,,,,,,,,,Still,U2
67202,,,,,,313.092555964,,,,,,,,,,,,,Still,U2
67299,,,,,,,,,,0.0399881593035,,,,,,,,,Still,U2
67394,,,,,,,,,,0.044250041326,,,,,,,,,Still,U2
67481,,,9.48772402886,,,,,,,,,,,,,,,,Still,U2
67537,,,,9.80665035574,,,,,,,,,,,,,,,Still,U2
67632,,,,,,,0.00629126739678,,,,,,,,,,,,Still,U2
67724,,,,,0.335475576555,,,,,,,,,,,,,,Still,U2
67820,,,,,,,,,,0.0145823580895,,,,,,,,,Still,U2
67916,,,,,,,,,,,,37.9465261366,,,,,,,Still,U2
68002,,,,,,,,,,0.0431115478637,,,,,,,,,Still,U2
68093,,,,,0.147375168129,,,,,,,,,,,,,,Still,U2
68191,,,,,,,,,,0.0448316726015,,,,,,,,,Still,U2
68281,,,,,,,,,,0.0491291898108,,,,,,,,,Still,U2
68373,,,,,,,,,0.42955226252,,,,,,,,,,Still,U2
68459,,,,,,,,,,0.0250190961791,,,,,,,,,Still,U2
68528,,,,,,,,,,0.0253675843871,,,,,,,,,Still,U2
68614,,,,,,,0.0341935470305,,,,,,,,,,,,Still,U2
68680,,,,,0.131024395057,,,,,,,,,,,,,,Still,U2
68862,,,,,,,,,,0.0218031225941,,,,,,,,,Still,U2
68978,,,,,,,,,,0.0583381822954,,,,,,,,,Still,U2
69080,,,9.45568521532,,,,,,,,,,,,,,,,Still,U2
69161,,,,,,,,,,,,38.7443537692,,,,,,,Still,U2
69245,,,9.46524253329,,,,,,,,,,,,,,,,Still,U2
69328,,,,,,,,,0.427716575799,,,,,,,,,,Still,U2
69431,,,,,,,,112.293866205,,,,,,,,,,,Still,U2
69531,,,,,,,,,0.428664056087,,,,,,,,,,Still,U2
69634,,,,,,,0.0170473456065,,,,,,,,,,,,Still,U2
69728,,,,,,,,,,,0.645815677447,,,,,,,,Still,U2
69829,,,,,,,,,,0.0121931567837,,,,,,,,,Still,U2
69917,,,,,,,0.0346927891659,,,,,,,,,,,,Still,U2
70013,,,,,,,0.028309103829,,,,,,,,,,,,Still,U2
70112,,,,,0.0869000712134,,,,,,,,,,,,,,Still,U2
70207,,,,,,,,,,,,38.413545605,,,,,,,Still,U2
70297,,,,,,,,,,0.0334942377104,,,,,,,,,Still,U2
70484,,,,,,312.63934865,,,,,,,,,,,,,Still,U2
70578,,,,,,,,,,,0.645421628006,,,,,,,,Still,U2
70671,,,,,,,,,,0.0369623745876,,,,,,,,,Still,U2
70732,,,,,,,,,,0.0138213047085,,,,,,,,,Still,U2
70825,,,,,0.123920372258,,,,,,,,,,,,,,Still,U2
70912,,,,,,,,,0.429585687283,,,,,,,,,,Still,U2
71007,,,,,,,,,,0.0168588907661,,,,,,,,,Still,U2
71092,,,,,,,,,,0.0274182819149,,,,,,,,,Still,U2
71153,,,,,,313.058381303,,,,,,,,,,,,,Still,U2
71246,,,,9.80665021707,,,,,,,,,,,,,,,Still,U2
71342,,,,,,,0.026429720327,,,,,,,,,,,,Still,U2
71437,,,,,,,,,0.426716229801,,,,,,,,,,Still,U2
71534,,,9.43370058595,,,,,,,,,,,,,,,,Still,U2
71628,,,,9.80665011419,,,,,,,,,,,,,,,Still,U2
71726,,,,,0.0738972866664,,,,,,,,,,,,,,Still,U2
71811,,,,,,,,,,0.0126015239366,,,,,,,,,Still,U2
71891,,,,,,313.222536144,,,,,,,,,,,,,Still,U2
71986,,,9.44071447133,,,,,,,,,,,,,,,,Still,U2
72076,,,,,,,,,,0.0226757206547,,,,,,,,,Still,U2
72173,,,,,,313.181254418,,,,,,,,,,,,,Still,U2
72272,,,,,,,,,0.425634972088,,,,,,,,,,Still,U2
72360,,,,,,,0.0332368715287,,,,,,,,,,,,Still,U2
72456,,,,,,,,,,,0.645598086911,,,,,,,,Still,U2
72546,,,9.4770746723,,,,,,,,,,,,,,,,Still,U2
72733,,,,,,,,,,0.028022652639,,,,,,,,,Still,U2
72794,,,,9.80665075972,,,,,,,,,,,,,,,Still,U2
72884,,,,,,,,,,0.0450660366261,,,,,,,,,Still,U2
72980,,,,,,,,,0.423710641634,,,,,,,,,,Still,U2
73076,,,,,,,,,0.426336034195,,,,,,,,,,Still,U2
73161,,,,,,,,,,,0.645141163452,,,,,,,,Still,U2
73251,,,,,,,,,0.42601213089,,,,,,,,,,Still,U2
73341,,,,,,,,,,,0.645366475033,,,,,,,,Still,U2
73434,,,9.54794526733,,,,,,,,,,,,,,,,Still,U2
73534,,,,,,,,,,0.00524103310915,,,,,,,,,Still,U2
73628,,,,9.80664947275,,,,,,,,,,,,,,,Still,U2
73723,,,9.56818217343,,,,,,,,,,,,,,,,Still,U2
73813,,,,,,,,,0.427789267324,,,,,,,,,,Still,U2
73911,,,9.48992720158,,,,,,,,,,,,,,,,Still,U2
74002,,,,,,,,,,,0.645770159395,,,,,,,,Still,U2
74099,,,,,,,,,,,0.644766134716,,,,,,,,Still,U2
74195,,,,,,,,,,0.0150746101468,,,,,,,,,Still,U2
74284,,,9.51623005725,,,,,,,,,,,,,,,,Still,U2
74370,,,,,,,0.0334639570589,,,,,,,,,,,,Still,U2
74464,,,,,,,,,,0.0629723864348,,,,,,,,,Still,U2
74557,,,,,,,,,,,0.645396597132,,,,,,,,Still,U2
74644,,,,,0.125915137785,,,,,,,,,,,,,,Still,U2
74733,,,,,,,,,,0.0705488930066,,,,,,,,,Still,U2
74823,,,,,,,0.0286207822861,,,,,,,,,,,,Still,U2
74915,,,,,,,0.0106359560143,,,,,,,,,,,,Still,U2
75001,,,,,,,,,0.424407818634,,,,,,,,,,Still,U2
75090,,,,,,,,,0.425301138379,,,,,,,,,,Still,U2
75181,,,,,0.154107135938,,,,,,,,,,,,,,Still,U2
75278,,,,,,,,,,,0.644918798105,,,,,,,,Still,U2
75362,,,,,,,,,,0.0511851952607,,,,,,,,,Still,U2
75454,,,,,,,,,,,0.645012759629,,,,,,,,Still,U2
75543,,,,,,,0.0434836137104,,,,,,,,,,,,Still,U2
75637,,,,,,,,,,,0.644804306363,,,,,,,,Still,U2
75733,,,,,,,,,,0.0318453895017,,,,,,,,,Still,U2
75827,,,,,,,,,,0.0110755056974,,,,,,,,,Still,U2
75883,,,,,,313.689255932,,,,,,,,,,,,,Still,U2
75976,,,,,,313.694474223,,,,,,,,,,,,,Still,U2
76066,,,9.51185034794,,,,,,,,,,,,,,,,Still,U2
76165,,,,,,,,,,,0.644304924318,,,,,,,,Still,U2
76260,,,,,,,,,,0.0414826987792,,,,,,,,,Still,U2
76343,,,,,,,,,0.423558398791,,,,,,,,,,Still,U2
76523,,,,,,,0.0372158082427,,,,,,,,,,,,Still,U2
76621,,,,,,,,,,0.0402069984298,,,,,,,,,Still,U2
76715,,,,,,,,,,,0.64445504574,,,,,,,,Still,U2
76786,,,,,,,,,,0.028967540088,,,,,,,,,Still,U2
76876,,,,,,,,,,0.0299734976588,,,,,,,,,Still,U2
76968,,,,,,,,,0.426142819481,,,,,,,,,,Still,U2
77056,,,,,,313.295594681,,,,,,,,,,,,,Still,U2
77156,,,9.48847869829,,,,,,,,,,,,,,,,Still,U2
77245,,,,,,,0.0346686200273,,,,,,,,,,,,Still,U2
77307,,,,,,,,,,0.0115694429956,,,,,,,,,Still,U2
77395,,,,,,313.521681122,,,,,,,,,,,,,Still,U2
77534,,,,,,,,,,,0.644828783972,,,,,,,,Still,U2
77621,,,,,,,0.0245502251824,,,,,,,,,,,,Still,U2
77717,,,,,,,,,,0.0170945571613,,,,,,,,,Still,U2
77813,,,,,,,,,,,,38.3365213667,,,,,,,Still,U2
77904,,,,,,,0.0149909740193,,,,,,,,,,,,Still,U2
78001,,,,,,,,,0.425448579381,,,,,,,,,,Still,U2
78095,,,9.54109909774,,,,,,,,,,,,,,,,Still,U2
78186,,,9.44855343079,,,,,,,,,,,,,,,,Still,U2
78373,,,,,,,,,,0.073819695063,,,,,,,,,Still,U2
78466,,,,,,,,,,0.0769161431674,,,,,,,,,Still,U2
78554,,,,,,,0.03909990481,,,,,,,,,,,,Still,U2
78645,,,,,,,,,,0.0453652015478,,,,,,,,,Still,U2
78717,,,,,,,,112.301776683,,,,,,,,,,,Still,U2
78804,,,,,,,0.0527134670838,,,,,,,,,,,,Still,U2
78898,,,,,,313.232146521,,,,,,,,,,,,,Still,U2
78992,,,,,,,,,,0.0639315766652,,,,,,,,,Still,U2
79083,,,,,,,,,,0.0552875622378,,,,,,,,,Still,U2
79265,,,,,,313.247251702,,,,,,,,,,,,,Still,U2
79354,,,,9.80664949103,,,,,,,,,,,,,,,Still,U2
79423,,,,,,,,,,0.0377201798007,,,,,,,,,Still,U2
79504,,,,,0.153286094099,,,,,,,,,,,,,,Still,U2
79590,,,,,,,,,,,0.644659423257,,,,,,,,Still,U2
79689,,,,,,,,,,0.0591453720779,,,,,,,,,Still,U2
79776,,,,,0.200512587792,,,,,,,,,,,,,,Still,U2
79867,,,,,,,,,,0.0565923988078,,,,,,,,,Still,U2
79954,,,,,,,,,,,,,1020.699,,,,,,Still,U2
80041,,,,,0.315384567248,,,,,,,,,,,,,,Still,U2
80205,,,,,,,,,,0.0508947775933,,,,,,,,,Still,U2
80295,,,,,,,,,0.425088142987,,,,,,,,,,Still,U2
80379,,,9.48511628106,,,,,,,,,,,,,,,,Still,U2
80472,,,,,,,,,,0.0486311589506,,,,,,,,,Still,U2
80535,,,,,,,,,,0.0105949741204,,,,,,,,,Still,U2
80625,,,,,,,,,0.425877569204,,,,,,,,,,Still,U2
80723,,,,9.80665038994,,,,,,,,,,,,,,,Still,U2
80781,,,,,,,,,,0.0432037568251,,,,,,,,,Still,U2
80875,,,,,,,,,,0.0598651147828,,,,,,,,,Still,U2
81051,,,9.42818332421,,,,,,,,,,,,,,,,Still,U2
81144,,,,,,,,,,0.0148159700144,,,,,,,,,Still,U2
81237,,,,,,,,,0.423849355492,,,,,,,,,,Still,U2
81323,,,9.54805312304,,,,,,,,,,,,,,,,Still,U2
81418,,,,,,,,,0.426191324229,,,,,,,,,,Still,U2
81512,,,,,,,,112.301776683,,,,,,,,,,,Still,U2
81610,,,,,0.100417654533,,,,,,,,,,,,,,Still,U2
81700,,,,,,,0.0442334895587,,,,,,,,,,,,Still,U2
81792,,,9.50250729054,,,,,,,,,,,,,,,,Still,U2
81886,,,,,,,,,,0.0518218178008,,,,,,,,,Still,U2
81975,,,9.45480726325,,,,,,,,,,,,,,,,Still,U2
82073,,,,9.80664953464,,,,,,,,,,,,,,,Still,U2
82165,,,,,,,,,0.427322701018,,,,,,,,,,Still,U2
82261,,,,,,,,113.542763504,,,,,,,,,,,Still,U2
82354,,,,,,,,,,,,38.2638090138,,,,,,,Still,U2
82445,,,,,,,0.0105169813093,,,,,,,,,,,,Still,U2
82533,,,9.52702893103,,,,,,,,,,,,,,,,Still,U2
82620,,,,,,,,,,0.0390212014931,,,,,,,,,Still,U2
82712,,,,,,,,,0.42329480972,,,,,,,,,,Still,U2
82778,,,9.4460542213,,,,,,,,,,,,,,,,Still,U2
82873,,,,9.80665045338,,,,,,,,,,,,,,,Still,U2
82965,,,,,,,,,,0.0232765010822,,,,,,,,,Still,U2
83061,,,,,0.231511820258,,,,,,,,,,,,,,Still,U2
83143,,,,9.80664970309,,,,,,,,,,,,,,,Still,U2
83208,,,,,,313.840819104,,,,,,,,,,,,,Still,U2
83288,,,,,,,0.0468272870493,,,,,,,,,,,,Still,U2
83383,,,,,,,,,,0.0336739136118,,,,,,,,,Still,U2
83441,,,,,,,,111.849317374,,,,,,,,,,,Still,U2
83544,,,,,,,,,,0.00877238389061,,,,,,,,,Still,U2
83632,,,,,,,,,,0.0315399201135,,,,,,,,,Still,U2
83723,,,,,,,,,,,0.643722183616,,,,,,,,Still,U2
83790,,,,,0.0785630690246,,,,,,,,,,,,,,Still,U2
83888,,,,,,,,,,,0.643456951464,,,,,,,,Still,U2
83975,,,,,,,,,,0.0321764767,,,,,,,,,Still,U2
84062,,,9.42144972569,,,,,,,,,,,,,,,,Still,U2
84155,,,,,,,,,0.421858999055,,,,,,,,,,Still,U2
84252,,,,,0.0656226083454,,,,,,,,,,,,,,Still,U2
84336,,,,,0.147935029652,,,,,,,,,,,,,,Still,U2
84427,,,,9.80665077093,,,,,,,,,,,,,,,Still,U2
84516,,,,,,,,,,0.0289744960501,,,,,,,,,Still,U2
84606,,,,,,,,,,0.0161644238316,,,,,,,,,Still,U2
84696,,,,,,313.703988288,,,,,,,,,,,,,Still,U2
84791,,,,,0.0519773702627,,,,,,,,,,,,,,Still,U2
84888,,,,9.80665007624,,,,,,,,,,,,,,,Still,U2
84975,,,,,,,,112.706615568,,,,,,,,,,,Still,U2
85061,,,,,,,,,0.423804477249,,,,,,,,,,Still,U2
85156,,,,,,,,,,,,37.3195615436,,,,,,,Still,U2
85257,,,,,,,,,,0.0552357709823,,,,,,,,,Still,U2
85342,,,,,,,,,0.421714434892,,,,,,,,,,Still,U2
85408,,,,,,,,,,0.00725988103293,,,,,,,,,Still,U2
85511,,,,,,,,,,0.0405336109148,,,,,,,,,Still,U2
85596,,,9.46735042907,,,,,,,,,,,,,,,,Still,U2
85682,,,,,,,,,,0.0120756421527,,,,,,,,,Still,U2
85774,,,,,,,0.0145203637153,,,,,,,,,,,,Still,U2
85865,,,9.47180387147,,,,,,,,,,,,,,,,Still,U2
85956,,,,,,,0.0121652843707,,,,,,,,,,,,Still,U2
86049,,,,,,,,,,0.00795641624749,,,,,,,,,Still,U2
86142,,,,,,,,,,0.0390165204095,,,,,,,,,Still,U2
86236,,,,,,,,,,0.0169452336657,,,,,,,,,Still,U2
86411,,,,,,,,,,,0.644271569068,,,,,,,,Still,U2
86518,,,,9.80665099908,,,,,,,,,,,,,,,Still,U2
86611,,,,,,,,112.386912017,,,,,,,,,,,Still,U2
86690,,,,,,,,,,0.0418050819643,,,,,,,,,Still,U2
86783,,,,,,,0.013921995559,,,,,,,,,,,,Still,U2
86880,,,,,,,,,,0.0380279818966,,,,,,,,,Still,U2
86968,,,,,,,,,,0.0380205058167,,,,,,,,,Still,U2
87040,,,,,,,0.0287209080682,,,,,,,,,,,,Still,U2
87212,,,,,,,,,0.425891866858,,,,,,,,,,Still,U2
87305,,,,,0.0990204032569,,,,,,,,,,,,,,Still,U2
87365,,,9.49567568525,,,,,,,,,,,,,,,,Still,U2
87454,,,,,,,,,,,0.648170372609,,,,,,,,Still,U2
87542,,,,,,,,,,,0.650561414089,,,,,,,,Still,U2
87722,,,,,,,,,,0.153716796887,,,,,,,,,Still,U2
87814,,,,,,,,,,0.0979943295258,,,,,,,,,Still,U2
87869,,,,,,,0.0535466740114,,,,,,,,,,,,Still,U2
87962,,,,,,,,,,0.131015338049,,,,,,,,,Still,U2
88053,,,,,,,0.0267509074501,,,,,,,,,,,,Still,U2
88152,,,,,,,,,,0.156608838764,,,,,,,,,Still,U2
88249,,,,,,,,,,0.128142036219,,,,,,,,,Still,U2
88338,,,,,,,,,,0.0886477852921,,,,,,,,,Still,U2
88433,,,,,0.120977945396,,,,,,,,,,,,,,Still,U2
88521,,,,,0.238774600241,,,,,,,,,,,,,,Still,U2
88705,,,,,,,,,,0.0671463581962,,,,,,,,,Still,U2
88776,,,,,,,,,,0.16695913102,,,,,,,,,Still,U2
88848,,,,9.80665034583,,,,,,,,,,,,,,,Still,U2
88905,,,,,,,0.106433928095,,,,,,,,,,,,Still,U2
88999,,,,,,,,,,0.182306828425,,,,,,,,,Still,U2
89083,,,,,,,,,,,,38.7086963358,,,,,,,Still,U2
89178,,,,,,,,,,,,,1020.699,,,,,,Still,U2
89272,,,9.41385771739,,,,,,,,,,,,,,,,Still,U2
89364,,,,,,,,,,,0.649256373031,,,,,,,,Still,U2
89451,,,,,,,0.0341870702771,,,,,,,,,,,,Still,U2
89536,,,,,,,0.258435359628,,,,,,,,,,,,Still,U2
89624,,,,,,,,,,0.0974341679501,,,,,,,,,Still,U2
89715,,,,,0.212019746913,,,,,,,,,,,,,,Still,U2
89809,,,,9.80665018147,,,,,,,,,,,,,,,Still,U2
89894,,,,,,,0.228818394112,,,,,,,,,,,,Still,U2
90010,,,,,0.512671739662,,,,,,,,,,,,,,Still,U2
90096,,,,,,,,,,0.101058444331,,,,,,,,,Still,U2
90189,,,,,,,,,,0.148351174403,,,,,,,,,Still,U2
90283,,,9.50327632911,,,,,,,,,,,,,,,,Still,U2
90380,,,,,,,,,,0.197524938597,,,,,,,,,Still,U2
90475,,,,,,,,,0.433717096031,,,,,,,,,,Still,U2
90563,,,,,,,,,,,,37.6062326215,,,,,,,Still,U2
90658,,,,,,,0.0809543245168,,,,,,,,,,,,Still,U2
90753,,,,,0.14415823258,,,,,,,,,,,,,,Still,U2
90847,,,,,,311.862846874,,,,,,,,,,,,,Still,U2
90946,,,,,,,,,,0.102707923002,,,,,,,,,Still,U2
91036,,,,,,,,,0.425826024802,,,,,,,,,,Still,U2
91117,,,,,,,,,,0.0109024020912,,,,,,,,,Still,U2
91207,,,,,,,0.0158120302671,,,,,,,,,,,,Still,U2
91295,,,,,,,0.00482527711056,,,,,,,,,,,,Still,U2
91384,,,,,,,,,,0.00445284827203,,,,,,,,,Still,U2
91475,,,,,,,0.00445653324066,,,,,,,,,,,,Still,U2
91574,,,9.50174462914,,,,,,,,,,,,,,,,Still,U2
91666,,,,,,,0.00834689249663,,,,,,,,,,,,Still,U2
91760,,,,,,,,,0.426997721941,,,,,,,,,,Still,U2
91858,,,,,,,,,,0.00889663301374,,,,,,,,,Still,U2
92035,,,,,,,,,,0.00454949967511,,,,,,,,,Still,U2
92135,,,,,0.0210555830891,,,,,,,,,,,,,,Still,U2
92222,,,,,,,,,,0.00421114935258,,,,,,,,,Still,U2
92299,,,,,0.0209714529523,,,,,,,,,,,,,,Still,U2
92363,,,9.49234560177,,,,,,,,,,,,,,,,Still,U2
92544,,,,,,312.72136457,,,,,,,,,,,,,Still,U2
92640,,,,,,,,,,0.0048661185203,,,,,,,,,Still,U2
92743,,,,,,,,,,,,38.1236994587,,,,,,,Still,U2
92836,,,,,,,,,,0.00942951184213,,,,,,,,,Still,U2
92923,,,,,,,,,0.430974513204,,,,,,,,,,Still,U2
92988,,,,,,,,,0.431344706883,,,,,,,,,,Still,U2
93059,,,,,,,,,,0.0187459982896,,,,,,,,,Still,U2
93153,,,,,,312.388810307,,,,,,,,,,,,,Still,U2
93251,,,9.48095032876,,,,,,,,,,,,,,,,Still,U2
93337,,,9.53284716259,,,,,,,,,,,,,,,,Still,U2
93429,,,,,,,,,0.430617552255,,,,,,,,,,Still,U2
93530,,,,,,,,,,0.02044963553,,,,,,,,,Still,U2
93622,,,,,,,,,,0.0371453521611,,,,,,,,,Still,U2
93695,,,,,,,0.0577270272895,,,,,,,,,,,,Still,U2
93793,,,,,,,0.0651318415737,,,,,,,,,,,,Still,U2
93884,,,,,,,,,,,0.643973377327,,,,,,,,Still,U2
93979,,,,,,,0.0642272089765,,,,,,,,,,,,Still,U2
94075,,,,,,,,,,,,37.2512798067,,,,,,,Still,U2
94165,,,,,,,,,,,0.644788895915,,,,,,,,Still,U2
94254,,,,,,,,,,0.0723379281807,,,,,,,,,Still,U2
94343,,,,,,,,,,0.0441791514695,,,,,,,,,Still,U2
94435,,,,,0.406580730199,,,,,,,,,,,,,,Still,U2
94531,,,,,,,0.0332646677171,,,,,,,,,,,,Still,U2
94625,,,,,,,,112.089408699,,,,,,,,,,,Still,U2
94808,,,,9.80665008455,,,,,,,,,,,,,,,Still,U2
94894,,,9.4037515804,,,,,,,,,,,,,,,,Still,U2
94984,,,9.51185109811,,,,,,,,,,,,,,,,Still,U2
95076,,,,,,,,,0.427354477827,,,,,,,,,,Still,U2
95179,,,9.4867927759,,,,,,,,,,,,,,,,Still,U2
95271,,,,9.80665001633,,,,,,,,,,,,,,,Still,U2
95370,,,9.45870656059,,,,,,,,,,,,,,,,Still,U2
95468,,,,,,,,,,0.0229004742286,,,,,,,,,Still,U2
95538,,,,9.80664984607,,,,,,,,,,,,,,,Still,U2
95621,,,9.52730425852,,,,,,,,,,,,,,,,Still,U2
95892,,,9.50213379695,,,,,,,,,,,,,,,,Still,U2
95975,,,,,,,,112.742140087,,,,,,,,,,,Still,U2
96134,,,,,,,,,,,0.643506556199,,,,,,,,Still,U2
96197,,,9.49913858681,,,,,,,,,,,,,,,,Still,U2
96283,,,,,,,,,,0.0539766120862,,,,,,,,,Still,U2
96374,,,,,,,0.0282681945217,,,,,,,,,,,,Still,U2
96436,,,,9.80665038754,,,,,,,,,,,,,,,Still,U2
96528,,,,,,,,,,0.0115127939585,,,,,,,,,Still,U2
96623,,,,9.8066506922,,,,,,,,,,,,,,,Still,U2
96685,,,,,,,,,0.429658096666,,,,,,,,,,Still,U2
96775,,,,,,,,,,,0.644003314032,,,,,,,,Still,U2
96871,,,,,,,,,,,0.643566263556,,,,,,,,Still,U2
96963,,,9.5533445164,,,,,,,,,,,,,,,,Still,U2
97056,,,,,,,,,,,0.643507983577,,,,,,,,Still,U2
97153,,,,,,,,,,0.0437999040342,,,,,,,,,Still,U2
97248,,,,,0.138231923587,,,,,,,,,,,,,,Still,U2
97341,,,,,,,,,,,,38.5581766839,,,,,,,Still,U2
97433,,,9.56722050853,,,,,,,,,,,,,,,,Still,U2
97529,,,,,,,,,0.429176592716,,,,,,,,,,Still,U2
97624,,,,,,,,,,,0.643436453405,,,,,,,,Still,U2
97707,,,,,,,,,,,0.643452430803,,,,,,,,Still,U2
97804,,,,,,,,,,0.0148574933275,,,,,,,,,Still,U2
97893,,,,,,,0.0173050681271,,,,,,,,,,,,Still,U2
97995,,,9.48821773135,,,,,,,,,,,,,,,,Still,U2
98137,,,,9.80664989972,,,,,,,,,,,,,,,Still,U2
98197,,,,,,,,,,0.0425369526658,,,,,,,,,Still,U2
98290,,,,,,312.697827245,,,,,,,,,,,,,Still,U2
98387,,,,,,,,,,,,38.4412416334,,,,,,,Still,U2
98483,,,,,,,,,,0.0235496755976,,,,,,,,,Still,U2
98534,,,9.4044533694,,,,,,,,,,,,,,,,Still,U2
98624,,,9.38253027872,,,,,,,,,,,,,,,,Still,U2
98713,,,,,,,0.0229907067748,,,,,,,,,,,,Still,U2
98784,,,,,,,,,0.428634042191,,,,,,,,,,Still,U2
98876,,,,,,,,,0.425811065725,,,,,,,,,,Still,U2
98960,,,,,,,,,,,,38.2212292201,,,,,,,Still,U2
99063,,,,,,,,,,0.0784819352627,,,,,,,,,Still,U2
99243,,,,,,,,,,,0.643309918952,,,,,,,,Still,U2
99335,,,,,,,,,0.426939692163,,,,,,,,,,Still,U2
99428,,,9.41090390415,,,,,,,,,,,,,,,,Still,U2
99523,,,,,,,,,,,,38.3241684989,,,,,,,Still,U2
99618,,,,,,,,,,,0.642948692171,,,,,,,,Still,U2
99716,,,9.43659696471,,,,,,,,,,,,,,,,Still,U2
99812,,,,,,,,,0.427666485921,,,,,,,,,,Still,U2
99905,,,,,,,,,,,,,,,60.55514409381107,,,,Still,U2
99992,,,,,,,,,0.428585559251,,,,,,,,,,Still,U2
100090,,,,,,,,,,,0.643638090156,,,,,,,,Still,U2
100172,,,,,,,,,0.43059860474,,,,,,,,,,Still,U2
100265,,,,,,,,,0.42806708854,,,,,,,,,,Still,U2
100346,,,,,,,,,0.430876720238,,,,,,,,,,Still,U2
100445,,,9.42907836446,,,,,,,,,,,,,,,,Still,U2
100533,,,,,,,,,0.429311047197,,,,,,,,,,Still,U2
100630,,,,,,312.697999376,,,,,,,,,,,,,Still,U2
100690,,,,,,,0.0354392665552,,,,,,,,,,,,Still,U2
100784,,,,,,,,,,0.0624391523617,,,,,,,,,Still,U2
100873,,,9.47043872194,,,,,,,,,,,,,,,,Still,U2
100963,,,,,,,,,,0.0538129728527,,,,,,,,,Still,U2
101053,,,9.46647844518,,,,,,,,,,,,,,,,Still,U2
101150,,,,,,,,,,0.0339009156852,,,,,,,,,Still,U2
101237,,,,9.80665012373,,,,,,,,,,,,,,,Still,U2
101325,,,9.49354915241,,,,,,,,,,,,,,,,Still,U2
101414,,,,,,,0.0492995700984,,,,,,,,,,,,Still,U2
101510,,,,,,312.845152837,,,,,,,,,,,,,Still,U2
101591,,,9.57523861163,,,,,,,,,,,,,,,,Still,U2
101682,,,,,,312.857656669,,,,,,,,,,,,,Still,U2
101782,,,,,,,,,,0.0406163223896,,,,,,,,,Still,U2
101881,,,,,,,0.0415801912654,,,,,,,,,,,,Still,U2
102072,,,,,,,0.0253088212037,,,,,,,,,,,,Still,U2
102166,,,,,,,,111.788106528,,,,,,,,,,,Still,U2
102248,,,,,,312.876333325,,,,,,,,,,,,,Still,U2
102342,,,,,,,,,,0.0222351764253,,,,,,,,,Still,U2
102436,,,9.64528153843,,,,,,,,,,,,,,,,Still,U2
102497,,,,,,,0.0404593229619,,,,,,,,,,,,Still,U2
102592,,,,,,,,,,0.0185004242074,,,,,,,,,Still,U2
102673,,,9.47060826021,,,,,,,,,,,,,,,,Still,U2
102854,,,,,,,0.0133376570051,,,,,,,,,,,,Still,U2
102940,,,,,,,0.0196752662339,,,,,,,,,,,,Still,U2
103037,,,,,,312.922380516,,,,,,,,,,,,,Still,U2
103121,,,,,,,0.0383040411819,,,,,,,,,,,,Still,U2
103215,,,,,,,,,,,,,1020.679,,,,,,Still,U2
103300,,,,,,,,110.737666857,,,,,,,,,,,Still,U2
103393,,,,,,,,,,0.0298923996177,,,,,,,,,Still,U2
103489,,,9.46845114909,,,,,,,,,,,,,,,,Still,U2
103561,,,9.45133295726,,,,,,,,,,,,,,,,Still,U2
103659,,,,,,,,,,0.0145007079212,,,,,,,,,Still,U2
103744,,,,,,,,,,0.0576220610927,,,,,,,,,Still,U2
103835,,,,,,,,,,0.0285688297717,,,,,,,,,Still,U2
103925,,,,,,,,,,0.0959607919111,,,,,,,,,Still,U2
104013,,,,,,,0.078781164358,,,,,,,,,,,,Still,U2
104102,,,,,,312.791998168,,,,,,,,,,,,,Still,U2
104197,,,,,,,0.0480747014678,,,,,,,,,,,,Still,U2
104280,,,9.43169432724,,,,,,,,,,,,,,,,Still,U2
104345,,,,,,,,,0.425321141249,,,,,,,,,,Still,U2
104438,,,9.49522365887,,,,,,,,,,,,,,,,Still,U2
104518,,,,,,,,,,0.051952143303,,,,,,,,,Still,U2
104616,,,,,0.522511241701,,,,,,,,,,,,,,Still,U2
104714,,,,,,313.309970987,,,,,,,,,,,,,Still,U2
104806,,,9.47042486011,,,,,,,,,,,,,,,,Still,U2
104901,,,,,,,,,,0.0299588829811,,,,,,,,,Still,U2
105084,,,,,,,,,,0.00835365392535,,,,,,,,,Still,U2
105176,,,,,,,0.00931417523025,,,,,,,,,,,,Still,U2
105276,,,,,,313.066516229,,,,,,,,,,,,,Still,U2
105367,,,9.48626668637,,,,,,,,,,,,,,,,Still,U2
105456,,,,,,,,,0.425310288771,,,,,,,,,,Still,U2
105540,,,,,,,,,,0.00417770481073,,,,,,,,,Still,U2
105635,,,,9.80665052167,,,,,,,,,,,,,,,Still,U2
105732,,,,,,,,,,,0.64244529376,,,,,,,,Still,U2
105823,,,,,0.0227298023441,,,,,,,,,,,,,,Still,U2
105915,,,9.46684128083,,,,,,,,,,,,,,,,Still,U2
106002,,,,,,,,,,,,38.2463696654,,,,,,,Still,U2
106181,,,,,0.022158292144,,,,,,,,,,,,,,Still,U2
106266,,,,,,,,,0.425449004806,,,,,,,,,,Still,U2
106354,,,9.4981244796,,,,,,,,,,,,,,,,Still,U2
106441,,,,,,,,,,0.00419150354965,,,,,,,,,Still,U2
106519,,,,,,,,,,0.013297358257,,,,,,,,,Still,U2
106614,,,,,,,,,0.424685382041,,,,,,,,,,Still,U2
106701,,,,,,,,,,,,,1020.679,,,,,,Still,U2
106772,,,,,,,,111.760901294,,,,,,,,,,,Still,U2
106863,,,,,,,,,,0.00861404250065,,,,,,,,,Still,U2
106960,,,9.46283280063,,,,,,,,,,,,,,,,Still,U2
107010,,,,,,,,,,0.00681632492253,,,,,,,,,Still,U2
107104,,,,,,313.128498858,,,,,,,,,,,,,Still,U2
107193,,,,,,,,,,0.00285143454429,,,,,,,,,Still,U2
107269,,,,,,,,,0.425653361401,,,,,,,,,,Still,U2
107362,,,,,,,0.00522737683954,,,,,,,,,,,,Still,U2
107448,,,,,,,,,,0.0104325153911,,,,,,,,,Still,U2
107546,,,,9.80665004959,,,,,,,,,,,,,,,Still,U2
107633,,,,,0.0394356642067,,,,,,,,,,,,,,Still,U2
107728,,,,,,,,,,0.0293534286495,,,,,,,,,Still,U2
107915,,,,,,,,,,0.0168614662803,,,,,,,,,Still,U2
108086,,,,,0.0384828321514,,,,,,,,,,,,,,Still,U2
108170,,,,,,,,,,0.00790010447475,,,,,,,,,Still,U2
108271,,,9.4691191538,,,,,,,,,,,,,,,,Still,U2
108369,,,,9.80665119344,,,,,,,,,,,,,,,Still,U2
108436,,,,,,,,,,0.0103247894747,,,,,,,,,Still,U2
108522,,,,,,,,115.418495195,,,,,,,,,,,Still,U2
108616,,,,,,,0.0233058462674,,,,,,,,,,,,Still,U2
108715,,,,,0.0425670182455,,,,,,,,,,,,,,Still,U2
108779,,,,,,,,,,0.00499680497757,,,,,,,,,Still,U2
108862,,,,,,,,,0.424986261048,,,,,,,,,,Still,U2
109057,,,,,,,,,,0.065698177744,,,,,,,,,Still,U2
109157,,,,,,,,,,0.0607953684895,,,,,,,,,Still,U2
109252,,,,,,,,,,0.0865453221587,,,,,,,,,Still,U2
109354,,,,,,,,,,,,38.2050837161,,,,,,,Still,U2
109445,,,,,,313.392573198,,,,,,,,,,,,,Still,U2
109539,,,,,,,,,0.429888130976,,,,,,,,,,Still,U2
109632,,,,,,,0.0320500280031,,,,,,,,,,,,Still,U2
109730,,,,,,313.368285717,,,,,,,,,,,,,Still,U2
109826,,,,,0.0251713635303,,,,,,,,,,,,,,Still,U2
109915,,,,9.80665017178,,,,,,,,,,,,,,,Still,U2
110012,,,9.41290392148,,,,,,,,,,,,,,,,Still,U2
110106,,,,,0.0469764207933,,,,,,,,,,,,,,Still,U2
110199,,,,,,,0.00992246089502,,,,,,,,,,,,Still,U2
110292,,,,,,,0.0426573522607,,,,,,,,,,,,Still,U2
110384,,,,,,,,,,0.052825314955,,,,,,,,,Still,U2
110451,,,,,,,,,,,0.645729673262,,,,,,,,Still,U2
110530,,,,,,,,,,,,,1020.699,,,,,,Still,U2
110598,,,9.51650953672,,,,,,,,,,,,,,,,Still,U2
110710,,,9.48097933362,,,,,,,,,,,,,,,,Still,U2
110801,,,,,,,,113.676344545,,,,,,,,,,,Still,U2
110895,,,9.44712193191,,,,,,,,,,,,,,,,Still,U2
110984,,,,,,,0.0337330175429,,,,,,,,,,,,Still,U2
111074,,,,,,,0.0994932446814,,,,,,,,,,,,Still,U2
111172,,,,,,,,,,0.0876615053067,,,,,,,,,Still,U2
111262,,,,,,,,,,,0.651113471229,,,,,,,,Still,U2
111363,,,,,0.0385023971131,,,,,,,,,,,,,,Still,U2
111448,,,9.45740465895,,,,,,,,,,,,,,,,Still,U2
111544,,,,,,,0.00712230851347,,,,,,,,,,,,Still,U2
111631,,,,,,,0.0165218937179,,,,,,,,,,,,Still,U2
111724,,,,,,,,,,,,38.0508903683,,,,,,,Still,U2
111814,,,,,,,0.00430806180818,,,,,,,,,,,,Still,U2
111918,,,,,,,,,,0.0124938643996,,,,,,,,,Still,U2
112011,,,,,,,,112.428559625,,,,,,,,,,,Still,U2
112105,,,,,,,,,,,,,1020.669,,,,,,Still,U2
112193,,,9.46429046763,,,,,,,,,,,,,,,,Still,U2
112294,,,,,,,,,,0.0113305834307,,,,,,,,,Still,U2
112386,,,,,,,,,0.441352728375,,,,,,,,,,Still,U2
112488,,,,,,,,,,0.0151885050236,,,,,,,,,Still,U2
112545,,,,,,,,,,0.0117869969871,,,,,,,,,Still,U2
112604,,,,,,,,,,0.0295125220674,,,,,,,,,Still,U2
112692,,,9.47509745326,,,,,,,,,,,,,,,,Still,U2
112781,,,,,,,0.0158921736821,,,,,,,,,,,,Still,U2
112869,,,,,0.0669016880379,,,,,,,,,,,,,,Still,U2
112961,,,,,,,,,0.441699555808,,,,,,,,,,Still,U2
113016,,,,,0.0257609591011,,,,,,,,,,,,,,Still,U2
113115,,,,,0.031044404535,,,,,,,,,,,,,,Still,U2
113208,,,,,,311.681721717,,,,,,,,,,,,,Still,U2
113292,,,,,,,,,,0.0061546283287,,,,,,,,,Still,U2
113372,,,,,,,,,,0.0150708024318,,,,,,,,,Still,U2
113468,,,,,,,,,,0.0174870052453,,,,,,,,,Still,U2
113555,,,,,,,,,,0.0113347235346,,,,,,,,,Still,U2
113650,,,9.50254236711,,,,,,,,,,,,,,,,Still,U2
113742,,,,,,,0.00981977467251,,,,,,,,,,,,Still,U2
113837,,,,,,,,,,0.0226618193751,,,,,,,,,Still,U2
113933,,,,,0.0674809217899,,,,,,,,,,,,,,Still,U2
114028,,,,,,,0.00679456587539,,,,,,,,,,,,Still,U2
114116,,,,,,,,,,0.0124989786633,,,,,,,,,Still,U2
114210,,,,,,,,,,0.0151073569854,,,,,,,,,Still,U2
114300,,,,,,,,114.498505995,,,,,,,,,,,Still,U2
114394,,,9.5281426702,,,,,,,,,,,,,,,,Still,U2
114486,,,,,,,,,,0.0046274652064,,,,,,,,,Still,U2
114580,,,,,,,,,,0.00765408889181,,,,,,,,,Still,U2
114675,,,9.4830362798,,,,,,,,,,,,,,,,Still,U2
114773,,,,,0.0399474595946,,,,,,,,,,,,,,Still,U2
114954,,,,,,,0.00561774235911,,,,,,,,,,,,Still,U2
115039,,,,,,,,,,0.0239946287359,,,,,,,,,Still,U2
115133,,,9.45322139831,,,,,,,,,,,,,,,,Still,U2
115212,,,,,,,0.00541708504434,,,,,,,,,,,,Still,U2
115307,,,,,,,,,0.440728106056,,,,,,,,,,Still,U2
115397,,,,,,,0.00378854566638,,,,,,,,,,,,Still,U2
115492,,,,,,,,,,0.0117475929595,,,,,,,,,Still,U2
115584,,,,,0.0489775057709,,,,,,,,,,,,,,Still,U2
115677,,,,,,,,,,0.0317082226904,,,,,,,,,Still,U2
115763,,,,,,,,,0.442965941809,,,,,,,,,,Still,U2
115851,,,,,,,,,,0.0174153798012,,,,,,,,,Still,U2
115941,,,9.47377908163,,,,,,,,,,,,,,,,Still,U2
116035,,,,,,,,,,,,37.5081900137,,,,,,,Still,U2
116131,,,,,,,,,,0.0410047388477,,,,,,,,,Still,U2
116224,,,,,0.0437123645918,,,,,,,,,,,,,,Still,U2
116320,,,,,,,,,,0.0728189507469,,,,,,,,,Still,U2
116412,,,,9.80665006319,,,,,,,,,,,,,,,Still,U2
116507,,,,,,,,,,0.0206935287926,,,,,,,,,Still,U2
116597,,,,,0.13999798749,,,,,,,,,,,,,,Still,U2
116697,,,9.50145121428,,,,,,,,,,,,,,,,Still,U2
116790,,,,,0.214908238923,,,,,,,,,,,,,,Still,U2
116883,,,9.49705335769,,,,,,,,,,,,,,,,Still,U2
116976,,,,,,,0.0654622703693,,,,,,,,,,,,Still,U2
117066,,,,,0.437386582587,,,,,,,,,,,,,,Still,U2
117160,,,,9.80665043045,,,,,,,,,,,,,,,Still,U2
117242,,,,,,,0.244890677275,,,,,,,,,,,,Still,U2
117337,,,,,,,,,,0.119442173646,,,,,,,,,Still,U2
117420,,,,,,,,,,,,36.7695272642,,,,,,,Still,U2
117516,,,,,,,,,,0.118027519433,,,,,,,,,Still,U2
117603,,,,,,,,,,0.107469987446,,,,,,,,,Still,U2
117699,,,,9.80664990704,,,,,,,,,,,,,,,Still,U2
117793,,,,,,,0.27208509962,,,,,,,,,,,,Still,U2
117882,,,,,,,,,0.509742536062,,,,,,,,,,Still,U2
117975,,,,,,,,,,0.184078854487,,,,,,,,,Still,U2
118058,,,,,,,,,,,0.715185978659,,,,,,,,Still,U2
118160,,,,,,,,,,0.994566744326,,,,,,,,,Still,U2
118241,,,,,,,0.21334134114,,,,,,,,,,,,Still,U2
118330,,,,,,,,,,0.828391014112,,,,,,,,,Still,U2
118418,,,,,,,0.484174327466,,,,,,,,,,,,Still,U2
118609,,,,,,,,,,,,34.6354329872,,,,,,,Still,U2
118700,,,,,,,,,,0.860446650581,,,,,,,,,Still,U2
118798,,,,,,,0.694308157954,,,,,,,,,,,,Still,U2
118882,,,8.91848485533,,,,,,,,,,,,,,,,Still,U2
118975,,,,,,,,,,,0.682740329076,,,,,,,,Still,U2
119073,,,,,,,,,0.52791067413,,,,,,,,,,Still,U2
119162,,,10.2746609885,,,,,,,,,,,,,,,,Still,U2
119253,,,,,,,,,,,0.777307382802,,,,,,,,Still,U2
119324,,,7.45413053977,,,,,,,,,,,,,,,,Still,U2
119417,,,,,,,,,,,0.83029250588,,,,,,,,Still,U2
119508,,,,,,,3.41984196929,,,,,,,,,,,,Still,U2
119612,,,,,,,,,,0.247073856484,,,,,,,,,Still,U2
119693,,,,,,,,,,0.0896900395549,,,,,,,,,Still,U2
119788,,,9.36172418798,,,,,,,,,,,,,,,,Still,U2
119868,,,,,,,0.55830514274,,,,,,,,,,,,Still,U2
119961,,,,9.80665043371,,,,,,,,,,,,,,,Still,U2
120052,,,,,,,2.69709169785,,,,,,,,,,,,Still,U2
120125,,,,,,,,,,1.47638531866,,,,,,,,,Still,U2
120218,,,,,,,,,,0.713147221228,,,,,,,,,Still,U2
120313,,,,,,,,,0.787880035712,,,,,,,,,,Still,U2
120410,,,,,,,,,0.785848036515,,,,,,,,,,Still,U2
120506,,,,,,,,,,2.10027753134,,,,,,,,,Still,U2
120595,,,,,0.808068945437,,,,,,,,,,,,,,Still,U2
120684,,,,,,,,119.191983184,,,,,,,,,,,Still,U2
120803,,,,,,,,,,,,,1020.619,,,,,,Still,U2
120892,,,,,,,,,,3.6088145069,,,,,,,,,Still,U2
120982,,,,,,,,,,2.52716615335,,,,,,,,,Still,U2
121066,,,,,,,,,,1.27665771583,,,,,,,,,Still,U2
121147,,,,,,,1.15483604825,,,,,,,,,,,,Still,U2
121217,,,,,,,,,,1.4052746776,,,,,,,,,Still,U2
121302,,,,,,,,,,,,,1020.619,,,,,,Still,U2
121392,,,,,,,,,,1.59520706741,,,,,,,,,Still,U2
121483,,,,,,,,,,,0.870863069741,,,,,,,,Still,U2
121547,,,,,,,,,,2.66815450663,,,,,,,,,Still,U2
121634,,,,,,,1.21224842513,,,,,,,,,,,,Still,U2
121718,,,,,,,,,,0.703110935726,,,,,,,,,Still,U2
121780,,,,,,289.528123883,,,,,,,,,,,,,Still,U2
121873,,,,,0.582538242477,,,,,,,,,,,,,,Still,U2
121965,,,,,,,,,,0.651072524982,,,,,,,,,Still,U2
122050,,,,,,,,,,0.217522325278,,,,,,,,,Still,U2
122148,,,,,0.562599372125,,,,,,,,,,,,,,Still,U2
122316,,,,,,,,,0.651820526308,,,,,,,,,,Still,U2
122418,,,9.011908079,,,,,,,,,,,,,,,,Still,U2
122510,,,10.2281244314,,,,,,,,,,,,,,,,Still,U2
122602,,,,,,,,,,0.479797152481,,,,,,,,,Still,U2
122692,,,,,,,,,,0.373940282607,,,,,,,,,Still,U2
122793,,,9.60437142339,,,,,,,,,,,,,,,,Still,U2
122883,,,,,,,,,,0.380772541802,,,,,,,,,Still,U2
122968,,,,,,,,,,0.176424883296,,,,,,,,,Still,U2
123058,,,,,,,,,,0.140517232851,,,,,,,,,Still,U2
123140,,,,,,298.845724366,,,,,,,,,,,,,Still,U2
123234,,,9.44593164753,,,,,,,,,,,,,,,,Still,U2
123322,,,,,,,,,,,,44.5456212133,,,,,,,Still,U2
123412,,,,,,,,,,0.862646129521,,,,,,,,,Still,U2
123489,,,,,,,,,,1.0140831287,,,,,,,,,Still,U2
123579,,,,,,,,,,0.783978674914,,,,,,,,,Still,U2
123664,,,9.48039550876,,,,,,,,,,,,,,,,Still,U2
123747,,,,,,,,,,0.698013353589,,,,,,,,,Still,U2
123807,,,,,,,,,,0.878620622535,,,,,,,,,Still,U2
123897,,,,,,,,,,0.508768143921,,,,,,,,,Still,U2
123979,,,,9.80664980255,,,,,,,,,,,,,,,Still,U2
124071,,,,,,,,,,0.470790119588,,,,,,,,,Still,U2
124166,,,,,,,,,,0.416713269637,,,,,,,,,Still,U2
124248,,,9.00205532528,,,,,,,,,,,,,,,,Still,U2
124340,,,10.1100307942,,,,,,,,,,,,,,,,Still,U2
124432,,,,,,,,,,0.942698273986,,,,,,,,,Still,U2
124522,,,9.8654820826,,,,,,,,,,,,,,,,Still,U2
124701,,,,,,,0.498623853563,,,,,,,,,,,,Still,U2
124794,,,,,,,0.367458714789,,,,,,,,,,,,Still,U2
124880,,,,,,,,,0.575018011187,,,,,,,,,,Still,U2
124974,,,,,,,0.218388057036,,,,,,,,,,,,Still,U2
125065,,,,,,,,,,0.0901388239153,,,,,,,,,Still,U2
125154,,,,,,,,,,0.0305282615003,,,,,,,,,Still,U2
125251,,,,,,,,,,0.600305142425,,,,,,,,,Still,U2
125335,,,9.33412609525,,,,,,,,,,,,,,,,Still,U2
125422,,,,,,,,,,0.501078126882,,,,,,,,,Still,U2
125579,,,,,0.621547266763,,,,,,,,,,,,,,Still,U2
125673,,,,,,298.791562885,,,,,,,,,,,,,Still,U2
125761,,,,,,,0.291011092579,,,,,,,,,,,,Still,U2
125852,,,,,,,,,,0.463559645994,,,,,,,,,Still,U2
125952,,,,,,,,,,0.205190397362,,,,,,,,,Still,U2
126042,,,9.6627245647,,,,,,,,,,,,,,,,Still,U2
126133,,,,,,,,,,0.297372071131,,,,,,,,,Still,U2
126199,,,,,,,,,0.574890577555,,,,,,,,,,Still,U2
126280,,,9.87025136901,,,,,,,,,,,,,,,,Still,U2
126366,,,,,,303.406009455,,,,,,,,,,,,,Still,U2
126460,,,,,,,,,,0.082721546615,,,,,,,,,Still,U2
126551,,,,,,,,89.6253836645,,,,,,,,,,,Still,U2
126635,,,,,,,,,,0.101613039301,,,,,,,,,Still,U2
126725,,,,,,,,,,0.390579502689,,,,,,,,,Still,U2
126805,,,,,,,,,,1.08335313045,,,,,,,,,Still,U2
126893,,,9.99086366449,,,,,,,,,,,,,,,,Still,U2
126981,,,,,,,0.52440453557,,,,,,,,,,,,Still,U2
127072,,,,9.8066499016,,,,,,,,,,,,,,,Still,U2
127150,,,,,,,,,,0.138547811597,,,,,,,,,Still,U2
127230,,,,,,,0.083340932088,,,,,,,,,,,,Still,U2
127331,,,,,,,,,,0.089083537656,,,,,,,,,Still,U2
127413,,,,,,,,,,0.101821936206,,,,,,,,,Still,U2
127501,,,,,,,0.143238287457,,,,,,,,,,,,Still,U2
127592,,,,,,,0.249642762108,,,,,,,,,,,,Still,U2
127690,,,,,,,,,,0.0474429944633,,,,,,,,,Still,U2
127774,,,9.65053337385,,,,,,,,,,,,,,,,Still,U2
127865,,,9.6818534275,,,,,,,,,,,,,,,,Still,U2
127969,,,,,,,,,0.606764699828,,,,,,,,,,Still,U2
128052,,,,,,,,,,0.697407409054,,,,,,,,,Still,U2
128147,,,,,,,,,,0.324472106795,,,,,,,,,Still,U2
128201,,,9.74043429352,,,,,,,,,,,,,,,,Still,U2
128297,,,,,,,,,,0.0521992757555,,,,,,,,,Still,U2
128364,,,9.6848537535,,,,,,,,,,,,,,,,Still,U2
128464,,,9.74999484255,,,,,,,,,,,,,,,,Still,U2
128546,,,,,0.161626023435,,,,,,,,,,,,,,Still,U2
128639,,,,,,,,,,0.0608916555696,,,,,,,,,Still,U2
128731,,,,,,,,,,0.0385985628161,,,,,,,,,Still,U2
128815,,,,,,,,,0.603022868031,,,,,,,,,,Still,U2
128908,,,9.59715123532,,,,,,,,,,,,,,,,Still,U2
129001,,,,,,,,,0.60072518145,,,,,,,,,,Still,U2
129090,,,9.77328159418,,,,,,,,,,,,,,,,Still,U2
129173,,,,,,,,,,0.0919554241017,,,,,,,,,Still,U2
129267,,,,,,,,,,0.628125509815,,,,,,,,,Still,U2
129353,,,,,,,,,,0.642386787679,,,,,,,,,Still,U2
129444,,,,9.8066506856,,,,,,,,,,,,,,,Still,U2
129508,,,,,,,,,,0.27115116405,,,,,,,,,Still,U2
129593,,,,,,295.953378692,,,,,,,,,,,,,Still,U2
129684,,,,,,,,,0.612362953278,,,,,,,,,,Still,U2
129777,,,,,,,,,,0.111265051002,,,,,,,,,Still,U2
129864,,,,,,,0.583245563942,,,,,,,,,,,,Still,U2
130036,,,,,,,,,,0.709101368297,,,,,,,,,Still,U2
130126,,,,,,,0.166062544411,,,,,,,,,,,,Still,U2
130226,,,,,,,,,,0.257174833177,,,,,,,,,Still,U2
130311,,,,,,,,,,0.37179104418,,,,,,,,,Still,U2
130407,,,,,,,,,,0.896176677669,,,,,,,,,Still,U2
130506,,,,,0.287095720607,,,,,,,,,,,,,,Still,U2
130593,,,,,,,,,,0.254496351651,,,,,,,,,Still,U2
130685,,,9.66194170816,,,,,,,,,,,,,,,,Still,U2
130777,,,9.71934500262,,,,,,,,,,,,,,,,Still,U2
130854,,,,,,,,,,0.137669685673,,,,,,,,,Still,U2
130943,,,,9.80664984123,,,,,,,,,,,,,,,Still,U2
131030,,,9.1126043734,,,,,,,,,,,,,,,,Still,U2
131121,,,9.2137946432,,,,,,,,,,,,,,,,Still,U2
131211,,,,,,,,,,0.0423295971593,,,,,,,,,Still,U2
131307,,,,,,,,,,0.195291835573,,,,,,,,,Still,U2
131397,,,,,,,,,0.564661058278,,,,,,,,,,Still,U2
131484,,,,,0.211013314736,,,,,,,,,,,,,,Still,U2
131574,,,,,,,,,,0.280103952973,,,,,,,,,Still,U2
131662,,,,,,,,,,0.12093675267,,,,,,,,,Still,U2
131750,,,,9.80665030198,,,,,,,,,,,,,,,Still,U2
131842,,,,9.80664991015,,,,,,,,,,,,,,,Still,U2
131932,,,,,,,,,,0.329166571883,,,,,,,,,Still,U2
132005,,,,,,,,,,0.598371436403,,,,,,,,,Still,U2
132147,,,,,,,,,,,,,1020.63904,,,,,,Still,U2
132240,,,,,,,0.18583231748,,,,,,,,,,,,Still,U2
132296,,,,,,,0.0315699070759,,,,,,,,,,,,Still,U2
132357,,,,,,,0.0990517196892,,,,,,,,,,,,Still,U2
132451,,,,,,,,,,,,,1020.629,,,,,,Still,U2
132517,,,,,,,,,,,,,1020.629,,,,,,Still,U2
132604,,,,,,,,,,0.335544962953,,,,,,,,,Still,U2
132689,,,,9.80665044476,,,,,,,,,,,,,,,Still,U2
132745,,,,,,,,,,0.126847500487,,,,,,,,,Still,U2
132790,,,,,,,,,0.578402250987,,,,,,,,,,Still,U2
132844,,,9.5331466238,,,,,,,,,,,,,,,,Still,U2
132896,,,9.72268293537,,,,,,,,,,,,,,,,Still,U2
132951,,,,,,,,,,0.121405168913,,,,,,,,,Still,U2
133000,,,,,,,,,,0.594803005725,,,,,,,,,Still,U2
133057,,,,,,,,,,0.915855164103,,,,,,,,,Still,U2
133111,,,,,,,,,,1.21802555356,,,,,,,,,Still,U2
133162,,,,,,,,,0.635787029852,,,,,,,,,,Still,U2
133215,,,10.6413717354,,,,,,,,,,,,,,,,Still,U2
133268,,,,,,,,,0.657828709848,,,,,,,,,,Still,U2
133323,,,,,,,,,,,,,1020.619,,,,,,Still,U2
133375,,,,,,,,,0.677257608026,,,,,,,,,,Still,U2
133430,,,,,,,0.505242489194,,,,,,,,,,,,Still,U2
133484,,,,,,,,,,0.331790097842,,,,,,,,,Still,U2
133589,,,,,,,,,,0.371055205532,,,,,,,,,Still,U2
133643,,,,,,,,,,0.123727845938,,,,,,,,,Still,U2
133694,,,,,,,,,,0.176935382936,,,,,,,,,Still,U2
133747,,,,,,,,,0.70479194907,,,,,,,,,,Still,U2
133800,,,,,,,,,,,0.841154747219,,,,,,,,Still,U2
133856,,,,,,,,,0.702485151044,,,,,,,,,,Still,U2
133909,,,,,0.172609942663,,,,,,,,,,,,,,Still,U2
133963,,,,,,,,,,0.133954027196,,,,,,,,,Still,U2
134017,,,,,,,,,,0.179044610458,,,,,,,,,Still,U2
134068,,,9.71266109563,,,,,,,,,,,,,,,,Still,U2
134118,,,,,,,0.288389506409,,,,,,,,,,,,Still,U2
