time,activityrecognition#0,activityrecognition#1,android.sensor.accelerometer#0,android.sensor.gravity#0,android.sensor.linear_acceleration#0,android.sensor.orientation#0,android.sensor.gyroscope_uncalibrated#0,android.sensor.magnetic_field_uncalibrated#0,android.sensor.rotation_vector#0,android.sensor.gyroscope#0,android.sensor.game_rotation_vector#0,android.sensor.magnetic_field#0,android.sensor.pressure#0,android.sensor.light#0,sound#0,speed#0,android.sensor.proximity#0,android.sensor.step_counter#0,target,user
58,,,9.96455513919,,,,,,,,,,,,,,,,Still,U4
108,,,9.0130168156,,,,,,,,,,,,,,,,Still,U4
159,,,9.17846850887,,,,,,,,,,,,,,,,Still,U4
213,,,,,,,,,,,,48.9154916737,,,,,,,Still,U4
263,,,,,,,,,,,,48.5847753931,,,,,,,Still,U4
314,,,,,,,,,,,,49.5648302731,,,,,,,Still,U4
369,,,10.8838127063,,,,,,,,,,,,,,,,Still,U4
417,,,,,,,,,,,,,,,,,,,Still,U4
469,,,11.3369694425,,,,,,,,,,,,,,,,Still,U4
520,,,9.19722982216,,,,,,,,,,,,,,,,Still,U4
570,,,10.2634148913,,,,,,,,,,,,,,,,Still,U4
643,,,,,,,,,,,,47.8391555109,,,,,,,Still,U4
693,,,,,,,,,,,,46.9277487203,,,,,,,Still,U4
743,,,,,,,,,,,,46.9515622743,,,,,,,Still,U4
794,,,,,,,,,,,,47.6574904767,,,,,,,Still,U4
849,,,8.52934918967,,,,,,,,,,,,,,,,Still,U4
899,,,8.79293812182,,,,,,,,,,,,,,,,Still,U4
953,,,,,,,,,,,,48.0243688142,,,,,,,Still,U4
1004,,,,,,,,,,,,47.7661051374,,,,,,,Still,U4
1059,,,9.70447580413,,,,,,,,,,,,,,,,Still,U4
1109,,,9.26191585952,,,,,,,,,,,,,,,,Still,U4
1158,,,8.99874405119,,,,,,,,,,,,,,,,Still,U4
1210,,,9.73564329992,,,,,,,,,,,,,,,,Still,U4
1263,,,,,,,,,,,,49.7511447104,,,,,,,Still,U4
1314,,,,,,,,,,,,49.9476125556,,,,,,,Still,U4
1369,,,10.1992503469,,,,,,,,,,,,,,,,Still,U4
1417,,,,,,,,,,,,,,,,,,,Still,U4
1470,,,11.972843544,,,,,,,,,,,,,,,,Still,U4
1524,,,,,,,,,,,,47.463792516,,,,,,,Still,U4
1573,,,,,,,,,,,,48.3204552959,,,,,,,Still,U4
1623,,,,,,,,,,,,48.7809588294,,,,,,,Still,U4
1679,,,10.0746958878,,,,,,,,,,,,,,,,Still,U4
1729,,,9.65593875377,,,,,,,,,,,,,,,,Still,U4
1779,,,9.39845904087,,,,,,,,,,,,,,,,Still,U4
1834,,,,,,,,,,,,48.9727535093,,,,,,,Still,U4
1879,,,9.91655571927,,,,,,,,,,,,,,,,Still,U4
1933,,,,,,,,,,,,48.0630319243,,,,,,,Still,U4
1988,,,11.0680122706,,,,,,,,,,,,,,,,Still,U4
2080,,,8.80145445233,,,,,,,,,,,,,,,,Still,U4
2091,,,9.32773597604,,,,,,,,,,,,,,,,Still,U4
2138,,,8.198384553,,,,,,,,,,,,,,,,Still,U4
2188,,,8.70640777296,,,,,,,,,,,,,,,,Still,U4
2238,,,8.97255304675,,,,,,,,,,,,,,,,Still,U4
2292,,,,,,,,,,,,47.7481266648,,,,,,,Still,U4
2342,,,,,,,,,,,,48.1774940259,,,,,,,Still,U4
2392,,,,,,,,,,,,48.6059977682,,,,,,,Still,U4
2448,,,13.1356857924,,,,,,,,,,,,,,,,Still,U4
2500,,,10.3580013024,,,,,,,,,,,,,,,,Still,U4
2548,,,10.116385875,,,,,,,,,,,,,,,,Still,U4
2598,,,10.4755512105,,,,,,,,,,,,,,,,Still,U4
2648,,,8.21653184853,,,,,,,,,,,,,,,,Still,U4
2702,,,,,,,,,,,,47.0688410093,,,,,,,Still,U4
2754,,,,,,,,,,,,46.7453527102,,,,,,,Still,U4
2802,,,,,,,,,,,,47.3483993144,,,,,,,Still,U4
2852,,,,,,,,,,,,47.5039743798,,,,,,,Still,U4
2902,,,,,,,,,,,,46.7184289119,,,,,,,Still,U4
2958,,,11.2886866009,,,,,,,,,,,,,,,,Still,U4
3008,,,10.1714566649,,,,,,,,,,,,,,,,Still,U4
3058,,,10.1787486287,,,,,,,,,,,,,,,,Still,U4
3108,,,10.3280833707,,,,,,,,,,,,,,,,Still,U4
3158,,,11.6458618017,,,,,,,,,,,,,,,,Still,U4
3218,,,13.2043227003,,,,,,,,,,,,,,,,Still,U4
3263,,,,,,,,,,,,45.8772884988,,,,,,,Still,U4
3312,,,,,,,,,,,,46.3173567821,,,,,,,Still,U4
3363,,,,,,,,,,,,47.1479373886,,,,,,,Still,U4
3412,,,,,,,,,,,,46.303091305,,,,,,,Still,U4
3462,,,,,,,,,,,,46.4108820149,,,,,,,Still,U4
3513,,,,,,,,,,,,46.618763945,,,,,,,Still,U4
3563,,,,,,,,,,,,47.4574186959,,,,,,,Still,U4
3619,,,6.55121482939,,,,,,,,,,,,,,,,Still,U4
3668,,,5.80371069801,,,,,,,,,,,,,,,,Still,U4
3718,,,5.73228478486,,,,,,,,,,,,,,,,Still,U4
3768,,,7.23089511303,,,,,,,,,,,,,,,,Still,U4
3821,,,13.6795898426,,,,,,,,,,,,,,,,Still,U4
3873,,,,,,,,,,,,49.4351211185,,,,,,,Still,U4
3923,,,,,,,,,,,,49.5314427046,,,,,,,Still,U4
3978,,,17.438718919,,,,,,,,,,,,,,,,Still,U4
4028,,,13.2819987311,,,,,,,,,,,,,,,,Still,U4
4079,,,11.8459526686,,,,,,,,,,,,,,,,Still,U4
4128,,,5.023918422,,,,,,,,,,,,,,,,Still,U4
4179,,,3.12565018884,,,,,,,,,,,,,,,,Still,U4
4232,,,,,,,,,,,,48.7720629225,,,,,,,Still,U4
4283,,,,,,,,,,,,50.5671869892,,,,,,,Still,U4
4338,,,11.6201599383,,,,,,,,,,,,,,,,Still,U4
4388,,,18.1420165609,,,,,,,,,,,,,,,,Still,U4
4440,,,11.4721551051,,,,,,,,,,,,,,,,Still,U4
4492,,,,,,,,,,,,48.4088817718,,,,,,,Still,U4
4542,,,,,,,,,,,,49.0602647853,,,,,,,Still,U4
4592,,,,,,,,,,,,50.248665482,,,,,,,Still,U4
4642,,,,,,,,,,,,50.6813192579,,,,,,,Still,U4
4698,,,9.08495782868,,,,,,,,,,,,,,,,Still,U4
4749,,,10.0038486212,,,,,,,,,,,,,,,,Still,U4
4798,,,11.9780320752,,,,,,,,,,,,,,,,Still,U4
4849,,,13.1990603459,,,,,,,,,,,,,,,,Still,U4
4902,,,,,,,,,,,,48.5598706522,,,,,,,Still,U4
4952,,,,,,,,,,,,49.1583116065,,,,,,,Still,U4
5002,,,,,,,,,,,,50.5423703441,,,,,,,Still,U4
5058,,,11.4986865169,,,,,,,,,,,,,,,,Still,U4
5108,,,9.59436417037,,,,,,,,,,,,,,,,Still,U4
5158,,,13.8728703808,,,,,,,,,,,,,,,,Still,U4
5208,,,8.3611063131,,,,,,,,,,,,,,,,Still,U4
5259,,,12.0523994267,,,,,,,,,,,,,,,,Still,U4
5314,,,,,,,,,,,,51.2729383633,,,,,,,Still,U4
5363,,,,,,,,,,,,51.1698348639,,,,,,,Still,U4
5413,,,,,,,,,,,,51.3885173235,,,,,,,Still,U4
5463,,,,,,163.500146783,,,,,,,,,,,,,Still,U4
5519,,,23.2541455588,,,,,,,,,,,,,,,,Still,U4
5568,,,16.1409717629,,,,,,,,,,,,,,,,Still,U4
5629,,,11.8954084357,,,,,,,,,,,,,,,,Still,U4
5678,,,5.00889893151,,,,,,,,,,,,,,,,Still,U4
5728,,,3.99389590969,,,,,,,,,,,,,,,,Still,U4
5778,,,4.94558406633,,,,,,,,,,,,,,,,Still,U4
5829,,,,,,,,,,,,48.7883756647,,,,,,,Still,U4
5878,,,7.89382794212,,,,,,,,,,,,,,,,Still,U4
5930,,,4.22450094531,,,,,,,,,,,,,,,,Still,U4
5983,,,,,,,,,,,,43.7276525752,,,,,,,Still,U4
6032,,,,,,,,,,,,44.7907933486,,,,,,,Still,U4
6083,,,,,,,,,,,,46.2881998976,,,,,,,Still,U4
6133,,,,,,,,,,,,47.1990677874,,,,,,,Still,U4
6189,,,9.87971053694,,,,,,,,,,,,,,,,Still,U4
6239,,,12.5526362864,,,,,,,,,,,,,,,,Still,U4
6288,,,9.68411678611,,,,,,,,,,,,,,,,Still,U4
6338,,,10.0660030858,,,,,,,,,,,,,,,,Still,U4
6389,,,9.89218358292,,,,,,,,,,,,,,,,Still,U4
6443,,,,,,,,,,,,45.1696394681,,,,,,,Still,U4
6493,,,,,,,,,,,,45.4309365961,,,,,,,Still,U4
6543,,,,,,,,,,,,46.3725867297,,,,,,,Still,U4
6598,,,12.1405842508,,,,,,,,,,,,,,,,Still,U4
6648,,,13.0411565887,,,,,,,,,,,,,,,,Still,U4
6706,,,,,,,,,,,,45.6532580371,,,,,,,Still,U4
6748,,,10.7786270589,,,,,,,,,,,,,,,,Still,U4
6798,,,9.68223262483,,,,,,,,,,,,,,,,Still,U4
6848,,,8.9542679437,,,,,,,,,,,,,,,,Still,U4
6899,,,9.80081768689,,,,,,,,,,,,,,,,Still,U4
6953,,,,,,,,,,,,46.0038036936,,,,,,,Still,U4
7002,,,,,,,,,,,,45.622611057,,,,,,,Still,U4
7053,,,,,,,,,,,,45.5379441012,,,,,,,Still,U4
7103,,,,,,,,,,,,45.6317629926,,,,,,,Still,U4
7159,,,9.92508433428,,,,,,,,,,,,,,,,Still,U4
7208,,,9.9969432032,,,,,,,,,,,,,,,,Still,U4
7258,,,9.62221313203,,,,,,,,,,,,,,,,Still,U4
7308,,,10.0519478025,,,,,,,,,,,,,,,,Still,U4
7358,,,10.0783593884,,,,,,,,,,,,,,,,Still,U4
7409,,,9.89929689232,,,,,,,,,,,,,,,,Still,U4
7463,,,,,,,,,,,,46.0489330688,,,,,,,Still,U4
7513,,,,,,,,,,,,44.8773127538,,,,,,,Still,U4
7563,,,,,,,,,,,,45.1786055562,,,,,,,Still,U4
7614,,,,,,,,,,,,45.1518238834,,,,,,,Still,U4
7668,,,9.85224469586,,,,,,,,,,,,,,,,Still,U4
7718,,,9.74242313199,,,,,,,,,,,,,,,,Still,U4
7768,,,9.94008422018,,,,,,,,,,,,,,,,Still,U4
7818,,,9.90183494329,,,,,,,,,,,,,,,,Still,U4
7869,,,9.87480206324,,,,,,,,,,,,,,,,Still,U4
7923,,,,,,,,,,,,44.4163325944,,,,,,,Still,U4
7983,,,,,,,,,,,,44.3147000865,,,,,,,Still,U4
8028,,,9.86422729156,,,,,,,,,,,,,,,,Still,U4
8078,,,9.8155919019,,,,,,,,,,,,,,,,Still,U4
8130,,,10.0328099101,,,,,,,,,,,,,,,,Still,U4
8183,,,,,,,,,,,,45.1031214122,,,,,,,Still,U4
8233,,,,,,,,,,,,45.4642452472,,,,,,,Still,U4
8289,,,9.83363185731,,,,,,,,,,,,,,,,Still,U4
8339,,,9.90954756025,,,,,,,,,,,,,,,,Still,U4
8389,,,9.99956673706,,,,,,,,,,,,,,,,Still,U4
8438,,,9.95861762774,,,,,,,,,,,,,,,,Still,U4
8489,,,9.8945147059,,,,,,,,,,,,,,,,Still,U4
8543,,,,,,,,,,,,45.0828437435,,,,,,,Still,U4
8593,,,,,,,,,,,,45.2777406209,,,,,,,Still,U4
8643,,,,,,,,,,,,45.9979738684,,,,,,,Still,U4
8694,,,,,,,,,,,,45.7688697226,,,,,,,Still,U4
8757,,,9.95456456401,,,,,,,,,,,,,,,,Still,U4
9098,,,9.82341910735,,,,,,,,,,,,,,,,Still,U4
9100,,,9.96390273556,,,,,,,,,,,,,,,,Still,U4
9158,,,9.90518274209,,,,,,,,,,,,,,,,Still,U4
9208,,,9.94063780493,,,,,,,,,,,,,,,,Still,U4
9258,,,9.89036118785,,,,,,,,,,,,,,,,Still,U4
9308,,,9.89846283187,,,,,,,,,,,,,,,,Still,U4
9357,,,9.90752064047,,,,,,,,,,,,,,,,Still,U4
9412,,,,,,,,,,,,43.9218440583,,,,,,,Still,U4
9464,,,,,,,,,,,,43.6115807143,,,,,,,Still,U4
9513,,,,,,,,,,,,44.0266705607,,,,,,,Still,U4
9570,,,9.89692442616,,,,,,,,,,,,,,,,Still,U4
9612,,,,9.80045276222,,,,,,,,,,,,,,,Still,U4
9663,,,,,,,,,,,,42.8497884333,,,,,,,Still,U4
9718,,,9.83059088719,,,,,,,,,,,,,,,,Still,U4
9768,,,9.92272689203,,,,,,,,,,,,,,,,Still,U4
9818,,,9.95714397511,,,,,,,,,,,,,,,,Still,U4
9868,,,9.96439517712,,,,,,,,,,,,,,,,Still,U4
9918,,,,,,,,,,,,,,,,,,,Still,U4
9973,,,,,,,,,,,,43.8554443599,,,,,,,Still,U4
10023,,,,,,,,,,,,43.5320981906,,,,,,,Still,U4
10074,,,,,,,,,,,,44.104407611,,,,,,,Still,U4
10123,,,,,0.152280121815,,,,,,,,,,,,,,Still,U4
10178,,,9.79458766125,,,,,,,,,,,,,,,,Still,U4
10228,,,9.87935222285,,,,,,,,,,,,,,,,Still,U4
10278,,,9.8494376039,,,,,,,,,,,,,,,,Still,U4
10328,,,9.93976588038,,,,,,,,,,,,,,,,Still,U4
10378,,,9.92640027993,,,,,,,,,,,,,,,,Still,U4
10434,,,,,,,,,,,,43.6361730678,,,,,,,Still,U4
10483,,,,,,,,,,,,44.7829163856,,,,,,,Still,U4
10534,,,,,,,,,,,,44.0681109193,,,,,,,Still,U4
10583,,,,,,242.43240797,,,,,,,,,,,,,Still,U4
10638,,,9.90825636645,,,,,,,,,,,,,,,,Still,U4
10688,,,9.9089968539,,,,,,,,,,,,,,,,Still,U4
10738,,,9.88696179199,,,,,,,,,,,,,,,,Still,U4
10788,,,9.95689987924,,,,,,,,,,,,,,,,Still,U4
10838,,,9.95326980475,,,,,,,,,,,,,,,,Still,U4
10889,,,9.7263541058,,,,,,,,,,,,,,,,Still,U4
10944,,,,,,,,,,,,43.5573117697,,,,,,,Still,U4
10995,,,,,,,,,,,,43.2045827611,,,,,,,Still,U4
11044,,,,,,,,,,,,42.9738661491,,,,,,,Still,U4
11095,,,,,,,,,,,,43.1857059685,,,,,,,Still,U4
11150,,,9.94921935674,,,,,,,,,,,,,,,,Still,U4
11200,,,9.84802192444,,,,,,,,,,,,,,,,Still,U4
11250,,,9.90988555248,,,,,,,,,,,,,,,,Still,U4
11301,,,9.88275888581,,,,,,,,,,,,,,,,Still,U4
11354,,,,,,,,,,,,43.6231360001,,,,,,,Still,U4
11405,,,,,,,,,,,,42.8819523856,,,,,,,Still,U4
11457,,,,,,,,,,,,43.2354850871,,,,,,,Still,U4
11509,,,9.86519924914,,,,,,,,,,,,,,,,Still,U4
11559,,,9.89908823743,,,,,,,,,,,,,,,,Still,U4
11611,,,9.92299494307,,,,,,,,,,,,,,,,Still,U4
11665,,,,,,,,,,,,44.1301529036,,,,,,,Still,U4
11715,,,9.89145072411,,,,,,,,,,,,,,,,Still,U4
11770,,,9.91125518547,,,,,,,,,,,,,,,,Still,U4
11823,,,9.93385878277,,,,,,,,,,,,,,,,Still,U4
11873,,,,,,,,,,,,43.3006740312,,,,,,,Still,U4
11925,,,,,,,,,,,,43.405591913,,,,,,,Still,U4
11974,,,,,,,,,,,,43.2583772234,,,,,,,Still,U4
12031,,,9.89440346965,,,,,,,,,,,,,,,,Still,U4
12082,,,9.92804959434,,,,,,,,,,,,,,,,Still,U4
12130,,,9.93196111049,,,,,,,,,,,,,,,,Still,U4
12181,,,,,,,,,,,,43.4841071298,,,,,,,Still,U4
12235,,,,,,,,,,,,43.7174839166,,,,,,,Still,U4
12285,,,,,,,,,,,,43.3585839252,,,,,,,Still,U4
12344,,,9.86911244364,,,,,,,,,,,,,,,,Still,U4
12390,,,9.88325499235,,,,,,,,,,,,,,,,Still,U4
12439,,,9.91169915877,,,,,,,,,,,,,,,,Still,U4
12490,,,9.88742559032,,,,,,,,,,,,,,,,Still,U4
12546,,,,,,,,,,,,44.0166557735,,,,,,,Still,U4
12594,,,,,,,,,,,,43.2117063963,,,,,,,Still,U4
12646,,,,,,,,,,,,43.0740246185,,,,,,,Still,U4
12699,,,9.88003899642,,,,,,,,,,,,,,,,Still,U4
12752,,,,,,,,,,,,43.7421806905,,,,,,,Still,U4
12803,,,,,,,,,,,,43.2244097704,,,,,,,Still,U4
12853,,,,,,,,,,,,42.7806732065,,,,,,,Still,U4
12905,,,,,,,,,,,,42.6456512505,,,,,,,Still,U4
12955,,,,,,,,,,,,42.9200093197,,,,,,,Still,U4
13010,,,9.94289299423,,,,,,,,,,,,,,,,Still,U4
13063,,,9.94227956843,,,,,,,,,,,,,,,,Still,U4
13110,,,9.90260794025,,,,,,,,,,,,,,,,Still,U4
13165,,,,,,,,,,,,43.4675465146,,,,,,,Still,U4
13215,,,,,,,,,,,,43.6434296083,,,,,,,Still,U4
13265,,,,,,,,,,,,43.8802260067,,,,,,,Still,U4
13321,,,9.91273990317,,,,,,,,,,,,,,,,Still,U4
13370,,,9.89621065504,,,,,,,,,,,,,,,,Still,U4
13423,,,,,,,,,,,,43.8367653916,,,,,,,Still,U4
13474,,,,,,,,,,,,44.2374185504,,,,,,,Still,U4
13526,,,,,,,,,,,,43.8101083827,,,,,,,Still,U4
13574,,,,,,,,,,,,43.6747657839,,,,,,,Still,U4
13630,,,9.90619177459,,,,,,,,,,,,,,,,Still,U4
13680,,,9.94879492648,,,,,,,,,,,,,,,,Still,U4
13729,,,9.89727175273,,,,,,,,,,,,,,,,Still,U4
13779,,,9.94547563086,,,,,,,,,,,,,,,,Still,U4
13845,,,,,,,,,,,,45.6664647197,,,,,,,Still,U4
13883,,,,,,,,,,,,46.5218267174,,,,,,,Still,U4
13934,,,,,,,,,,,,45.4903286425,,,,,,,Still,U4
13985,,,,,,,,,,,,44.6766381904,,,,,,,Still,U4
14039,,,9.86326512111,,,,,,,,,,,,,,,,Still,U4
14088,,,9.89767947421,,,,,,,,,,,,,,,,Still,U4
14138,,,9.92257980781,,,,,,,,,,,,,,,,Still,U4
14188,,,9.89104255719,,,,,,,,,,,,,,,,Still,U4
14243,,,,,0.131349872719,,,,,,,,,,,,,,Still,U4
14299,,,9.87143545838,,,,,,,,,,,,,,,,Still,U4
14348,,,,,,,,,,,,46.0585492038,,,,,,,Still,U4
14401,,,9.91401220167,,,,,,,,,,,,,,,,Still,U4
14450,,,9.88506903487,,,,,,,,,,,,,,,,Still,U4
14503,,,,,,,,,,,,43.5640080801,,,,,,,Still,U4
14554,,,,,,,,,,,,44.0056946549,,,,,,,Still,U4
14609,,,9.89410202342,,,,,,,,,,,,,,,,Still,U4
14658,,,9.9088811586,,,,,,,,,,,,,,,,Still,U4
14708,,,9.87948200794,,,,,,,,,,,,,,,,Still,U4
14758,,,9.91999603288,,,,,,,,,,,,,,,,Still,U4
14808,,,9.90982521081,,,,,,,,,,,,,,,,Still,U4
14863,,,,,,,,,,,,44.1566167182,,,,,,,Still,U4
14914,,,,,,,,,,,,43.4262409149,,,,,,,Still,U4
14963,,,,,,,,,,,,43.698169298,,,,,,,Still,U4
15017,,,,,,,,,,,,43.990353488,,,,,,,Still,U4
15064,,,,,,,,,,,,45.2177898451,,,,,,,Still,U4
15115,,,,,,,,,,,,45.791833333,,,,,,,Still,U4
15169,,,9.92195588448,,,,,,,,,,,,,,,,Still,U4
15219,,,9.95109031565,,,,,,,,,,,,,,,,Still,U4
15270,,,9.88106006306,,,,,,,,,,,,,,,,Still,U4
15323,,,,,,,,,,,,43.9082766772,,,,,,,Still,U4
15374,,,,,,,,,,,,43.8692311375,,,,,,,Still,U4
15425,,,,,,,,,,,,44.6722459825,,,,,,,Still,U4
15478,,,,,,,,,,,,45.2699502462,,,,,,,Still,U4
15526,,,,,,,,,,,,44.2148297507,,,,,,,Still,U4
15580,,,9.90947813402,,,,,,,,,,,,,,,,Still,U4
15630,,,9.97542422404,,,,,,,,,,,,,,,,Still,U4
15683,,,,,,,,,,,,44.4697560146,,,,,,,Still,U4
15733,,,,,,,,,,,,44.2528775146,,,,,,,Still,U4
15789,,,9.94269044102,,,,,,,,,,,,,,,,Still,U4
15839,,,9.86305608716,,,,,,,,,,,,,,,,Still,U4
15891,,,9.88315309703,,,,,,,,,,,,,,,,Still,U4
15939,,,9.85574892825,,,,,,,,,,,,,,,,Still,U4
15991,,,9.85464613485,,,,,,,,,,,,,,,,Still,U4
16044,,,,,,,,,,,,44.0959181251,,,,,,,Still,U4
16094,,,,,,,,,,,,44.1323146483,,,,,,,Still,U4
16150,,,9.94017629601,,,,,,,,,,,,,,,,Still,U4
16200,,,9.90894594014,,,,,,,,,,,,,,,,Still,U4
16250,,,9.91897434503,,,,,,,,,,,,,,,,Still,U4
16300,,,9.88729108776,,,,,,,,,,,,,,,,Still,U4
16357,,,9.92410399709,,,,,,,,,,,,,,,,Still,U4
16404,,,9.89841167645,,,,,,,,,,,,,,,,Still,U4
16454,,,,,,,,,,,,43.8889622017,,,,,,,Still,U4
16510,,,9.91629251596,,,,,,,,,,,,,,,,Still,U4
16560,,,9.86619860072,,,,,,,,,,,,,,,,Still,U4
16614,,,,,,,,,,,,43.70195691,,,,,,,Still,U4
16663,,,,,,,,,,,,44.0126072847,,,,,,,Still,U4
16713,,,,,,,,,,,,43.2360247682,,,,,,,Still,U4
16769,,,9.89533036747,,,,,,,,,,,,,,,,Still,U4
16815,,,,,,,,,,,,43.8688636735,,,,,,,Still,U4
16870,,,9.89360163569,,,,,,,,,,,,,,,,Still,U4
16919,,,9.87319049014,,,,,,,,,,,,,,,,Still,U4
16970,,,9.92383136181,,,,,,,,,,,,,,,,Still,U4
17027,,,,,,,,,,,,44.0719484226,,,,,,,Still,U4
17074,,,,,,,,,,,,44.7116762818,,,,,,,Still,U4
17130,,,9.88694786789,,,,,,,,,,,,,,,,Still,U4
17180,,,9.85640030797,,,,,,,,,,,,,,,,Still,U4
17231,,,9.93029860646,,,,,,,,,,,,,,,,Still,U4
17284,,,,,,,,,,,,44.7678809389,,,,,,,Still,U4
17335,,,,,,,,,,,,44.4464753019,,,,,,,Still,U4
17391,,,9.89757310926,,,,,,,,,,,,,,,,Still,U4
17445,,,9.90868215568,,,,,,,,,,,,,,,,Still,U4
17490,,,9.88582999997,,,,,,,,,,,,,,,,Still,U4
17543,,,,,,,,,,,,43.5411093693,,,,,,,Still,U4
17595,,,,,,,,,,,,44.7732286082,,,,,,,Still,U4
17645,,,,,,,,,,,,44.3654861942,,,,,,,Still,U4
17701,,,9.88490221131,,,,,,,,,,,,,,,,Still,U4
17749,,,9.88742559032,,,,,,,,,,,,,,,,Still,U4
17801,,,9.89824026976,,,,,,,,,,,,,,,,Still,U4
17853,,,,,,,,,,,,43.8200912824,,,,,,,Still,U4
17903,,,,,,,,,,,,43.7492171359,,,,,,,Still,U4
17953,,,,,,,,,,,,43.8387773191,,,,,,,Still,U4
18009,,,9.91677808101,,,,,,,,,,,,,,,,Still,U4
18058,,,9.88086049734,,,,,,,,,,,,,,,,Still,U4
18113,,,9.91952912495,,,,,,,,,,,,,,,,Still,U4
18159,,,9.89597914325,,,,,,,,,,,,,,,,Still,U4
18210,,,9.90842298177,,,,,,,,,,,,,,,,Still,U4
18264,,,,,,,,,,,,44.5806460249,,,,,,,Still,U4
18314,,,,,,,,,,,,43.7098661631,,,,,,,Still,U4
18364,,,,,,,,,,,,43.7392181,,,,,,,Still,U4
18415,,,,,,,,,,,,44.6283049196,,,,,,,Still,U4
18466,,,,,,,,,,,,44.1851013972,,,,,,,Still,U4
18519,,,9.90081582799,,,,,,,,,,,,,,,,Still,U4
18574,,,9.92479790228,,,,,,,,,,,,,,,,Still,U4
18621,,,9.88903948338,,,,,,,,,,,,,,,,Still,U4
18677,,,,,,,,,,,,43.4757032477,,,,,,,Still,U4
18726,,,,,,,,,,,,43.3727379411,,,,,,,Still,U4
18775,,,,,,,,,,,,43.4109844726,,,,,,,Still,U4
18829,,,9.88650240477,,,,,,,,,,,,,,,,Still,U4
18879,,,9.93260731113,,,,,,,,,,,,,,,,Still,U4
18930,,,9.92756981845,,,,,,,,,,,,,,,,Still,U4
18980,,,9.92113296657,,,,,,,,,,,,,,,,Still,U4
19031,,,9.92522297965,,,,,,,,,,,,,,,,Still,U4
19085,,,,,,,,,,,,43.9692346657,,,,,,,Still,U4
19140,,,9.92113296657,,,,,,,,,,,,,,,,Still,U4
19183,,,,,,,,,,,,43.9512165593,,,,,,,Still,U4
19236,,,,,,,,,,,,43.6040272969,,,,,,,Still,U4
19290,,,9.91497426515,,,,,,,,,,,,,,,,Still,U4
19340,,,9.9180818347,,,,,,,,,,,,,,,,Still,U4
19391,,,9.94482566723,,,,,,,,,,,,,,,,Still,U4
19445,,,,,,,,,,,,43.2458484787,,,,,,,Still,U4
19493,,,,,0.270356176157,,,,,,,,,,,,,,Still,U4
19551,,,9.79270999192,,,,,,,,,,,,,,,,Still,U4
19600,,,9.822536129,,,,,,,,,,,,,,,,Still,U4
19649,,,9.90092212692,,,,,,,,,,,,,,,,Still,U4
19705,,,,,,,,,,,,43.6988255405,,,,,,,Still,U4
19752,,,9.89228074525,,,,,,,,,,,,,,,,Still,U4
19803,,,,,,,,,,,,43.8034908362,,,,,,,Still,U4
19858,,,10.1138244534,,,,,,,,,,,,,,,,Still,U4
19908,,,10.123382466,,,,,,,,,,,,,,,,Still,U4
19958,,,10.0779042441,,,,,,,,,,,,,,,,Still,U4
20008,,,9.91992649818,,,,,,,,,,,,,,,,Still,U4
20058,,,9.5688841518,,,,,,,,,,,,,,,,Still,U4
20110,,,9.85999163328,,,,,,,,,,,,,,,,Still,U4
20164,,,,,,,,,,,,43.2189125268,,,,,,,Still,U4
20214,,,,,,,,,,,,43.6776098247,,,,,,,Still,U4
20263,,,,,,,,,,,,43.5170449364,,,,,,,Still,U4
20323,,,9.75053914008,,,,,,,,,,,,,,,,Still,U4
20370,,,9.41648038257,,,,,,,,,,,,,,,,Still,U4
20419,,,9.76181042183,,,,,,,,,,,,,,,,Still,U4
20470,,,9.94704388598,,,,,,,,,,,,,,,,Still,U4
20521,,,9.86221914147,,,,,,,,,,,,,,,,Still,U4
20574,,,,,,,,,,,,42.5607283772,,,,,,,Still,U4
20625,,,,,,,,,,,,42.8466381412,,,,,,,Still,U4
20678,,,10.1467613031,,,,,,,,,,,,,,,,Still,U4
20728,,,9.97664744657,,,,,,,,,,,,,,,,Still,U4
20783,,,,,,,,,,,,42.5098623851,,,,,,,Still,U4
20833,,,,,,,,,,,,42.8661264671,,,,,,,Still,U4
20884,,,,,,,,,,,,42.8652426925,,,,,,,Still,U4
20934,,,,,,,,,,,,43.0529969772,,,,,,,Still,U4
20986,,,,,,,,,,,,43.2590410407,,,,,,,Still,U4
21040,,,9.8853525149,,,,,,,,,,,,,,,,Still,U4
21090,,,9.98062287745,,,,,,,,,,,,,,,,Still,U4
21140,,,9.96593210492,,,,,,,,,,,,,,,,Still,U4
21196,,,,,,,,,,,,42.9330921318,,,,,,,Still,U4
21243,,,,,,,,,,,,42.8472653587,,,,,,,Still,U4
21298,,,9.84208748802,,,,,,,,,,,,,,,,Still,U4
21349,,,10.0191980432,,,,,,,,,,,,,,,,Still,U4
21399,,,9.61281538952,,,,,,,,,,,,,,,,Still,U4
21450,,,10.1395594592,,,,,,,,,,,,,,,,Still,U4
21500,,,9.77399846998,,,,,,,,,,,,,,,,Still,U4
21550,,,10.0484938341,,,,,,,,,,,,,,,,Still,U4
21605,,,,,,,,,,,,43.9525679386,,,,,,,Still,U4
21656,,,9.93827997492,,,,,,,,,,,,,,,,Still,U4
21709,,,9.85943307915,,,,,,,,,,,,,,,,Still,U4
21759,,,9.95495647057,,,,,,,,,,,,,,,,Still,U4
21809,,,9.95011364454,,,,,,,,,,,,,,,,Still,U4
21868,,,,,,,,,,,,43.1374108083,,,,,,,Still,U4
21911,,,9.90781181376,,,,,,,,,,,,,,,,Still,U4
21965,,,,,,,,,,,,43.7223009459,,,,,,,Still,U4
22019,,,9.95430170985,,,,,,,,,,,,,,,,Still,U4
22064,,,,,,,,,,,,43.6760847325,,,,,,,Still,U4
22117,,,,,,,,,,,,42.9163166453,,,,,,,Still,U4
22169,,,9.97263893705,,,,,,,,,,,,,,,,Still,U4
22220,,,9.82291443552,,,,,,,,,,,,,,,,Still,U4
22275,,,,,,,,,,,,43.5551233772,,,,,,,Still,U4
22321,,,9.91736985593,,,,,,,,,,,,,,,,Still,U4
22374,,,,,,,,,,,,43.1792033275,,,,,,,Still,U4
22424,,,,,,,,,,,,42.9268447478,,,,,,,Still,U4
22475,,,,,,,,,,,,43.1698225275,,,,,,,Still,U4
22530,,,10.0780543785,,,,,,,,,,,,,,,,Still,U4
22580,,,,,,,,,,,,43.1675691961,,,,,,,Still,U4
22630,,,9.93175846493,,,,,,,,,,,,,,,,Still,U4
22683,,,,,,,,,,,,43.4161655884,,,,,,,Still,U4
22733,,,,,,,,,,,,43.1468002818,,,,,,,Still,U4
22783,,,,,,,,,,,,43.1331954842,,,,,,,Still,U4
22833,,,,,,245.8467004,,,,,,,,,,,,,Still,U4
22889,,,9.93853448024,,,,,,,,,,,,,,,,Still,U4
22939,,,9.86471122714,,,,,,,,,,,,,,,,Still,U4
22989,,,9.9153260473,,,,,,,,,,,,,,,,Still,U4
23044,,,,,,,,,,,,42.7529367412,,,,,,,Still,U4
23094,,,,,,,,,,,,43.3198753461,,,,,,,Still,U4
23146,,,,,,,,,,,,43.2305724168,,,,,,,Still,U4
23195,,,,,,,,,,,,43.1883734054,,,,,,,Still,U4
23245,,,,,,246.98408399,,,,,,,,,,,,,Still,U4
23300,,,9.92468630828,,,,,,,,,,,,,,,,Still,U4
23350,,,9.891302475,,,,,,,,,,,,,,,,Still,U4
23402,,,9.9196863884,,,,,,,,,,,,,,,,Still,U4
23458,,,,,,,,,,,,43.886995796,,,,,,,Still,U4
23505,,,,,,,,,,,,42.7688886271,,,,,,,Still,U4
23559,,,9.91181892793,,,,,,,,,,,,,,,,Still,U4
23609,,,9.91849301058,,,,,,,,,,,,,,,,Still,U4
23662,,,9.92498701752,,,,,,,,,,,,,,,,Still,U4
23715,,,,,,,,,,,,42.8154970598,,,,,,,Still,U4
23765,,,,,,,,,,,,43.3717004509,,,,,,,Still,U4
23815,,,,,,,,,,,,43.7205717906,,,,,,,Still,U4
23870,,,9.91551524873,,,,,,,,,,,,,,,,Still,U4
23920,,,,,,,,,,,,,,,,,,,Still,U4
23974,,,,,,,,,,,,43.5934579578,,,,,,,Still,U4
24025,,,,,,,,,,,,44.1438149688,,,,,,,Still,U4
24076,,,,,,,,,,,,43.2713993303,,,,,,,Still,U4
24129,,,9.86488303002,,,,,,,,,,,,,,,,Still,U4
24186,,,,,,,,,,,,43.3343306463,,,,,,,Still,U4
24236,,,,,,,,,,,,43.4997517234,,,,,,,Still,U4
24284,,,,,,,,,,,,42.5639001972,,,,,,,Still,U4
24341,,,9.9478362053,,,,,,,,,,,,,,,,Still,U4
24394,,,9.93576482648,,,,,,,,,,,,,,,,Still,U4
24440,,,9.89687798175,,,,,,,,,,,,,,,,Still,U4
24491,,,9.86999513073,,,,,,,,,,,,,,,,Still,U4
24544,,,,,,,,,,,,43.1286911097,,,,,,,Still,U4
24594,,,,,,,,,,,,43.3265645559,,,,,,,Still,U4
24650,,,9.91959855295,,,,,,,,,,,,,,,,Still,U4
24700,,,9.89178481693,,,,,,,,,,,,,,,,Still,U4
24749,,,9.89490367439,,,,,,,,,,,,,,,,Still,U4
24804,,,,,,,,,,,,42.9266769796,,,,,,,Still,U4
24854,,,,,,,,,,,,43.0850969016,,,,,,,Still,U4
24916,,,,,,,,,,,,,,,,,,,Still,U4
24968,,,9.91203195681,,,,,,,,,,,,,,,,Still,U4
25018,,,9.94406910013,,,,,,,,,,,,,,,,Still,U4
25073,,,,,,,,,,,,44.0598165116,,,,,,,Still,U4
25126,,,,,,,,,,,,43.4660557217,,,,,,,Still,U4
25174,,,,,,,,,,,,43.6071624039,,,,,,,Still,U4
25229,,,9.90092748556,,,,,,,,,,,,,,,,Still,U4
25275,,,,,,,,,,,,44.1693332528,,,,,,,Still,U4
25330,,,9.93482364626,,,,,,,,,,,,,,,,Still,U4
25379,,,9.95885715936,,,,,,,,,,,,,,,,Still,U4
25431,,,9.939406121,,,,,,,,,,,,,,,,Still,U4
25484,,,,,,,,,,,,44.0794644759,,,,,,,Still,U4
25533,,,,,,,,,,,,43.7711382988,,,,,,,Still,U4
25584,,,,,,,,,,,,44.0066767661,,,,,,,Still,U4
25635,,,,,,,,,,,,43.2814648551,,,,,,,Still,U4
25688,,,9.92267170804,,,,,,,,,,,,,,,,Still,U4
25739,,,9.93418641531,,,,,,,,,,,,,,,,Still,U4
25789,,,9.84090463446,,,,,,,,,,,,,,,,Still,U4
25839,,,9.8268492797,,,,,,,,,,,,,,,,Still,U4
25892,,,9.84795718851,,,,,,,,,,,,,,,,Still,U4
25946,,,,,,,,,,,,43.3970901271,,,,,,,Still,U4
25995,,,,,,,,,,,,43.6315940575,,,,,,,Still,U4
26050,,,9.99826448336,,,,,,,,,,,,,,,,Still,U4
26099,,,10.206966314,,,,,,,,,,,,,,,,Still,U4
26154,,,10.0924690531,,,,,,,,,,,,,,,,Still,U4
26201,,,9.92556875367,,,,,,,,,,,,,,,,Still,U4
26251,,,10.0107918837,,,,,,,,,,,,,,,,Still,U4
26306,,,,,,,,,,,,44.4604829447,,,,,,,Still,U4
26370,,,10.0585839649,,,,,,,,,,,,,,,,Still,U4
26408,,,10.1701447633,,,,,,,,,,,,,,,,Still,U4
26458,,,9.86965531326,,,,,,,,,,,,,,,,Still,U4
26508,,,9.7347946408,,,,,,,,,,,,,,,,Still,U4
26559,,,10.0454085861,,,,,,,,,,,,,,,,Still,U4
26614,,,10.3430665371,,,,,,,,,,,,,,,,Still,U4
26663,,,,,,,,,,,,42.9886912432,,,,,,,Still,U4
26714,,,,,,,,,,,,43.3204151822,,,,,,,Still,U4
26764,,,,,,,,,,,,43.2333201223,,,,,,,Still,U4
26813,,,,,0.649934702307,,,,,,,,,,,,,,Still,U4
26870,,,9.68876638723,,,,,,,,,,,,,,,,Still,U4
26918,,,,,,,,,,,,,,,,,,,Still,U4
26970,,,9.94700149048,,,,,,,,,,,,,,,,Still,U4
27022,,,9.62482882127,,,,,,,,,,,,,,,,Still,U4
27071,,,9.57501561965,,,,,,,,,,,,,,,,Still,U4
27124,,,,,,,,,,,,43.6710155595,,,,,,,Still,U4
27179,,,9.88238729011,,,,,,,,,,,,,,,,Still,U4
27225,,,,,,,,,,,,44.950612899,,,,,,,Still,U4
27279,,,10.118973327,,,,,,,,,,,,,,,,Still,U4
27329,,,9.74822022928,,,,,,,,,,,,,,,,Still,U4
27379,,,9.86633785674,,,,,,,,,,,,,,,,Still,U4
27433,,,,,,,,,,,,44.6375800043,,,,,,,Still,U4
27482,,,,,,,,,,,,44.4374031645,,,,,,,Still,U4
27534,,,,,,,,,,,,44.2645908148,,,,,,,Still,U4
27590,,,10.4079184466,,,,,,,,,,,,,,,,Still,U4
27642,,,10.0528966682,,,,,,,,,,,,,,,,Still,U4
27689,,,9.8929017173,,,,,,,,,,,,,,,,Still,U4
27740,,,9.93104747815,,,,,,,,,,,,,,,,Still,U4
27789,,,9.97595349123,,,,,,,,,,,,,,,,Still,U4
27839,,,9.84848312523,,,,,,,,,,,,,,,,Still,U4
27891,,,9.8922296027,,,,,,,,,,,,,,,,Still,U4
27943,,,,,,,,,,,,46.9250995533,,,,,,,Still,U4
27993,,,,,0.417814033414,,,,,,,,,,,,,,Still,U4
28050,,,9.87925946323,,,,,,,,,,,,,,,,Still,U4
28100,,,9.97528638083,,,,,,,,,,,,,,,,Still,U4
28150,,,10.1208587,,,,,,,,,,,,,,,,Still,U4
28199,,,10.4629636006,,,,,,,,,,,,,,,,Still,U4
28249,,,9.38028960455,,,,,,,,,,,,,,,,Still,U4
28307,,,,,,,,,,,,43.8583976725,,,,,,,Still,U4
28352,,,,,,,,,,,,43.9356529484,,,,,,,Still,U4
28403,,,,,,,,,,,,44.1281117393,,,,,,,Still,U4
28453,,,,,,,,,,,,44.1800887921,,,,,,,Still,U4
28503,,,,,,220.772071112,,,,,,,,,,,,,Still,U4
28560,,,9.17243155879,,,,,,,,,,,,,,,,Still,U4
28609,,,9.47408050951,,,,,,,,,,,,,,,,Still,U4
28659,,,10.0162869488,,,,,,,,,,,,,,,,Still,U4
28710,,,10.0382339663,,,,,,,,,,,,,,,,Still,U4
28760,,,9.7590155709,,,,,,,,,,,,,,,,Still,U4
28813,,,,,,,,,,,,44.1390439407,,,,,,,Still,U4
28864,,,,,,,,,,,,44.0193542956,,,,,,,Still,U4
28915,,,,,,,,,,,,44.4638864698,,,,,,,Still,U4
28967,,,,,,,,,,,,45.1120205223,,,,,,,Still,U4
29020,,,9.91692128991,,,,,,,,,,,,,,,,Still,U4
29070,,,10.0117990121,,,,,,,,,,,,,,,,Still,U4
29121,,,9.94507431352,,,,,,,,,,,,,,,,Still,U4
29177,,,,,,,,,,,,46.2117257403,,,,,,,Still,U4
29224,,,,,,,,,,,,45.3943515733,,,,,,,Still,U4
29273,,,,,,,,,,,,43.7240711737,,,,,,,Still,U4
29324,,,,,,,,,,,,43.8890459732,,,,,,,Still,U4
29379,,,9.92920914213,,,,,,,,,,,,,,,,Still,U4
29430,,,9.85511557237,,,,,,,,,,,,,,,,Still,U4
29479,,,9.82784768142,,,,,,,,,,,,,,,,Still,U4
29530,,,9.95183267137,,,,,,,,,,,,,,,,Still,U4
29584,,,,,,,,,,,,46.5897971663,,,,,,,Still,U4
29633,,,,,,,,,,,,45.9263845324,,,,,,,Still,U4
29685,,,,,,,,,,,,44.3740853616,,,,,,,Still,U4
29738,,,9.90926957508,,,,,,,,,,,,,,,,Still,U4
29803,,,9.90598352686,,,,,,,,,,,,,,,,Still,U4
29839,,,9.92077229919,,,,,,,,,,,,,,,,Still,U4
29891,,,9.97362269042,,,,,,,,,,,,,,,,Still,U4
29943,,,,,,,,,,,,43.8690277656,,,,,,,Still,U4
29993,,,,,,,,,,,,43.4435219567,,,,,,,Still,U4
30049,,,9.93364229522,,,,,,,,,,,,,,,,Still,U4
30099,,,9.92997138936,,,,,,,,,,,,,,,,Still,U4
30150,,,9.94877175316,,,,,,,,,,,,,,,,Still,U4
30201,,,9.91484926182,,,,,,,,,,,,,,,,Still,U4
30251,,,9.91673614005,,,,,,,,,,,,,,,,Still,U4
30302,,,9.95619948256,,,,,,,,,,,,,,,,Still,U4
30354,,,,,,,,,,,,44.1641573633,,,,,,,Still,U4
30405,,,,,,,,,,,,44.8576945212,,,,,,,Still,U4
30460,,,9.9486797611,,,,,,,,,,,,,,,,Still,U4
30510,,,9.90924200458,,,,,,,,,,,,,,,,Still,U4
30564,,,,,,,,,,,,44.2719500298,,,,,,,Still,U4
30616,,,,,,,,,,,,43.7901769305,,,,,,,Still,U4
30670,,,9.92702881349,,,,,,,,,,,,,,,,Still,U4
30719,,,9.90403458502,,,,,,,,,,,,,,,,Still,U4
30768,,,9.89463063413,,,,,,,,,,,,,,,,Still,U4
30819,,,9.84596359129,,,,,,,,,,,,,,,,Still,U4
30873,,,,,,,,,,,,44.8092351785,,,,,,,Still,U4
30928,,,,,,,,,,,,43.7377777213,,,,,,,Still,U4
30975,,,,,,,,,,,,44.2965398622,,,,,,,Still,U4
31026,,,,,,,,,,,,43.4342399496,,,,,,,Still,U4
31075,,,,,,,,,,,,43.8540488439,,,,,,,Still,U4
31129,,,9.91888193907,,,,,,,,,,,,,,,,Still,U4
31179,,,9.91885882272,,,,,,,,,,,,,,,,Still,U4
31231,,,9.9170370863,,,,,,,,,,,,,,,,Still,U4
31284,,,9.92287022583,,,,,,,,,,,,,,,,Still,U4
31335,,,,,,,,,,,,44.6121257194,,,,,,,Still,U4
31385,,,,,,,,,,,,44.8743044514,,,,,,,Still,U4
31440,,,9.9408641087,,,,,,,,,,,,,,,,Still,U4
31489,,,9.91875187986,,,,,,,,,,,,,,,,Still,U4
31541,,,9.9452318753,,,,,,,,,,,,,,,,Still,U4
31593,,,9.93440373903,,,,,,,,,,,,,,,,Still,U4
31645,,,,,,,,,,,,44.1995610213,,,,,,,Still,U4
31700,,,9.92713020938,,,,,,,,,,,,,,,,Still,U4
31751,,,9.94794736205,,,,,,,,,,,,,,,,Still,U4
31800,,,9.91893236854,,,,,,,,,,,,,,,,Still,U4
31850,,,9.99281811102,,,,,,,,,,,,,,,,Still,U4
31905,,,,,,,,,,,,44.1452012819,,,,,,,Still,U4
31954,,,,,,,,,,,,44.01604253,,,,,,,Still,U4
32010,,,9.3583478,,,,,,,,,,,,,,,,Still,U4
32064,,,9.38205541141,,,,,,,,,,,,,,,,Still,U4
32110,,,9.6172311873,,,,,,,,,,,,,,,,Still,U4
32164,,,,,,,,,,,,44.7595978534,,,,,,,Still,U4
32214,,,,,,,,,,,,45.3252247624,,,,,,,Still,U4
32266,,,,,,,,,,,,46.1168968018,,,,,,,Still,U4
32320,,,10.1578952116,,,,,,,,,,,,,,,,Still,U4
32374,,,,,,,,,,,,44.0331738579,,,,,,,Still,U4
32423,,,,,,,,,,,,44.1469931551,,,,,,,Still,U4
32475,,,,,,,,,,,,45.040501166,,,,,,,Still,U4
32531,,,10.9683581544,,,,,,,,,,,,,,,,Still,U4
32580,,,10.2159438106,,,,,,,,,,,,,,,,Still,U4
32630,,,9.72057196064,,,,,,,,,,,,,,,,Still,U4
32681,,,9.86276301749,,,,,,,,,,,,,,,,Still,U4
32733,,,9.98471579649,,,,,,,,,,,,,,,,Still,U4
32784,,,,,,202.097393834,,,,,,,,,,,,,Still,U4
32840,,,10.1499425728,,,,,,,,,,,,,,,,Still,U4
32889,,,10.0795466548,,,,,,,,,,,,,,,,Still,U4
32940,,,9.94909021251,,,,,,,,,,,,,,,,Still,U4
32996,,,,,,,,,,,,44.2482813226,,,,,,,Still,U4
33042,,,10.2199696401,,,,,,,,,,,,,,,,Still,U4
33096,,,,,,,,,,,,44.8560096308,,,,,,,Still,U4
33146,,,,,,,,,,,,43.8972072005,,,,,,,Still,U4
33203,,,9.88795465831,,,,,,,,,,,,,,,,Still,U4
33250,,,9.4939832301,,,,,,,,,,,,,,,,Still,U4
33304,,,,,,,,,,,,44.3679614136,,,,,,,Still,U4
33354,,,,,,,,,,,,43.987241783,,,,,,,Still,U4
33405,,,,,,,,,,,,43.8773973704,,,,,,,Still,U4
33461,,,10.3298412427,,,,,,,,,,,,,,,,Still,U4
33510,,,10.0701477652,,,,,,,,,,,,,,,,Still,U4
33559,,,9.73005930507,,,,,,,,,,,,,,,,Still,U4
33614,,,,,,,,,,,,43.692978841,,,,,,,Still,U4
33665,,,10.0660125242,,,,,,,,,,,,,,,,Still,U4
33714,,,,,,,,,,,,43.8127378738,,,,,,,Still,U4
33770,,,9.79041951606,,,,,,,,,,,,,,,,Still,U4
33819,,,9.98690573063,,,,,,,,,,,,,,,,Still,U4
33870,,,9.90307142362,,,,,,,,,,,,,,,,Still,U4
33923,,,,,,,,,,,,44.2152350133,,,,,,,Still,U4
33976,,,,,,,,,,,,44.1452420458,,,,,,,Still,U4
34025,,,,,,,,,,,,44.2830076878,,,,,,,Still,U4
34074,,,,,,,,,,,,44.225942408,,,,,,,Still,U4
34127,,,,,,,,,,,,45.0274712215,,,,,,,Still,U4
34180,,,9.74238115594,,,,,,,,,,,,,,,,Still,U4
34230,,,9.95680734391,,,,,,,,,,,,,,,,Still,U4
34280,,,10.4074684513,,,,,,,,,,,,,,,,Still,U4
34335,,,,,,,,,,,,43.1235156266,,,,,,,Still,U4
34384,,,,,,,,,,,,43.5531399557,,,,,,,Still,U4
34443,,,9.336305515,,,,,,,,,,,,,,,,Still,U4
34489,,,9.61277716739,,,,,,,,,,,,,,,,Still,U4
34540,,,11.1555453567,,,,,,,,,,,,,,,,Still,U4
34591,,,10.0087991636,,,,,,,,,,,,,,,,Still,U4
34645,,,,,,,,,,,,44.3440593541,,,,,,,Still,U4
34695,,,,,,,,,,,,44.1620375182,,,,,,,Still,U4
34750,,,11.1164288214,,,,,,,,,,,,,,,,Still,U4
34800,,,,,,,,,,,,44.3340317539,,,,,,,Still,U4
34850,,,10.0704391882,,,,,,,,,,,,,,,,Still,U4
34902,,,9.88925748763,,,,,,,,,,,,,,,,Still,U4
34963,,,,,,,,,,,,44.5617046604,,,,,,,Still,U4
35013,,,,,,,,,,,,44.45841915,,,,,,,Still,U4
35069,,,9.81100737814,,,,,,,,,,,,,,,,Still,U4
35119,,,9.79716698287,,,,,,,,,,,,,,,,Still,U4
35168,,,10.033925614,,,,,,,,,,,,,,,,Still,U4
35220,,,10.1002990417,,,,,,,,,,,,,,,,Still,U4
35271,,,9.71026791957,,,,,,,,,,,,,,,,Still,U4
35324,,,,,,,,,,,,44.5496638627,,,,,,,Still,U4
35374,,,,,,,,,,,,44.1269713441,,,,,,,Still,U4
35431,,,9.95215938553,,,,,,,,,,,,,,,,Still,U4
35481,,,9.56499166269,,,,,,,,,,,,,,,,Still,U4
35530,,,10.0706392951,,,,,,,,,,,,,,,,Still,U4
35582,,,12.9228778054,,,,,,,,,,,,,,,,Still,U4
35633,,,,,,,,,,,,43.7353907036,,,,,,,Still,U4
35685,,,,,,,,,,,,43.2607900288,,,,,,,Still,U4
35739,,,8.60106627352,,,,,,,,,,,,,,,,Still,U4
35788,,,7.83063124331,,,,,,,,,,,,,,,,Still,U4
35843,,,,,,,,,,,,43.3403553285,,,,,,,Still,U4
35894,,,,,,,,,,,,44.5197169802,,,,,,,Still,U4
35948,,,,,,,,,,,,44.8717366885,,,,,,,Still,U4
35994,,,,,,,,,,,,44.7875384454,,,,,,,Still,U4
36046,,,,,,,,,,,,45.5845236895,,,,,,,Still,U4
36105,,,11.5473807831,,,,,,,,,,,,,,,,Still,U4
36151,,,12.9051228061,,,,,,,,,,,,,,,,Still,U4
36200,,,14.7992282037,,,,,,,,,,,,,,,,Still,U4
36254,,,,,,,,,,,,46.1793062798,,,,,,,Still,U4
36304,,,,,,,,,,,,45.7615165833,,,,,,,Still,U4
36357,,,,,,,,,,,,46.1424966815,,,,,,,Still,U4
36410,,,10.4133232476,,,,,,,,,,,,,,,,Still,U4
36459,,,9.18719828342,,,,,,,,,,,,,,,,Still,U4
36510,,,8.80837195873,,,,,,,,,,,,,,,,Still,U4
36565,,,,,,,,,,,,46.4400775193,,,,,,,Still,U4
36621,,,10.5770314255,,,,,,,,,,,,,,,,Still,U4
36671,,,9.23380985122,,,,,,,,,,,,,,,,Still,U4
36720,,,8.46595158789,,,,,,,,,,,,,,,,Still,U4
36771,,,8.90719714127,,,,,,,,,,,,,,,,Still,U4
36824,,,,,,,,,,,,44.953335805,,,,,,,Still,U4
36874,,,,,,,,,,,,45.2359016711,,,,,,,Still,U4
36926,,,,,,,,,,,,45.6054075741,,,,,,,Still,U4
36977,,,,,,,,,,,,45.7663132306,,,,,,,Still,U4
37033,,,7.41730335756,,,,,,,,,,,,,,,,Still,U4
37084,,,,,,,,,,,,45.218508975,,,,,,,Still,U4
37136,,,,,,,,,,,,43.2855815209,,,,,,,Still,U4
37185,,,,,,,,,,,,43.5030615295,,,,,,,Still,U4
37239,,,9.12670704911,,,,,,,,,,,,,,,,Still,U4
37290,,,8.85983017896,,,,,,,,,,,,,,,,Still,U4
37342,,,8.90831415358,,,,,,,,,,,,,,,,Still,U4
37390,,,8.68603710029,,,,,,,,,,,,,,,,Still,U4
37445,,,,,,,,,,,,40.1443943783,,,,,,,Still,U4
37499,,,,,,,,,,,,41.2764242637,,,,,,,Still,U4
37549,,,10.0913052951,,,,,,,,,,,,,,,,Still,U4
37600,,,11.7956604862,,,,,,,,,,,,,,,,Still,U4
37650,,,11.8606422114,,,,,,,,,,,,,,,,Still,U4
37702,,,11.7342421744,,,,,,,,,,,,,,,,Still,U4
37751,,,16.2279944303,,,,,,,,,,,,,,,,Still,U4
37805,,,,,,,,,,,,35.9033198448,,,,,,,Still,U4
37854,,,,,,,,,,,,36.964771778,,,,,,,Still,U4
37915,,,11.0221888422,,,,,,,,,,,,,,,,Still,U4
37961,,,10.0654194772,,,,,,,,,,,,,,,,Still,U4
38009,,,9.08873801737,,,,,,,,,,,,,,,,Still,U4
38063,,,,,,,,,,,,34.77624973,,,,,,,Still,U4
38114,,,,,,,,,,,,34.0390951701,,,,,,,Still,U4
38163,,,,,,,,,,,,35.352221167,,,,,,,Still,U4
38221,,,9.31557519643,,,,,,,,,,,,,,,,Still,U4
38270,,,9.68280504386,,,,,,,,,,,,,,,,Still,U4
38323,,,,,,,,,,,,35.459643765,,,,,,,Still,U4
38373,,,,,,,,,,,,34.0399399095,,,,,,,Still,U4
38423,,,,,,,,,,,,34.3430691016,,,,,,,Still,U4
38474,,,,,,,,,,,,35.8975032692,,,,,,,Still,U4
38530,,,5.78928880667,,,,,,,,,,,,,,,,Still,U4
38583,,,10.3081726044,,,,,,,,,,,,,,,,Still,U4
38629,,,9.7661128833,,,,,,,,,,,,,,,,Still,U4
38680,,,8.89065137123,,,,,,,,,,,,,,,,Still,U4
38734,,,,,,,,,,,,33.6502116106,,,,,,,Still,U4
38781,,,8.99431451442,,,,,,,,,,,,,,,,Still,U4
38834,,,,,,,,,,,,36.0556070535,,,,,,,Still,U4
38885,,,,,,,,,,,,35.3504390372,,,,,,,Still,U4
38934,,,,,,100.48593603,,,,,,,,,,,,,Still,U4
38993,,,,,,,,,,,,36.0486662688,,,,,,,Still,U4
39045,,,,,,,,,,,,34.7103490817,,,,,,,Still,U4
39100,,,11.5818284785,,,,,,,,,,,,,,,,Still,U4
39150,,,14.3220654377,,,,,,,,,,,,,,,,Still,U4
39200,,,11.0263653635,,,,,,,,,,,,,,,,Still,U4
39253,,,9.16697509314,,,,,,,,,,,,,,,,Still,U4
39304,,,,,,,,,,,,37.0860674648,,,,,,,Still,U4
39354,,,,,,,,,,,,36.7438157311,,,,,,,Still,U4
39406,,,,,,,,,,,,37.5155960912,,,,,,,Still,U4
39458,,,7.31488157081,,,,,,,,,,,,,,,,Still,U4
39508,,,9.26631683589,,,,,,,,,,,,,,,,Still,U4
39563,,,,,,,,,,,,35.7015624835,,,,,,,Still,U4
39613,,,,,,,,,,,,36.7330858482,,,,,,,Still,U4
39664,,,,,,,,,,,,37.5322420606,,,,,,,Still,U4
39720,,,11.1124551197,,,,,,,,,,,,,,,,Still,U4
39766,,,,,,,,,,,,37.773752714,,,,,,,Still,U4
39816,,,,,,,,,,,,38.1368308748,,,,,,,Still,U4
39870,,,14.8103298212,,,,,,,,,,,,,,,,Still,U4
39926,,,11.2346108507,,,,,,,,,,,,,,,,Still,U4
39974,,,,,,,,,,,,38.5075663592,,,,,,,Still,U4
40023,,,,,,,,,,,,38.2906254465,,,,,,,Still,U4
40073,,,,,3.03226380335,,,,,,,,,,,,,,Still,U4
40129,,,9.43875793133,,,,,,,,,,,,,,,,Still,U4
40179,,,10.295939888,,,,,,,,,,,,,,,,Still,U4
40230,,,9.95538884063,,,,,,,,,,,,,,,,Still,U4
40285,,,,,,,,,,,,38.8570751843,,,,,,,Still,U4
40335,,,,,,,,,,,,39.2399541284,,,,,,,Still,U4
40385,,,8.4514005329,,,,,,,,,,,,,,,,Still,U4
40440,,,10.3200965536,,,,,,,,,,,,,,,,Still,U4
40485,,,,,,,,,,,,39.6520112983,,,,,,,Still,U4
40540,,,10.2220778943,,,,,,,,,,,,,,,,Still,U4
40596,,,10.4877667178,,,,,,,,,,,,,,,,Still,U4
40643,,,,,,,,,,,,38.4762835276,,,,,,,Still,U4
40694,,,,,,,,,,,,38.5275219653,,,,,,,Still,U4
40753,,,,,,,,,,,,38.3066515671,,,,,,,Still,U4
40803,,,,,,,,,,,,38.1125155019,,,,,,,Still,U4
40859,,,6.8525716534,,,,,,,,,,,,,,,,Still,U4
40909,,,10.4503761337,,,,,,,,,,,,,,,,Still,U4
40959,,,11.9402770185,,,,,,,,,,,,,,,,Still,U4
41010,,,9.25075993828,,,,,,,,,,,,,,,,Still,U4
41064,,,,9.79541698785,,,,,,,,,,,,,,,Still,U4
41123,,,9.91935318246,,,,,,,,,,,,,,,,Still,U4
41170,,,9.85021916499,,,,,,,,,,,,,,,,Still,U4
41222,,,9.5682315896,,,,,,,,,,,,,,,,Still,U4
41279,,,9.55365535209,,,,,,,,,,,,,,,,Still,U4
41324,,,,,,,,,,,,39.7412933861,,,,,,,Still,U4
41381,,,10.4083856721,,,,,,,,,,,,,,,,Still,U4
41431,,,10.9324435767,,,,,,,,,,,,,,,,Still,U4
41484,,,11.4056592606,,,,,,,,,,,,,,,,Still,U4
41530,,,13.6399723175,,,,,,,,,,,,,,,,Still,U4
41585,,,,,,,,,,,,41.2174228627,,,,,,,Still,U4
41634,,,,,,,,,,,,40.6439663413,,,,,,,Still,U4
41686,,,,,,,,,,,,40.4799061264,,,,,,,Still,U4
41738,,,8.75840246679,,,,,,,,,,,,,,,,Still,U4
41791,,,10.4700604516,,,,,,,,,,,,,,,,Still,U4
41844,,,,,,,,,,,,39.4175341695,,,,,,,Still,U4
41894,,,,,,,,,,,,38.650899084,,,,,,,Still,U4
41945,,,,,,,,,,,,37.9785307773,,,,,,,Still,U4
42000,,,9.51721639118,,,,,,,,,,,,,,,,Still,U4
42049,,,10.6495689221,,,,,,,,,,,,,,,,Still,U4
42101,,,11.1339145089,,,,,,,,,,,,,,,,Still,U4
42155,,,,,,,,,,,,37.0333682767,,,,,,,Still,U4
42203,,,9.09290398185,,,,,,,,,,,,,,,,Still,U4
42255,,,,,,,,,,,,35.6463121279,,,,,,,Still,U4
42310,,,10.0369549673,,,,,,,,,,,,,,,,Still,U4
42360,,,13.7233108104,,,,,,,,,,,,,,,,Still,U4
42414,,,16.170964488,,,,,,,,,,,,,,,,Still,U4
42464,,,,,,,,,,,,34.2494896309,,,,,,,Still,U4
42521,,,10.1468833494,,,,,,,,,,,,,,,,Still,U4
42571,,,8.38181278542,,,,,,,,,,,,,,,,Still,U4
42619,,,7.15577831405,,,,,,,,,,,,,,,,Still,U4
42673,,,7.84471429036,,,,,,,,,,,,,,,,Still,U4
42723,,,9.42639506064,,,,,,,,,,,,,,,,Still,U4
42779,,,10.4539652592,,,,,,,,,,,,,,,,Still,U4
42828,,,11.6907084675,,,,,,,,,,,,,,,,Still,U4
42879,,,13.0022359377,,,,,,,,,,,,,,,,Still,U4
42929,,,12.6808857612,,,,,,,,,,,,,,,,Still,U4
42979,,,,9.79403377995,,,,,,,,,,,,,,,Still,U4
43031,,,9.2695870432,,,,,,,,,,,,,,,,Still,U4
43089,,,,,,,,,,,,38.8327932088,,,,,,,Still,U4
43135,,,,,,,,,,,,39.4673231927,,,,,,,Still,U4
43191,,,8.38516024317,,,,,,,,,,,,,,,,Still,U4
43240,,,7.60025053304,,,,,,,,,,,,,,,,Still,U4
43291,,,8.64323655015,,,,,,,,,,,,,,,,Still,U4
43345,,,,,,,,,,,,38.741092252,,,,,,,Still,U4
43394,,,,,,,,,,,,37.979192636,,,,,,,Still,U4
43446,,,,,,,,,,,,38.9947381029,,,,,,,Still,U4
43499,,,13.58493274,,,,,,,,,,,,,,,,Still,U4
43550,,,11.2886302278,,,,,,,,,,,,,,,,Still,U4
43605,,,,,,,,,,,,38.9915985751,,,,,,,Still,U4
43658,,,,,,,,,,,,38.3687216362,,,,,,,Still,U4
43705,,,,,,,,,,,,38.6042532009,,,,,,,Still,U4
43758,,,11.8294809551,,,,,,,,,,,,,,,,Still,U4
43809,,,9.58888919796,,,,,,,,,,,,,,,,Still,U4
43860,,,7.64055725087,,,,,,,,,,,,,,,,Still,U4
43913,,,,,,,,,,,,39.1209202346,,,,,,,Still,U4
43964,,,,,,,,,,,,39.4018650158,,,,,,,Still,U4
44015,,,,,,,,,,,,39.6872674356,,,,,,,Still,U4
44066,,,,,,,,,,,,39.1134637392,,,,,,,Still,U4
44122,,,11.2523610866,,,,,,,,,,,,,,,,Still,U4
44171,,,,,,,,,,,,39.7237158383,,,,,,,Still,U4
44223,,,,,,,,,,,,39.9202054103,,,,,,,Still,U4
44274,,,,,,,,,,,,39.2808044724,,,,,,,Still,U4
44324,,,,,,,,,,,,39.5228794491,,,,,,,Still,U4
44379,,,6.60120600282,,,,,,,,,,,,,,,,Still,U4
44429,,,10.8546840638,,,,,,,,,,,,,,,,Still,U4
44479,,,10.0348207038,,,,,,,,,,,,,,,,Still,U4
44530,,,8.42939111864,,,,,,,,,,,,,,,,Still,U4
44582,,,,,,,,,,,,37.0278739923,,,,,,,Still,U4
44632,,,,,,,,,,,,37.9297297642,,,,,,,Still,U4
44682,,,,,,,,,,,,39.1694299647,,,,,,,Still,U4
44738,,,8.80077280457,,,,,,,,,,,,,,,,Still,U4
44787,,,,,,,,,,,,38.3082497642,,,,,,,Still,U4
44838,,,12.668092066,,,,,,,,,,,,,,,,Still,U4
44888,,,13.4211318337,,,,,,,,,,,,,,,,Still,U4
44938,,,13.867894191,,,,,,,,,,,,,,,,Still,U4
44988,,,10.4035899477,,,,,,,,,,,,,,,,Still,U4
45038,,,7.94085360396,,,,,,,,,,,,,,,,Still,U4
45088,,,9.91977344794,,,,,,,,,,,,,,,,Still,U4
45139,,,,,,,,,,,,39.1509540114,,,,,,,Still,U4
45192,,,,,,,,,,,,38.9921530562,,,,,,,Still,U4
45242,,,,,,,,,,,,38.6233193809,,,,,,,Still,U4
45292,,,,,,,,,,,,38.8652720392,,,,,,,Still,U4
45342,,,,,,,,,,,,38.8499883537,,,,,,,Still,U4
45392,,,,,,,,,,,,38.4386523684,,,,,,,Still,U4
45448,,,13.6898537943,,,,,,,,,,,,,,,,Still,U4
45498,,,15.2474554663,,,,,,,,,,,,,,,,Still,U4
45548,,,15.1244862696,,,,,,,,,,,,,,,,Still,U4
45598,,,8.54657421451,,,,,,,,,,,,,,,,Still,U4
45648,,,6.81390993631,,,,,,,,,,,,,,,,Still,U4
45698,,,9.78154418797,,,,,,,,,,,,,,,,Still,U4
45760,,,10.5376951577,,,,,,,,,,,,,,,,Still,U4
45814,,,,,,,,,,,,39.5163206729,,,,,,,Still,U4
45863,,,,,,,,,,,,39.923181236,,,,,,,Still,U4
45913,,,,,,,,,,,,39.5444610534,,,,,,,Still,U4
45968,,,8.32977985327,,,,,,,,,,,,,,,,Still,U4
46018,,,9.55974974501,,,,,,,,,,,,,,,,Still,U4
46068,,,12.0197816757,,,,,,,,,,,,,,,,Still,U4
46118,,,14.5704557272,,,,,,,,,,,,,,,,Still,U4
46168,,,13.9036005763,,,,,,,,,,,,,,,,Still,U4
46218,,,13.1612018603,,,,,,,,,,,,,,,,Still,U4
46268,,,8.41230220733,,,,,,,,,,,,,,,,Still,U4
46318,,,8.14763409969,,,,,,,,,,,,,,,,Still,U4
46372,,,,,,,,,,,,39.7927109142,,,,,,,Still,U4
46422,,,,,,,,,,,,40.9587333372,,,,,,,Still,U4
46473,,,,,,,,,,,,40.9705532779,,,,,,,Still,U4
46528,,,9.14434612394,,,,,,,,,,,,,,,,Still,U4
46578,,,9.36371294306,,,,,,,,,,,,,,,,Still,U4
46628,,,9.18811625108,,,,,,,,,,,,,,,,Still,U4
46678,,,9.28495000416,,,,,,,,,,,,,,,,Still,U4
46728,,,11.26099318,,,,,,,,,,,,,,,,Still,U4
46783,,,,,,,,,,,,39.8304657107,,,,,,,Still,U4
46833,,,,,,,,,,,,40.4870201423,,,,,,,Still,U4
46883,,,,,,,,,,,,41.0916779896,,,,,,,Still,U4
46933,,,,,,,,,,,,41.7399069764,,,,,,,Still,U4
46988,,,9.51376575513,,,,,,,,,,,,,,,,Still,U4
47038,,,11.0439349052,,,,,,,,,,,,,,,,Still,U4
47092,,,,,,,,,,,,41.2495527042,,,,,,,Still,U4
47143,,,,,,,,,,,,41.7960590258,,,,,,,Still,U4
47193,,,,,,,,,,,,41.7804691213,,,,,,,Still,U4
47243,,,,,,,,,,,,41.5349953297,,,,,,,Still,U4
47294,,,,,,,,,,,,41.6408645443,,,,,,,Still,U4
47349,,,11.4960820852,,,,,,,,,,,,,,,,Still,U4
47399,,,13.9636806867,,,,,,,,,,,,,,,,Still,U4
47449,,,15.312290153,,,,,,,,,,,,,,,,Still,U4
47499,,,12.5783436489,,,,,,,,,,,,,,,,Still,U4
47549,,,9.2861051149,,,,,,,,,,,,,,,,Still,U4
47600,,,7.79299077172,,,,,,,,,,,,,,,,Still,U4
47655,,,,,,,,,,,,41.2674835676,,,,,,,Still,U4
47703,,,,,,,,,,,,41.6648484937,,,,,,,Still,U4
47754,,,,,,,,,,,,42.0141830781,,,,,,,Still,U4
47846,,,,,,,,,,,,41.2191702973,,,,,,,Still,U4
47862,,,8.98605113851,,,,,,,,,,,,,,,,Still,U4
47908,,,9.12858582585,,,,,,,,,,,,,,,,Still,U4
47962,,,,,,,,,,,,41.8909995068,,,,,,,Still,U4
48012,,,,,,,,,,,,41.8444403533,,,,,,,Still,U4
48063,,,,,,,,,,,,41.4193848092,,,,,,,Still,U4
48112,,,,,,,,,,,,42.0497273937,,,,,,,Still,U4
48162,,,,,,,,,,,,41.9918563441,,,,,,,Still,U4
48218,,,6.72385273076,,,,,,,,,,,,,,,,Still,U4
48268,,,10.0591580549,,,,,,,,,,,,,,,,Still,U4
48318,,,10.5778418981,,,,,,,,,,,,,,,,Still,U4
48368,,,7.21719602603,,,,,,,,,,,,,,,,Still,U4
48417,,,,,,,,,,,,,,,,,,,Still,U4
48468,,,8.96164507628,,,,,,,,,,,,,,,,Still,U4
48518,,,8.4005466671,,,,,,,,,,,,,,,,Still,U4
48568,,,9.03836480345,,,,,,,,,,,,,,,,Still,U4
48619,,,10.5382000581,,,,,,,,,,,,,,,,Still,U4
48672,,,,,,,,,,,,42.3156991388,,,,,,,Still,U4
48722,,,,,,,,,,,,42.0727512768,,,,,,,Still,U4
48773,,,,,,,,,,,,42.0538366925,,,,,,,Still,U4
48822,,,,,,,,,,,,41.8308017929,,,,,,,Still,U4
48872,,,,,,312.700488812,,,,,,,,,,,,,Still,U4
48928,,,8.91644441949,,,,,,,,,,,,,,,,Still,U4
48978,,,9.94102533081,,,,,,,,,,,,,,,,Still,U4
49028,,,8.64391556749,,,,,,,,,,,,,,,,Still,U4
49078,,,9.22158505938,,,,,,,,,,,,,,,,Still,U4
49128,,,8.75722921781,,,,,,,,,,,,,,,,Still,U4
49179,,,8.97187854169,,,,,,,,,,,,,,,,Still,U4
49234,,,,,,,,,,,,41.9526997396,,,,,,,Still,U4
49282,,,,,,,,,,,,41.6442332344,,,,,,,Still,U4
49332,,,,,,,,,,,,41.9056511702,,,,,,,Still,U4
49382,,,,,,,,,,,,41.5975287728,,,,,,,Still,U4
49438,,,11.8902253464,,,,,,,,,,,,,,,,Still,U4
49488,,,5.91132629917,,,,,,,,,,,,,,,,Still,U4
49538,,,6.98161021908,,,,,,,,,,,,,,,,Still,U4
49588,,,10.7131423921,,,,,,,,,,,,,,,,Still,U4
49638,,,9.94554962292,,,,,,,,,,,,,,,,Still,U4
49688,,,8.91779692757,,,,,,,,,,,,,,,,Still,U4
49743,,,,,,,,,,,,41.1777075613,,,,,,,Still,U4
49793,,,,,,,,,,,,40.9568015402,,,,,,,Still,U4
49842,,,,,,,,,,,,41.6699892009,,,,,,,Still,U4
49892,,,,,,,,,,,,41.4855202892,,,,,,,Still,U4
49943,,,,,,,,,,,,42.1472560825,,,,,,,Still,U4
49998,,,14.8587913597,,,,,,,,,,,,,,,,Still,U4
50048,,,13.0956417254,,,,,,,,,,,,,,,,Still,U4
50098,,,13.0361765252,,,,,,,,,,,,,,,,Still,U4
50148,,,9.30681869144,,,,,,,,,,,,,,,,Still,U4
50203,,,7.3076056321,,,,,,,,,,,,,,,,Still,U4
50252,,,,,,,,,,,,41.0127540677,,,,,,,Still,U4
50302,,,,,,,,,,,,41.876862312,,,,,,,Still,U4
50352,,,,,,,,,,,,41.8052311679,,,,,,,Still,U4
50403,,,,,,,,,,,,41.3017094077,,,,,,,Still,U4
50454,,,,,,,,,,,,41.5616823259,,,,,,,Still,U4
50508,,,8.867549076,,,,,,,,,,,,,,,,Still,U4
50558,,,9.08998395534,,,,,,,,,,,,,,,,Still,U4
50608,,,10.4082618195,,,,,,,,,,,,,,,,Still,U4
50658,,,12.9063909456,,,,,,,,,,,,,,,,Still,U4
50708,,,14.5931996958,,,,,,,,,,,,,,,,Still,U4
50758,,,15.0364158979,,,,,,,,,,,,,,,,Still,U4
50809,,,11.0425976595,,,,,,,,,,,,,,,,Still,U4
50859,,,6.15974846175,,,,,,,,,,,,,,,,Still,U4
50915,,,,,,,,,,,,42.3879056892,,,,,,,Still,U4
50963,,,,,,,,,,,,42.2691802617,,,,,,,Still,U4
51013,,,,,,,,,,,,42.7741088019,,,,,,,Still,U4
51068,,,7.53765891949,,,,,,,,,,,,,,,,Still,U4
51118,,,7.74169168945,,,,,,,,,,,,,,,,Still,U4
51168,,,8.04304077023,,,,,,,,,,,,,,,,Still,U4
51218,,,8.90287150162,,,,,,,,,,,,,,,,Still,U4
51268,,,9.88554253888,,,,,,,,,,,,,,,,Still,U4
51318,,,10.8474959283,,,,,,,,,,,,,,,,Still,U4
51373,,,,,,,,,,,,43.050616475,,,,,,,Still,U4
51422,,,,,,,,,,,,43.188748258,,,,,,,Still,U4
51472,,,,,,,,,,,,42.3029360683,,,,,,,Still,U4
51522,,,,,,,,,,,,42.6772116663,,,,,,,Still,U4
51572,,,,,,,,,,,,42.2122920034,,,,,,,Still,U4
51623,,,,,,,,,,,,42.403447973,,,,,,,Still,U4
51678,,,12.8430690202,,,,,,,,,,,,,,,,Still,U4
51728,,,11.5948834664,,,,,,,,,,,,,,,,Still,U4
51779,,,10.0204246618,,,,,,,,,,,,,,,,Still,U4
51829,,,9.19657235543,,,,,,,,,,,,,,,,Still,U4
51878,,,8.50485168718,,,,,,,,,,,,,,,,Still,U4
51928,,,11.6009170568,,,,,,,,,,,,,,,,Still,U4
51986,,,,,,,,,,,,42.9140948985,,,,,,,Still,U4
52030,,,9.90446502727,,,,,,,,,,,,,,,,Still,U4
52082,,,,,,,,,,,,42.4707617073,,,,,,,Still,U4
52132,,,,,,,,,,,,45.0217147608,,,,,,,Still,U4
52182,,,,,,,,,,,,45.8912148455,,,,,,,Still,U4
52238,,,11.8765221526,,,,,,,,,,,,,,,,Still,U4
52288,,,8.94132757792,,,,,,,,,,,,,,,,Still,U4
52338,,,6.22669964515,,,,,,,,,,,,,,,,Still,U4
52389,,,8.19190995753,,,,,,,,,,,,,,,,Still,U4
52439,,,5.79571699147,,,,,,,,,,,,,,,,Still,U4
52490,,,10.0665400483,,,,,,,,,,,,,,,,Still,U4
52543,,,,,,,,,,,,43.7539895324,,,,,,,Still,U4
52593,,,,9.81137852556,,,,,,,,,,,,,,,Still,U4
52646,,,10.7308920375,,,,,,,,,,,,,,,,Still,U4
52699,,,9.94893806404,,,,,,,,,,,,,,,,Still,U4
52748,,,10.6486896186,,,,,,,,,,,,,,,,Still,U4
52799,,,10.5956147086,,,,,,,,,,,,,,,,Still,U4
52852,,,,,,,,,,,,44.9171234337,,,,,,,Still,U4
52902,,,,,,,,,,,,43.722877307,,,,,,,Still,U4
52952,,,,,,,,,,,,45.810815072,,,,,,,Still,U4
53003,,,,,,,,,,,,45.5570718989,,,,,,,Still,U4
53052,,,,,,18.0774700076,,,,,,,,,,,,,Still,U4
53108,,,8.85532583279,,,,,,,,,,,,,,,,Still,U4
53159,,,9.92788327716,,,,,,,,,,,,,,,,Still,U4
53208,,,11.1968109023,,,,,,,,,,,,,,,,Still,U4
53262,,,,,,,,,,,,45.2846196155,,,,,,,Still,U4
53312,,,,,,,,,,,,44.4910822525,,,,,,,Still,U4
53362,,,,,,,,,,,,43.9523212724,,,,,,,Still,U4
53412,,,,,,,,,,,,45.2991255331,,,,,,,Still,U4
53504,,,9.96314272133,,,,,,,,,,,,,,,,Still,U4
53518,,,8.06294326504,,,,,,,,,,,,,,,,Still,U4
53568,,,10.1527794164,,,,,,,,,,,,,,,,Still,U4
53619,,,11.1191802713,,,,,,,,,,,,,,,,Still,U4
53668,,,9.95197103141,,,,,,,,,,,,,,,,Still,U4
53722,,,,,,,,,,,,45.5626425924,,,,,,,Still,U4
53773,,,,,,,,,,,,46.6015407471,,,,,,,Still,U4
53822,,,,,,,,,,,,46.2058827286,,,,,,,Still,U4
53872,,,,,,,,,,,,46.9024263609,,,,,,,Still,U4
53962,,,,,,,,,,,,46.5661078468,,,,,,,Still,U4
54012,,,,,,,,,,,,47.1963981677,,,,,,,Still,U4
54062,,,,,,,,,,,,46.6449740058,,,,,,,Still,U4
54114,,,,,,,,,,,,45.8187103604,,,,,,,Still,U4
54163,,,,,,350.843526279,,,,,,,,,,,,,Still,U4
54219,,,9.85654387062,,,,,,,,,,,,,,,,Still,U4
54268,,,9.93828475461,,,,,,,,,,,,,,,,Still,U4
54319,,,10.1522509256,,,,,,,,,,,,,,,,Still,U4
54374,,,,,,,,,,,,45.4171861744,,,,,,,Still,U4
54423,,,,,,,,,,,,45.5320939857,,,,,,,Still,U4
54475,,,,,,,,,,,,44.1261961875,,,,,,,Still,U4
54524,,,,,,,,,,,,44.2045291797,,,,,,,Still,U4
54578,,,10.4932882492,,,,,,,,,,,,,,,,Still,U4
