time,activityrecognition#0,activityrecognition#1,android.sensor.accelerometer#0,android.sensor.gravity#0,android.sensor.linear_acceleration#0,android.sensor.orientation#0,android.sensor.gyroscope_uncalibrated#0,android.sensor.magnetic_field_uncalibrated#0,android.sensor.rotation_vector#0,android.sensor.gyroscope#0,android.sensor.game_rotation_vector#0,android.sensor.magnetic_field#0,android.sensor.pressure#0,android.sensor.light#0,sound#0,speed#0,android.sensor.proximity#0,android.sensor.step_counter#0,target,user
60,,,,,,,,,,,,,,,,,,,Walking,U12
138,,,,,,,,,,,,,,,,,,,Walking,U12
193,,,,,,,,,,,,,,,,,,,Walking,U12
272,,,,,,,,,,,,,,,,,,,Walking,U12
327,,,,,,,,,,,,,,,,,,,Walking,U12
380,,,,,,,,,,,,,,,,,,,Walking,U12
433,,,,,,,,,,,,,,,,,,,Walking,U12
487,,,,,,,,,,,,,,,,,,,Walking,U12
540,,,,,,,,,,,,,,,,,,,Walking,U12
592,,,,,,,,,,,,,,,,,,,Walking,U12
645,,,,,,,,,,,,,,,,,,,Walking,U12
697,,,,,,,,,,,,,,,,,,,Walking,U12
749,,,,,,,,,,,,,,,,,,,Walking,U12
801,,,,,,,,,,,,,,,,,,,Walking,U12
853,,,,,,,,,,,,,,,,,,,Walking,U12
905,,,,,,,,,,,,,,,,,,,Walking,U12
958,,,,,,,,,,,,,,,,,,,Walking,U12
1010,,,,,,,,,,,,,,,,,,,Walking,U12
1065,,,,,,,,,,,,,,,,,,,Walking,U12
1117,,,,,,,,,,,,,,,,,,,Walking,U12
1169,,,,,,,,,,,,,,,,,,,Walking,U12
1221,,,,,,,,,,,,,,,,,,,Walking,U12
1273,,,,,,,,,,,,,,,,,,,Walking,U12
1324,,,,,,,,,,,,,,,,,,,Walking,U12
1377,,,,,,,,,,,,,,,,,,,Walking,U12
1431,,,,,,,,,,,,,,,,,,,Walking,U12
1486,,,,,,,,,,,,,,,,,,,Walking,U12
1541,,,,,,,,,,,,,,,,,,,Walking,U12
1595,,,,,,,,,,,,,,,,,,,Walking,U12
1655,,,,,,,,,,,,,,,,,,,Walking,U12
1709,,,,,,,,,,,,,,,,,,,Walking,U12
