time,activityrecognition#0,activityrecognition#1,android.sensor.accelerometer#0,android.sensor.gravity#0,android.sensor.linear_acceleration#0,android.sensor.orientation#0,android.sensor.gyroscope_uncalibrated#0,android.sensor.magnetic_field_uncalibrated#0,android.sensor.rotation_vector#0,android.sensor.gyroscope#0,android.sensor.game_rotation_vector#0,android.sensor.magnetic_field#0,android.sensor.pressure#0,android.sensor.light#0,sound#0,speed#0,android.sensor.proximity#0,android.sensor.step_counter#0,target,user
24,,,9.63485797244,,,,,,,,,,,,,,,,Bus,U7
82,,,,,,,0.912658854996,,,,,,,,,,,,Bus,U7
135,,,,,,,0.463003616326,,,,,,,,,,,,Bus,U7
183,,,,,,,0.412462085943,,,,,,,,,,,,Bus,U7
235,,,9.88809839448,,,,,,,,,,,,,,,,Bus,U7
284,,,9.5317404961,,,,,,,,,,,,,,,,Bus,U7
336,,,9.45547526182,,,,,,,,,,,,,,,,Bus,U7
390,,,,,,,1.411839599,,,,,,,,,,,,Bus,U7
441,,,,,,,0.765816480311,,,,,,,,,,,,Bus,U7
491,,,,,,,1.01369252721,,,,,,,,,,,,Bus,U7
542,,,,,,,0.590121111622,,,,,,,,,,,,Bus,U7
594,,,,,,,0.92776252552,,,,,,,,,,,,Bus,U7
642,,,,,,,0.101880894081,,,,,,,,,,,,Bus,U7
695,,,9.86556792032,,,,,,,,,,,,,,,,Bus,U7
745,,,10.0394964714,,,,,,,,,,,,,,,,Bus,U7
802,,,,,,,0.860337714715,,,,,,,,,,,,Bus,U7
850,,,,,,,,,,,,,,,,,,,Bus,U7
904,,,,,,,0.859036403362,,,,,,,,,,,,Bus,U7
955,,,,,,,0.453934935157,,,,,,,,,,,,Bus,U7
1003,,,,,,,0.434520621877,,,,,,,,,,,,Bus,U7
1054,,,,,,,0.595284989942,,,,,,,,,,,,Bus,U7
1103,,,,,,,0.967743987583,,,,,,,,,,,,Bus,U7
1156,,,7.90056247977,,,,,,,,,,,,,,,,Bus,U7
1204,,,,,,,,,,1.91242658557,,,,,,,,,Bus,U7
1257,,,9.33022325925,,,,,,,,,,,,,,,,Bus,U7
1310,,,14.4781718082,,,,,,,,,,,,,,,,Bus,U7
1363,,,,,,,1.57772571912,,,,,,,,,,,,Bus,U7
1413,,,,,,,0.353037833264,,,,,,,,,,,,Bus,U7
1544,,,,,,,2.20756590726,,,,,,,,,,,,Bus,U7
1593,,,,,,,1.99070851184,,,,,,,,,,,,Bus,U7
1695,,,9.26753514146,,,,,,,,,,,,,,,,Bus,U7
1746,,,9.55082118971,,,,,,,,,,,,,,,,Bus,U7
1849,,,,,,,,,,,,,,,,,,,Bus,U7
1903,,,,,,,1.68636391637,,,,,,,,,,,,Bus,U7
1953,,,,,,,1.62802461035,,,,,,,,,,,,Bus,U7
2004,,,,,,,1.45086601971,,,,,,,,,,,,Bus,U7
2053,,,,,,,0.937252842369,,,,,,,,,,,,Bus,U7
2103,,,,,,,0.713639122292,,,,,,,,,,,,Bus,U7
2155,,,8.98992840886,,,,,,,,,,,,,,,,Bus,U7
2206,,,,,,,0.326597609717,,,,,,,,,,,,Bus,U7
2308,,,11.2101176166,,,,,,,,,,,,,,,,Bus,U7
2362,,,,,,,1.33757842533,,,,,,,,,,,,Bus,U7
2411,,,,,,,0.726473670522,,,,,,,,,,,,Bus,U7
2463,,,,,,,0.53913349433,,,,,,,,,,,,Bus,U7
2513,,,,,,,0.704217159042,,,,,,,,,,,,Bus,U7
2564,,,,,,,0.570082281455,,,,,,,,,,,,Bus,U7
2612,,,,,,,,,,,,41.5162621487,,,,,,,Bus,U7
2663,,,,,,,0.594847291596,,,,,,,,,,,,Bus,U7
2715,,,10.5374882536,,,,,,,,,,,,,,,,Bus,U7
2765,,,10.4894868905,,,,,,,,,,,,,,,,Bus,U7
2815,,,10.2270496089,,,,,,,,,,,,,,,,Bus,U7
2917,,,8.66644991736,,,,,,,,,,,,,,,,Bus,U7
2969,,,10.6447717729,,,,,,,,,,,,,,,,Bus,U7
3123,,,,,,,0.334825486167,,,,,,,,,,,,Bus,U7
3172,,,,,,,0.398117335736,,,,,,,,,,,,Bus,U7
3224,,,,,,,,,,,,,,,,,,,Bus,U7
3275,,,,,,,0.380605809113,,,,,,,,,,,,Bus,U7
3325,,,,,,,0.22321253275,,,,,,,,,,,,Bus,U7
3383,,,,,,,0.653954533059,,,,,,,,,,,,Bus,U7
3432,,,,,,,0.0664805516957,,,,,,,,,,,,Bus,U7
3483,,,,,,,0.213701585123,,,,,,,,,,,,Bus,U7
3531,,,9.66534070398,,,,,,,,,,,,,,,,Bus,U7
3585,,,,,,,0.177487626971,,,,,,,,,,,,Bus,U7
3634,,,,,,,0.180956396133,,,,,,,,,,,,Bus,U7
3687,,,,,,,0.392846655926,,,,,,,,,,,,Bus,U7
3737,,,10.2082581454,,,,,,,,,,,,,,,,Bus,U7
3785,,,,,,,,,,,0.504216982133,,,,,,,,Bus,U7
3843,,,,,,,0.241058919315,,,,,,,,,,,,Bus,U7
3892,,,,,,,0.309565866465,,,,,,,,,,,,Bus,U7
3943,,,,,,,0.211083773698,,,,,,,,,,,,Bus,U7
3993,,,,,,,0.0464578996771,,,,,,,,,,,,Bus,U7
4043,,,10.7718933948,,,,,,,,,,,,,,,,Bus,U7
4100,,,,,,,0.324762062724,,,,,,,,,,,,Bus,U7
4144,,,,,,,0.618685595876,,,,,,,,,,,,Bus,U7
4196,,,,,,,0.416344883666,,,,,,,,,,,,Bus,U7
4249,,,,,,,0.190863856935,,,,,,,,,,,,Bus,U7
4306,,,10.4395065031,,,,,,,,,,,,,,,,Bus,U7
4358,,,,,,,0.177508654417,,,,,,,,,,,,Bus,U7
4405,,,,,,,0.932042690583,,,,,,,,,,,,Bus,U7
4454,,,,,,,0.168519109434,,,,,,,,,,,,Bus,U7
4505,,,,,,,,,,,0.497170264186,,,,,,,,Bus,U7
4561,,,8.5145295203,,,,,,,,,,,,,,,,Bus,U7
4611,,,10.8894587327,,,,,,,,,,,,,,,,Bus,U7
4661,,,8.89827817035,,,,,,,,,,,,,,,,Bus,U7
4713,,,,,,,0.510241808344,,,,,,,,,,,,Bus,U7
4764,,,,,,,0.226158787258,,,,,,,,,,,,Bus,U7
4813,,,,,,,0.531931403948,,,,,,,,,,,,Bus,U7
4865,,,,,,,0.176881097648,,,,,,,,,,,,Bus,U7
4917,,,,,,,0.383494955959,,,,,,,,,,,,Bus,U7
5017,,,11.0492989496,,,,,,,,,,,,,,,,Bus,U7
5067,,,12.0700226447,,,,,,,,,,,,,,,,Bus,U7
5124,,,,,,,0.682733109284,,,,,,,,,,,,Bus,U7
5173,,,,,,,0.665848714314,,,,,,,,,,,,Bus,U7
5223,,,,,,,,,,,,,,,,,,,Bus,U7
5278,,,,,,,,,,,,,,,86.20834289865874,,,,Bus,U7
5324,,,4.52058481308,,,,,,,,,,,,,,,,Bus,U7
5376,,,,,,305.896364859,,,,,,,,,,,,,Bus,U7
5428,,,,,,,1.29379117385,,,,,,,,,,,,Bus,U7
5485,,,,,,,1.26866577099,,,,,,,,,,,,Bus,U7
5584,,,,,,,0.506624988285,,,,,,,,,,,,Bus,U7
5635,,,,,,,0.687473951135,,,,,,,,,,,,Bus,U7
5685,,,,,,,0.856692733728,,,,,,,,,,,,Bus,U7
5734,,,,,,,0.786206116896,,,,,,,,,,,,Bus,U7
5785,,,,,,,0.312552957911,,,,,,,,,,,,Bus,U7
5840,,,10.069801459,,,,,,,,,,,,,,,,Bus,U7
5938,,,,,,,1.47048711613,,,,,,,,,,,,Bus,U7
6041,,,,,,,0.663454766888,,,,,,,,,,,,Bus,U7
6149,,,,,,,0.205748260492,,,,,,,,,,,,Bus,U7
6200,,,,,,,0.470158353477,,,,,,,,,,,,Bus,U7
6246,,,,,,,0.868739702228,,,,,,,,,,,,Bus,U7
6297,,,,,,,0.186028277322,,,,,,,,,,,,Bus,U7
6346,,,,,,,0.4293787327,,,,,,,,,,,,Bus,U7
6396,,,,,,,0.302547916451,,,,,,,,,,,,Bus,U7
6449,,,,,,,0.380819498447,,,,,,,,,,,,Bus,U7
6500,,,10.2090893732,,,,,,,,,,,,,,,,Bus,U7
6547,,,,,,,0.261584461658,,,,,,,,,,,,Bus,U7
6600,,,10.1670589601,,,,,,,,,,,,,,,,Bus,U7
6656,,,,,,,2.40073762285,,,,,,,,,,,,Bus,U7
6706,,,,,,,1.2165865264,,,,,,,,,,,,Bus,U7
6756,,,,,,,0.359921472153,,,,,,,,,,,,Bus,U7
6809,,,,,,,0.440536775479,,,,,,,,,,,,Bus,U7
6855,,,,,,,0.674736000652,,,,,,,,,,,,Bus,U7
6906,,,,,,,0.915716109781,,,,,,,,,,,,Bus,U7
6956,,,,,,,0.83376638138,,,,,,,,,,,,Bus,U7
7007,,,,,,,0.30673711031,,,,,,,,,,,,Bus,U7
7059,,,7.72609087029,,,,,,,,,,,,,,,,Bus,U7
7109,,,10.1599816035,,,,,,,,,,,,,,,,Bus,U7
7159,,,10.3090734555,,,,,,,,,,,,,,,,Bus,U7
7214,,,,,,,0.277429676264,,,,,,,,,,,,Bus,U7
7316,,,10.7254362317,,,,,,,,,,,,,,,,Bus,U7
7369,,,,,,,0.195953533771,,,,,,,,,,,,Bus,U7
7416,,,,,,,0.279522756433,,,,,,,,,,,,Bus,U7
7470,,,,,,,,,,,0.405970909061,,,,,,,,Bus,U7
7517,,,,,,,0.139330847211,,,,,,,,,,,,Bus,U7
7576,,,,,,,0.147975724621,,,,,,,,,,,,Bus,U7
7618,,,,,,,,,,,0.395332698567,,,,,,,,Bus,U7
7670,,,,,,,0.51473724598,,,,,,,,,,,,Bus,U7
7719,,,,,,,0.31296576696,,,,,,,,,,,,Bus,U7
7769,,,,,,,0.290682007049,,,,,,,,,,,,Bus,U7
7827,,,9.12698624635,,,,,,,,,,,,,,,,Bus,U7
7871,,,9.38582773627,,,,,,,,,,,,,,,,Bus,U7
7922,,,9.81548171905,,,,,,,,,,,,,,,,Bus,U7
7974,,,9.38843353586,,,,,,,,,,,,,,,,Bus,U7
8029,,,,,,,0.422194072646,,,,,,,,,,,,Bus,U7
8081,,,,,,,0.363946519582,,,,,,,,,,,,Bus,U7
8128,,,,,,,0.319605730951,,,,,,,,,,,,Bus,U7
8183,,,,,,,0.371221146215,,,,,,,,,,,,Bus,U7
8233,,,9.38364288068,,,,,,,,,,,,,,,,Bus,U7
8290,,,,,,,0.571137762985,,,,,,,,,,,,Bus,U7
8390,,,,,,,0.66927976613,,,,,,,,,,,,Bus,U7
8440,,,,,,,0.6729982899,,,,,,,,,,,,Bus,U7
8494,,,,,,,0.47181423779,,,,,,,,,,,,Bus,U7
8539,,,,,,,0.797815271175,,,,,,,,,,,,Bus,U7
8592,,,,,,,0.658358591056,,,,,,,,,,,,Bus,U7
8691,,,,,,,1.43288413396,,,,,,,,,,,,Bus,U7
8743,,,11.2874897857,,,,,,,,,,,,,,,,Bus,U7
8797,,,,,,,,,,,,,,,73.57582868732487,,,,Bus,U7
8855,,,,,,,,,,,,,,,,,,,Bus,U7
8900,,,,,,,0.289604256551,,,,,,,,,,,,Bus,U7
8948,,,,,,,0.292718570399,,,,,,,,,,,,Bus,U7
9004,,,,,,,0.190143023182,,,,,,,,,,,,Bus,U7
9063,,,,,,,0.129261164109,,,,,,,,,,,,Bus,U7
9099,,,,,,,0.186940733573,,,,,,,,,,,,Bus,U7
9159,,,,,,,0.213526899041,,,,,,,,,,,,Bus,U7
9203,,,,,,,0.0161157319802,,,,,,,,,,,,Bus,U7
9254,,,9.59425750885,,,,,,,,,,,,,,,,Bus,U7
9309,,,,,,,0.0280200097013,,,,,,,,,,,,Bus,U7
9360,,,,,,,,,,,,,,,,,,,Bus,U7
9413,,,,,,,0.297121746665,,,,,,,,,,,,Bus,U7
9461,,,,,,,0.261058964518,,,,,,,,,,,,Bus,U7
9506,,,,,,,0.419500353077,,,,,,,,,,,,Bus,U7
9561,,,,,,,0.508408708852,,,,,,,,,,,,Bus,U7
9612,,,,,,,0.173145546856,,,,,,,,,,,,Bus,U7
9661,,,9.52536588177,,,,,,,,,,,,,,,,Bus,U7
9713,,,,,,,0.0723714236077,,,,,,,,,,,,Bus,U7
9761,,,,,,,0.120766064597,,,,,,,,,,,,Bus,U7
9817,,,,,,,0.126760058963,,,,,,,,,,,,Bus,U7
9862,,,,,,,0.102283001913,,,,,,,,,,,,Bus,U7
9912,,,,,,,0.0972638667256,,,,,,,,,,,,Bus,U7
9964,,,,,,,0.181771162707,,,,,,,,,,,,Bus,U7
10012,,,,,,,,,,0.177853085152,,,,,,,,,Bus,U7
10066,,,,,,,0.187200051037,,,,,,,,,,,,Bus,U7
10116,,,,,,,0.516271851668,,,,,,,,,,,,Bus,U7
10174,,,,,,,0.640268369081,,,,,,,,,,,,Bus,U7
10221,,,,,,,,,,,,,,,,,,,Bus,U7
10271,,,,,,,0.206400149902,,,,,,,,,,,,Bus,U7
10322,,,,,,,0.708197002141,,,,,,,,,,,,Bus,U7
10372,,,,,,,0.65821004472,,,,,,,,,,,,Bus,U7
10421,,,,,,,0.135215268894,,,,,,,,,,,,Bus,U7
10472,,,,,,,0.0663006911314,,,,,,,,,,,,Bus,U7
10523,,,,,,,0.113147019347,,,,,,,,,,,,Bus,U7
10572,,,,9.80664826064,,,,,,,,,,,,,,,Bus,U7
10625,,,9.95209775605,,,,,,,,,,,,,,,,Bus,U7
10682,,,,,,,0.0943821381691,,,,,,,,,,,,Bus,U7
10728,,,9.94034063554,,,,,,,,,,,,,,,,Bus,U7
10781,,,,,,,0.0552487001462,,,,,,,,,,,,Bus,U7
10832,,,,,,,0.0780856911324,,,,,,,,,,,,Bus,U7
10881,,,,,,,0.0849520090586,,,,,,,,,,,,Bus,U7
10932,,,,,,,0.0711231858339,,,,,,,,,,,,Bus,U7
10980,,,9.85419398803,,,,,,,,,,,,,,,,Bus,U7
11032,,,,,,,0.0402058868815,,,,,,,,,,,,Bus,U7
11081,,,,,,,0.0423219859831,,,,,,,,,,,,Bus,U7
11132,,,,,,,0.133213452308,,,,,,,,,,,,Bus,U7
11181,,,,,,,0.0489607616997,,,,,,,,,,,,Bus,U7
11231,,,,,,309.641831811,,,,,,,,,,,,,Bus,U7
11284,,,9.55747232363,,,,,,,,,,,,,,,,Bus,U7
11333,,,,,,,0.0560000547914,,,,,,,,,,,,Bus,U7
11385,,,9.44590146334,,,,,,,,,,,,,,,,Bus,U7
11443,,,,,,,0.146388606399,,,,,,,,,,,,Bus,U7
11493,,,,,,,0.0733547174328,,,,,,,,,,,,Bus,U7
11547,,,10.0968805448,,,,,,,,,,,,,,,,Bus,U7
11599,,,9.85149819006,,,,,,,,,,,,,,,,Bus,U7
11648,,,,,,,0.0616580620805,,,,,,,,,,,,Bus,U7
11702,,,10.0142179577,,,,,,,,,,,,,,,,Bus,U7
11764,,,,,,,,,,0.356847806524,,,,,,,,,Bus,U7
11816,,,,,,,,,,,0.415369016166,,,,,,,,Bus,U7
11874,,,,,,,0.50148427554,,,,,,,,,,,,Bus,U7
11924,,,,,,,0.197384162839,,,,,,,,,,,,Bus,U7
11973,,,,,,,0.234046708906,,,,,,,,,,,,Bus,U7
12027,,,,,,,0.111673115759,,,,,,,,,,,,Bus,U7
12074,,,,,,,0.413445213359,,,,,,,,,,,,Bus,U7
12123,,,,,,,,141.705257489,,,,,,,,,,,Bus,U7
12174,,,,,,,0.341551799175,,,,,,,,,,,,Bus,U7
12228,,,9.91312972544,,,,,,,,,,,,,,,,Bus,U7
12283,,,,,,,0.232160940803,,,,,,,,,,,,Bus,U7
12340,,,,,,,0.105819072766,,,,,,,,,,,,Bus,U7
12382,,,,,,,0.17349003591,,,,,,,,,,,,Bus,U7
12433,,,,,,,0.19256503379,,,,,,,,,,,,Bus,U7
12483,,,,,,,0.132860027792,,,,,,,,,,,,Bus,U7
12541,,,10.5662517798,,,,,,,,,,,,,,,,Bus,U7
12594,,,,,,,0.308142626577,,,,,,,,,,,,Bus,U7
12643,,,,,,,0.188526905742,,,,,,,,,,,,Bus,U7
12694,,,,,,,0.209458205607,,,,,,,,,,,,Bus,U7
12743,,,,,,,0.226926363355,,,,,,,,,,,,Bus,U7
12794,,,,,,,0.524140872209,,,,,,,,,,,,Bus,U7
12844,,,,,,,0.648272811152,,,,,,,,,,,,Bus,U7
12894,,,,,,,0.247091775585,,,,,,,,,,,,Bus,U7
12943,,,,,,,0.24540061789,,,,,,,,,,,,Bus,U7
13002,,,9.88692596294,,,,,,,,,,,,,,,,Bus,U7
13047,,,9.30940617303,,,,,,,,,,,,,,,,Bus,U7
13097,,,9.98945209621,,,,,,,,,,,,,,,,Bus,U7
13151,,,10.3825508253,,,,,,,,,,,,,,,,Bus,U7
13202,,,10.0299971279,,,,,,,,,,,,,,,,Bus,U7
13248,,,8.95474567819,,,,,,,,,,,,,,,,Bus,U7
13299,,,9.48822263837,,,,,,,,,,,,,,,,Bus,U7
13353,,,,,,,,,,,,,,,,,,,Bus,U7
13403,,,,,,,0.376217624502,,,,,,,,,,,,Bus,U7
13454,,,,,,,0.604015683328,,,,,,,,,,,,Bus,U7
13501,,,11.9910899127,,,,,,,,,,,,,,,,Bus,U7
13554,,,,,,,0.728717934321,,,,,,,,,,,,Bus,U7
13604,,,,,,,0.898424749249,,,,,,,,,,,,Bus,U7
13655,,,,,,,0.32116644714,,,,,,,,,,,,Bus,U7
13703,,,,,,,,,,0.654458796717,,,,,,,,,Bus,U7
13758,,,8.9261028325,,,,,,,,,,,,,,,,Bus,U7
13807,,,9.91361309967,,,,,,,,,,,,,,,,Bus,U7
13860,,,9.70415890907,,,,,,,,,,,,,,,,Bus,U7
13914,,,,,,,0.451481899002,,,,,,,,,,,,Bus,U7
13963,,,,,,,0.365017424558,,,,,,,,,,,,Bus,U7
14013,,,,,,,0.137882447109,,,,,,,,,,,,Bus,U7
14064,,,,,,,0.260732860421,,,,,,,,,,,,Bus,U7
14115,,,,,,,0.413382049214,,,,,,,,,,,,Bus,U7
14165,,,,,,,0.380876314426,,,,,,,,,,,,Bus,U7
14215,,,,,,,0.128031291916,,,,,,,,,,,,Bus,U7
14265,,,,,,,,143.663008461,,,,,,,,,,,Bus,U7
14304,,,,,,,0.253134189086,,,,,,,,,,,,Bus,U7
14370,,,9.54040409844,,,,,,,,,,,,,,,,Bus,U7
14424,,,,,,,0.594063844292,,,,,,,,,,,,Bus,U7
14475,,,,,,,0.544329941424,,,,,,,,,,,,Bus,U7
14575,,,,,,,0.21619797431,,,,,,,,,,,,Bus,U7
14624,,,,,,,0.219180629846,,,,,,,,,,,,Bus,U7
14675,,,,,,,0.244104678978,,,,,,,,,,,,Bus,U7
14726,,,,,,,0.256560502254,,,,,,,,,,,,Bus,U7
14828,,,,,,,0.18469154892,,,,,,,,,,,,Bus,U7
14928,,,,,,,0.32992379411,,,,,,,,,,,,Bus,U7
15079,,,,,,,2.00744786954,,,,,,,,,,,,Bus,U7
15182,,,9.79450655923,,,,,,,,,,,,,,,,Bus,U7
15283,,,,,,,,,,,,,,,81.64349550969332,,,,Bus,U7
15385,,,,,,,0.216139278449,,,,,,,,,,,,Bus,U7
15436,,,,,,,0.282399508044,,,,,,,,,,,,Bus,U7
15486,,,,,,,0.347300388135,,,,,,,,,,,,Bus,U7
