18,android.sensor.accelerometer,-1.6759412,6.1387334,9.002198
59,android.sensor.accelerometer,-1.7717092,5.1235914,8.341399
130,android.sensor.accelerometer,-0.8619126,5.171476,7.3071036
158,android.sensor.accelerometer,-0.18195933,3.4284968,8.781932
208,android.sensor.accelerometer,-0.4309563,5.899313,8.552089
262,android.sensor.accelerometer,-0.076614454,3.9264908,8.887277
311,android.sensor.accelerometer,-0.60333884,4.5202527,9.576807
361,android.sensor.accelerometer,-0.41180268,4.4819455,8.571242
415,android.sensor.accelerometer,-0.8619126,3.2465374,9.998186
464,android.sensor.accelerometer,-0.038307227,4.55856,9.433155
520,android.sensor.accelerometer,0.2681506,2.8921957,9.998186
572,android.sensor.accelerometer,0.7278373,3.4093432,8.523358
623,android.sensor.accelerometer,0.24899697,3.016694,9.107543
671,android.sensor.accelerometer,0.25857377,3.2273839,8.408437
725,android.sensor.accelerometer,-0.10534488,2.3463178,9.682152
777,android.sensor.accelerometer,0.15322891,3.5242648,8.801085
829,android.sensor.accelerometer,-1.1587936,1.4939818,10.745177
877,android.sensor.accelerometer,1.934515,3.916914,9.615114
927,android.sensor.accelerometer,-1.5801731,2.930503,9.481039
979,android.sensor.accelerometer,0.48841715,2.5570073,8.331821
1030,android.sensor.accelerometer,-1.2545617,3.122039,9.80665
1084,android.sensor.accelerometer,0.7278373,3.6104562,8.322245
1135,android.sensor.accelerometer,-0.076614454,2.0494366,9.653421
1188,android.sensor.accelerometer,-0.095768064,3.5338416,9.844957
1237,android.sensor.accelerometer,-0.2681506,2.9113493,11.827356
1291,android.sensor.accelerometer,-0.7469909,3.6870706,9.720459
1345,android.sensor.accelerometer,-1.4077905,3.6870706,9.375694
1395,android.sensor.accelerometer,-0.019153614,2.5570073,9.174581
1447,android.sensor.accelerometer,-0.4213795,4.9799395,9.56723
1496,android.sensor.accelerometer,0.23942018,2.5091233,8.274361
1546,android.sensor.accelerometer,-0.12449849,3.9743748,9.80665
1600,android.sensor.accelerometer,0.6512229,2.6527755,8.7053175
1649,android.sensor.accelerometer,0.06703765,4.185065,9.921572
1703,android.sensor.accelerometer,0.24899697,3.5434184,9.050082
1752,android.sensor.accelerometer,0.12449849,3.7732618,9.739613
1806,android.sensor.accelerometer,0.12449849,3.5338416,8.111555
1860,android.sensor.accelerometer,-0.095768064,3.074155,9.595961
1910,android.sensor.accelerometer,0.7086837,3.4955344,8.868123
1960,android.sensor.accelerometer,0.4405331,3.083732,9.883265
2012,android.sensor.accelerometer,0.2873042,4.2042184,9.375694
2063,android.sensor.accelerometer,-0.6991069,3.6296098,9.442732
2117,android.sensor.accelerometer,-0.61291564,3.3518825,8.935161
2165,android.sensor.accelerometer,-0.7757214,4.4244847,9.634268
2217,android.sensor.accelerometer,-0.18195933,3.5529952,8.054094
2268,android.sensor.accelerometer,-0.08619126,4.0892963,8.734048
2323,android.sensor.accelerometer,0.7469909,2.4516625,9.423578
2378,android.sensor.accelerometer,0.21068975,4.2999864,9.864111
2421,android.sensor.accelerometer,-0.30645782,5.6215854,9.730036
2475,android.sensor.accelerometer,-0.019153614,3.667917,10.448297
2524,android.sensor.accelerometer,0.29688102,4.0318356,11.252748
2576,android.sensor.accelerometer,-0.2681506,4.6160207,10.084377
2627,android.sensor.accelerometer,-0.49799395,3.715801,9.682152
2676,android.sensor.accelerometer,-0.37349546,2.9017725,7.920019
2732,android.sensor.accelerometer,-0.2681506,3.41892,7.3166804
2780,android.sensor.accelerometer,-0.8810662,2.7102363,7.651869
2836,android.sensor.accelerometer,-0.5746084,4.0892963,7.690176
2872,android.sensor.accelerometer,-0.93852705,4.5681367,8.772355
2947,android.sensor.accelerometer,-0.8619126,4.6255975,8.992621
3048,android.sensor.accelerometer,-0.31603462,4.213795,8.954314
3063,android.sensor.accelerometer,-0.31603462,4.7500963,9.174581
3113,android.sensor.accelerometer,-0.78529817,5.4683566,9.921572
3161,android.sensor.accelerometer,-0.7469909,5.7843914,11.999739
3210,android.sensor.accelerometer,-0.08619126,3.0071173,11.051635
3264,android.sensor.accelerometer,-0.35434186,5.90889,9.825804
3315,android.sensor.accelerometer,0.038307227,4.7788267,10.295067
3373,android.sensor.accelerometer,-0.095768064,4.10845,7.6710224
3427,android.sensor.accelerometer,-0.641646,3.9073372,7.5561004
3477,android.sensor.accelerometer,-0.35434186,3.572149,7.575254
3558,android.sensor.accelerometer,-0.35434186,4.673482,7.5848308
3621,android.sensor.accelerometer,-0.39264908,4.405331,8.264784
3708,android.sensor.accelerometer,-0.02873042,5.506664,8.801085
3756,android.sensor.accelerometer,-0.076614454,6.081272,9.404425
3812,android.sensor.accelerometer,-0.23942018,5.4779334,8.954314
3869,android.sensor.accelerometer,-0.22984336,5.439626,9.969456
3923,android.sensor.accelerometer,0.63206923,5.631162,9.662998
-3976,sound,76.08006109459225
4043,android.sensor.accelerometer,-0.22984336,4.9703627,8.810662
4100,android.sensor.accelerometer,0.17238252,4.462792,8.542512
4149,android.sensor.accelerometer,0.10534488,3.86903,8.283937
4203,android.sensor.accelerometer,0.40222588,3.7541082,8.7053175
4254,android.sensor.accelerometer,0.29688102,4.012682,8.39886
4302,android.sensor.accelerometer,0.2777274,3.8881836,10.01734
4356,android.sensor.accelerometer,0.40222588,4.309563,9.77792
4406,android.sensor.accelerometer,-0.095768064,4.5298295,8.8777
4459,android.sensor.accelerometer,-1.9153614,2.6527755,9.088389
4530,android.sensor.accelerometer,-0.7182605,2.7389667,8.283937
4591,android.sensor.accelerometer,-0.7374141,2.9879637,9.787497
4651,android.sensor.accelerometer,0.047884032,3.6296098,9.921572
4702,android.sensor.accelerometer,-0.047884032,5.6120086,8.647857
4759,android.sensor.accelerometer,-0.33518824,6.789956,9.758766
4808,android.sensor.accelerometer,0.12449849,7.2592196,9.77792
4863,android.sensor.accelerometer,-0.1436521,6.7803793,11.195287
4917,android.sensor.accelerometer,-0.40222588,5.401319,8.7053175
4971,android.sensor.accelerometer,-2.384625,4.999093,7.833828
5020,android.sensor.accelerometer,-1.283292,2.566584,5.544971
5074,android.sensor.accelerometer,-1.9440918,2.135628,6.349423
5125,android.sensor.accelerometer,-1.7717092,2.432509,5.3438582
5180,android.sensor.accelerometer,-3.074155,4.9799395,7.2113357
5215,android.sensor.accelerometer,-2.6527755,4.9416323,8.408437
5298,android.sensor.accelerometer,-1.5035586,4.4915223,9.77792
5360,android.sensor.accelerometer,-1.0821792,4.9895163,9.414001
5430,android.sensor.accelerometer,-1.5897499,5.2863975,9.040505
5481,android.sensor.accelerometer,-1.8100165,5.410896,9.662998
5526,android.sensor.accelerometer,-2.2218192,4.7022123,10.6398325
5580,android.sensor.accelerometer,-1.8866309,5.813122,9.576807
5630,android.sensor.accelerometer,-2.2026656,5.813122,9.385271
5680,android.sensor.accelerometer,-1.2545617,3.3423057,8.532935
5733,android.sensor.accelerometer,-1.6089035,3.7924154,8.389283
5792,android.sensor.accelerometer,-1.982399,4.7979803,8.054094
5841,android.sensor.accelerometer,-1.7429788,2.8921957,7.843405
5890,android.sensor.accelerometer,-2.3750482,4.4436383,7.9870567
5944,android.sensor.accelerometer,-1.3311762,4.7979803,8.791509
5998,android.sensor.accelerometer,-1.340753,4.5298295,9.174581
6047,android.sensor.accelerometer,-1.2737153,4.7500963,9.672575
6101,android.sensor.accelerometer,-1.1013328,6.196194,9.375694
6150,android.sensor.accelerometer,-0.8331822,5.650316,7.9104424
6200,android.sensor.accelerometer,-2.27928,4.0222588,7.6231384
6255,android.sensor.accelerometer,-0.35434186,4.8745947,9.232041
6313,android.sensor.accelerometer,-0.9864111,5.21936,9.653421
6362,android.sensor.accelerometer,-0.94810385,4.5777135,11.645397
6415,android.sensor.accelerometer,-1.7908629,3.7541082,10.400413
6464,android.sensor.accelerometer,-0.80445176,3.6583402,8.599973
6513,android.sensor.accelerometer,-1.3215994,3.7253778,7.6710224
6567,android.sensor.accelerometer,-0.15322891,2.5187001,8.322245
6617,android.sensor.accelerometer,0.80445176,3.7732618,9.107543
6670,android.sensor.accelerometer,1.1013328,5.439626,8.236053
6720,android.sensor.accelerometer,0.8331822,3.2465374,8.6095495
6774,android.sensor.accelerometer,0.9768343,4.0701427,9.193734
6823,android.sensor.accelerometer,-0.5554548,5.267244,8.446744
6872,android.sensor.accelerometer,-0.7757214,3.7732618,9.758766
6926,android.sensor.accelerometer,-0.7565677,5.104438,11.099519
6976,android.sensor.accelerometer,-0.5650316,3.6583402,10.630256
7040,android.sensor.accelerometer,-0.7182605,4.280833,9.14585
7101,android.sensor.accelerometer,-0.6607997,4.7788267,8.647857
7147,android.sensor.accelerometer,-0.30645782,5.0182467,9.624691
7201,android.sensor.accelerometer,-0.9864111,5.45878,7.9583263
7250,android.sensor.accelerometer,-1.3215994,4.223372,9.270349
7309,android.sensor.accelerometer,0.35434186,2.183512,9.56723
7343,android.sensor.accelerometer,0.5650316,2.0111294,9.461885
7502,android.sensor.accelerometer,-0.37349546,4.3766007,8.935161
7560,android.sensor.accelerometer,-0.50757074,3.8594532,9.414001
7611,android.sensor.accelerometer,-0.6512229,3.3997664,10.055647
7668,android.sensor.accelerometer,-0.5650316,4.3382936,9.797073
7721,android.sensor.accelerometer,-1.7525556,4.596867,8.580819
7771,android.sensor.accelerometer,-2.27928,4.271256,9.299079
7835,android.sensor.accelerometer,-1.7621324,3.7349546,8.90643
7891,android.sensor.accelerometer,-0.2873042,5.363012,9.308656
7938,android.sensor.accelerometer,-0.1340753,4.003105,8.599973
-8083,sound,75.1797509373524
8131,android.sensor.accelerometer,-0.12449849,3.9743748,9.500193
8184,android.sensor.accelerometer,0.0,4.309563,9.030929
8240,android.sensor.accelerometer,-0.41180268,4.5394063,8.963891
8290,android.sensor.accelerometer,-0.89064306,4.3766007,8.24563
8336,android.sensor.accelerometer,-0.7086837,4.3287168,8.791509
8391,android.sensor.accelerometer,-0.49799395,5.506664,7.9391727
8439,android.sensor.accelerometer,-1.3982137,4.8745947,9.576807
8494,android.sensor.accelerometer,-0.641646,5.602432,9.375694
8543,android.sensor.accelerometer,-0.47884035,5.1906295,9.002198
8597,android.sensor.accelerometer,-1.0055647,5.2959743,8.236053
8646,android.sensor.accelerometer,-0.2873042,4.3957543,10.007763
8700,android.sensor.accelerometer,0.12449849,5.2002063,8.1881695
8750,android.sensor.accelerometer,-0.59376204,5.3247046,9.3182335
8799,android.sensor.accelerometer,-0.45010993,6.0142345,7.7572136
8850,android.sensor.accelerometer,-1.043872,4.9320555,8.532935
8904,android.sensor.accelerometer,-0.92895025,5.391742,7.699753
8952,android.sensor.accelerometer,-0.89064306,5.315128,9.021352
9008,android.sensor.accelerometer,-0.02873042,5.2385135,7.9391727
9057,android.sensor.accelerometer,-0.6895301,5.439626,8.647857
9109,android.sensor.accelerometer,-0.4405331,5.3821654,8.322245
9159,android.sensor.accelerometer,-1.1300632,5.353435,9.107543
9216,android.sensor.accelerometer,-0.46926352,5.4683566,8.446744
9261,android.sensor.accelerometer,-0.9576807,5.4683566,9.634268
9324,android.sensor.accelerometer,0.02873042,4.9799395,8.331821
9448,android.sensor.accelerometer,-0.4213795,5.4779334,8.628703
9501,android.sensor.accelerometer,-0.2873042,4.7500963,8.025364
9556,android.sensor.accelerometer,-0.90021986,5.2480903,7.8529816
9604,android.sensor.accelerometer,-0.20111294,4.7309427,9.260772
9659,android.sensor.accelerometer,-0.15322891,5.401319,9.155427
9708,android.sensor.accelerometer,0.25857377,4.501099,9.969456
9763,android.sensor.accelerometer,-0.8619126,5.9663506,7.345411
9816,android.sensor.accelerometer,0.095768064,3.5913026,10.247183
9865,android.sensor.accelerometer,-1.3599066,5.995081,8.341399
9919,android.sensor.accelerometer,-0.2681506,4.4723687,8.580819
9989,android.sensor.accelerometer,-1.8770541,5.506664,7.642292
10032,android.sensor.accelerometer,-0.29688102,4.4723687,10.457873
10086,android.sensor.accelerometer,-1.4173675,6.531382,7.489063
10140,android.sensor.accelerometer,-1.3311762,5.0661306,8.599973
10189,android.sensor.accelerometer,-1.2066777,6.129156,7.699753
10244,android.sensor.accelerometer,-0.17238252,4.1371803,9.730036
10299,android.sensor.accelerometer,-1.1875241,5.2002063,8.236053
10349,android.sensor.accelerometer,-0.82360536,4.606444,8.925584
10422,android.sensor.accelerometer,-0.5267244,4.817134,9.241618
10484,android.sensor.accelerometer,0.34476504,4.6830587,7.8146744
10533,android.sensor.accelerometer,0.20111294,3.8977604,10.132261
10774,android.sensor.accelerometer,-1.0821792,7.067683,9.758766
10823,android.sensor.accelerometer,-0.82360536,5.2385135,9.844957
10877,android.sensor.accelerometer,0.076614454,4.1180267,8.695741
10926,android.sensor.accelerometer,-0.12449849,5.439626,8.446744
10980,android.sensor.accelerometer,0.60333884,4.663905,8.418014
11030,android.sensor.accelerometer,0.5267244,4.5872903,8.973468
11080,android.sensor.accelerometer,0.7469909,5.257667,9.165004
11133,android.sensor.accelerometer,1.3503298,5.5258174,10.754754
11182,android.sensor.accelerometer,1.9728222,5.7748146,9.203311
11236,android.sensor.accelerometer,0.46926352,5.2289367,8.494628
11287,android.sensor.accelerometer,0.49799395,2.72939,9.768343
11336,android.sensor.accelerometer,1.3982137,3.4763808,8.734048
11389,android.sensor.accelerometer,-0.30645782,4.3957543,7.5848308
-11463,sound,75.89951488102264
11518,android.sensor.accelerometer,0.35434186,4.367024,7.575254
11566,android.sensor.accelerometer,1.1300632,4.213795,9.002198
11620,android.sensor.accelerometer,0.7661445,3.6774938,11.18571
11669,android.sensor.accelerometer,0.545878,4.510676,11.36767
11719,android.sensor.accelerometer,0.047884032,5.0661306,11.300632
11772,android.sensor.accelerometer,1.1013328,3.4380736,9.624691
11826,android.sensor.accelerometer,-0.23942018,3.9935284,9.816227
11888,android.sensor.accelerometer,0.06703765,2.5378537,8.935161
-11961,sound,74.80725378988487
12017,android.sensor.accelerometer,0.038307227,2.5953147,8.274361
12067,android.sensor.accelerometer,-1.1683705,5.1235914,8.360553
12121,android.sensor.accelerometer,-0.36391866,4.3287168,8.0924015
12170,android.sensor.accelerometer,-0.8331822,4.10845,8.111555
12224,android.sensor.accelerometer,-0.15322891,4.8458643,8.7532015
12286,android.sensor.accelerometer,-0.39264908,5.7748146,8.101978
12387,android.sensor.accelerometer,-0.5554548,4.999093,9.720459
12436,android.sensor.accelerometer,-0.6607997,5.133168,10.314221
-12512,sound,75.5514360938282
12570,android.sensor.accelerometer,-0.92895025,3.4859576,7.5944076
12619,android.sensor.accelerometer,-1.0821792,4.462792,7.575254
12669,android.sensor.accelerometer,-0.58418524,4.0892963,8.532935
12723,android.sensor.accelerometer,-0.7374141,3.964798,9.289502
12950,android.sensor.accelerometer,-0.15322891,4.7022123,10.065224
12999,android.sensor.accelerometer,-0.23942018,5.1140146,9.921572
13055,android.sensor.accelerometer,0.18195933,3.3135753,9.797073
13107,android.sensor.accelerometer,-0.11492168,3.5529952,8.647857
13157,android.sensor.accelerometer,-0.34476504,3.763685,9.136273
13205,android.sensor.accelerometer,-0.21068975,2.5761611,8.389283
13303,android.sensor.accelerometer,-0.47884035,3.6583402,7.881712
13442,android.sensor.accelerometer,0.36391866,2.9400797,9.548077
13505,android.sensor.accelerometer,-0.15322891,6.0046577,9.394848
13562,android.sensor.accelerometer,0.8619126,3.5529952,10.036493
13648,android.sensor.accelerometer,-0.39264908,2.7389667,9.911995
13687,android.sensor.accelerometer,0.8331822,3.169923,9.701305
13751,android.sensor.accelerometer,-0.038307227,3.0262709,8.983045
13823,android.sensor.accelerometer,0.076614454,3.4572272,9.423578
13887,android.sensor.accelerometer,-0.1436521,2.528277,8.255207
13943,android.sensor.accelerometer,-0.11492168,2.7389667,8.963891
14004,android.sensor.accelerometer,0.0,2.3080103,8.7053175
14058,android.sensor.accelerometer,-0.019153614,2.5091233,9.414001
14130,android.sensor.accelerometer,-0.16280572,3.2752678,9.844957
14178,android.sensor.accelerometer,-0.019153614,2.6719291,9.921572
14242,android.sensor.accelerometer,0.24899697,3.3997664,10.266336
14299,android.sensor.accelerometer,0.33518824,3.1411927,9.490616
14351,android.sensor.accelerometer,0.7278373,2.7006595,10.994174
14404,android.sensor.accelerometer,1.1875241,3.1507695,9.720459
-14910,sound,73.89034907622312
14921,android.sensor.accelerometer,0.15322891,3.323152,8.743625
15015,android.sensor.accelerometer,-0.22026655,3.323152,8.676587
15075,android.sensor.accelerometer,0.50757074,3.7445314,8.90643
15132,android.sensor.accelerometer,-0.095768064,4.8937483,8.66701
15178,android.sensor.accelerometer,0.5554548,2.9783869,9.32781
15236,android.sensor.accelerometer,-0.5267244,4.912902,8.580819
15296,android.sensor.accelerometer,0.6895301,3.1028855,10.113108
15350,android.sensor.accelerometer,-0.8810662,5.401319,8.724471
15404,android.sensor.accelerometer,-0.25857377,2.2888567,9.548077
15455,android.sensor.accelerometer,0.1340753,4.0701427,9.940725
15512,android.sensor.accelerometer,-0.10534488,4.4723687,8.446744
15577,android.sensor.accelerometer,0.45968673,3.1794999,9.77792
15620,android.sensor.accelerometer,-0.34476504,4.0222588,9.749189
15679,android.sensor.accelerometer,0.05746084,3.5817258,8.887277
15733,android.sensor.accelerometer,-0.46926352,3.7253778,9.662998
15782,android.sensor.accelerometer,0.8331822,3.0454245,9.931149
15836,android.sensor.accelerometer,0.0,4.223372,9.040505
15893,android.sensor.accelerometer,-0.17238252,3.5242648,8.293514
15955,android.sensor.accelerometer,-0.25857377,3.9935284,9.11712
16022,android.sensor.accelerometer,-0.009576807,3.6583402,9.825804
16076,android.sensor.accelerometer,0.05746084,3.169923,9.32781
16121,android.sensor.accelerometer,-0.24899697,3.5625722,9.864111
16178,android.sensor.accelerometer,0.076614454,3.4284968,10.505757
16240,android.sensor.accelerometer,-0.11492168,3.466804,10.314221
16302,android.sensor.accelerometer,-0.25857377,4.7022123,9.768343
16363,android.sensor.accelerometer,0.095768064,4.2042184,10.572795
16411,android.sensor.accelerometer,-0.32561144,4.1946416,10.132261
16464,android.sensor.accelerometer,-1.0247183,3.371036,8.63828
16515,android.sensor.accelerometer,-0.06703765,2.4229321,9.32781
16568,android.sensor.accelerometer,-0.6512229,3.2848446,8.130709
16615,android.sensor.accelerometer,0.24899697,3.0933087,9.337387
16669,android.sensor.accelerometer,0.37349546,3.0550013,8.149862
16722,android.sensor.accelerometer,0.21068975,3.5817258,8.37013
16771,android.sensor.accelerometer,0.21068975,3.2369606,8.963891
16842,android.sensor.accelerometer,0.1340753,3.4763808,9.136273
16874,android.sensor.accelerometer,0.21068975,3.2944214,9.050082
16923,android.sensor.accelerometer,0.58418524,2.920926,10.04607
16977,android.sensor.accelerometer,0.45968673,3.7349546,9.078813
17041,android.sensor.accelerometer,0.60333884,3.3614593,11.310209
17106,android.sensor.accelerometer,0.4309563,3.8019924,11.003751
17152,android.sensor.accelerometer,0.62249243,3.620033,10.352529
17209,android.sensor.accelerometer,0.02873042,3.8402996,8.628703
17268,android.sensor.accelerometer,-0.02873042,3.7253778,9.174581
17319,android.sensor.accelerometer,-0.019153614,3.2082303,8.66701
17376,android.sensor.accelerometer,-0.10534488,3.3518825,8.437167
17425,android.sensor.accelerometer,0.2681506,2.777274,10.007763
17479,android.sensor.accelerometer,0.047884032,3.821146,8.8777
17551,android.sensor.accelerometer,0.5267244,3.1316159,9.241618
17602,android.sensor.accelerometer,0.33518824,2.8921957,8.00621
17684,android.sensor.accelerometer,0.7278373,2.0973208,10.036493
17716,android.sensor.accelerometer,0.21068975,3.1316159,9.394848
17782,android.sensor.accelerometer,0.10534488,3.016694,9.730036
17839,android.sensor.accelerometer,-0.2777274,2.7581203,9.519346
17895,android.sensor.accelerometer,-0.21068975,2.9783869,9.155427
17942,android.sensor.accelerometer,-0.41180268,2.4708161,9.126697
17996,android.sensor.accelerometer,-0.23942018,2.3558946,8.772355
18045,android.sensor.accelerometer,-0.12449849,2.4995465,8.63828
18094,android.sensor.accelerometer,0.0,1.7046716,9.5385
18148,android.sensor.accelerometer,0.009576807,3.1316159,10.304645
18197,android.sensor.accelerometer,-0.019153614,2.920926,9.490616
18261,android.sensor.accelerometer,-0.22984336,2.2888567,9.988609
18313,android.sensor.accelerometer,0.019153614,2.8060043,11.118672
19172,android.sensor.accelerometer,0.33518824,4.5202527,8.743625
19186,android.sensor.accelerometer,-0.076614454,5.506664,8.90643
19331,android.sensor.accelerometer,0.94810385,4.548983,9.165004
19640,android.sensor.accelerometer,0.6607997,3.5434184,8.523358
19855,android.sensor.accelerometer,-0.81402856,5.554548,7.565677
19933,android.sensor.accelerometer,-0.59376204,3.1603463,9.653421
20830,android.sensor.accelerometer,-1.8962077,3.3997664,10.860099
-20902,sound,65.5338305769008
20939,android.sensor.accelerometer,-0.59376204,3.86903,9.078813
-20997,sound,65.03762909105055
21167,android.sensor.accelerometer,-0.49799395,2.327164,9.471462
21192,android.sensor.accelerometer,0.34476504,2.6240451,9.854534
21282,android.sensor.accelerometer,0.33518824,2.231396,8.7532015
21358,android.sensor.accelerometer,-0.076614454,2.681506,9.155427
21402,android.sensor.accelerometer,-0.31603462,2.566584,9.787497
21465,android.sensor.accelerometer,-0.40222588,2.4612393,9.710882
21491,android.sensor.accelerometer,-0.58418524,1.9440918,9.548077
21602,android.sensor.accelerometer,-0.17238252,1.9249382,9.710882
21651,android.sensor.accelerometer,-0.22026655,2.4612393,10.496181
21702,android.sensor.accelerometer,-0.16280572,2.087744,10.5919485
21738,android.sensor.accelerometer,-0.1340753,1.9919758,10.304645
21812,android.sensor.accelerometer,-0.2777274,1.8291701,9.844957
21861,android.sensor.accelerometer,-0.2681506,1.9057846,9.730036
21913,android.sensor.accelerometer,-0.16280572,1.9536686,9.557653
-21966,sound,64.68021635174358
22019,android.sensor.accelerometer,0.11492168,1.541866,9.835381
22171,android.sensor.accelerometer,0.40222588,1.2258313,10.160992
22220,android.sensor.accelerometer,1.388637,1.8483237,9.624691
22307,android.sensor.accelerometer,2.2218192,3.2465374,9.825804
22354,android.sensor.accelerometer,1.685518,2.9496565,9.452309
22443,android.sensor.accelerometer,1.1492168,2.7006595,8.992621
22458,android.sensor.accelerometer,0.6895301,2.5378537,9.059659
22522,android.sensor.accelerometer,0.62249243,2.27928,9.3182335
22583,android.sensor.accelerometer,0.47884035,2.0590134,9.3661175
23125,android.sensor.accelerometer,0.019153614,3.1794999,9.902418
23179,android.sensor.accelerometer,0.009576807,3.2848446,9.701305
23228,android.sensor.accelerometer,0.038307227,2.5091233,9.758766
24182,android.sensor.accelerometer,0.12449849,4.510676,9.940725
24221,android.sensor.accelerometer,-0.36391866,3.8307228,8.973468
24271,android.sensor.accelerometer,-0.58418524,3.217807,7.97748
24545,android.sensor.accelerometer,0.21068975,4.1276035,8.916007
24629,android.sensor.accelerometer,0.10534488,3.715801,8.916007
24731,android.sensor.accelerometer,-0.1340753,4.357447,9.653421
24816,android.sensor.accelerometer,-0.16280572,4.4915223,9.3661175
24875,android.sensor.accelerometer,0.0,3.7924154,9.030929
24924,android.sensor.accelerometer,0.06703765,3.8977604,9.471462
24977,android.sensor.accelerometer,-0.10534488,4.0797195,9.136273
25040,android.sensor.accelerometer,-0.019153614,3.7828386,9.270349
25091,android.sensor.accelerometer,-0.24899697,4.223372,9.040505
25145,android.sensor.accelerometer,-0.019153614,3.7732618,9.097966
25194,android.sensor.accelerometer,-0.08619126,3.821146,9.212888
25243,android.sensor.accelerometer,-0.038307227,3.9360676,9.528923
25309,android.sensor.accelerometer,0.047884032,3.6296098,9.404425
25362,android.sensor.accelerometer,0.047884032,3.8498764,9.519346
25416,android.sensor.accelerometer,-0.076614454,3.6870706,9.069236
25465,android.sensor.accelerometer,0.17238252,3.667917,9.3182335
25525,android.sensor.accelerometer,0.076614454,3.667917,9.078813
25583,android.sensor.accelerometer,0.16280572,3.572149,9.56723
25637,android.sensor.accelerometer,-0.009576807,3.667917,9.279925
25691,android.sensor.accelerometer,0.16280572,3.5817258,9.394848
25740,android.sensor.accelerometer,0.06703765,3.3997664,9.078813
25790,android.sensor.accelerometer,0.22984336,3.3423057,9.174581
25843,android.sensor.accelerometer,0.10534488,3.964798,9.672575
25892,android.sensor.accelerometer,0.51714754,3.0358477,9.203311
25946,android.sensor.accelerometer,0.37349546,3.572149,8.868123
26001,android.sensor.accelerometer,0.50757074,3.2369606,9.394848
26050,android.sensor.accelerometer,0.33518824,3.4763808,9.519346
26099,android.sensor.accelerometer,0.48841715,3.8115692,9.32781
26153,android.sensor.accelerometer,0.8331822,3.5242648,9.136273
26202,android.sensor.accelerometer,0.7182605,3.6296098,9.069236
26256,android.sensor.accelerometer,0.4405331,3.572149,9.337387
26305,android.sensor.accelerometer,0.7374141,3.5913026,9.835381
26364,android.sensor.accelerometer,0.2777274,3.8498764,8.839393
26414,android.sensor.accelerometer,-0.641646,4.76925,8.686164
26468,android.sensor.accelerometer,-0.2681506,4.213795,9.500193
26517,android.sensor.accelerometer,-0.12449849,4.6830587,10.553641
26571,android.sensor.accelerometer,0.10534488,4.4819455,11.195287
26620,android.sensor.accelerometer,0.49799395,3.667917,9.682152
26669,android.sensor.accelerometer,-0.02873042,3.5051112,8.580819
26723,android.sensor.accelerometer,-0.46926352,4.8458643,7.776367
26772,android.sensor.accelerometer,-0.90979666,4.5298295,8.724471
26826,android.sensor.accelerometer,-0.34476504,4.7884035,8.7053175
26876,android.sensor.accelerometer,-0.842759,4.6926355,8.935161
26925,android.sensor.accelerometer,-0.58418524,5.4683566,7.785944
26979,android.sensor.accelerometer,-0.9576807,4.999093,7.642292
27039,android.sensor.accelerometer,-0.8331822,5.3247046,7.929596
27092,android.sensor.accelerometer,-0.545878,5.133168,8.992621
27141,android.sensor.accelerometer,-0.7278373,5.104438,8.7532015
27191,android.sensor.accelerometer,-0.1436521,4.1180267,9.078813
27244,android.sensor.accelerometer,-0.37349546,5.353435,8.66701
27297,android.sensor.accelerometer,-0.2873042,3.8786068,9.126697
27352,android.sensor.accelerometer,0.2681506,3.4763808,9.097966
27401,android.sensor.accelerometer,-0.06703765,3.6870706,9.279925
27451,android.sensor.accelerometer,-0.16280572,4.0701427,9.528923
27505,android.sensor.accelerometer,0.61291564,3.169923,9.289502
27554,android.sensor.accelerometer,-0.02873042,3.5625722,9.308656
27608,android.sensor.accelerometer,0.047884032,4.0222588,9.375694
27658,android.sensor.accelerometer,-0.08619126,3.667917,9.385271
