100,android.sensor.gyroscope_uncalibrated,0.0720821,-0.009773844,-0.043982297,0.042760566,-0.0012217305,0.0061086523
150,android.sensor.accelerometer,-1.5371244,6.651295,7.144516
251,,212.0,133.0,150.0,198.0,454.0,245.0,3.0,0.0,0.0,0.0,0.0,0.0,0.0,0.0,0.0,0.0
353,android.sensor.game_rotation_vector,0.363598,0.0612,-0.034498,0.928902
610,android.sensor.gyroscope_uncalibrated,0.1441642,0.1282817,-0.089186326,0.042760566,-0.0012217305,0.0061086523
663,android.sensor.gyroscope_uncalibrated,-0.0012217305,-0.118507855,0.12950343,0.042760566,-0.0012217305,0.0061086523
714,android.sensor.gyroscope_uncalibrated,0.13683382,-0.0036651916,0.021991149,0.042760566,-0.0012217305,0.0061086523
764,android.sensor.accelerometer,0.8140534,4.824464,7.8197017
-869,sound,-Infinity
-919,sound,84.68325638781431
971,android.sensor.gyroscope_uncalibrated,0.24556783,0.34330627,-0.07574729,0.042760566,-0.0012217305,0.0061086523
1022,android.sensor.gyroscope_uncalibrated,0.04642576,-0.002443461,0.028099801,0.042760566,-0.0012217305,0.0061086523
1072,android.sensor.gyroscope_uncalibrated,0.030543262,0.002443461,0.07086037,0.042760566,-0.0012217305,0.0061086523
1125,android.sensor.gyroscope_uncalibrated,0.12339478,0.09407325,0.0,0.042760566,-0.0012217305,0.0061086523
1173,android.sensor.accelerometer,-1.0295382,7.0966306,7.0104365
1224,android.sensor.accelerometer,-3.083826,6.3735595,8.739103
1273,android.sensor.gyroscope_uncalibrated,0.21991149,0.22357668,0.032986723,0.042760566,-0.0012217305,0.0061086523
1328,android.sensor.gyroscope,-0.042760566,-0.17104226,-0.007330383
1382,android.sensor.gyroscope_uncalibrated,0.012217305,-0.12095132,-0.21502456,0.042760566,-0.0012217305,0.0061086523
1430,android.sensor.gyroscope_uncalibrated,0.344528,0.18325958,0.07086037,0.042760566,-0.0012217305,0.0061086523
1482,android.sensor.gyroscope_uncalibrated,0.112399206,-0.007330383,-0.119729586,0.042760566,-0.0012217305,0.0061086523
1532,android.sensor.accelerometer,-2.8827069,6.7207294,6.5555243
1580,android.sensor.gyroscope_uncalibrated,-0.20158553,-0.30909783,-0.39095375,0.042760566,-0.0012217305,0.0061086523
1633,android.sensor.accelerometer,-0.90024734,5.7295,8.746285
1691,android.sensor.gyroscope_uncalibrated,0.047647487,-0.05375614,0.07696902,0.042760566,-0.0012217305,0.0061086523
1740,android.sensor.gyroscope_uncalibrated,-0.007330383,-0.07452556,0.007330383,0.042760566,-0.0012217305,0.0061086523
1792,android.sensor.gyroscope_uncalibrated,0.2125811,0.112399206,-0.08307768,0.042760566,-0.0012217305,0.0061086523
1842,android.sensor.gyroscope_uncalibrated,0.0720821,0.02076942,0.21991149,0.042760566,-0.0012217305,0.0061086523
1890,android.sensor.gyroscope_uncalibrated,-0.6206391,-0.5864306,-0.26145032,0.042760566,-0.0012217305,0.0061086523
1942,android.sensor.gyroscope_uncalibrated,-0.50946164,-0.3200934,0.13561209,0.042760566,-0.0012217305,0.0061086523
1990,android.sensor.gyroscope_uncalibrated,0.22235495,-0.02076942,-0.2919936,0.042760566,-0.0012217305,0.0061086523
2042,android.sensor.gyroscope_uncalibrated,-0.12583824,0.1881465,0.14905111,0.042760566,-0.0012217305,0.0061086523
2095,android.sensor.accelerometer,-0.7326481,6.1125836,8.346442
2143,android.sensor.accelerometer,-0.038308397,5.8947043,8.772623
2196,android.sensor.accelerometer,-1.8411974,5.9210415,6.184412
2250,android.sensor.gyroscope_uncalibrated,-0.33475417,-0.012217305,-0.18570304,0.042760566,-0.0012217305,0.0061086523
2301,android.sensor.gyroscope_uncalibrated,0.1441642,-0.09040806,-0.11484267,0.042760566,-0.0012217305,0.0061086523
2348,android.sensor.accelerometer,-3.3424077,7.8747697,6.926637
2401,android.sensor.gyroscope_uncalibrated,-0.1282817,-0.2846632,-0.31764993,0.042760566,-0.0012217305,0.0061086523
2450,android.sensor.gyroscope_uncalibrated,0.22724187,0.31887165,-0.29443705,0.042760566,-0.0012217305,0.0061086523
2501,android.sensor.gyroscope_uncalibrated,0.16371189,0.28710666,0.11728613,0.042760566,-0.0012217305,0.0061086523
2550,android.sensor.gyroscope_uncalibrated,-0.028099801,-0.1685988,0.07574729,0.042760566,-0.0012217305,0.0061086523
2601,android.sensor.gyroscope_uncalibrated,0.065973446,-0.0012217305,-0.22968534,0.042760566,-0.0012217305,0.0061086523
2652,android.sensor.gyroscope_uncalibrated,0.34208453,0.28588495,-0.27122417,0.042760566,-0.0012217305,0.0061086523
2701,android.sensor.gyroscope_uncalibrated,-0.204029,-0.39095375,0.1282817,0.042760566,-0.0012217305,0.0061086523
2754,android.sensor.accelerometer,-0.7134939,4.731087,9.428655
2802,,0.21991149,0.2125811,0.41416663,4.2E-45,0.0,0.0,0.0,0.0,0.0,0.0,0.0,0.0,0.0,0.0,0.0,0.0
2854,android.sensor.accelerometer,-0.8140534,6.818895,7.142122
2904,android.sensor.accelerometer,-0.77574503,5.686403,9.086273
2961,android.sensor.gyroscope_uncalibrated,0.15149458,0.17592919,0.25900686,0.042760566,-0.0012217305,0.0061086523
3011,android.sensor.gyroscope_uncalibrated,-1.1948525,-0.82344633,-0.18692477,0.042760566,-0.0012217305,0.0061086523
3063,android.sensor.gyroscope_uncalibrated,0.77579886,0.3200934,-0.017104227,0.042760566,-0.0012217305,0.0061086523
3107,,0.38240165,0.09162979,-0.028099801,4.2E-45,0.0,0.0,0.0,0.0,0.0,0.0,0.0,0.0,0.0,0.0,0.0,0.0
3162,android.sensor.gyroscope_uncalibrated,0.02443461,0.2919936,0.28588495,0.042760566,-0.0012217305,0.0061086523
3215,android.sensor.accelerometer,-0.17238778,5.880339,7.3145094
3264,android.sensor.accelerometer,-0.58420306,5.8755503,9.012051
3321,android.sensor.gyroscope_uncalibrated,0.19547687,-0.09407325,0.17104226,0.042760566,-0.0012217305,0.0061086523
-3370,sound,-Infinity
-3420,sound,77.0263902529749
3469,android.sensor.gyroscope_uncalibrated,0.19547687,0.14538592,-0.05131268,0.042760566,-0.0012217305,0.0061086523
3520,android.sensor.gyroscope_uncalibrated,-0.008552114,0.064751714,0.14294247,0.042760566,-0.0012217305,0.0061086523
3569,android.sensor.gyroscope_uncalibrated,-0.007330383,-0.21502456,-0.13194689,0.042760566,-0.0012217305,0.0061086523
3624,android.sensor.accelerometer,-2.1237218,5.870762,7.290567
3667,android.sensor.gyroscope_uncalibrated,0.1441642,0.14538592,0.02687807,0.042760566,-0.0012217305,0.0061086523
3720,android.sensor.gyroscope_uncalibrated,0.07086037,-0.17715092,0.002443461,0.042760566,-0.0012217305,0.0061086523
3770,android.sensor.gyroscope_uncalibrated,0.17470746,0.13927728,-0.15271631,0.042760566,-0.0012217305,0.0061086523
3821,android.sensor.gyroscope_uncalibrated,0.103847094,-0.096516706,0.21013765,0.042760566,-0.0012217305,0.0061086523
3873,android.sensor.gyroscope_uncalibrated,0.17470746,0.24801129,-0.05497787,0.042760566,-0.0012217305,0.0061086523
-3926,sound,78.20394739932001
3973,android.sensor.accelerometer,-1.8268317,5.813299,8.190814
4025,android.sensor.accelerometer,-1.2522057,6.0694866,10.017646
4079,android.sensor.gyroscope_uncalibrated,0.18203785,-0.042760566,-0.047647487,0.042760566,-0.0012217305,0.0061086523
4126,android.sensor.accelerometer,-0.7541966,5.954561,8.597841
4181,android.sensor.gyroscope_uncalibrated,0.09896017,0.09773844,0.13439035,0.042760566,-0.0012217305,0.0061086523
4228,android.sensor.gyroscope_uncalibrated,0.04642576,-0.103847094,-0.02443461,0.042760566,-0.0012217305,0.0061086523
4281,android.sensor.gyroscope_uncalibrated,0.047647487,-0.0061086523,0.12950343,0.042760566,-0.0012217305,0.0061086523
4331,android.sensor.gyroscope_uncalibrated,0.1282817,-0.02321288,-0.13805555,0.042760566,-0.0012217305,0.0061086523
4383,android.sensor.gyroscope_uncalibrated,0.105068825,0.18936823,0.028099801,0.042760566,-0.0012217305,0.0061086523
4490,android.sensor.gyroscope_uncalibrated,0.112399206,0.14538592,0.15760323,0.042760566,-0.0012217305,0.0061086523
4537,android.sensor.gyroscope_uncalibrated,0.20891592,0.105068825,0.37384954,0.042760566,-0.0012217305,0.0061086523
4581,android.sensor.gyroscope_uncalibrated,-0.043982297,-0.014660766,0.07696902,0.042760566,-0.0012217305,0.0061086523
4632,android.sensor.gyroscope_uncalibrated,-0.0036651916,-0.06352998,0.05375614,0.042760566,-0.0012217305,0.0061086523
4682,android.sensor.gyroscope_uncalibrated,0.14049901,0.13439035,-0.03176499,0.042760566,-0.0012217305,0.0061086523
4734,android.sensor.accelerometer,-0.7853221,6.2179317,7.800547
4786,android.sensor.accelerometer,-0.22985038,6.1556807,8.995291
4834,android.sensor.accelerometer,-1.3934679,6.4789076,7.3001437
4885,android.sensor.accelerometer,-1.0271438,5.2650104,6.5555243
4935,android.sensor.accelerometer,-1.9728824,5.7534423,4.846012
4988,android.sensor.accelerometer,-1.4269878,4.702356,4.122941
5042,android.sensor.gyroscope_uncalibrated,-1.6432275,-1.1997393,-0.6743952,0.042760566,-0.0012217305,0.0061086523
5091,android.sensor.gyroscope_uncalibrated,-0.112399206,-0.7611381,-0.54000485,0.042760566,-0.0012217305,0.0061086523
5142,android.sensor.gyroscope_uncalibrated,0.30176744,-0.06719518,0.0842994,0.042760566,-0.0012217305,0.0061086523
5191,android.sensor.gyroscope_uncalibrated,1.2974777,0.62796944,0.49113566,0.042760566,-0.0012217305,0.0061086523
5242,android.sensor.gyroscope_uncalibrated,0.07574729,-0.38606682,0.16615535,0.042760566,-0.0012217305,0.0061086523
5292,android.sensor.gyroscope_uncalibrated,0.67073005,0.39828414,0.17104226,0.042760566,-0.0012217305,0.0061086523
5342,android.sensor.gyroscope_uncalibrated,0.26389378,-0.05375614,0.018325957,0.042760566,-0.0012217305,0.0061086523
5391,android.sensor.gyroscope_uncalibrated,0.3848451,-0.06352998,0.34208453,0.042760566,-0.0012217305,0.0061086523
5442,android.sensor.gyroscope_uncalibrated,1.0800097,0.54367006,0.013439035,0.042760566,-0.0012217305,0.0061086523
5490,android.sensor.accelerometer,-2.5499027,6.6872096,6.32328
5542,android.sensor.gyroscope_uncalibrated,0.45937067,0.30298916,-0.16249016,0.042760566,-0.0012217305,0.0061086523
5591,android.sensor.accelerometer,-1.1468576,5.808511,5.774991
5642,android.sensor.rotation_vector,0.278241,0.246985,0.364814,0.853516,2.0
5697,android.sensor.accelerometer,-1.1684061,6.263423,7.108602
5746,android.sensor.accelerometer,-2.6720107,7.0439563,6.074275
5797,android.sensor.accelerometer,-2.7725701,6.8500204,6.316097
5851,android.sensor.gyroscope_uncalibrated,0.46914452,0.7086037,0.20525073,0.042760566,-0.0012217305,0.0061086523
5902,android.sensor.gyroscope_uncalibrated,0.4728097,0.8038987,0.4166101,0.042760566,-0.0012217305,0.0061086523
5949,android.sensor.accelerometer,-1.3719195,6.91706,4.800521
6002,android.sensor.gyroscope_uncalibrated,0.12950343,0.906524,0.19547687,0.042760566,-0.0012217305,0.0061086523
6052,android.sensor.gyroscope_uncalibrated,0.30298916,0.5693264,-0.05375614,0.042760566,-0.0012217305,0.0061086523
6102,android.sensor.gyroscope_uncalibrated,0.62796944,0.59498274,-0.061086524,0.042760566,-0.0012217305,0.0061086523
6151,android.sensor.gyroscope_uncalibrated,0.44593164,0.72204274,0.12461651,0.042760566,-0.0012217305,0.0061086523
6202,android.sensor.gyroscope_uncalibrated,0.6243043,0.26511553,-0.103847094,0.042760566,-0.0012217305,0.0061086523
6317,android.sensor.gyroscope_uncalibrated,0.15515977,0.3359759,0.06719518,0.042760566,-0.0012217305,0.0061086523
6416,android.sensor.gyroscope_uncalibrated,-0.21135938,0.0036651916,-0.1282817,0.042760566,-0.0012217305,0.0061086523
6466,android.sensor.gyroscope_uncalibrated,-0.3005457,-0.10995574,0.09407325,0.042760566,-0.0012217305,0.0061086523
6505,android.sensor.game_rotation_vector,0.430353,0.228169,0.111677,0.866177
6557,android.sensor.gyroscope_uncalibrated,-0.64751714,0.81000733,0.38362336,0.042760566,-0.0012217305,0.0061086523
6617,,40.0,32.0,21.0,20.0,68.0,245.0,3.0,0.0,0.0,0.0,0.0,0.0,0.0,0.0,0.0,0.0
6671,android.sensor.gyroscope_uncalibrated,0.96883225,-0.49357912,-0.4605924,0.042760566,-0.0012217305,0.0061086523
6715,android.sensor.gyroscope_uncalibrated,-0.45081854,-0.6817256,-0.7538077,0.042760566,-0.0012217305,0.0061086523
6764,android.sensor.gyroscope_uncalibrated,-0.2761111,-0.61819565,-0.23945917,0.042760566,-0.0012217305,0.0061086523
6817,android.sensor.gyroscope,-0.21013765,-1.1911873,-0.41050145
-6869,sound,-Infinity
-6922,sound,81.59375255222672
6974,android.sensor.gyroscope_uncalibrated,0.63529986,-0.27855456,0.32253686,0.042760566,-0.0012217305,0.0061086523
7025,android.sensor.gyroscope_uncalibrated,0.007330383,-0.25534168,0.007330383,0.042760566,-0.0012217305,0.0061086523
7073,android.sensor.gyroscope_uncalibrated,0.019547688,-0.13805555,0.27855456,0.042760566,-0.0012217305,0.0061086523
7123,android.sensor.gyroscope_uncalibrated,-0.14782938,-0.30909783,0.25289822,0.042760566,-0.0012217305,0.0061086523
7177,android.sensor.accelerometer,-1.4748733,7.3767605,6.9721284
7227,android.sensor.gyroscope_uncalibrated,-0.03176499,-0.13439035,0.09040806,0.042760566,-0.0012217305,0.0061086523
7281,android.sensor.accelerometer,-1.0702409,6.4693303,5.873156
7331,android.sensor.accelerometer,-1.6400782,7.5395713,7.5060515
7385,android.sensor.gyroscope_uncalibrated,-0.26511553,0.02443461,0.13683382,0.042760566,-0.0012217305,0.0061086523
7439,android.sensor.gyroscope_uncalibrated,0.112399206,-0.13805555,0.16737708,0.042760566,-0.0012217305,0.0061086523
7489,android.sensor.gyroscope_uncalibrated,0.42149702,0.35063666,0.14049901,0.042760566,-0.0012217305,0.0061086523
7537,android.sensor.gyroscope_uncalibrated,-0.20769419,-0.16982053,0.21502456,0.042760566,-0.0012217305,0.0061086523
7587,android.sensor.gyroscope_uncalibrated,-0.2932153,-0.41050145,0.02321288,0.042760566,-0.0012217305,0.0061086523
7646,android.sensor.accelerometer,-0.27294734,6.5124273,8.243488
7694,android.sensor.gyroscope_uncalibrated,0.28221974,-0.32498032,0.015882496,0.042760566,-0.0012217305,0.0061086523
7746,android.sensor.gyroscope_uncalibrated,0.5534439,-0.09407325,-0.3371976,0.042760566,-0.0012217305,0.0061086523
7789,android.sensor.accelerometer,0.09337672,6.778192,5.2434616
7840,android.sensor.accelerometer,0.70631105,6.1269493,4.4222255
7894,android.sensor.gyroscope_uncalibrated,-0.26145032,-0.013439035,0.16249016,0.042760566,-0.0012217305,0.0061086523
7944,android.sensor.accelerometer,-2.0758362,7.4102807,6.735095
7995,android.sensor.gyroscope_uncalibrated,0.37140608,1.7531832,-0.13805555,0.042760566,-0.0012217305,0.0061086523
8048,android.sensor.gyroscope_uncalibrated,0.50946164,1.7873917,-0.38973203,0.042760566,-0.0012217305,0.0061086523
8098,android.sensor.accelerometer,-1.7310607,8.344048,4.3432145
8145,android.sensor.gyroscope_uncalibrated,-0.5009095,-2.3848178,-0.7623598,0.042760566,-0.0012217305,0.0061086523
8200,android.sensor.accelerometer,-1.0534809,7.7478733,7.848433
8255,android.sensor.gyroscope_uncalibrated,-0.8881981,-2.1856759,-0.81489426,0.042760566,-0.0012217305,0.0061086523
8302,android.sensor.accelerometer,-1.1061549,5.504438,9.115005
8354,android.sensor.gyroscope_uncalibrated,0.14538592,0.05497787,0.39706242,0.042760566,-0.0012217305,0.0061086523
8407,android.sensor.gyroscope_uncalibrated,0.4728097,0.15515977,1.600467,0.042760566,-0.0012217305,0.0061086523
8455,android.sensor.gyroscope_uncalibrated,-0.073303826,2.3322835,0.5290093,0.042760566,-0.0012217305,0.0061086523
8509,android.sensor.gyroscope_uncalibrated,0.45570546,0.10262536,-0.13316862,0.042760566,-0.0012217305,0.0061086523
8557,android.sensor.orientation,322.3262,-40.79834,-22.548199
8612,android.sensor.accelerometer,-2.9736893,7.228316,6.395108
8667,android.sensor.gyroscope_uncalibrated,0.2846632,1.378112,0.2932153,0.042760566,-0.0012217305,0.0061086523
8719,android.sensor.accelerometer,-3.8188684,7.0774765,6.141315
8768,android.sensor.gyroscope_uncalibrated,0.3555236,1.314582,0.1685988,0.042760566,-0.0012217305,0.0061086523
8814,android.sensor.gyroscope,-0.15515977,-0.56199604,-0.10751228
8865,android.sensor.gyroscope_uncalibrated,0.073303826,0.07574729,-0.59864795,0.042760566,-0.0012217305,0.0061086523
8919,android.sensor.accelerometer,-5.4757066,6.261029,3.6105664
16,android.sensor.game_rotation_vector,0.39554,0.279406,0.053779,0.873262
-77,sound,-Infinity
125,android.sensor.accelerometer,-4.5347567,7.24747,4.331243
181,android.sensor.gyroscope_uncalibrated,0.17104226,-0.408058,0.27000242,0.042760566,-0.0012217305,0.0061086523
513,android.sensor.accelerometer,-3.337619,5.7582307,7.6904106
564,android.sensor.accelerometer,-3.1269228,5.585843,7.0104365
615,android.sensor.accelerometer,-1.9920366,5.6361227,8.8324795
774,android.sensor.gyroscope_uncalibrated,0.6976081,-0.5717699,-0.36041048,0.042760566,-0.0012217305,0.0061086523
823,android.sensor.gyroscope_uncalibrated,0.103847094,-0.7171558,-0.047647487,0.042760566,-0.0012217305,0.0061086523
875,android.sensor.accelerometer,-2.4086404,5.305713,7.5659084
925,android.sensor.accelerometer,-2.2458298,5.8611846,6.4860907
1128,android.sensor.gyroscope_uncalibrated,0.77824235,-0.5644395,0.32498032,0.042760566,-0.0012217305,0.0061086523
1204,android.sensor.gyroscope,0.42760566,-1.7519615,0.6365216
1257,android.sensor.accelerometer,-5.3248672,5.238673,5.5906315
1310,android.sensor.accelerometer,2.4948344,10.482135,9.670476
1363,android.sensor.gyroscope_uncalibrated,-0.06963864,1.5515977,-0.2773328,0.042760566,-0.0012217305,0.0061086523
1413,android.sensor.gyroscope_uncalibrated,-0.2443461,-0.09040806,0.23823744,0.042760566,-0.0012217305,0.0061086523
1463,android.sensor.gyroscope_uncalibrated,0.13194689,-1.0164797,0.2565634,0.042760566,-0.0012217305,0.0061086523
1512,android.sensor.gyroscope_uncalibrated,-0.9443977,-0.26389378,-0.19303341,0.042760566,-0.0012217305,0.0061086523
1563,android.sensor.gyroscope_uncalibrated,0.22602014,0.6597345,-0.55833083,0.042760566,-0.0012217305,0.0061086523
1614,android.sensor.gyroscope_uncalibrated,0.57910025,1.1007792,0.33841935,0.042760566,-0.0012217305,0.0061086523
1665,android.sensor.gyroscope_uncalibrated,0.012217305,0.26145032,0.84788096,0.042760566,-0.0012217305,0.0061086523
1717,android.sensor.accelerometer,-0.69194543,6.960157,6.804529
1766,android.sensor.accelerometer,-0.36871833,6.201172,7.292961
1816,android.sensor.accelerometer,-0.68715686,6.7566433,8.518829
1875,android.sensor.gyroscope_uncalibrated,0.9957104,1.600467,0.2687807,0.042760566,-0.0012217305,0.0061086523
1923,android.sensor.gyroscope_uncalibrated,0.9822713,1.2681563,0.12583824,0.042760566,-0.0012217305,0.0061086523
1975,android.sensor.gyroscope_uncalibrated,1.0922271,1.0384709,-0.08307768,0.042760566,-0.0012217305,0.0061086523
2024,android.sensor.gyroscope_uncalibrated,0.8368854,0.86009824,0.0842994,0.042760566,-0.0012217305,0.0061086523
2074,android.sensor.gyroscope_uncalibrated,0.3567453,-0.7648033,-0.5558874,0.042760566,-0.0012217305,0.0061086523
2124,android.sensor.gyroscope_uncalibrated,0.79901177,-0.056199603,-0.14049901,0.042760566,-0.0012217305,0.0061086523
2177,android.sensor.accelerometer,-2.5044115,8.9186735,4.2833576
2232,android.sensor.gyroscope_uncalibrated,-0.028099801,0.5510005,0.06963864,0.042760566,-0.0012217305,0.0061086523
-2278,sound,78.98780013289826
2333,android.sensor.gyroscope_uncalibrated,0.34574974,0.12461651,0.21135938,0.042760566,-0.0012217305,0.0061086523
2377,android.sensor.accelerometer,-0.75180227,8.880365,3.6081722
2432,android.sensor.gyroscope_uncalibrated,0.034208454,-0.956615,0.32986724,0.042760566,-0.0012217305,0.0061086523
2482,android.sensor.gyroscope_uncalibrated,-0.028099801,-0.52412236,0.20158553,0.042760566,-0.0012217305,0.0061086523
2531,android.sensor.gyroscope_uncalibrated,-0.06719518,-0.39461896,0.21991149,0.042760566,-0.0012217305,0.0061086523
2582,android.sensor.gyroscope_uncalibrated,-0.44348818,-0.47769663,-0.09040806,0.042760566,-0.0012217305,0.0061086523
2633,android.sensor.gyroscope_uncalibrated,-0.2443461,-0.8014552,-0.1563815,0.042760566,-0.0012217305,0.0061086523
2683,android.sensor.gyroscope_uncalibrated,0.30176744,-0.4373795,-0.07086037,0.042760566,-0.0012217305,0.0061086523
2732,android.sensor.gyroscope_uncalibrated,0.118507855,-0.44348818,-0.02321288,0.042760566,-0.0012217305,0.0061086523
2783,android.sensor.gyroscope_uncalibrated,0.37384954,-0.31031954,0.16249016,0.042760566,-0.0012217305,0.0061086523
2834,android.sensor.accelerometer,-3.007209,6.5627074,6.5818615
2884,android.sensor.gyroscope_uncalibrated,0.6805039,-0.5412266,0.376293,0.042760566,-0.0012217305,0.0061086523
2939,android.sensor.gyroscope_uncalibrated,0.38606682,-0.18203785,0.16249016,0.042760566,-0.0012217305,0.0061086523
2994,android.sensor.gyroscope_uncalibrated,0.38240165,0.3933972,0.21624629,0.042760566,-0.0012217305,0.0061086523
3043,android.sensor.gyroscope_uncalibrated,0.36285394,-0.6230826,0.080634214,0.042760566,-0.0012217305,0.0061086523
3093,android.sensor.gyroscope_uncalibrated,0.16126843,0.31398472,-0.07086037,0.042760566,-0.0012217305,0.0061086523
3143,android.sensor.gyroscope_uncalibrated,0.35918877,-0.16249016,0.013439035,0.042760566,-0.0012217305,0.0061086523
3196,android.sensor.accelerometer,-0.74701375,8.796566,4.314483
3246,android.sensor.accelerometer,1.7909175,9.905115,4.230684
3296,android.sensor.accelerometer,0.54350036,10.59706,5.195576
-3349,sound,-Infinity
3404,android.sensor.gyroscope_uncalibrated,0.064751714,0.035430185,0.36774087,0.042760566,-0.0012217305,0.0061086523
3452,android.sensor.gyroscope_uncalibrated,0.12583824,-0.09040806,0.24678956,0.042760566,-0.0012217305,0.0061086523
3504,android.sensor.gyroscope_uncalibrated,0.09162979,0.24678956,0.2284636,0.042760566,-0.0012217305,0.0061086523
3551,android.sensor.accelerometer,-0.45970076,8.286585,2.8084843
3604,android.sensor.gyroscope_uncalibrated,-0.17837265,0.30298916,-0.095294975,0.042760566,-0.0012217305,0.0061086523
3656,android.sensor.accelerometer,0.011971374,7.6449194,5.138114
3713,android.sensor.gyroscope_uncalibrated,-0.032986723,-0.08552113,-0.16493362,0.042760566,-0.0012217305,0.0061086523
3756,android.sensor.gyroscope,0.02076942,0.13927728,-0.013439035
3812,android.sensor.gyroscope_uncalibrated,-0.04153884,0.064751714,-0.05375614,0.042760566,-0.0012217305,0.0061086523
3863,android.sensor.gyroscope_uncalibrated,-0.10751228,-0.07696902,-0.34330627,0.042760566,-0.0012217305,0.0061086523
3912,android.sensor.gyroscope_uncalibrated,0.12705997,-0.04153884,-0.1441642,0.042760566,-0.0012217305,0.0061086523
3963,android.sensor.gyroscope_uncalibrated,0.10629055,0.09162979,-0.047647487,0.042760566,-0.0012217305,0.0061086523
4014,android.sensor.gyroscope_uncalibrated,0.28955013,-0.11728613,0.081855945,0.042760566,-0.0012217305,0.0061086523
4064,android.sensor.gyroscope_uncalibrated,0.25289822,0.22602014,0.2602286,0.042760566,-0.0012217305,0.0061086523
4116,android.sensor.accelerometer,1.2929084,8.46855,3.9529476
4164,android.sensor.magnetic_field_uncalibrated,23.300001,6.5,132.40001,3.6000001,-26.4,123.200005
4227,android.sensor.accelerometer,-0.84278476,8.039975,3.6560576
4266,android.sensor.accelerometer,0.038308397,9.277815,5.504438
4320,android.sensor.accelerometer,-1.0271438,8.913885,4.678413
4373,android.sensor.accelerometer,1.8459859,12.3807955,3.46691
4425,android.sensor.gyroscope_uncalibrated,-0.6560693,-0.34697145,0.04153884,0.042760566,-0.0012217305,0.0061086523
4473,android.sensor.gyroscope_uncalibrated,0.172264,0.25778514,0.13316862,0.042760566,-0.0012217305,0.0061086523
4525,android.sensor.gyroscope_uncalibrated,0.089186326,-0.20891592,-0.010995574,0.042760566,-0.0012217305,0.0061086523
4574,android.sensor.gyroscope_uncalibrated,-0.05497787,0.6646214,0.40194935,0.042760566,-0.0012217305,0.0061086523
4626,android.sensor.gyroscope_uncalibrated,0.53023106,0.21746802,-0.34330627,0.042760566,-0.0012217305,0.0061086523
4677,android.sensor.accelerometer,-1.2713599,9.021627,3.3424077
4732,android.sensor.accelerometer,-0.24900457,6.864386,5.233885
4785,android.sensor.gyroscope_uncalibrated,0.14538592,0.10873401,0.19425514,0.042760566,-0.0012217305,0.0061086523
4834,android.sensor.gyroscope_uncalibrated,0.39828414,-0.25411993,-0.2443461,0.042760566,-0.0012217305,0.0061086523
4884,android.sensor.gyroscope_uncalibrated,0.02565634,0.014660766,-0.22357668,0.042760566,-0.0012217305,0.0061086523
4936,android.sensor.gyroscope_uncalibrated,0.26511553,-0.2125811,-0.43127087,0.042760566,-0.0012217305,0.0061086523
4984,android.sensor.gyroscope_uncalibrated,-0.31398472,-0.2883284,-0.12217305,0.042760566,-0.0012217305,0.0061086523
5034,android.sensor.rotation_vector,0.403212,0.39087,0.498866,0.66013,2.0
5087,android.sensor.gyroscope_uncalibrated,-0.46181414,-0.40439278,0.3640757,0.042760566,-0.0012217305,0.0061086523
5136,android.sensor.accelerometer,1.5658557,8.516436,3.9098508
5197,android.sensor.gyroscope_uncalibrated,0.17348573,0.54733527,0.48624873,0.042760566,-0.0012217305,0.0061086523
5241,android.sensor.accelerometer,0.21548474,7.125362,7.0295906
5299,android.sensor.gyroscope_uncalibrated,0.47769663,-0.11728613,0.8943067,0.042760566,-0.0012217305,0.0061086523
5343,android.sensor.accelerometer,2.116539,3.031152,1.2498114
5394,android.sensor.gyroscope_uncalibrated,-0.2968805,0.21868975,-0.5815437,0.042760566,-0.0012217305,0.0061086523
5445,android.sensor.gyroscope_uncalibrated,-0.8588765,-0.29077184,-0.8552113,0.042760566,-0.0012217305,0.0061086523
5499,android.sensor.accelerometer,-0.9577099,11.777438,8.573898
5553,android.sensor.gyroscope_uncalibrated,0.20158553,0.9810496,-0.15760323,0.042760566,-0.0012217305,0.0061086523
5602,android.sensor.accelerometer,-2.430189,9.047964,8.913885
5654,android.sensor.gyroscope_uncalibrated,0.4569272,-0.46670106,0.5021312,0.042760566,-0.0012217305,0.0061086523
5704,android.sensor.gyroscope_uncalibrated,0.64751714,0.13683382,0.4129449,0.042760566,-0.0012217305,0.0061086523
5755,android.sensor.accelerometer,1.1396748,7.6281595,5.358387
5814,android.sensor.gyroscope_uncalibrated,0.2125811,-0.15760323,-0.13439035,0.042760566,-0.0012217305,0.0061086523
5865,android.sensor.game_rotation_vector,0.458687,0.02623,0.12638,0.879173
5914,android.sensor.gyroscope_uncalibrated,1.0751228,0.8014552,-0.014660766,0.042760566,-0.0012217305,0.0061086523
5964,android.sensor.gyroscope_uncalibrated,0.8881981,1.3035865,0.032986723,0.042760566,-0.0012217305,0.0061086523
6021,android.sensor.accelerometer,-2.135693,9.603436,4.477294
6079,android.sensor.gyroscope_uncalibrated,0.14782938,0.7440339,0.14660765,0.042760566,-0.0012217305,0.0061086523
6121,android.sensor.gyroscope_uncalibrated,0.2321288,0.18081611,0.05375614,0.042760566,-0.0012217305,0.0061086523
6172,android.sensor.accelerometer,-1.1995317,8.921068,4.1971636
-6224,sound,-Infinity
-6276,sound,79.825407783902
6326,android.sensor.gyroscope_uncalibrated,0.27977628,0.15271631,-0.26389378,0.042760566,-0.0012217305,0.0061086523
6375,android.sensor.gyroscope_uncalibrated,0.14538592,0.4092797,0.05497787,0.042760566,-0.0012217305,0.0061086523
6426,android.sensor.gyroscope_uncalibrated,0.032986723,0.27977628,0.032986723,0.042760566,-0.0012217305,0.0061086523
6476,android.sensor.gyroscope_uncalibrated,-0.15760323,0.4007276,-0.02076942,0.042760566,-0.0012217305,0.0061086523
6526,android.sensor.gyroscope_uncalibrated,0.058643065,0.52290064,-0.056199603,0.042760566,-0.0012217305,0.0061086523
6575,android.sensor.gyroscope,-0.30543262,-0.829555,-0.24923302
6626,android.sensor.gyroscope,-0.63529986,-1.2950343,-0.25411993
6679,android.sensor.accelerometer,-1.0941836,9.167678,4.9609375
6729,android.sensor.accelerometer,-1.0391153,8.332076,4.862772
6783,android.sensor.accelerometer,0.44294083,8.229122,5.1620564
6836,android.sensor.gyroscope_uncalibrated,-0.312763,-0.4605924,0.013439035,0.042760566,-0.0012217305,0.0061086523
6887,android.sensor.gyroscope_uncalibrated,-0.36651915,-0.73426,0.10262536,0.042760566,-0.0012217305,0.0061086523
6937,android.sensor.gyroscope_uncalibrated,-0.5705481,-0.74281216,-0.037873644,0.042760566,-0.0012217305,0.0061086523
6986,android.sensor.gyroscope_uncalibrated,-0.21868975,-0.25900686,0.059864793,0.042760566,-0.0012217305,0.0061086523
7046,android.sensor.gyroscope_uncalibrated,-0.26145032,-0.15027285,0.029321533,0.042760566,-0.0012217305,0.0061086523
7095,android.sensor.gyroscope_uncalibrated,-0.453262,-0.04642576,-0.18936823,0.042760566,-0.0012217305,0.0061086523
7146,android.sensor.gyroscope_uncalibrated,-0.50335294,-0.20769419,-0.089186326,0.042760566,-0.0012217305,0.0061086523
7196,android.sensor.gyroscope_uncalibrated,-0.3371976,-0.15271631,-0.13683382,0.042760566,-0.0012217305,0.0061086523
7248,android.sensor.gyroscope_uncalibrated,-0.09896017,0.03176499,0.007330383,0.042760566,-0.0012217305,0.0061086523
7298,android.sensor.gyroscope_uncalibrated,-0.18570304,0.11362094,0.1600467,0.042760566,-0.0012217305,0.0061086523
7347,android.sensor.gyroscope_uncalibrated,0.12339478,-0.18203785,0.12339478,0.042760566,-0.0012217305,0.0061086523
7406,android.sensor.accelerometer,0.53392327,7.266624,6.368771
7454,android.sensor.accelerometer,0.035914123,7.8460383,6.689604
7506,android.sensor.accelerometer,0.22027329,7.8340673,7.4605603
7560,android.sensor.gyroscope_uncalibrated,-0.004886922,0.1600467,0.02321288,0.042760566,-0.0012217305,0.0061086523
7609,android.sensor.gyroscope_uncalibrated,0.1600467,-0.06963864,0.09162979,0.042760566,-0.0012217305,0.0061086523
7661,android.sensor.accelerometer,0.35435268,7.2809896,6.998465
7712,android.sensor.accelerometer,1.2569942,6.9457912,5.305713
7764,android.sensor.accelerometer,0.22027329,7.4461946,6.2586346
7817,android.sensor.gyroscope_uncalibrated,0.18448131,0.14660765,0.040317107,0.042760566,-0.0012217305,0.0061086523
7867,android.sensor.gyroscope_uncalibrated,0.032986723,0.065973446,0.105068825,0.042760566,-0.0012217305,0.0061086523
7919,android.sensor.gyroscope_uncalibrated,-0.07941248,0.31520647,-0.018325957,0.042760566,-0.0012217305,0.0061086523
7969,android.sensor.gyroscope_uncalibrated,0.09285152,0.15515977,0.07086037,0.042760566,-0.0012217305,0.0061086523
8018,android.sensor.gyroscope_uncalibrated,-0.09285152,0.3921755,-0.061086524,0.042760566,-0.0012217305,0.0061086523
8072,android.sensor.gyroscope_uncalibrated,-0.2125811,0.32253686,-0.04642576,0.042760566,-0.0012217305,0.0061086523
8117,android.sensor.gyroscope_uncalibrated,-0.105068825,0.35430184,-0.07941248,0.042760566,-0.0012217305,0.0061086523
8173,android.sensor.gyroscope_uncalibrated,-0.112399206,-0.26633725,-0.0012217305,0.042760566,-0.0012217305,0.0061086523
8222,android.sensor.gyroscope_uncalibrated,0.119729586,0.23945917,0.0036651916,0.042760566,-0.0012217305,0.0061086523
-8273,sound,72.72975792706731
8329,android.sensor.gyroscope_uncalibrated,-0.22479841,0.10140363,-0.3200934,0.042760566,-0.0012217305,0.0061086523
8377,android.sensor.gyroscope_uncalibrated,0.057421334,0.32742378,-0.4605924,0.042760566,-0.0012217305,0.0061086523
8429,android.sensor.game_rotation_vector,0.402232,0.059718,0.066204,0.911186
8482,android.sensor.gyroscope_uncalibrated,-0.089186326,0.31642818,-0.39461896,0.042760566,-0.0012217305,0.0061086523
8534,android.sensor.game_rotation_vector,0.417783,0.118709,0.04217,0.89977
8584,android.sensor.accelerometer,-0.16041641,6.091035,4.0104103
8638,android.sensor.gyroscope_uncalibrated,-0.8173377,-0.43004912,-0.18692477,0.042760566,-0.0012217305,0.0061086523
8741,android.sensor.gyroscope_uncalibrated,-0.35796702,-0.45937067,0.5045747,0.042760566,-0.0012217305,0.0061086523
8837,android.sensor.accelerometer,-0.8332076,8.018426,6.936214
8889,android.sensor.gyroscope_uncalibrated,-0.15149458,-0.25778514,0.057421334,0.042760566,-0.0012217305,0.0061086523
8991,android.sensor.gyroscope_uncalibrated,0.047647487,0.15760323,0.09773844,0.042760566,-0.0012217305,0.0061086523
9043,android.sensor.gyroscope_uncalibrated,-0.059864793,-0.014660766,0.052534413,0.042760566,-0.0012217305,0.0061086523
9092,android.sensor.accelerometer,0.08140534,6.1700463,7.21395
9144,android.sensor.accelerometer,-0.72785956,5.9114647,8.317711
9194,android.sensor.accelerometer,-0.038308397,5.3919067,6.8021345
9248,android.sensor.accelerometer,-0.48124924,5.774991,7.599428
9298,android.sensor.accelerometer,-1.1540405,5.916253,6.9218483
9400,android.sensor.gyroscope_uncalibrated,-0.07819075,-0.22968534,0.080634214,0.042760566,-0.0012217305,0.0061086523
9452,android.sensor.gyroscope_uncalibrated,-0.12339478,0.095294975,0.039095376,0.042760566,-0.0012217305,0.0061086523
9553,android.sensor.accelerometer,-0.06943397,5.870762,8.284191
9605,android.sensor.accelerometer,-0.22506183,5.899493,9.557945
10012,android.sensor.gyroscope_uncalibrated,0.111177474,0.15760323,-0.035430185,0.042760566,-0.0012217305,0.0061086523
10113,android.sensor.magnetic_field_uncalibrated,30.7,16.9,138.6,3.6000001,-26.4,123.200005
10164,android.sensor.accelerometer,-0.31843856,5.995264,7.5659084
10805,android.sensor.gyroscope_uncalibrated,0.04153884,-0.02687807,-0.014660766,0.042760566,-0.0012217305,0.0061086523
10858,android.sensor.accelerometer,-0.031125572,6.8021345,7.170853
10904,android.sensor.accelerometer,-0.043096945,6.6967864,7.1732473
10954,android.sensor.accelerometer,-0.083799616,6.897906,7.5874567
11012,android.sensor.gyroscope_uncalibrated,0.02321288,0.017104227,-0.013439035,0.042760566,-0.0012217305,0.0061086523
11062,android.sensor.gyroscope_uncalibrated,0.08552113,0.014660766,0.017104227,0.042760566,-0.0012217305,0.0061086523
11112,android.sensor.gyroscope_uncalibrated,0.007330383,0.040317107,-0.02443461,0.042760566,-0.0012217305,0.0061086523
11158,android.sensor.accelerometer,-0.48124924,6.7566433,6.682421
11212,android.sensor.gyroscope_uncalibrated,-0.014660766,-0.017104227,-0.017104227,0.042760566,-0.0012217305,0.0061086523
11260,android.sensor.gyroscope_uncalibrated,0.05375614,0.058643065,-0.04520403,0.042760566,-0.0012217305,0.0061086523
11322,android.sensor.gyroscope_uncalibrated,0.047647487,0.02565634,0.009773844,0.042760566,-0.0012217305,0.0061086523
11373,android.sensor.gyroscope_uncalibrated,0.03176499,0.10140363,-0.1001819,0.042760566,-0.0012217305,0.0061086523
11421,android.sensor.gyroscope,-0.058643065,-0.07696902,-0.14049901
11542,android.sensor.gyroscope_uncalibrated,0.056199603,0.036651913,-0.09040806,0.042760566,-0.0012217305,0.0061086523
11593,android.sensor.gyroscope_uncalibrated,0.021991149,0.032986723,-0.02565634,0.042760566,-0.0012217305,0.0061086523
11634,android.sensor.gyroscope_uncalibrated,-0.004886922,-0.058643065,0.004886922,0.042760566,-0.0012217305,0.0061086523
11687,android.sensor.gyroscope_uncalibrated,0.2773328,0.2846632,-0.3200934,0.042760566,-0.0012217305,0.0061086523
11742,android.sensor.gyroscope_uncalibrated,0.18692477,0.07941248,-0.31642818,0.042760566,-0.0012217305,0.0061086523
11787,android.sensor.gyroscope_uncalibrated,0.14049901,0.04642576,-0.40194935,0.042760566,-0.0012217305,0.0061086523
11839,android.sensor.accelerometer,-1.0558752,7.762239,6.490879
11894,android.sensor.gyroscope_uncalibrated,0.24312437,0.12095132,-0.27977628,0.042760566,-0.0012217305,0.0061086523
11943,android.sensor.accelerometer,-2.1835787,8.12138,5.334444
11986,android.sensor.gyroscope,-0.08674286,-0.118507855,0.18936823
12046,android.sensor.accelerometer,-1.0989721,7.5659084,5.7725964
12096,android.sensor.accelerometer,0.083799616,6.7805862,4.616162
12146,android.sensor.accelerometer,-0.098165266,6.742278,5.437398
12196,android.sensor.gyroscope,0.19547687,-0.081855945,0.052534413
12255,android.sensor.gyroscope_uncalibrated,-0.118507855,-0.18692477,-0.007330383,0.042760566,-0.0012217305,0.0061086523
12299,com.samsung.sensor.grip,5.0,0.0,0.0,0.0,0.0,0.0,0.0,0.0,0.0,0.0,0.0,0.0,0.0,0.0,0.0,0.0
12349,android.sensor.gyroscope_uncalibrated,0.02443461,0.061086524,-0.119729586,0.042760566,-0.0012217305,0.0061086523
12403,android.sensor.gyroscope_uncalibrated,0.05009095,-0.007330383,-0.02076942,0.042760566,-0.0012217305,0.0061086523
12455,android.sensor.gyroscope_uncalibrated,0.013439035,-0.09773844,0.056199603,0.042760566,-0.0012217305,0.0061086523
12503,android.sensor.gyroscope_uncalibrated,0.07696902,0.09407325,-0.17959438,0.042760566,-0.0012217305,0.0061086523
12555,android.sensor.gyroscope_uncalibrated,0.34330627,0.25778514,-0.2443461,0.042760566,-0.0012217305,0.0061086523
12605,android.sensor.gyroscope_uncalibrated,0.14172074,0.11484267,-0.19547687,0.042760566,-0.0012217305,0.0061086523
12654,android.sensor.gyroscope_uncalibrated,0.172264,0.07086037,-0.1600467,0.042760566,-0.0012217305,0.0061086523
12704,android.sensor.gyroscope_uncalibrated,0.15882497,0.09040806,-0.09773844,0.042760566,-0.0012217305,0.0061086523
12754,android.sensor.gyroscope_uncalibrated,-0.21502456,1.2852604,0.05009095,0.042760566,-0.0012217305,0.0061086523
12804,android.sensor.gyroscope_uncalibrated,0.05131268,-0.41416663,-0.09040806,0.042760566,-0.0012217305,0.0061086523
12854,android.sensor.gyroscope_uncalibrated,0.36896262,0.30787608,-0.19181168,0.042760566,-0.0012217305,0.0061086523
12906,android.sensor.accelerometer,-1.9226027,8.470944,5.1692395
12958,android.sensor.accelerometer,-0.967287,7.7933645,5.9449844
13005,android.sensor.gyroscope_uncalibrated,-0.1441642,-0.3371976,-0.014660766,0.042760566,-0.0012217305,0.0061086523
13057,android.sensor.accelerometer,-0.2849187,6.691998,6.299337
13107,android.sensor.accelerometer,-0.2657645,6.9481854,7.5395713
13156,,0.17470746,0.111177474,-0.07696902,4.2E-45,0.0,0.0,0.0,0.0,0.0,0.0,0.0,0.0,0.0,0.0,0.0,0.0
13207,android.sensor.accelerometer,-1.3958622,7.865193,5.9186473
13263,android.sensor.gyroscope_uncalibrated,-0.12217305,-0.13316862,-0.043982297,0.042760566,-0.0012217305,0.0061086523
13314,android.sensor.gyroscope_uncalibrated,-0.0720821,-0.344528,-0.0061086523,0.042760566,-0.0012217305,0.0061086523
13363,android.sensor.gyroscope_uncalibrated,0.1563815,0.081855945,-0.14660765,0.042760566,-0.0012217305,0.0061086523
13414,android.sensor.gyroscope_uncalibrated,-0.10140363,-0.44593164,0.22235495,0.042760566,-0.0012217305,0.0061086523
13463,android.sensor.gyroscope_uncalibrated,-0.33353242,-0.25167647,0.037873644,0.042760566,-0.0012217305,0.0061086523
13514,android.sensor.gyroscope_uncalibrated,0.3115413,0.030543262,0.064751714,0.042760566,-0.0012217305,0.0061086523
13561,,285.0,188.0,191.0,231.0,565.0,245.0,3.0,0.0,0.0,0.0,0.0,0.0,0.0,0.0,0.0,0.0
13614,android.sensor.gyroscope_uncalibrated,-0.29565877,-0.2846632,0.51923543,0.042760566,-0.0012217305,0.0061086523
13664,android.sensor.gyroscope_uncalibrated,0.08674286,0.11362094,0.30665436,0.042760566,-0.0012217305,0.0061086523
13714,android.sensor.gyroscope_uncalibrated,-0.47647488,-0.45570546,0.4373795,0.042760566,-0.0012217305,0.0061086523
13763,android.sensor.gyroscope_uncalibrated,-0.62796944,-0.60231316,0.8368854,0.042760566,-0.0012217305,0.0061086523
13815,android.sensor.gyroscope_uncalibrated,-0.31398472,-0.20891592,0.38240165,0.042760566,-0.0012217305,0.0061086523
13867,android.sensor.accelerometer,2.9904492,5.054314,7.6712565
13914,android.sensor.rotation_vector,0.329491,-0.043524,0.290114,0.897426,2.0
13966,android.sensor.accelerometer,0.45970076,6.9936767,6.8069234
14016,speed,4.2942986,8.0
14068,android.sensor.accelerometer,1.7454263,5.954561,6.7039695
14118,android.sensor.accelerometer,1.6281068,6.098218,8.41827
14170,android.sensor.accelerometer,0.6296943,6.3567996,7.6640735
14222,android.sensor.accelerometer,1.1779832,6.012024,7.0535336
-14273,sound,77.37758892474176
14320,android.sensor.accelerometer,1.0654523,6.3352513,7.391126
14378,android.sensor.gyroscope_uncalibrated,0.35796702,0.2932153,-0.19425514,0.042760566,-0.0012217305,0.0061086523
14427,android.sensor.accelerometer,0.6943397,6.1077952,7.058322
14478,android.sensor.accelerometer,1.2450229,6.8260775,6.6776323
14529,android.sensor.gyroscope_uncalibrated,0.27122417,0.15515977,-0.3408628,0.042760566,-0.0012217305,0.0061086523
14581,android.sensor.accelerometer,0.5698374,6.4789076,6.6177754
14627,android.sensor.accelerometer,1.7669748,7.0726876,7.067899
14684,android.sensor.gyroscope_uncalibrated,0.06352998,-0.103847094,-0.17348573,0.042760566,-0.0012217305,0.0061086523
14735,android.sensor.gyroscope_uncalibrated,0.05375614,-0.22602014,-0.0061086523,0.042760566,-0.0012217305,0.0061086523
14784,android.sensor.gyroscope_uncalibrated,0.14782938,-0.119729586,-0.21380283,0.042760566,-0.0012217305,0.0061086523
14835,android.sensor.gyroscope_uncalibrated,0.030543262,-0.12583824,-0.09285152,0.042760566,-0.0012217305,0.0061086523
14881,android.sensor.accelerometer,1.2713599,6.3903193,7.211556
14936,android.sensor.gyroscope_uncalibrated,0.2284636,0.19425514,-0.27122417,0.042760566,-0.0012217305,0.0061086523
14989,android.sensor.gyroscope_uncalibrated,0.88331115,0.7293731,-0.6817256,0.042760566,-0.0012217305,0.0061086523
15036,android.sensor.gyroscope_uncalibrated,1.5234979,1.205848,-0.74281216,0.042760566,-0.0012217305,0.0061086523
15085,android.sensor.gyroscope_uncalibrated,1.5137241,1.0433578,-0.61575216,0.042760566,-0.0012217305,0.0061086523
15136,android.sensor.gyroscope_uncalibrated,0.77579886,0.2565634,-0.57910025,0.042760566,-0.0012217305,0.0061086523
15185,android.sensor.gyroscope_uncalibrated,0.41783184,0.032986723,-0.31887165,0.042760566,-0.0012217305,0.0061086523
15238,android.sensor.gyroscope_uncalibrated,0.36285394,-0.002443461,-0.19181168,0.042760566,-0.0012217305,0.0061086523
15287,android.sensor.gyroscope_uncalibrated,0.23579398,-0.17837265,-0.13927728,0.042760566,-0.0012217305,0.0061086523
15335,android.sensor.gyroscope_uncalibrated,-0.0842994,-0.2932153,-0.052534413,0.042760566,-0.0012217305,0.0061086523
15389,android.sensor.accelerometer,-1.541913,8.696006,5.7127395
15436,android.sensor.rotation_vector,0.366923,0.349141,0.451339,0.734683,2.0
