4,android.sensor.accelerometer,-2.466103,8.217151,3.4214187
52,android.sensor.game_rotation_vector,0.385548,0.11735,-0.036747,0.914456
110,android.sensor.game_rotation_vector,0.367878,0.103891,-0.055787,0.922366
154,android.sensor.gyroscope,-0.081855945,-0.32620203,-0.103847094
208,android.sensor.game_rotation_vector,0.365961,0.097989,-0.059398,0.923548
264,android.sensor.game_rotation_vector,0.356617,0.098375,-0.060981,0.927053
310,android.sensor.game_rotation_vector,0.3599,0.098583,-0.064039,0.925555
360,android.sensor.gyroscope,-0.35918877,-0.18570304,-0.05375614
409,android.sensor.game_rotation_vector,0.354377,0.089506,-0.066504,0.92843
460,android.sensor.gyroscope,-0.2003638,-0.096516706,-0.014660766
510,android.sensor.gyroscope,0.04520403,-0.16126843,-0.11362094
568,android.sensor.game_rotation_vector,0.320739,0.068385,-0.077575,0.941505
611,android.sensor.gyroscope,-0.36651915,-0.17592919,-0.22724187
666,android.sensor.gyroscope_uncalibrated,-0.37507126,-0.10873401,-0.14172074,0.042760566,-0.0012217305,0.0061086523
716,android.sensor.gyroscope,0.07452556,-0.06963864,-0.08307768
770,android.sensor.game_rotation_vector,0.304877,0.038685,-0.088511,0.94748
819,android.sensor.game_rotation_vector,0.313567,0.04081,-0.089476,0.944459
869,android.sensor.game_rotation_vector,0.318828,0.049264,-0.086369,0.942582
920,android.sensor.game_rotation_vector,0.340773,0.058084,-0.078669,0.935045
970,android.sensor.game_rotation_vector,0.352204,0.063055,-0.078073,0.930527
1022,android.sensor.gyroscope_uncalibrated,0.30787608,0.3286455,0.007330383,0.042760566,-0.0012217305,0.0061086523
1069,android.sensor.game_rotation_vector,0.366188,0.071068,-0.07472,0.924809
1120,android.sensor.orientation,330.44785,-39.46203,-14.4401655
1171,android.sensor.game_rotation_vector,0.343767,0.074439,-0.07647,0.93297
1223,android.sensor.gyroscope_uncalibrated,0.07086037,-0.27977628,0.036651913,0.042760566,-0.0012217305,0.0061086523
1274,android.sensor.accelerometer,-2.3224466,6.074275,7.6688623
1330,android.sensor.game_rotation_vector,0.339709,0.069789,-0.080427,0.934483
1377,android.sensor.accelerometer,-1.8555629,6.6704497,8.91149
1430,android.sensor.game_rotation_vector,0.335399,0.064345,-0.074852,0.93689
1479,android.sensor.game_rotation_vector,0.352938,0.062234,-0.075596,0.930508
1529,android.sensor.game_rotation_vector,0.355132,0.060532,-0.077457,0.929632
1581,android.sensor.game_rotation_vector,0.332952,0.05819,-0.080284,0.937715
1630,android.sensor.game_rotation_vector,0.331651,0.058643,-0.082418,0.937963
1680,android.sensor.game_rotation_vector,0.34962,0.057441,-0.082635,0.93147
1730,android.sensor.game_rotation_vector,0.346239,0.059605,-0.083439,0.932525
1782,android.sensor.gyroscope,0.021991149,-0.111177474,0.02443461
1832,android.sensor.gyroscope,-0.047647487,-0.13316862,-0.0061086523
1882,android.sensor.gyroscope,-0.057421334,-0.04642576,0.012217305
1933,android.sensor.gyroscope,-0.081855945,0.062308256,-0.04153884
1982,android.sensor.gyroscope_uncalibrated,0.16615535,-0.040317107,-0.02076942,0.042760566,-0.0012217305,0.0061086523
2035,android.sensor.gyroscope,-0.0061086523,-0.14294247,0.019547688
2089,android.sensor.game_rotation_vector,0.344071,0.054214,-0.087555,0.933278
2138,android.sensor.game_rotation_vector,0.334597,0.055452,-0.087735,0.936628
2189,android.sensor.game_rotation_vector,0.332471,0.053498,-0.088866,0.937391
2238,android.sensor.game_rotation_vector,0.333675,0.054591,-0.089717,0.936819
2289,android.sensor.game_rotation_vector,0.345033,0.053139,-0.087996,0.932944
2336,android.sensor.gyroscope_uncalibrated,0.029321533,-0.012217305,-0.056199603,0.042760566,-0.0012217305,0.0061086523
2389,android.sensor.game_rotation_vector,0.339227,0.055205,-0.090031,0.934757
2438,android.sensor.game_rotation_vector,0.34094,0.052771,-0.089761,0.9343
2489,android.sensor.game_rotation_vector,0.33451,0.05499,-0.090119,0.93646
2538,android.sensor.game_rotation_vector,0.337232,0.053012,-0.090725,0.935538
2589,android.sensor.game_rotation_vector,0.335949,0.05681,-0.091298,0.935721
2639,android.sensor.game_rotation_vector,0.344771,0.053927,-0.091694,0.932639
2689,android.sensor.game_rotation_vector,0.335496,0.056462,-0.091977,0.935838
2739,android.sensor.rotation_vector,0.287601,0.174745,0.250388,0.907775,2.0
2791,android.sensor.accelerometer,-1.7669748,5.418244,7.6449194
2840,android.sensor.game_rotation_vector,0.325908,0.055829,-0.094438,0.939014
2891,android.sensor.gyroscope_uncalibrated,0.1001819,0.12705997,0.057421334,0.042760566,-0.0012217305,0.0061086523
2941,android.sensor.accelerometer,-2.4996228,5.770202,7.144516
2996,android.sensor.gyroscope_uncalibrated,0.06352998,0.034208454,0.02687807,0.042760566,-0.0012217305,0.0061086523
3048,android.sensor.gyroscope_uncalibrated,0.043982297,0.042760566,0.07941248,0.042760566,-0.0012217305,0.0061086523
3098,android.sensor.gyroscope_uncalibrated,0.062308256,0.037873644,0.06719518,0.042760566,-0.0012217305,0.0061086523
3149,android.sensor.gyroscope_uncalibrated,0.1001819,0.06352998,0.004886922,0.042760566,-0.0012217305,0.0061086523
3198,android.sensor.gyroscope_uncalibrated,0.065973446,0.05009095,-0.0061086523,0.042760566,-0.0012217305,0.0061086523
3249,android.sensor.gyroscope_uncalibrated,-0.047647487,0.14172074,0.015882496,0.042760566,-0.0012217305,0.0061086523
3299,android.sensor.gyroscope_uncalibrated,0.02687807,0.15760323,0.061086524,0.042760566,-0.0012217305,0.0061086523
3349,android.sensor.gyroscope_uncalibrated,0.10140363,0.047647487,0.02443461,0.042760566,-0.0012217305,0.0061086523
3398,android.sensor.gyroscope_uncalibrated,0.09162979,-0.12339478,0.02687807,0.042760566,-0.0012217305,0.0061086523
3449,android.sensor.accelerometer,-2.0064023,5.0375543,8.490098
3497,android.sensor.accelerometer,-0.9194015,6.186806,6.648901
3548,android.sensor.accelerometer,-1.7837347,5.0662856,6.167652
3598,android.sensor.accelerometer,-1.9824595,5.794145,6.9936767
3649,android.sensor.accelerometer,-1.664021,6.0599093,7.695199
3698,android.sensor.accelerometer,-1.9896424,6.0766697,7.1995845
3748,android.sensor.accelerometer,-1.2881198,6.4166565,7.5323887
3801,android.sensor.accelerometer,-1.6257126,5.786962,7.429435
3851,android.sensor.accelerometer,-1.5538844,6.483696,7.228316
3901,android.sensor.gyroscope,-0.052534413,0.13194689,-0.0012217305
3955,android.sensor.accelerometer,-1.9393626,6.483696,7.695199
4009,android.sensor.accelerometer,-1.3958622,6.510033,6.818895
4058,android.sensor.gyroscope_uncalibrated,0.087964594,0.10995574,0.065973446,0.042760566,-0.0012217305,0.0061086523
4109,android.sensor.gyroscope_uncalibrated,0.16737708,0.12583824,-0.04520403,0.042760566,-0.0012217305,0.0061086523
4157,android.sensor.gyroscope_uncalibrated,0.19547687,0.13805555,0.14049901,0.042760566,-0.0012217305,0.0061086523
4209,android.sensor.gyroscope_uncalibrated,-0.0036651916,0.16737708,0.061086524,0.042760566,-0.0012217305,0.0061086523
4259,android.sensor.gyroscope_uncalibrated,-0.02076942,0.21868975,0.10262536,0.042760566,-0.0012217305,0.0061086523
4309,android.sensor.gyroscope_uncalibrated,-0.089186326,0.14905111,0.012217305,0.042760566,-0.0012217305,0.0061086523
4358,android.sensor.gyroscope_uncalibrated,-0.07086037,-0.15149458,-0.1001819,0.042760566,-0.0012217305,0.0061086523
4408,android.sensor.gyroscope_uncalibrated,-0.018325957,-0.1001819,-0.05497787,0.042760566,-0.0012217305,0.0061086523
4458,android.sensor.gyroscope_uncalibrated,-0.2883284,-0.04520403,-0.02076942,0.042760566,-0.0012217305,0.0061086523
4508,android.sensor.gyroscope_uncalibrated,-0.9896017,0.20525073,-0.13927728,0.042760566,-0.0012217305,0.0061086523
4559,android.sensor.gyroscope_uncalibrated,0.44959682,1.0250319,-0.2125811,0.042760566,-0.0012217305,0.0061086523
4610,android.sensor.gyroscope_uncalibrated,0.33108896,-0.31398472,-0.4007276,0.042760566,-0.0012217305,0.0061086523
4658,android.sensor.gyroscope_uncalibrated,1.0592403,-0.32620203,-0.874759,0.042760566,-0.0012217305,0.0061086523
4709,android.sensor.gyroscope_uncalibrated,0.1441642,-0.77457714,-0.47769663,0.042760566,-0.0012217305,0.0061086523
4761,android.sensor.accelerometer,-4.4820824,3.6991546,7.3767605
4811,android.sensor.accelerometer,-5.810905,4.8124924,7.84125
4860,android.sensor.gravity,-4.522129,4.7067876,7.3189325
4920,android.sensor.gyroscope_uncalibrated,-0.10873401,-0.05375614,0.59620446,0.042760566,-0.0012217305,0.0061086523
4962,android.sensor.gyroscope_uncalibrated,-0.02687807,0.23335053,0.41905355,0.042760566,-0.0012217305,0.0061086523
5013,android.sensor.accelerometer,-1.7789462,7.3600006,7.7694216
5070,android.sensor.gyroscope_uncalibrated,0.05131268,-0.028099801,-0.22724187,0.042760566,-0.0012217305,0.0061086523
5119,android.sensor.gyroscope_uncalibrated,0.35918877,0.35918877,0.48991394,0.042760566,-0.0012217305,0.0061086523
5170,android.sensor.gyroscope_uncalibrated,-0.21868975,0.05497787,0.112399206,0.042760566,-0.0012217305,0.0061086523
5223,android.sensor.gyroscope_uncalibrated,-0.02321288,-0.28344148,0.62796944,0.042760566,-0.0012217305,0.0061086523
5287,android.sensor.gyroscope_uncalibrated,0.05497787,0.25167647,-0.07696902,0.042760566,-0.0012217305,0.0061086523
5333,sound,84.31010756463637
5384,android.sensor.accelerometer,-2.248224,6.8667803,6.88354
5441,android.sensor.accelerometer,-1.3288225,6.7853746,7.4988685
5491,android.sensor.gyroscope_uncalibrated,0.21868975,-0.2773328,-0.11362094,0.042760566,-0.0012217305,0.0061086523
5543,android.sensor.gyroscope_uncalibrated,0.15027285,-0.14172074,0.073303826,0.042760566,-0.0012217305,0.0061086523
5592,android.sensor.gyroscope_uncalibrated,-0.25167647,-0.40683624,-0.30298916,0.042760566,-0.0012217305,0.0061086523
5643,android.sensor.game_rotation_vector,0.342889,0.08863,-0.079823,0.931772
5693,android.sensor.gyroscope_uncalibrated,-0.065973446,-0.073303826,0.064751714,0.042760566,-0.0012217305,0.0061086523
5742,android.sensor.gyroscope_uncalibrated,-0.13072516,-0.32375857,0.16249016,0.042760566,-0.0012217305,0.0061086523
5793,android.sensor.gyroscope_uncalibrated,-0.0720821,0.02321288,0.3213151,0.042760566,-0.0012217305,0.0061086523
5847,android.sensor.accelerometer,-0.84278476,5.272193,7.8747697
5896,android.sensor.accelerometer,-0.17957062,6.2322974,8.40151
5953,android.sensor.gyroscope_uncalibrated,-0.009773844,-0.052534413,0.029321533,0.042760566,-0.0012217305,0.0061086523
6001,android.sensor.accelerometer,-1.4293821,6.368771,8.964165
6053,android.sensor.gyroscope_uncalibrated,-0.6646214,-0.7489208,-0.12705997,0.042760566,-0.0012217305,0.0061086523
6102,android.sensor.gyroscope_uncalibrated,0.16493362,0.19425514,-0.02076942,0.042760566,-0.0012217305,0.0061086523
6153,android.sensor.gyroscope_uncalibrated,0.59620446,0.09162979,-0.19914207,0.042760566,-0.0012217305,0.0061086523
37,android.sensor.accelerometer,-1.5562786,6.136526,8.250671
100,android.sensor.gyroscope_uncalibrated,0.4129449,0.3323107,0.013439035,0.042760566,-0.0012217305,0.0061086523
144,android.sensor.gyroscope_uncalibrated,0.112399206,0.08552113,0.021991149,0.042760566,-0.0012217305,0.0061086523
203,android.sensor.gyroscope_uncalibrated,0.058643065,0.105068825,0.04886922,0.042760566,-0.0012217305,0.0061086523
2,android.sensor.gyroscope_uncalibrated,0.037873644,0.02565634,0.030543262,0.042760566,-0.0012217305,0.0061086523
53,android.sensor.gyroscope_uncalibrated,0.02565634,-0.015882496,0.07574729,0.042760566,-0.0012217305,0.0061086523
103,android.sensor.accelerometer,-1.6927522,6.2490573,7.5850625
158,android.sensor.accelerometer,-1.2498114,6.526793,6.873963
206,android.sensor.gyroscope_uncalibrated,0.06963864,-0.13439035,0.040317107,0.042760566,-0.0012217305,0.0061086523
262,android.sensor.game_rotation_vector,0.34878,0.06234,-0.039772,0.934282
311,android.sensor.gyroscope_uncalibrated,-0.19181168,-0.2003638,0.36651915,0.042760566,-0.0012217305,0.0061086523
359,android.sensor.accelerometer,-4.1516724,6.577073,6.859597
409,android.sensor.gyroscope_uncalibrated,-0.12583824,-0.2968805,-0.14660765,0.042760566,-0.0012217305,0.0061086523
461,android.sensor.gyroscope_uncalibrated,0.1881465,0.1160644,0.119729586,0.042760566,-0.0012217305,0.0061086523
510,android.sensor.gyroscope_uncalibrated,-0.036651913,-0.05009095,-0.010995574,0.042760566,-0.0012217305,0.0061086523
564,android.sensor.gyroscope_uncalibrated,0.047647487,-0.035430185,0.073303826,0.042760566,-0.0012217305,0.0061086523
615,android.sensor.accelerometer,-2.0542877,5.5451403,7.0726876
670,android.sensor.gyroscope_uncalibrated,0.0012217305,-0.037873644,0.0036651916,0.042760566,-0.0012217305,0.0061086523
723,android.sensor.gyroscope_uncalibrated,0.118507855,-0.012217305,0.30543262,0.042760566,-0.0012217305,0.0061086523
773,android.sensor.accelerometer,-1.2809371,5.00164,7.7143536
822,android.sensor.gyroscope_uncalibrated,0.23090707,0.09040806,0.4642576,0.042760566,-0.0012217305,0.0061086523
874,android.sensor.accelerometer,-1.637684,6.4621477,8.030397
925,android.sensor.accelerometer,-1.5227587,6.524399,8.839663
982,android.sensor.gyroscope_uncalibrated,0.1001819,-0.035430185,0.0036651916,0.042760566,-0.0012217305,0.0061086523
1031,android.sensor.accelerometer,-0.3232271,6.273,7.515629
1083,android.sensor.gyroscope_uncalibrated,0.22724187,0.14049901,-0.04642576,0.042760566,-0.0012217305,0.0061086523
1129,android.sensor.magnetic_field_uncalibrated,19.6,17.300001,143.0,3.6000001,-26.4,123.200005
1184,android.sensor.gyroscope_uncalibrated,-0.036651913,-0.09773844,-0.16249016,0.042760566,-0.0012217305,0.0061086523
1240,android.sensor.gyroscope_uncalibrated,0.10262536,0.04886922,0.21380283,0.042760566,-0.0012217305,0.0061086523
1290,android.sensor.gyroscope_uncalibrated,0.12339478,0.14905111,0.10995574,0.042760566,-0.0012217305,0.0061086523
1342,android.sensor.gyroscope_uncalibrated,-0.04153884,-0.15760323,-0.0061086523,0.042760566,-0.0012217305,0.0061086523
1391,android.sensor.accelerometer,-1.3024855,5.724711,8.521224
1454,android.sensor.gyroscope_uncalibrated,0.3359759,0.12950343,-0.16982053,0.042760566,-0.0012217305,0.0061086523
1495,android.sensor.accelerometer,-0.34716985,5.3679643,5.195576
1550,android.sensor.gyroscope_uncalibrated,-0.12583824,-0.16615535,0.09162979,0.042760566,-0.0012217305,0.0061086523
1602,android.sensor.gyroscope_uncalibrated,-0.26145032,-0.43982297,-0.15760323,0.042760566,-0.0012217305,0.0061086523
1651,android.sensor.gyroscope_uncalibrated,0.059864793,-0.12217305,0.10629055,0.042760566,-0.0012217305,0.0061086523
1701,android.sensor.gyroscope_uncalibrated,0.018325957,-0.12950343,-0.047647487,0.042760566,-0.0012217305,0.0061086523
1752,android.sensor.gyroscope_uncalibrated,0.008552114,-0.06719518,0.10873401,0.042760566,-0.0012217305,0.0061086523
1803,android.sensor.gyroscope_uncalibrated,0.21502456,0.14538592,-0.112399206,0.042760566,-0.0012217305,0.0061086523
1855,android.sensor.accelerometer,-0.5889916,6.299337,7.3600006
1907,android.sensor.accelerometer,-0.30646718,5.276982,7.1373334
1960,android.sensor.gyroscope_uncalibrated,-0.13561209,-0.02687807,0.21868975,0.042760566,-0.0012217305,0.0061086523
2010,android.sensor.gyroscope_uncalibrated,0.021991149,-0.058643065,-0.11362094,0.042760566,-0.0012217305,0.0061086523
2058,android.sensor.accelerometer,-1.4652961,6.0239954,8.89952
2118,android.sensor.gyroscope_uncalibrated,0.14538592,-0.047647487,-0.3811799,0.042760566,-0.0012217305,0.0061086523
2161,android.sensor.gyroscope_uncalibrated,0.30176744,0.5216789,0.24923302,0.042760566,-0.0012217305,0.0061086523
2212,android.sensor.gyroscope_uncalibrated,0.41905355,0.040317107,0.07696902,0.042760566,-0.0012217305,0.0061086523
2263,android.sensor.accelerometer,-3.684789,7.2977495,8.12138
2322,android.sensor.gyroscope_uncalibrated,0.112399206,0.22113322,-0.25534168,0.042760566,-0.0012217305,0.0061086523
2368,sound,-Infinity
2422,sound,85.19904119844509
2470,android.sensor.accelerometer,-2.0231621,5.209942,7.5419655
2521,android.sensor.gyroscope_uncalibrated,0.14538592,0.27488935,0.012217305,0.042760566,-0.0012217305,0.0061086523
2570,android.sensor.gyroscope_uncalibrated,-0.09040806,-0.17959438,-0.45448375,0.042760566,-0.0012217305,0.0061086523
2621,android.sensor.gyroscope_uncalibrated,0.21380283,0.12950343,0.7330383,0.042760566,-0.0012217305,0.0061086523
2670,android.sensor.gyroscope_uncalibrated,0.15760323,0.18570304,-0.44226643,0.042760566,-0.0012217305,0.0061086523
2723,android.sensor.gyroscope_uncalibrated,-0.22724187,-0.25900686,-0.09285152,0.042760566,-0.0012217305,0.0061086523
2772,android.sensor.gyroscope_uncalibrated,-0.081855945,-0.14294247,-0.12583824,0.042760566,-0.0012217305,0.0061086523
2822,android.sensor.gyroscope_uncalibrated,0.24190263,0.37751472,0.17592919,0.042760566,-0.0012217305,0.0061086523
2870,android.sensor.game_rotation_vector,0.317516,0.048941,-0.052963,0.945506
2922,android.sensor.gyroscope_uncalibrated,0.065973446,0.036651913,-0.09773844,0.042760566,-0.0012217305,0.0061086523
2973,android.sensor.accelerometer,-0.9529214,6.23948,7.2091613
3030,android.sensor.gyroscope_uncalibrated,-0.5681047,-0.3921755,-0.06841691,0.042760566,-0.0012217305,0.0061086523
3081,android.sensor.gyroscope_uncalibrated,0.90285885,0.036651913,-0.0012217305,0.042760566,-0.0012217305,0.0061086523
3128,android.sensor.accelerometer,-1.7238779,5.8683677,7.0702934
3182,android.sensor.gyroscope_uncalibrated,0.16982053,-0.073303826,-0.13927728,0.042760566,-0.0012217305,0.0061086523
3235,android.sensor.gyroscope_uncalibrated,0.06719518,-0.12217305,-0.042760566,0.042760566,-0.0012217305,0.0061086523
3280,android.sensor.gyroscope_uncalibrated,0.19792034,0.3005457,-0.09162979,0.042760566,-0.0012217305,0.0061086523
3330,android.sensor.gyroscope_uncalibrated,0.12950343,-0.12705997,0.2565634,0.042760566,-0.0012217305,0.0061086523
3380,android.sensor.gyroscope_uncalibrated,-0.103847094,-0.05497787,-0.27122417,0.042760566,-0.0012217305,0.0061086523
3430,android.sensor.gyroscope_uncalibrated,0.119729586,0.08307768,0.12950343,0.042760566,-0.0012217305,0.0061086523
3480,android.sensor.gyroscope_uncalibrated,0.172264,0.11728613,-0.010995574,0.042760566,-0.0012217305,0.0061086523
3533,android.sensor.accelerometer,-1.3671309,6.4980617,7.580274
3583,android.sensor.accelerometer,-1.1827718,5.461341,9.071907
3634,android.sensor.accelerometer,-1.201926,6.342434,7.4366174
3689,android.sensor.gyroscope_uncalibrated,0.21624629,0.20769419,0.02443461,0.042760566,-0.0012217305,0.0061086523
3740,android.sensor.gyroscope_uncalibrated,0.13316862,0.012217305,0.12583824,0.042760566,-0.0012217305,0.0061086523
3793,android.sensor.accelerometer,-1.5083932,5.360781,7.0080423
3839,android.sensor.accelerometer,-0.6249057,6.395108,7.7167478
3891,android.sensor.gyroscope_uncalibrated,0.07696902,0.26267207,0.21624629,0.042760566,-0.0012217305,0.0061086523
3940,android.sensor.gyroscope_uncalibrated,-0.081855945,-0.5338962,-0.22602014,0.042760566,-0.0012217305,0.0061086523
3992,android.sensor.accelerometer,-1.5323359,5.9234357,8.614601
4042,android.sensor.accelerometer,-0.68236834,6.471725,9.447808
4093,android.sensor.accelerometer,-1.4006507,6.344828,7.3743663
4144,android.sensor.accelerometer,-0.46209505,5.8779445,8.456578
4198,android.sensor.gyroscope_uncalibrated,0.04886922,-0.13927728,0.05497787,0.042760566,-0.0012217305,0.0061086523
4250,android.sensor.gyroscope_uncalibrated,0.07696902,0.017104227,-0.089186326,0.042760566,-0.0012217305,0.0061086523
4300,android.sensor.gyroscope_uncalibrated,0.059864793,-0.103847094,-0.02443461,0.042760566,-0.0012217305,0.0061086523
4352,android.sensor.gyroscope_uncalibrated,0.13805555,0.16737708,0.057421334,0.042760566,-0.0012217305,0.0061086523
4420,sound,78.03025618259879
4502,android.sensor.gyroscope,0.089186326,0.09040806,-0.05009095
4554,android.sensor.accelerometer,0.5506832,6.064698,7.292961
4604,android.sensor.accelerometer,-0.33519846,5.94259,7.735902
4654,android.sensor.accelerometer,-0.45730647,6.368771,8.152506
4706,android.sensor.accelerometer,-1.0606637,6.4597535,6.93382
4762,android.sensor.gyroscope_uncalibrated,-0.09896017,-0.103847094,0.056199603,0.042760566,-0.0012217305,0.0061086523
4808,android.sensor.accelerometer,-1.0415095,5.9449844,7.702382
4862,android.sensor.gyroscope_uncalibrated,0.02321288,0.20525073,-0.02565634,0.042760566,-0.0012217305,0.0061086523
4911,android.sensor.gyroscope_uncalibrated,-0.18692477,0.70005155,-0.06719518,0.042760566,-0.0012217305,0.0061086523
4962,android.sensor.gyroscope_uncalibrated,-0.7501425,1.5711454,-0.2003638,0.042760566,-0.0012217305,0.0061086523
5011,android.sensor.gyroscope_uncalibrated,-1.7385225,-0.004886922,-0.90285885,0.042760566,-0.0012217305,0.0061086523
5062,android.sensor.gyroscope_uncalibrated,-0.9639453,-1.1398746,-0.75991637,0.042760566,-0.0012217305,0.0061086523
5108,android.sensor.accelerometer,-1.0798179,4.3791285,13.494133
5162,android.sensor.gyroscope_uncalibrated,0.6401868,0.25045475,0.3567453,0.042760566,-0.0012217305,0.0061086523
5212,android.sensor.gyroscope_uncalibrated,1.073901,0.5375614,0.46792278,0.042760566,-0.0012217305,0.0061086523
5262,android.sensor.gyroscope_uncalibrated,0.2125811,-0.07574729,0.15515977,0.042760566,-0.0012217305,0.0061086523
5311,android.sensor.gyroscope_uncalibrated,0.408058,0.030543262,0.2565634,0.042760566,-0.0012217305,0.0061086523
5360,android.sensor.gyroscope_uncalibrated,0.66828656,0.32742378,-0.22357668,0.042760566,-0.0012217305,0.0061086523
5412,android.sensor.gyroscope_uncalibrated,0.29565877,0.09162979,0.61208695,0.042760566,-0.0012217305,0.0061086523
5462,android.sensor.gyroscope_uncalibrated,1.3451253,0.05497787,-0.44715336,0.042760566,-0.0012217305,0.0061086523
5514,android.sensor.accelerometer,-0.4285752,5.3296556,7.379155
5563,android.sensor.magnetic_field_uncalibrated,19.0,18.1,143.6,3.6000001,-26.4,123.200005
5614,android.sensor.accelerometer,-0.7685622,5.3081074,6.261029
5665,android.sensor.accelerometer,-1.9321798,6.8955116,5.810905
5715,android.sensor.gyroscope_uncalibrated,0.4654793,0.35796702,0.31398472,0.042760566,-0.0012217305,0.0061086523
5768,android.sensor.accelerometer,-2.0064023,6.881146,6.742278
5822,android.sensor.gyroscope_uncalibrated,-0.15393804,0.4007276,0.16371189,0.042760566,-0.0012217305,0.0061086523
5869,sound,-Infinity
5920,sound,82.05347541097854
5972,android.sensor.gyroscope_uncalibrated,0.26389378,1.0262536,0.32253686,0.042760566,-0.0012217305,0.0061086523
6022,android.sensor.gyroscope_uncalibrated,0.36163223,0.5766568,-0.028099801,0.042760566,-0.0012217305,0.0061086523
6072,android.sensor.gyroscope_uncalibrated,0.30298916,0.6658431,0.08307768,0.042760566,-0.0012217305,0.0061086523
6122,android.sensor.gyroscope_uncalibrated,0.54733527,1.0250319,-0.10262536,0.042760566,-0.0012217305,0.0061086523
6175,android.sensor.accelerometer,-2.6935592,7.3145094,5.7630196
6225,android.sensor.accelerometer,-3.8954852,7.434223,3.3783216
6432,android.sensor.accelerometer,-1.89866,8.6433325,4.017593
6503,android.sensor.gyroscope_uncalibrated,-0.49968776,0.2932153,0.10873401,0.042760566,-0.0012217305,0.0061086523
6535,android.sensor.gyroscope_uncalibrated,-0.36285394,0.75625116,0.5131268,0.042760566,-0.0012217305,0.0061086523
6592,android.sensor.gyroscope_uncalibrated,-0.46670106,0.3555236,0.4007276,0.042760566,-0.0012217305,0.0061086523
6635,android.sensor.gyroscope_uncalibrated,0.70249504,-0.25411993,-0.06719518,0.042760566,-0.0012217305,0.0061086523
6687,android.sensor.accelerometer,-1.7909175,6.0766697,1.297697
6740,android.sensor.accelerometer,-4.9346004,7.6305537,5.114171
6794,android.sensor.gyroscope_uncalibrated,0.34208453,-0.5876524,-0.16982053,0.042760566,-0.0012217305,0.0061086523
6844,android.sensor.gyroscope_uncalibrated,-1.205848,-1.5735888,-0.7819075,0.042760566,-0.0012217305,0.0061086523
6894,android.sensor.gyroscope_uncalibrated,-0.57910025,-1.0067059,-0.042760566,0.042760566,-0.0012217305,0.0061086523
6944,android.sensor.gyroscope_uncalibrated,0.39950588,0.32742378,0.4129449,0.042760566,-0.0012217305,0.0061086523
6992,android.sensor.gyroscope_uncalibrated,0.3640757,-0.62796944,0.052534413,0.042760566,-0.0012217305,0.0061086523
7043,android.sensor.game_rotation_vector,0.408756,0.152902,0.030041,0.899242
7094,android.sensor.game_rotation_vector,0.408184,0.16122,0.029821,0.898055
7152,android.sensor.accelerometer,-2.0518935,6.864386,6.941003
7197,android.sensor.accelerometer,-0.8379962,7.1828246,6.589044
7253,android.sensor.gyroscope_uncalibrated,-0.089186326,-0.5522222,-0.073303826,0.042760566,-0.0012217305,0.0061086523
7305,android.sensor.gyroscope_uncalibrated,-0.29077184,-0.29565877,0.172264,0.042760566,-0.0012217305,0.0061086523
7353,android.sensor.gyroscope_uncalibrated,-0.7367035,-0.08674286,0.02687807,0.042760566,-0.0012217305,0.0061086523
7406,android.sensor.gyroscope_uncalibrated,-0.019547688,-0.095294975,0.12095132,0.042760566,-0.0012217305,0.0061086523
7460,android.sensor.gyroscope_uncalibrated,0.30909783,0.09896017,0.1282817,0.042760566,-0.0012217305,0.0061086523
7510,android.sensor.gyroscope_uncalibrated,0.18081611,0.2773328,0.30665436,0.042760566,-0.0012217305,0.0061086523
7558,android.sensor.gyroscope_uncalibrated,-0.35430184,-0.43127087,0.07574729,0.042760566,-0.0012217305,0.0061086523
7612,android.sensor.accelerometer,-0.55786604,6.7231236,8.73192
7668,android.sensor.gyroscope_uncalibrated,0.35918877,-0.029321533,0.0061086523,0.042760566,-0.0012217305,0.0061086523
7714,android.sensor.gyroscope_uncalibrated,0.38240165,-0.31642818,-0.118507855,0.042760566,-0.0012217305,0.0061086523
7765,android.sensor.gyroscope_uncalibrated,0.40561453,-0.39095375,-0.07696902,0.042760566,-0.0012217305,0.0061086523
7816,android.sensor.gyroscope_uncalibrated,0.18692477,-0.46181414,-0.09162979,0.042760566,-0.0012217305,0.0061086523
7868,android.sensor.gyroscope_uncalibrated,-0.4361578,-0.5314528,-0.13194689,0.042760566,-0.0012217305,0.0061086523
7918,android.sensor.accelerometer,-1.9465454,5.504438,7.269018
7966,android.sensor.gyroscope_uncalibrated,0.17837265,1.1618657,0.1600467,0.042760566,-0.0012217305,0.0061086523
8021,android.sensor.accelerometer,-2.545114,7.369578,7.082265
8076,android.sensor.gyroscope_uncalibrated,0.3640757,0.48624873,-0.9602802,0.042760566,-0.0012217305,0.0061086523
8127,android.sensor.gyroscope_uncalibrated,-0.41050145,-1.831374,-1.2278391,0.042760566,-0.0012217305,0.0061086523
8177,android.sensor.gyroscope_uncalibrated,-0.63041294,-1.3451253,-0.6169739,0.042760566,-0.0012217305,0.0061086523
8228,android.sensor.gyroscope_uncalibrated,-1.0555751,-0.6389651,-1.0311406,0.042760566,-0.0012217305,0.0061086523
8274,android.sensor.linear_acceleration,1.3654493,-0.46973324,2.4184647
8328,android.sensor.gyroscope_uncalibrated,0.30787608,0.54244834,-0.5925393,0.042760566,-0.0012217305,0.0061086523
8381,android.sensor.gyroscope_uncalibrated,0.29565877,-0.3359759,1.3170254,0.042760566,-0.0012217305,0.0061086523
8432,android.sensor.gyroscope_uncalibrated,-0.21135938,2.4727826,0.6536258,0.042760566,-0.0012217305,0.0061086523
8486,android.sensor.gyroscope_uncalibrated,0.26389378,0.7965683,-0.22968534,0.042760566,-0.0012217305,0.0061086523
8532,android.sensor.accelerometer,-3.7733772,4.9346004,7.2977495
8586,android.sensor.gyroscope_uncalibrated,0.10873401,1.9291124,0.28221974,0.042760566,-0.0012217305,0.0061086523
8635,android.sensor.gyroscope_uncalibrated,0.12950343,1.7104226,0.030543262,0.042760566,-0.0012217305,0.0061086523
8688,android.sensor.gyroscope_uncalibrated,0.204029,1.4782939,0.3811799,0.042760566,-0.0012217305,0.0061086523
8746,android.sensor.gyroscope_uncalibrated,0.19914207,1.5063937,0.25778514,0.042760566,-0.0012217305,0.0061086523
8794,android.sensor.gyroscope_uncalibrated,-0.13194689,0.16493362,0.043982297,0.042760566,-0.0012217305,0.0061086523
8845,android.sensor.gyroscope_uncalibrated,0.15515977,-0.34330627,-0.36774087,0.042760566,-0.0012217305,0.0061086523
8895,android.sensor.gyroscope_uncalibrated,0.08552113,0.112399206,-0.97127575,0.042760566,-0.0012217305,0.0061086523
0,android.sensor.gyroscope_uncalibrated,-0.39950588,-1.0714576,-1.0360274,0.042760566,-0.0012217305,0.0061086523
50,android.sensor.accelerometer,-4.9010806,5.8396363,7.1995845
164,android.sensor.accelerometer,-4.5419393,5.7223167,5.66246
9,android.sensor.gyroscope_uncalibrated,0.28221974,-0.6291912,0.24678956,0.042760566,-0.0012217305,0.0061086523
56,android.sensor.accelerometer,-3.3064935,6.7925577,5.2267017
112,android.sensor.gyroscope_uncalibrated,-0.02076942,-0.6377433,-0.27488935,0.042760566,-0.0012217305,0.0061086523
172,android.sensor.gyroscope_uncalibrated,0.0720821,-0.45448375,0.12461651,0.042760566,-0.0012217305,0.0061086523
210,android.sensor.gyroscope_uncalibrated,-0.09407325,-0.3885103,-0.08674286,0.042760566,-0.0012217305,0.0061086523
263,android.sensor.game_rotation_vector,0.374187,0.211718,-0.027733,0.902435
310,android.sensor.gyroscope_uncalibrated,0.103847094,-0.81245077,-0.20769419,0.042760566,-0.0012217305,0.0061086523
371,android.sensor.game_rotation_vector,0.36516,0.1764,-0.046383,0.912901
414,android.sensor.accelerometer,-2.4254005,6.854809,7.656891
464,android.sensor.gyroscope_uncalibrated,-0.43982297,-0.21868975,-0.79412484,0.042760566,-0.0012217305,0.0061086523
521,android.sensor.gyroscope_uncalibrated,-0.065973446,-0.24190263,-0.6243043,0.042760566,-0.0012217305,0.0061086523
570,android.sensor.gyroscope_uncalibrated,-0.6047566,-0.55955255,0.07696902,0.042760566,-0.0012217305,0.0061086523
622,android.sensor.gyroscope_uncalibrated,-0.61575216,-0.03176499,-0.08307768,0.042760566,-0.0012217305,0.0061086523
671,android.sensor.gyroscope_uncalibrated,0.6450737,-0.089186326,0.010995574,0.042760566,-0.0012217305,0.0061086523
721,sound,-Infinity
774,android.sensor.game_rotation_vector,0.312951,0.088362,-0.116858,0.938401
836,android.sensor.gyroscope_uncalibrated,0.21013765,-0.61453044,-0.12217305,0.042760566,-0.0012217305,0.0061086523
883,android.sensor.gyroscope_uncalibrated,0.7440339,-0.3848451,-0.2284636,0.042760566,-0.0012217305,0.0061086523
932,android.sensor.gyroscope_uncalibrated,0.5644395,-0.111177474,-0.17959438,0.042760566,-0.0012217305,0.0061086523
983,android.sensor.gyroscope_uncalibrated,-0.036651913,-0.18448131,-0.2443461,0.042760566,-0.0012217305,0.0061086523
1032,android.sensor.gyroscope_uncalibrated,0.31520647,-0.008552114,-0.21380283,0.042760566,-0.0012217305,0.0061086523
1083,android.sensor.gyroscope_uncalibrated,0.8026769,-0.10262536,0.34574974,0.042760566,-0.0012217305,0.0061086523
1137,android.sensor.gyroscope_uncalibrated,0.77213365,-0.5656612,0.3213151,0.042760566,-0.0012217305,0.0061086523
1182,android.sensor.gyroscope_uncalibrated,0.47647488,-1.3671165,0.49480084,0.042760566,-0.0012217305,0.0061086523
1238,android.sensor.gyroscope_uncalibrated,0.17104226,0.8063421,1.3219124,0.042760566,-0.0012217305,0.0061086523
1285,android.sensor.accelerometer,2.4852571,12.790216,6.466936
1338,android.sensor.accelerometer,4.618556,4.68799,5.4230323
1391,android.sensor.accelerometer,-3.232271,6.150892,5.7558365
1445,android.sensor.gyroscope_uncalibrated,-0.064751714,-1.0238101,0.41905355,0.042760566,-0.0012217305,0.0061086523
1494,android.sensor.gyroscope_uncalibrated,-0.48258355,-0.93828905,0.028099801,0.042760566,-0.0012217305,0.0061086523
1553,android.sensor.gyroscope_uncalibrated,0.96761054,1.998751,-0.43004912,0.042760566,-0.0012217305,0.0061086523
1604,android.sensor.gyroscope_uncalibrated,0.7696902,1.577254,-0.04642576,0.042760566,-0.0012217305,0.0061086523
1652,android.sensor.gyroscope_uncalibrated,0.042760566,0.18203785,0.89919364,0.042760566,-0.0012217305,0.0061086523
1704,android.sensor.gyroscope_uncalibrated,0.36163223,1.7153096,0.52778757,0.042760566,-0.0012217305,0.0061086523
1756,android.sensor.gyroscope_uncalibrated,-0.1282817,1.2144,0.7965683,0.042760566,-0.0012217305,0.0061086523
1803,android.sensor.gyroscope_uncalibrated,0.012217305,0.9969321,0.6621779,0.042760566,-0.0012217305,0.0061086523
1857,android.sensor.accelerometer,0.11013664,5.7007685,8.085466
1914,android.sensor.gyroscope_uncalibrated,1.0042624,1.2938126,0.112399206,0.042760566,-0.0012217305,0.0061086523
1963,android.sensor.gyroscope_uncalibrated,1.1215485,1.0861185,-0.09040806,0.042760566,-0.0012217305,0.0061086523
2012,android.sensor.gyroscope_uncalibrated,0.8723156,1.0152581,0.3200934,0.042760566,-0.0012217305,0.0061086523
2067,android.sensor.gyroscope_uncalibrated,0.5815437,-0.5045747,-0.59620446,0.042760566,-0.0012217305,0.0061086523
2112,android.sensor.gyroscope_uncalibrated,0.6805039,-0.17348573,-0.26389378,0.042760566,-0.0012217305,0.0061086523
2165,android.sensor.gyroscope_uncalibrated,-1.1643091,-1.1154399,-0.20158553,0.042760566,-0.0012217305,0.0061086523
2212,android.sensor.rotation_vector,0.328763,0.44948,0.50813,0.657028,2.0
2263,android.sensor.gyroscope_uncalibrated,-0.043982297,0.008552114,0.17348573,0.042760566,-0.0012217305,0.0061086523
2315,android.sensor.accelerometer,-3.4309957,7.632948,7.867587
2365,android.sensor.accelerometer,-1.6855695,9.340066,5.3703585
2415,android.sensor.accelerometer,-2.6193366,8.099832,4.4749
2465,android.sensor.accelerometer,-1.5802214,6.5746784,4.6736245
2515,android.sensor.gyroscope_uncalibrated,0.02321288,-0.61575216,0.18448131,0.042760566,-0.0012217305,0.0061086523
2569,android.sensor.accelerometer,-0.6201172,8.018426,4.233078
2623,android.sensor.gyroscope_uncalibrated,-0.344528,-0.77946407,-0.12950343,0.042760566,-0.0012217305,0.0061086523
2671,android.sensor.gyroscope_uncalibrated,0.31031954,-0.453262,-0.105068825,0.042760566,-0.0012217305,0.0061086523
2721,sound,-Infinity
2771,android.sensor.gyroscope_uncalibrated,0.23823744,-0.36651915,0.18081611,0.042760566,-0.0012217305,0.0061086523
2822,android.sensor.gyroscope_uncalibrated,0.20280726,0.119729586,0.29443705,0.042760566,-0.0012217305,0.0061086523
0,activityrecognition,vehicle,64
2927,android.sensor.gyroscope_uncalibrated,0.36163223,0.018325957,0.20280726,0.042760566,-0.0012217305,0.0061086523
2972,android.sensor.gyroscope_uncalibrated,0.7134906,-0.07086037,0.46670106,0.042760566,-0.0012217305,0.0061086523
3022,android.sensor.gyroscope_uncalibrated,0.013439035,-0.20158553,0.0036651916,0.042760566,-0.0012217305,0.0061086523
3073,android.sensor.gyroscope_uncalibrated,0.4092797,0.05375614,0.23945917,0.042760566,-0.0012217305,0.0061086523
3176,android.sensor.accelerometer,-0.57223165,7.762239,3.45015
3230,android.sensor.gyroscope_uncalibrated,-0.12583824,-0.05497787,0.043982297,0.042760566,-0.0012217305,0.0061086523
3287,android.sensor.gyroscope_uncalibrated,-0.081855945,-0.02321288,-0.45448375,0.042760566,-0.0012217305,0.0061086523
3343,android.sensor.gyroscope_uncalibrated,0.1160644,-0.12095132,-0.17104226,0.042760566,-0.0012217305,0.0061086523
3392,android.sensor.gyroscope_uncalibrated,0.11362094,-0.2602286,0.38728857,0.042760566,-0.0012217305,0.0061086523
3442,android.sensor.gyroscope_uncalibrated,0.11484267,-0.10995574,0.080634214,0.042760566,-0.0012217305,0.0061086523
3492,android.sensor.gyroscope_uncalibrated,0.11728613,0.089186326,0.15149458,0.042760566,-0.0012217305,0.0061086523
3550,android.sensor.gyroscope_uncalibrated,0.0061086523,0.05375614,-0.056199603,0.042760566,-0.0012217305,0.0061086523
3594,android.sensor.gyroscope_uncalibrated,-0.13561209,0.2565634,-0.1001819,0.042760566,-0.0012217305,0.0061086523
3644,android.sensor.gyroscope_uncalibrated,-0.06963864,0.1966986,-0.0061086523,0.042760566,-0.0012217305,0.0061086523
3697,android.sensor.accelerometer,-1.9752767,8.147717,5.1620564
3746,android.sensor.accelerometer,-0.89067024,7.822096,5.1620564
3803,android.sensor.gyroscope_uncalibrated,-0.037873644,0.14294247,-0.057421334,0.042760566,-0.0012217305,0.0061086523
3849,sound,-Infinity
3903,android.sensor.gyroscope_uncalibrated,0.02565634,-0.039095376,-0.17348573,0.042760566,-0.0012217305,0.0061086523
3955,android.sensor.gyroscope_uncalibrated,0.13927728,0.08552113,-0.08674286,0.042760566,-0.0012217305,0.0061086523
4005,android.sensor.gyroscope_uncalibrated,0.12705997,-0.059864793,0.064751714,0.042760566,-0.0012217305,0.0061086523
4055,android.sensor.gyroscope_uncalibrated,0.3726278,0.16126843,0.17715092,0.042760566,-0.0012217305,0.0061086523
4109,android.sensor.gyroscope_uncalibrated,0.3286455,-0.33964106,-0.040317107,0.042760566,-0.0012217305,0.0061086523
4156,android.sensor.gyroscope,-0.1881465,0.40194935,0.3371976
4212,android.sensor.gyroscope_uncalibrated,0.08307768,0.08674286,0.080634214,0.042760566,-0.0012217305,0.0061086523
4263,android.sensor.gyroscope_uncalibrated,-0.118507855,0.23945917,-0.15515977,0.042760566,-0.0012217305,0.0061086523
4312,android.sensor.accelerometer,-0.8571504,8.9498,4.8220696
4365,android.sensor.gyroscope_uncalibrated,0.07696902,0.1282817,-0.25045475,0.042760566,-0.0012217305,0.0061086523
4413,android.sensor.gyroscope_uncalibrated,-0.86742866,-0.41783184,0.14294247,0.042760566,-0.0012217305,0.0061086523
4465,android.sensor.gyroscope_uncalibrated,0.26389378,-0.056199603,-0.13439035,0.042760566,-0.0012217305,0.0061086523
4516,android.sensor.accelerometer,0.8643332,6.6417184,4.7693954
4567,android.sensor.accelerometer,-2.3966691,5.6600657,4.024776
4618,android.sensor.accelerometer,0.7805336,9.39274,5.525986
4674,android.sensor.gyroscope_uncalibrated,0.2846632,-0.16249016,0.037873644,0.042760566,-0.0012217305,0.0061086523
4722,sound,-Infinity
4773,sound,83.09030531584794
4826,android.sensor.gyroscope_uncalibrated,0.42638394,-0.38728857,-0.16737708,0.042760566,-0.0012217305,0.0061086523
4873,android.sensor.game_rotation_vector,0.513463,0.055207,0.054351,0.854607
4926,android.sensor.gyroscope_uncalibrated,0.2321288,-0.12461651,-0.43371433,0.042760566,-0.0012217305,0.0061086523
4975,android.sensor.magnetic_field_uncalibrated,22.2,6.8,131.6,3.6000001,-26.4,123.200005
5034,android.sensor.gyroscope_uncalibrated,-0.22113322,0.25045475,-0.07086037,0.042760566,-0.0012217305,0.0061086523
5078,android.sensor.accelerometer,-6.361588,7.8364615,7.4102807
5128,android.sensor.accelerometer,2.0016139,9.119793,4.2618093
5184,android.sensor.gyroscope_uncalibrated,0.22479841,0.51923543,0.46303585,0.042760566,-0.0012217305,0.0061086523
5236,android.sensor.gyroscope_uncalibrated,0.09773844,0.15882497,0.46303585,0.042760566,-0.0012217305,0.0061086523
5284,android.sensor.gyroscope_uncalibrated,0.5290093,0.07696902,0.47525316,0.042760566,-0.0012217305,0.0061086523
5333,android.sensor.accelerometer,1.228263,3.3160706,1.1612233
5387,android.sensor.game_rotation_vector,0.482462,0.034467,0.107766,0.868578
5437,android.sensor.gyroscope_uncalibrated,-0.7965683,0.014660766,-0.97127575,0.042760566,-0.0012217305,0.0061086523
5495,android.sensor.gyroscope_uncalibrated,-1.2669345,0.11728613,0.14049901,0.042760566,-0.0012217305,0.0061086523
5544,android.sensor.gyroscope_uncalibrated,0.02076942,0.99204516,0.0061086523,0.042760566,-0.0012217305,0.0061086523
5595,android.sensor.gyroscope_uncalibrated,0.3494149,0.07819075,0.15882497,0.042760566,-0.0012217305,0.0061086523
5645,android.sensor.gyroscope_uncalibrated,0.37995818,-0.45448375,0.46792278,0.042760566,-0.0012217305,0.0061086523
5694,android.sensor.gyroscope_uncalibrated,0.62796944,-0.065973446,0.52534413,0.042760566,-0.0012217305,0.0061086523
5745,android.sensor.gyroscope_uncalibrated,0.52656585,0.4166101,0.31520647,0.042760566,-0.0012217305,0.0061086523
5796,android.sensor.gyroscope_uncalibrated,0.26145032,-0.04886922,0.029321533,0.042760566,-0.0012217305,0.0061086523
5846,android.sensor.gyroscope_uncalibrated,0.1600467,-0.04886922,-0.312763,0.042760566,-0.0012217305,0.0061086523
5898,android.sensor.gyroscope_uncalibrated,0.88208944,0.50823987,-0.2125811,0.042760566,-0.0012217305,0.0061086523
5951,android.sensor.gyroscope_uncalibrated,0.89552844,1.2767084,0.007330383,0.042760566,-0.0012217305,0.0061086523
6001,android.sensor.gyroscope_uncalibrated,0.6719518,0.90408057,-0.25411993,0.042760566,-0.0012217305,0.0061086523
6056,android.sensor.gyroscope_uncalibrated,-0.36041048,-0.05375614,0.18081611,0.042760566,-0.0012217305,0.0061086523
6103,android.sensor.accelerometer,-1.0295382,8.035186,5.0638914
6156,android.sensor.gyroscope_uncalibrated,-0.06841691,0.08307768,0.103847094,0.042760566,-0.0012217305,0.0061086523
6208,android.sensor.gyroscope_uncalibrated,0.040317107,-0.45814893,-0.096516706,0.042760566,-0.0012217305,0.0061086523
6259,android.sensor.gyroscope_uncalibrated,-0.014660766,-0.59986967,-0.1160644,0.042760566,-0.0012217305,0.0061086523
6306,android.sensor.accelerometer,-0.42139238,9.012051,4.0367475
6356,android.sensor.gyroscope_uncalibrated,0.24556783,0.3323107,-0.11362094,0.042760566,-0.0012217305,0.0061086523
6407,android.sensor.gyroscope_uncalibrated,0.035430185,0.25778514,-0.017104227,0.042760566,-0.0012217305,0.0061086523
6460,android.sensor.accelerometer,-0.7350424,8.554744,3.3735332
6509,android.sensor.accelerometer,-1.2929084,9.100638,4.5850363
6560,android.sensor.accelerometer,-2.126116,8.655303,4.731087
6609,android.sensor.accelerometer,-3.1652312,8.92825,4.6903844
6666,android.sensor.gyroscope_uncalibrated,-1.1410962,-1.9889772,0.018325957,0.042760566,-0.0012217305,0.0061086523
6713,android.sensor.accelerometer,-0.9505271,8.351231,5.0854397
6767,android.sensor.gyroscope_uncalibrated,-0.14905111,-0.018325957,0.36896262,0.042760566,-0.0012217305,0.0061086523
6867,android.sensor.gyroscope_uncalibrated,-0.30665436,-0.65240407,0.13927728,0.042760566,-0.0012217305,0.0061086523
6916,android.sensor.gyroscope_uncalibrated,-0.54000485,-0.79534656,-0.002443461,0.042760566,-0.0012217305,0.0061086523
6966,android.sensor.gyroscope_uncalibrated,-0.37873647,-0.5009095,0.014660766,0.042760566,-0.0012217305,0.0061086523
7017,android.sensor.gyroscope_uncalibrated,-0.2919936,-0.12095132,0.062308256,0.042760566,-0.0012217305,0.0061086523
7068,android.sensor.gyroscope_uncalibrated,-0.26633725,-0.10140363,-0.09773844,0.042760566,-0.0012217305,0.0061086523
7116,android.sensor.gyroscope_uncalibrated,-0.52656585,-0.034208454,-0.14538592,0.042760566,-0.0012217305,0.0061086523
7167,android.sensor.gyroscope_uncalibrated,-0.3555236,-0.20647246,-0.14294247,0.042760566,-0.0012217305,0.0061086523
7222,sound,-Infinity
7270,android.sensor.gyroscope_uncalibrated,-0.172264,0.22113322,0.037873644,0.042760566,-0.0012217305,0.0061086523
7326,android.sensor.gyroscope_uncalibrated,-0.007330383,-0.18325958,0.18325958,0.042760566,-0.0012217305,0.0061086523
7377,android.sensor.gyroscope_uncalibrated,0.18692477,0.017104227,0.007330383,0.042760566,-0.0012217305,0.0061086523
7427,android.sensor.accelerometer,0.15083931,7.5060515,6.466936
7477,android.sensor.gyroscope_uncalibrated,-0.015882496,0.052534413,0.08307768,0.042760566,-0.0012217305,0.0061086523
7528,android.sensor.gyroscope_uncalibrated,-0.009773844,-0.009773844,0.112399206,0.042760566,-0.0012217305,0.0061086523
7577,android.sensor.linear_acceleration,-0.27207935,0.392704,1.5341458
7628,android.sensor.magnetic_field_uncalibrated,27.1,13.1,130.5,3.6000001,-26.4,123.200005
7681,android.sensor.accelerometer,0.8332076,7.206767,6.100612
7742,android.sensor.gyroscope_uncalibrated,0.17104226,-0.09773844,-0.11484267,0.042760566,-0.0012217305,0.0061086523
7781,android.sensor.gyroscope_uncalibrated,0.27977628,-0.13805555,-0.03176499,0.042760566,-0.0012217305,0.0061086523
7842,android.sensor.gyroscope_uncalibrated,0.034208454,0.17470746,0.04153884,0.042760566,-0.0012217305,0.0061086523
7888,android.sensor.gyroscope_uncalibrated,0.021991149,0.14905111,0.056199603,0.042760566,-0.0012217305,0.0061086523
7938,android.sensor.gyroscope_uncalibrated,-0.0012217305,0.24556783,0.02076942,0.042760566,-0.0012217305,0.0061086523
7988,android.sensor.gyroscope_uncalibrated,0.04642576,0.28344148,0.02565634,0.042760566,-0.0012217305,0.0061086523
8059,android.sensor.gyroscope_uncalibrated,-0.18325958,0.3811799,-0.07819075,0.042760566,-0.0012217305,0.0061086523
8090,android.sensor.gyroscope_uncalibrated,-0.15760323,0.31764993,-0.061086524,0.042760566,-0.0012217305,0.0061086523
8137,android.sensor.linear_acceleration,-0.4593174,0.250206,1.0240569
8192,android.sensor.gyroscope_uncalibrated,-0.18692477,-0.3726278,-0.02443461,0.042760566,-0.0012217305,0.0061086523
8247,android.sensor.gyroscope_uncalibrated,0.28955013,0.7049385,-0.25167647,0.042760566,-0.0012217305,0.0061086523
8344,android.sensor.gyroscope_uncalibrated,-0.21135938,0.096516706,-0.3323107,0.042760566,-0.0012217305,0.0061086523
8396,android.sensor.accelerometer,-0.43336374,6.665661,6.385531
8446,android.sensor.accelerometer,-1.2210802,7.5754857,5.525986
8495,android.sensor.gyroscope,-0.07452556,0.3640757,-0.27366763
8550,android.sensor.gyroscope_uncalibrated,0.53023106,0.6010914,0.36285394,0.042760566,-0.0012217305,0.0061086523
8600,android.sensor.gyroscope_uncalibrated,-0.064751714,0.24190263,0.3933972,0.042760566,-0.0012217305,0.0061086523
8652,android.sensor.gyroscope_uncalibrated,-1.0323622,-0.65484756,-0.2687807,0.042760566,-0.0012217305,0.0061086523
8700,android.sensor.gyroscope_uncalibrated,-1.0177015,-0.86742866,0.52656585,0.042760566,-0.0012217305,0.0061086523
8751,android.sensor.gyroscope_uncalibrated,-0.20525073,-0.25045475,0.4092797,0.042760566,-0.0012217305,0.0061086523
8805,android.sensor.orientation,312.50974,-42.002487,-5.3194895
8860,android.sensor.gyroscope_uncalibrated,-0.26389378,-0.28710666,-0.058643065,0.042760566,-0.0012217305,0.0061086523
8910,android.sensor.gyroscope_uncalibrated,-0.16737708,-0.23335053,0.080634214,0.042760566,-0.0012217305,0.0061086523
8962,android.sensor.gyroscope_uncalibrated,-0.103847094,-0.06841691,0.16493362,0.042760566,-0.0012217305,0.0061086523
9020,android.sensor.gyroscope_uncalibrated,0.035430185,0.12339478,-0.035430185,0.042760566,-0.0012217305,0.0061086523
9064,android.sensor.accelerometer,-0.7853221,6.237086,6.6225643
9121,android.sensor.gyroscope_uncalibrated,-0.096516706,0.061086524,0.035430185,0.042760566,-0.0012217305,0.0061086523
9172,android.sensor.gyroscope_uncalibrated,0.08552113,0.05131268,0.039095376,0.042760566,-0.0012217305,0.0061086523
9221,android.sensor.accelerometer,-0.26097596,5.5906315,7.0271964
9271,android.sensor.gyroscope_uncalibrated,0.040317107,0.05131268,-0.06352998,0.042760566,-0.0012217305,0.0061086523
9321,android.sensor.gyroscope_uncalibrated,-0.04642576,-0.14294247,0.04153884,0.042760566,-0.0012217305,0.0061086523
9373,android.sensor.gyroscope_uncalibrated,-0.17470746,-0.21991149,0.12095132,0.042760566,-0.0012217305,0.0061086523
9422,android.sensor.accelerometer,0.07901107,4.929812,8.542772
9471,speed,4.359591,48.0
9523,android.sensor.accelerometer,-0.083799616,5.2745876,5.7366824
9574,android.sensor.accelerometer,0.06943397,6.1077952,9.833286
9632,android.sensor.gyroscope_uncalibrated,0.12705997,0.040317107,0.09896017,0.042760566,-0.0012217305,0.0061086523
9682,android.sensor.gyroscope_uncalibrated,-0.172264,-0.27366763,0.111177474,0.042760566,-0.0012217305,0.0061086523
9727,android.sensor.accelerometer,0.3615355,6.6704497,9.299363
9780,android.sensor.accelerometer,0.3040729,5.478101,7.5084457
9830,android.sensor.accelerometer,1.8842943,5.1788163,7.886741
9882,android.sensor.gyroscope_uncalibrated,0.112399206,0.07452556,0.028099801,0.042760566,-0.0012217305,0.0061086523
9933,android.sensor.gyroscope_uncalibrated,0.018325957,0.037873644,0.02443461,0.042760566,-0.0012217305,0.0061086523
9983,android.sensor.gyroscope_uncalibrated,0.12583824,0.07819075,0.007330383,0.042760566,-0.0012217305,0.0061086523
10034,android.sensor.rotation_vector,0.28633,0.107708,0.366387,0.878734,2.0
10092,android.sensor.gyroscope_uncalibrated,0.04520403,-0.02565634,0.14049901,0.042760566,-0.0012217305,0.0061086523
10140,android.sensor.accelerometer,-0.057462595,6.1461034,8.607418
10194,android.sensor.gyroscope_uncalibrated,0.6096435,0.312763,0.1441642,0.042760566,-0.0012217305,0.0061086523
10249,android.sensor.gyroscope_uncalibrated,0.5131268,0.267559,0.19914207,0.042760566,-0.0012217305,0.0061086523
10303,android.sensor.gyroscope_uncalibrated,-0.23945917,-0.12339478,-0.08307768,0.042760566,-0.0012217305,0.0061086523
10349,sound,-Infinity
10401,android.sensor.gyroscope_uncalibrated,0.096516706,0.04153884,-0.064751714,0.042760566,-0.0012217305,0.0061086523
10452,android.sensor.gyroscope_uncalibrated,0.014660766,-0.007330383,-0.019547688,0.042760566,-0.0012217305,0.0061086523
10502,android.sensor.gyroscope_uncalibrated,0.02443461,0.012217305,-0.064751714,0.042760566,-0.0012217305,0.0061086523
10558,android.sensor.game_rotation_vector,0.334074,0.03445,0.090219,0.937586
10605,android.sensor.gyroscope_uncalibrated,0.0012217305,-0.039095376,-0.119729586,0.042760566,-0.0012217305,0.0061086523
10653,android.sensor.gyroscope_uncalibrated,0.10873401,0.010995574,-0.039095376,0.042760566,-0.0012217305,0.0061086523
10704,android.sensor.accelerometer,-0.0023942748,6.639324,7.369578
10752,android.sensor.gyroscope,0.056199603,0.07086037,-0.0012217305
10805,android.sensor.gyroscope_uncalibrated,0.04153884,-0.02687807,-0.014660766,0.042760566,-0.0012217305,0.0061086523
11112,android.sensor.gyroscope_uncalibrated,0.007330383,0.040317107,-0.02443461,0.042760566,-0.0012217305,0.0061086523
11158,android.sensor.accelerometer,-0.48124924,6.7566433,6.682421
11212,android.sensor.gyroscope_uncalibrated,-0.014660766,-0.017104227,-0.017104227,0.042760566,-0.0012217305,0.0061086523
11322,android.sensor.gyroscope_uncalibrated,0.047647487,0.02565634,0.009773844,0.042760566,-0.0012217305,0.0061086523
11373,android.sensor.gyroscope_uncalibrated,0.03176499,0.10140363,-0.1001819,0.042760566,-0.0012217305,0.0061086523
11421,android.sensor.gyroscope,-0.058643065,-0.07696902,-0.14049901
11476,android.sensor.gyroscope_uncalibrated,-0.0012217305,-0.105068825,0.06841691,0.042760566,-0.0012217305,0.0061086523
11524,android.sensor.orientation,301.805,-47.465355,-3.5512402
11581,android.sensor.accelerometer,-0.38787252,7.573091,6.4693303
11634,android.sensor.gyroscope_uncalibrated,-0.004886922,-0.058643065,0.004886922,0.042760566,-0.0012217305,0.0061086523
11756,android.sensor.gyroscope_uncalibrated,0.13194689,-0.02321288,-0.32620203,0.042760566,-0.0012217305,0.0061086523
11802,android.sensor.gyroscope_uncalibrated,0.22602014,0.16126843,-0.43004912,0.042760566,-0.0012217305,0.0061086523
11860,android.sensor.gyroscope_uncalibrated,0.35185838,0.25167647,-0.3359759,0.042760566,-0.0012217305,0.0061086523
11913,android.sensor.gyroscope_uncalibrated,0.15393804,0.004886922,-0.19425514,0.042760566,-0.0012217305,0.0061086523
11963,android.sensor.gyroscope_uncalibrated,-0.12339478,0.039095376,0.21013765,0.042760566,-0.0012217305,0.0061086523
12014,android.sensor.accelerometer,-1.0199611,7.0607166,6.237086
12064,android.sensor.accelerometer,-1.9633054,7.125362,5.724711
12114,android.sensor.gyroscope_uncalibrated,0.056199603,-0.15149458,0.17715092,0.042760566,-0.0012217305,0.0061086523
12163,android.sensor.gyroscope_uncalibrated,-0.29565877,-0.14538592,-0.29077184,0.042760566,-0.0012217305,0.0061086523
12220,android.sensor.gyroscope_uncalibrated,0.27488935,-0.004886922,0.1160644,0.042760566,-0.0012217305,0.0061086523
12269,android.sensor.accelerometer,-1.1779832,7.781393,6.7470665
12314,android.sensor.gyroscope_uncalibrated,-0.008552114,-0.1441642,0.028099801,0.042760566,-0.0012217305,0.0061086523
12366,android.sensor.accelerometer,-0.81165916,8.13814,7.2522583
12420,android.sensor.accelerometer,-0.69912827,7.6544967,6.5483418
12466,android.sensor.accelerometer,0.22985038,6.8691745,6.646507
12516,android.sensor.accelerometer,0.105348095,7.0008597,6.63693
12574,android.sensor.gyroscope_uncalibrated,0.36285394,0.14782938,-0.17470746,0.042760566,-0.0012217305,0.0061086523
12623,android.sensor.gyroscope_uncalibrated,0.056199603,0.03176499,-0.17592919,0.042760566,-0.0012217305,0.0061086523
12674,android.sensor.gyroscope_uncalibrated,0.22235495,0.1001819,-0.14294247,0.042760566,-0.0012217305,0.0061086523
12722,sound,-Infinity
12774,sound,80.20260554430295
12827,android.sensor.accelerometer,-0.24900457,7.85801,5.604997
12877,android.sensor.accelerometer,-1.3024855,8.114198,4.9441776
12926,android.sensor.accelerometer,-2.0782306,8.236305,5.583449
12981,android.sensor.gyroscope_uncalibrated,-0.11484267,-0.3005457,-0.004886922,0.042760566,-0.0012217305,0.0061086523
13027,android.sensor.accelerometer,-1.1372806,7.084659,6.3400397
13084,android.sensor.gyroscope_uncalibrated,-0.17470746,-0.30543262,0.05497787,0.042760566,-0.0012217305,0.0061086523
13135,android.sensor.gyroscope_uncalibrated,0.111177474,-0.012217305,-0.04886922,0.042760566,-0.0012217305,0.0061086523
13183,android.sensor.gyroscope_uncalibrated,0.172264,0.10140363,-0.065973446,0.042760566,-0.0012217305,0.0061086523
13236,android.sensor.gyroscope_uncalibrated,0.030543262,-0.23090707,0.058643065,0.042760566,-0.0012217305,0.0061086523
13284,android.sensor.gyroscope_uncalibrated,0.0061086523,-0.19303341,0.02687807,0.042760566,-0.0012217305,0.0061086523
13334,android.sensor.gyroscope_uncalibrated,-0.09162979,0.057421334,-0.13072516,0.042760566,-0.0012217305,0.0061086523
13382,android.sensor.accelerometer,-2.1141446,8.020821,7.039168
13435,android.sensor.gyroscope_uncalibrated,-0.2565634,-0.5497787,0.3213151,0.042760566,-0.0012217305,0.0061086523
13484,android.sensor.gyroscope_uncalibrated,-0.06352998,0.02321288,-0.16126843,0.042760566,-0.0012217305,0.0061086523
13535,android.sensor.gyroscope_uncalibrated,0.22724187,-0.21135938,0.3811799,0.042760566,-0.0012217305,0.0061086523
13587,android.sensor.accelerometer,0.42618093,7.0343795,5.1979704
13637,android.sensor.accelerometer,1.3862851,7.14691,7.860404
13687,android.sensor.accelerometer,0.098165266,7.106208,6.246663
13741,android.sensor.accelerometer,0.2466103,6.8428373,5.870762
13794,android.sensor.gyroscope_uncalibrated,-0.37507126,-0.2321288,0.6609562,0.042760566,-0.0012217305,0.0061086523
13843,android.sensor.accelerometer,2.935381,5.1213536,7.778999
13889,android.sensor.game_rotation_vector,0.322017,-0.10791,0.080093,0.937147
13943,android.sensor.gyroscope_uncalibrated,0.1563815,0.08674286,-0.45814893,0.042760566,-0.0012217305,0.0061086523
13992,android.sensor.gyroscope_uncalibrated,-0.24923302,-0.24312437,-0.15149458,0.042760566,-0.0012217305,0.0061086523
14041,android.sensor.gyroscope,0.17592919,0.02321288,-0.19181168
14095,android.sensor.gyroscope_uncalibrated,0.037873644,-0.0012217305,-0.22968534,0.042760566,-0.0012217305,0.0061086523
14145,android.sensor.gyroscope_uncalibrated,0.267559,0.18936823,-0.3213151,0.042760566,-0.0012217305,0.0061086523
14204,android.sensor.gyroscope_uncalibrated,0.112399206,-0.017104227,-0.029321533,0.042760566,-0.0012217305,0.0061086523
14256,android.sensor.gyroscope_uncalibrated,0.06963864,0.02321288,-0.09162979,0.042760566,-0.0012217305,0.0061086523
14359,android.sensor.gyroscope_uncalibrated,0.36896262,0.2565634,-0.105068825,0.042760566,-0.0012217305,0.0061086523
14415,android.sensor.gyroscope_uncalibrated,0.40317106,0.30176744,-0.29810223,0.042760566,-0.0012217305,0.0061086523
14464,android.sensor.gyroscope_uncalibrated,0.47647488,0.32253686,-0.1881465,0.042760566,-0.0012217305,0.0061086523
14515,android.sensor.gyroscope_uncalibrated,0.28710666,0.15027285,-0.30543262,0.042760566,-0.0012217305,0.0061086523
14564,android.sensor.gyroscope_uncalibrated,0.2284636,0.118507855,-0.1600467,0.042760566,-0.0012217305,0.0061086523
14615,android.sensor.gyroscope_uncalibrated,0.07452556,-0.14782938,-0.073303826,0.042760566,-0.0012217305,0.0061086523
14664,android.sensor.gyroscope_uncalibrated,0.14049901,-0.07819075,-0.24678956,0.042760566,-0.0012217305,0.0061086523
14716,android.sensor.gyroscope_uncalibrated,0.028099801,-0.23945917,-0.0061086523,0.042760566,-0.0012217305,0.0061086523
14765,android.sensor.gyroscope_uncalibrated,0.118507855,-0.12217305,-0.10751228,0.042760566,-0.0012217305,0.0061086523
14820,android.sensor.gyroscope_uncalibrated,0.096516706,-0.0720821,-0.20158553,0.042760566,-0.0012217305,0.0061086523
14865,android.sensor.gyroscope_uncalibrated,-0.039095376,-0.23823744,0.017104227,0.042760566,-0.0012217305,0.0061086523
14973,android.sensor.gyroscope_uncalibrated,0.7110472,0.6206391,-0.6792821,0.042760566,-0.0012217305,0.0061086523
15020,android.sensor.gyroscope_uncalibrated,1.2718215,0.97494096,-0.61086524,0.042760566,-0.0012217305,0.0061086523
15072,android.sensor.gyroscope_uncalibrated,1.6285667,1.2461652,-0.6377433,0.042760566,-0.0012217305,0.0061086523
15126,android.sensor.gyroscope_uncalibrated,0.9578367,0.38973203,-0.6010914,0.042760566,-0.0012217305,0.0061086523
15176,android.sensor.gyroscope_uncalibrated,0.44593164,0.05375614,-0.38728857,0.042760566,-0.0012217305,0.0061086523
15274,android.sensor.accelerometer,-2.2170985,8.083072,4.4294086
15325,android.sensor.gyroscope_uncalibrated,-0.040317107,-0.30787608,-0.05009095,0.042760566,-0.0012217305,0.0061086523
15376,android.sensor.gyroscope_uncalibrated,-0.035430185,-0.25778514,-0.06719518,0.042760566,-0.0012217305,0.0061086523
15425,android.sensor.gyroscope_uncalibrated,0.27000242,-0.02321288,-0.06352998,0.042760566,-0.0012217305,0.0061086523
15480,android.sensor.magnetic_field_uncalibrated,18.5,13.2,134.8,3.6000001,-26.4,123.200005
