1,android.sensor.accelerometer,1.3144168,5.2145715,7.5968018
1,android.sensor.accelerometer,1.3144168,5.2145715,7.5968018
1,android.sensor.accelerometer,1.282095,5.2564697,7.693767
1,android.sensor.accelerometer,1.1432313,5.257667,7.8469963
1,android.sensor.magnetic_field,36.4,-43.8,-35.5
1,android.sensor.gyroscope,0.42077947,0.43356264,-0.022370555
1,android.sensor.gyroscope,0.3898868,0.49215218,-0.053263225
1,android.sensor.magnetic_field,36.4,-43.8,-35.5
1,android.sensor.gyroscope,0.34621096,0.56459016,-0.08735169
1,android.sensor.gyroscope,0.29188246,0.6487461,-0.11824436
1,android.sensor.magnetic_field,36.4,-43.8,-35.5
1,android.sensor.step_counter,20893.0
1,android.sensor.accelerometer,1.1432313,5.257667,7.8469963
2,android.sensor.gyroscope_uncalibrated,0.4293016,0.4250405,-0.033023197,0.008522116,-0.008522116,-0.010652645
2,android.sensor.accelerometer,0.91219085,5.199009,7.9870567
2,android.sensor.gyroscope_uncalibrated,0.39840892,0.48363006,-0.06391586,0.008522116,-0.008522116,-0.010652645
2,android.sensor.accelerometer,0.60333884,5.0745106,8.037335
2,android.sensor.gyroscope,0.22370553,0.737163,-0.14061491
2,android.sensor.gyroscope,0.22370553,0.737163,-0.14061491
2,android.sensor.magnetic_field,36.4,-43.8,-35.5
2,android.sensor.magnetic_field_uncalibrated,-1.2,4.6,1.7,-37.600002,48.4,37.2
2,android.sensor.magnetic_field,36.4,-43.8,-35.5
2,android.sensor.magnetic_field_uncalibrated,-1.2,4.5,1.8000001,-37.600002,48.4,37.2
2,android.sensor.magnetic_field_uncalibrated,-1.2,4.5,1.8000001,-37.600002,48.4,37.2
3,android.sensor.proximity,8.0,0.0,0.0
3,android.sensor.proximity,8.0,0.0,0.0
3,android.sensor.gyroscope_uncalibrated,0.35473305,0.55606806,-0.098004326,0.008522116,-0.008522116,-0.010652645
3,android.sensor.gyroscope_uncalibrated,0.30040458,0.6402239,-0.128897,0.008522116,-0.008522116,-0.010652645
3,android.sensor.accelerometer,0.34835634,4.9763484,7.967903
3,android.sensor.accelerometer,0.18076223,4.995502,7.7248917
3,android.sensor.gyroscope_uncalibrated,0.23222765,0.7286409,-0.15126756,0.008522116,-0.008522116,-0.010652645
3,android.sensor.accelerometer,0.18076223,4.995502,7.7248917
3,android.sensor.gyroscope,0.22370553,0.737163,-0.14061491
3,android.sensor.gyroscope,0.22370553,0.737163,-0.14061491
3,android.sensor.gyroscope,-0.011717909,0.8948221,-0.11824436
3,android.sensor.magnetic_field,36.4,-43.9,-35.4
3,android.sensor.magnetic_field,36.4,-43.9,-35.4
3,android.sensor.magnetic_field_uncalibrated,-1.3000001,4.4,1.8000001,-37.600002,48.4,37.2
4,android.sensor.magnetic_field,36.3,-44.0,-35.4
4,android.sensor.magnetic_field_uncalibrated,-1.3000001,4.4,1.8000001,-37.600002,48.4,37.2
4,android.sensor.magnetic_field,36.3,-44.0,-35.4
4,android.sensor.magnetic_field_uncalibrated,-1.3000001,4.3,1.9,-37.600002,48.4,37.2
14,android.sensor.gyroscope_uncalibrated,0.23222765,0.7286409,-0.15126756,0.008522116,-0.008522116,-0.010652645
15,android.sensor.accelerometer,0.18076223,4.995502,7.7248917
15,android.sensor.gyroscope_uncalibrated,0.23222765,0.7286409,-0.15126756,0.008522116,-0.008522116,-0.010652645
16,android.sensor.accelerometer,0.18076223,4.995502,7.7248917
16,android.sensor.gyroscope_uncalibrated,0.23222765,0.7286409,-0.15126756,0.008522116,-0.008522116,-0.010652645
16,android.sensor.accelerometer,0.32441434,5.2049947,7.711724
17,android.sensor.gyroscope,-0.080960095,0.9108011,-0.08735169
17,android.sensor.gyroscope,-0.13635385,0.9214538,-0.054328486
17,android.sensor.gyroscope,-0.17044231,0.93636745,-0.02876214
17,android.sensor.gyroscope,-0.17044231,0.93636745,-0.02876214
17,android.sensor.gravity,0.9914501,5.335636,8.16813
18,android.sensor.linear_acceleration,-0.8873023,-0.24197197,0.029616356
18,android.sensor.orientation,243.90698,-32.96205,6.920724
18,android.sensor.rotation_vector,0.198047,0.21052,0.805368,0.517532,3.0
18,android.sensor.magnetic_field_uncalibrated,-1.3000001,4.3,1.9,-37.600002,48.4,37.2
18,android.sensor.linear_acceleration,-0.81068784,-0.34013414,-0.44323826
18,android.sensor.rotation_vector,0.198047,0.21052,0.805368,0.517532,3.0
18,android.sensor.orientation,243.90698,-32.96205,6.920724
18,android.sensor.gravity,0.9914501,5.335636,8.16813
18,android.sensor.magnetic_field,36.3,-44.100002,-35.3
18,android.sensor.magnetic_field_uncalibrated,-1.3000001,4.3,1.9,-37.600002,48.4,37.2
19,android.sensor.magnetic_field,36.3,-44.100002,-35.3
19,android.sensor.magnetic_field_uncalibrated,-1.3000001,4.2000003,1.9,-37.600002,48.4,37.2
19,android.sensor.magnetic_field,36.3,-44.100002,-35.3
19,android.sensor.gyroscope_uncalibrated,-0.0031957934,0.8863,-0.128897,0.008522116,-0.008522116,-0.010652645
20,android.sensor.accelerometer,0.78769237,5.555745,7.869741
20,android.sensor.gyroscope_uncalibrated,-0.07243799,0.902279,-0.098004326,0.008522116,-0.008522116,-0.010652645
20,android.sensor.gyroscope_uncalibrated,-0.12783173,0.9129316,-0.06498113,0.008522116,-0.008522116,-0.010652645
21,android.sensor.accelerometer,0.78769237,5.555745,7.869741
21,android.sensor.accelerometer,0.9804256,5.6563015,8.001422
22,android.sensor.gyroscope,-0.13954964,0.9619338,-0.00958738
22,android.sensor.gyroscope,-0.13954964,0.9619338,-0.00958738
22,android.sensor.gyroscope,-0.094808534,0.93849796,-0.010652645
22,android.sensor.rotation_vector,0.198047,0.21052,0.805368,0.517532,3.0
22,android.sensor.orientation,243.90698,-32.96205,6.920724
22,android.sensor.linear_acceleration,-0.6670357,-0.13064146,-0.45640612
23,android.sensor.gravity,0.9914501,5.335636,8.16813
23,android.sensor.gravity,0.93604183,5.354419,8.162375
23,android.sensor.orientation,243.89114,-33.092945,6.541966
23,android.sensor.linear_acceleration,-0.14834946,0.2013259,-0.2926345
23,android.sensor.rotation_vector,0.195955,0.213158,0.80568,0.516763,3.0
23,android.sensor.magnetic_field,36.3,-44.100002,-35.3
23,android.sensor.game_rotation_vector,0.288534,-0.051022,0.001013,0.956108
23,android.sensor.linear_acceleration,-0.14834946,0.2013259,-0.2926345
23,android.sensor.rotation_vector,0.195955,0.213158,0.80568,0.516763,3.0
24,android.sensor.gravity,0.93604183,5.354419,8.162375
24,android.sensor.magnetic_field_uncalibrated,-1.3000001,4.2000003,1.9,-37.600002,48.4,37.2
24,android.sensor.magnetic_field,36.3,-44.2,-35.3
24,android.sensor.orientation,243.89114,-33.092945,6.541966
24,android.sensor.game_rotation_vector,0.289572,-0.047602,0.001043,0.955971
24,android.sensor.magnetic_field_uncalibrated,-1.2,4.2000003,1.9,-37.600002,48.4,37.2
24,android.sensor.magnetic_field,36.3,-44.2,-35.3
24,android.sensor.gyroscope_uncalibrated,-0.16192019,0.92784536,-0.039414786,0.008522116,-0.008522116,-0.010652645
25,android.sensor.accelerometer,0.9804256,5.6563015,8.001422
25,android.sensor.gyroscope_uncalibrated,-0.16192019,0.92784536,-0.039414786,0.008522116,-0.008522116,-0.010652645
25,android.sensor.accelerometer,0.79846627,5.6179943,8.335413
25,android.sensor.gyroscope_uncalibrated,-0.13102753,0.9534117,-0.020240024,0.008522116,-0.008522116,-0.010652645
25,android.sensor.gyroscope_uncalibrated,-0.13102753,0.9534117,-0.020240024,0.008522116,-0.008522116,-0.010652645
25,android.sensor.accelerometer,0.79846627,5.6179943,8.335413
25,android.sensor.accelerometer,0.37828386,5.567716,8.046912
25,android.sensor.gyroscope_uncalibrated,-0.08628642,0.92997587,-0.02130529,0.008522116,-0.008522116,-0.010652645
25,android.sensor.accelerometer,0.37828386,5.567716,8.046912
25,android.sensor.gyroscope,-0.094808534,0.93849796,-0.010652645
25,android.sensor.gyroscope_uncalibrated,-0.08628642,0.92997587,-0.02130529,0.008522116,-0.008522116,-0.010652645
25,android.sensor.gyroscope,-0.04580637,0.88949585,-0.0127831735
25,android.sensor.accelerometer,0.37828386,5.567716,8.046912
25,android.sensor.gyroscope,0.041545313,0.7552725,-0.018109497
26,android.sensor.gyroscope,0.041545313,0.7552725,-0.018109497
26,android.sensor.gyroscope,0.07243799,0.6860303,-0.026631612
26,android.sensor.gyroscope,0.09374327,0.62104917,-0.037284255
26,android.sensor.orientation,243.99161,-33.309723,6.1456294
26,android.sensor.gravity,0.8773824,5.3854656,8.148454
26,android.sensor.linear_acceleration,0.1030432,0.27083588,-0.14703178
26,android.sensor.rotation_vector,0.194323,0.216294,0.805296,0.516674,3.0
27,android.sensor.gyroscope_uncalibrated,-0.037284255,0.8809737,-0.023435818,0.008522116,-0.008522116,-0.010652645
28,android.sensor.accelerometer,0.17956513,5.6527104,7.762002
28,android.sensor.gyroscope,0.12144015,0.531567,-0.058589544
28,android.sensor.gyroscope_uncalibrated,0.05006743,0.74675035,-0.02876214,0.008522116,-0.008522116,-0.010652645
28,android.sensor.accelerometer,0.17956513,5.6527104,7.762002
28,android.sensor.gyroscope,0.12144015,0.531567,-0.058589544
29,android.sensor.gyroscope_uncalibrated,0.05006743,0.74675035,-0.02876214,0.008522116,-0.008522116,-0.010652645
29,android.sensor.accelerometer,0.15682021,5.659893,7.644686
29,android.sensor.gyroscope,0.12144015,0.531567,-0.058589544
29,android.sensor.gyroscope_uncalibrated,0.080960095,0.6775082,-0.037284255,0.008522116,-0.008522116,-0.010652645
29,android.sensor.accelerometer,0.12090719,5.6646814,7.6267295
29,android.sensor.gyroscope,0.13528858,0.47510794,-0.07456851
29,android.sensor.gyroscope_uncalibrated,0.10226539,0.6125271,-0.0479369,0.008522116,-0.008522116,-0.010652645
29,android.sensor.accelerometer,0.11252748,5.686229,7.7428484
29,android.sensor.gyroscope,0.13528858,0.47510794,-0.07456851
29,android.sensor.gyroscope_uncalibrated,0.12996227,0.5230448,-0.06924219,0.008522116,-0.008522116,-0.010652645
29,android.sensor.accelerometer,0.11252748,5.686229,7.7428484
30,android.sensor.gyroscope,0.14274544,0.45593318,-0.07563378
30,android.sensor.gyroscope_uncalibrated,0.12996227,0.5230448,-0.06924219,0.008522116,-0.008522116,-0.010652645
30,android.sensor.accelerometer,0.11252748,5.686229,7.7428484
30,android.sensor.gyroscope,0.14274544,0.45593318,-0.07563378
30,android.sensor.gyroscope_uncalibrated,0.12996227,0.5230448,-0.06924219,0.008522116,-0.008522116,-0.010652645
30,android.sensor.accelerometer,0.05626374,5.571307,7.86615
30,android.sensor.gyroscope_uncalibrated,0.1438107,0.46658584,-0.08522116,0.008522116,-0.008522116,-0.010652645
30,android.sensor.accelerometer,-0.017956512,5.535394,7.943961
30,android.sensor.gyroscope_uncalibrated,0.1438107,0.46658584,-0.08522116,0.008522116,-0.008522116,-0.010652645
31,android.sensor.accelerometer,-0.05267244,5.531803,7.967903
31,android.sensor.gyroscope_uncalibrated,0.15126756,0.44741106,-0.08628642,0.008522116,-0.008522116,-0.010652645
31,android.sensor.accelerometer,-0.05267244,5.531803,7.967903
31,android.sensor.gyroscope_uncalibrated,0.15126756,0.44741106,-0.08628642,0.008522116,-0.008522116,-0.010652645
31,android.sensor.orientation,244.16595,-33.52624,5.6239476
31,android.sensor.magnetic_field,36.4,-44.2,-35.3
31,android.sensor.gyroscope,0.15339808,0.43569317,-0.06178534
31,android.sensor.magnetic_field_uncalibrated,-1.1,4.2000003,2.0,-37.600002,48.4,37.2
31,android.sensor.gyroscope_uncalibrated,0.16192019,0.42717105,-0.07243799,0.008522116,-0.008522116,-0.010652645
31,android.sensor.game_rotation_vector,0.290725,-0.043372,7.65E-4,0.955822
31,android.sensor.rotation_vector,0.191979,0.21985,0.804737,0.516921,3.0
31,android.sensor.gravity,0.80115485,5.4163976,8.135794
31,android.sensor.linear_acceleration,-0.91727364,0.12258816,-0.11282349
31,android.sensor.accelerometer,-0.11611878,5.5389857,8.02297
32,android.sensor.accelerometer,-0.11611878,5.5389857,8.02297
32,android.sensor.gyroscope,0.15339808,0.42290998,-0.05219796
32,android.sensor.gyroscope_uncalibrated,0.16192019,0.41438788,-0.0628506,0.008522116,-0.008522116,-0.010652645
32,android.sensor.orientation,244.38445,-33.72869,5.0212264
32,android.sensor.magnetic_field,36.5,-44.2,-35.2
32,android.sensor.gyroscope,0.15126756,0.4165184,-0.03834952
32,android.sensor.magnetic_field_uncalibrated,-1.0,4.1,2.1000001,-37.600002,48.4,37.2
32,android.sensor.gyroscope_uncalibrated,0.15978967,0.4079963,-0.049002163,0.008522116,-0.008522116,-0.010652645
32,android.sensor.game_rotation_vector,0.291872,-0.038636,3.37E-4,0.955676
32,android.sensor.rotation_vector,0.189121,0.223587,0.804099,0.517364,3.0
32,android.sensor.gravity,0.71384823,5.44525,8.124655
32,android.sensor.linear_acceleration,-0.8167989,0.059019566,-0.23935127
32,android.sensor.accelerometer,-0.10295067,5.5042696,7.8853035
32,android.sensor.accelerometer,-0.10295067,5.5042696,7.8853035
32,android.sensor.gyroscope,0.1438107,0.42077947,-0.022370555
33,android.sensor.gyroscope_uncalibrated,0.15233281,0.41225734,-0.033023197,0.008522116,-0.008522116,-0.010652645
33,android.sensor.orientation,244.60281,-33.916122,4.399662
33,android.sensor.magnetic_field,36.600002,-44.3,-35.100002
33,android.sensor.gyroscope,0.128897,0.43569317,-0.0063915867
33,android.sensor.magnetic_field_uncalibrated,-1.0,4.1,2.1000001,-37.600002,48.4,37.2
33,android.sensor.gyroscope_uncalibrated,0.13741912,0.42717105,-0.017044231,0.008522116,-0.008522116,-0.010652645
33,android.sensor.game_rotation_vector,0.293009,-0.033823,-7.1E-5,0.95551
33,android.sensor.rotation_vector,0.186089,0.227302,0.803498,0.517777,3.0
33,android.sensor.gravity,0.62429893,5.4719014,8.114115
33,android.sensor.linear_acceleration,-0.5835975,0.12095356,-0.35929537
33,android.sensor.accelerometer,0.04070143,5.592855,7.7548194
43,android.sensor.accelerometer,0.04070143,5.592855,7.7548194
43,android.sensor.gyroscope,0.10759171,0.45380265,0.008522116
43,android.sensor.gyroscope_uncalibrated,0.11611383,0.44528055,-0.002130529,0.008522116,-0.008522116,-0.010652645
43,android.sensor.accelerometer,0.04070143,5.592855,7.7548194
44,android.sensor.gyroscope,0.10759171,0.45380265,0.008522116
44,android.sensor.gyroscope_uncalibrated,0.11611383,0.44528055,-0.002130529,0.008522116,-0.008522116,-0.010652645
72,android.sensor.magnetic_field,36.600002,-44.3,-35.100002
72,android.sensor.magnetic_field_uncalibrated,-0.8,4.0,2.2,-37.600002,48.4,37.2
72,android.sensor.linear_acceleration,-0.4433854,0.18260479,-0.26562357
72,android.sensor.orientation,244.7815,-34.105965,3.8241043
72,android.sensor.game_rotation_vector,0.294274,-0.029339,-1.99E-4,0.95527
72,android.sensor.rotation_vector,0.183322,0.230898,0.802994,0.517957,3.0
72,android.sensor.gravity,0.54154766,5.498836,8.101846
72,android.sensor.gyroscope_uncalibrated,0.07456851,0.4676511,0.0063915867,0.008522116,-0.008522116,-0.010652645
72,android.sensor.accelerometer,0.09816227,5.681441,7.836222
72,android.sensor.gyroscope,0.066046394,0.47617322,0.017044231
72,android.sensor.orientation,244.7815,-34.105965,3.8241043
73,android.sensor.game_rotation_vector,0.294274,-0.029339,-1.99E-4,0.95527
73,android.sensor.accelerometer,0.09816227,5.681441,7.836222
73,android.sensor.magnetic_field,36.600002,-44.3,-35.100002
73,android.sensor.gyroscope,0.066046394,0.47617322,0.017044231
73,android.sensor.magnetic_field_uncalibrated,-0.8,4.0,2.2,-37.600002,48.4,37.2
73,android.sensor.gyroscope_uncalibrated,0.07456851,0.4676511,0.0063915867,0.008522116,-0.008522116,-0.010652645
73,android.sensor.rotation_vector,0.183322,0.230898,0.802994,0.517957,3.0
73,android.sensor.gravity,0.54154766,5.498836,8.101846
73,android.sensor.linear_acceleration,-0.4433854,0.18260479,-0.26562357
73,android.sensor.orientation,244.91542,-34.274837,3.3018289
73,android.sensor.gyroscope,0.05006743,0.48149952,0.018109497
74,android.sensor.magnetic_field_uncalibrated,-0.6,3.9,2.3,-37.600002,48.4,37.2
74,android.sensor.gyroscope_uncalibrated,0.058589544,0.47297743,0.007456851,0.008522116,-0.008522116,-0.010652645
74,android.sensor.game_rotation_vector,0.295449,-0.025214,-1.0E-5,0.955025
74,android.sensor.rotation_vector,0.180753,0.234183,0.802655,0.517908,3.0
74,android.sensor.accelerometer,-0.079008654,5.815516,8.021772
74,android.sensor.gravity,0.46673858,5.522744,8.090225
74,android.sensor.linear_acceleration,-0.36857632,0.15869665,-0.25400305
74,android.sensor.magnetic_field,36.8,-44.4,-35.0
74,android.sensor.accelerometer,-0.21667525,5.8598084,8.070854
74,android.sensor.gyroscope,0.037284255,0.4857606,0.020240024
74,android.sensor.gyroscope_uncalibrated,0.04580637,0.47723848,0.00958738,0.008522116,-0.008522116,-0.010652645
74,android.sensor.gyroscope_uncalibrated,0.035153728,0.47297743,0.0127831735,0.008522116,-0.008522116,-0.010652645
75,android.sensor.gyroscope,0.026631612,0.48149952,0.023435818
75,android.sensor.accelerometer,-0.31364042,5.90889,8.119935
75,android.sensor.game_rotation_vector,0.296681,-0.021165,2.19E-4,0.954742
75,android.sensor.rotation_vector,0.178246,0.237444,0.802309,0.51783,3.0
75,android.sensor.accelerometer,-0.31364042,5.90889,8.119935
75,android.sensor.gyroscope,0.026631612,0.48149952,0.023435818
75,android.sensor.gyroscope_uncalibrated,0.035153728,0.47297743,0.0127831735,0.008522116,-0.008522116,-0.010652645
75,android.sensor.gravity,0.3933005,5.546731,8.077713
75,android.sensor.linear_acceleration,-0.7069409,0.36215878,0.042222023
75,android.sensor.orientation,245.0453,-34.444603,2.7875063
75,android.sensor.magnetic_field,36.9,-44.4,-34.8
75,android.sensor.magnetic_field_uncalibrated,-0.1,3.8,2.5,-37.600002,48.4,37.2
75,android.sensor.accelerometer,-0.39145198,5.9304376,8.136695
75,android.sensor.gyroscope,0.01917476,0.46871635,0.027696876
75,android.sensor.gyroscope_uncalibrated,0.027696876,0.46019423,0.017044231,0.008522116,-0.008522116,-0.010652645
76,android.sensor.orientation,245.20087,-34.611256,2.234017
76,android.sensor.magnetic_field,37.4,-44.5,-34.600002
76,android.sensor.gyroscope,0.018109497,0.44741106,0.03195793
76,android.sensor.magnetic_field_uncalibrated,0.0,3.7,2.6000001,-37.600002,48.4,37.2
76,android.sensor.gyroscope_uncalibrated,0.026631612,0.43888897,0.02130529,0.008522116,-0.008522116,-0.010652645
76,android.sensor.game_rotation_vector,0.297922,-0.016865,3.92E-4,0.954441
76,android.sensor.rotation_vector,0.175524,0.240815,0.801884,0.517861,3.0
76,android.sensor.gravity,0.31462058,5.5702305,8.064979
76,android.sensor.linear_acceleration,-0.74677396,0.3877406,0.023831367
76,android.sensor.accelerometer,-0.4321534,5.957971,8.08881
76,android.sensor.accelerometer,-0.49799395,5.969942,8.115147
76,android.sensor.gyroscope,0.022370555,0.4165184,0.03089267
77,android.sensor.gyroscope_uncalibrated,0.03089267,0.4079963,0.020240024,0.008522116,-0.008522116,-0.010652645
82,android.sensor.gyroscope,0.027696876,0.38136467,0.02876214
82,android.sensor.gyroscope_uncalibrated,0.036218993,0.37284255,0.018109497,0.008522116,-0.008522116,-0.010652645
82,android.sensor.game_rotation_vector,0.299271,-0.012458,4.69E-4,0.954086
82,android.sensor.rotation_vector,0.172754,0.244317,0.801364,0.517956,3.0
83,android.sensor.gyroscope,0.027696876,0.38136467,0.02876214
83,android.sensor.gyroscope_uncalibrated,0.036218993,0.37284255,0.018109497,0.008522116,-0.008522116,-0.010652645
83,android.sensor.orientation,245.37434,-34.787308,1.6597021
83,android.sensor.magnetic_field_uncalibrated,0.1,3.7,2.8,-37.600002,48.4,37.2
83,android.sensor.magnetic_field,37.5,-44.600002,-34.5
83,android.sensor.gravity,0.23326848,5.5950046,8.050578
83,android.sensor.linear_acceleration,-0.73126245,0.37493753,0.06456852
83,android.sensor.light,159.0,3432.0,159.0
83,android.sensor.accelerometer,-0.47884035,5.9424086,8.099585
83,android.sensor.pressure,1007.8445,0.0,0.0
83,android.sensor.accelerometer,-0.47884035,5.9424086,8.099585
83,android.sensor.pressure,1007.8445,0.0,0.0
89,android.sensor.accelerometer,-0.49440265,5.907693,8.015787
89,android.sensor.gyroscope,0.036218993,0.3291667,0.017044231
89,android.sensor.gyroscope_uncalibrated,0.04474111,0.3206446,0.0063915867,0.008522116,-0.008522116,-0.010652645
89,android.sensor.accelerometer,-0.49440265,5.907693,8.015787
89,android.sensor.gyroscope,0.036218993,0.3291667,0.017044231
90,android.sensor.gyroscope_uncalibrated,0.04474111,0.3206446,0.0063915867,0.008522116,-0.008522116,-0.010652645
94,android.sensor.game_rotation_vector,0.300651,-0.008206,3.87E-4,0.953698
95,android.sensor.gyroscope_uncalibrated,0.04261058,0.3121225,0.002130529,0.008522116,-0.008522116,-0.010652645
95,android.sensor.magnetic_field,37.7,-44.600002,-34.3
95,android.sensor.rotation_vector,0.170118,0.247749,0.800728,0.518183,3.0
95,android.sensor.gravity,0.15374745,5.619835,8.035182
95,android.sensor.linear_acceleration,-0.6481501,0.287858,-0.019394875
95,android.sensor.orientation,245.56665,-34.96414,1.09618
95,android.sensor.magnetic_field_uncalibrated,0.3,3.6000001,2.9,-37.600002,48.4,37.2
95,android.sensor.accelerometer,-0.5231331,5.8083334,7.8649526
95,android.sensor.gyroscope,0.034088463,0.3206446,0.0127831735
104,android.sensor.gyroscope_uncalibrated,0.024501082,0.30466563,0.0063915867,0.008522116,-0.008522116,-0.010652645
105,android.sensor.gyroscope,0.015978966,0.31318775,0.017044231
105,android.sensor.accelerometer,-0.4189853,5.637148,7.6015906
105,android.sensor.game_rotation_vector,0.302036,-0.004146,1.18E-4,0.953287
105,android.sensor.rotation_vector,0.167629,0.251073,0.799985,0.518542,3.0
105,android.sensor.accelerometer,-0.4189853,5.637148,7.6015906
105,android.sensor.gyroscope,0.015978966,0.31318775,0.017044231
105,android.sensor.gyroscope_uncalibrated,0.024501082,0.30466563,0.0063915867,0.008522116,-0.008522116,-0.010652645
105,android.sensor.gravity,0.07666436,5.644263,8.01915
105,android.sensor.linear_acceleration,-0.49564967,-0.0071148872,-0.41755915
105,android.sensor.orientation,245.77647,-35.13848,0.54774016
105,android.sensor.magnetic_field,37.9,-44.7,-34.2
105,android.sensor.magnetic_field_uncalibrated,0.6,3.6000001,3.0,-37.600002,48.4,37.2
110,android.sensor.orientation,245.97113,-35.294456,0.047927074
110,android.sensor.gyroscope,-0.002130529,0.30360037,0.024501082
110,android.sensor.magnetic_field_uncalibrated,0.6,3.5,3.1000001,-37.600002,48.4,37.2
111,android.sensor.gyroscope_uncalibrated,0.0063915867,0.29507825,0.013848438,0.008522116,-0.008522116,-0.010652645
111,android.sensor.game_rotation_vector,0.303288,-4.36E-4,-4.1E-5,0.952898
111,android.sensor.rotation_vector,0.165371,0.254079,0.799284,0.518882,3.0
111,android.sensor.accelerometer,-0.29807812,5.589264,7.5094137
111,android.sensor.gravity,0.0066953255,5.666073,8.004115
111,android.sensor.linear_acceleration,-0.42568064,-0.028924942,-0.40252447
111,android.sensor.magnetic_field,38.2,-44.7,-34.100002
114,android.sensor.accelerometer,-0.2657564,5.5820813,7.5549035
114,android.sensor.gyroscope,-0.0053263223,0.2908172,0.027696876
114,android.sensor.gyroscope_uncalibrated,0.0031957934,0.28229508,0.017044231,0.008522116,-0.008522116,-0.010652645
121,android.sensor.gyroscope,-0.004261058,0.27377295,0.034088463
122,android.sensor.gyroscope_uncalibrated,0.004261058,0.26525086,0.023435818,0.008522116,-0.008522116,-0.010652645
122,android.sensor.accelerometer,-0.2741361,5.566519,7.583634
122,android.sensor.rotation_vector,0.163523,0.256658,0.798741,0.519036,3.0
122,android.sensor.gyroscope,-0.004261058,0.27377295,0.034088463
122,android.sensor.gyroscope_uncalibrated,0.004261058,0.26525086,0.023435818,0.008522116,-0.008522116,-0.010652645
122,android.sensor.accelerometer,-0.2741361,5.566519,7.583634
122,android.sensor.gravity,-0.05103778,5.685456,7.9902015
122,android.sensor.linear_acceleration,-0.21471861,-0.10337448,-0.43529797
122,android.sensor.magnetic_field,38.2,-44.8,-34.0
122,android.sensor.orientation,246.11716,-35.433323,-0.36597446
122,android.sensor.magnetic_field_uncalibrated,0.90000004,3.6000001,3.2,-37.600002,48.4,37.2
122,android.sensor.game_rotation_vector,0.304413,0.002679,-6.0E-6,0.952536
124,android.sensor.accelerometer,-0.2885013,5.531803,7.6015906
124,android.sensor.gyroscope,0.0,0.25246766,0.04261058
124,android.sensor.gyroscope_uncalibrated,0.008522116,0.24394555,0.03195793,0.008522116,-0.008522116,-0.010652645
130,android.sensor.orientation,246.24042,-35.548927,-0.69447243
130,android.sensor.magnetic_field,38.5,-44.8,-34.0
130,android.sensor.gyroscope,0.008522116,0.22583607,0.054328486
130,android.sensor.magnetic_field_uncalibrated,1.1,3.5,3.3,-37.600002,48.4,37.2
131,android.sensor.gyroscope_uncalibrated,0.017044231,0.21731395,0.043675844,0.008522116,-0.008522116,-0.010652645
131,android.sensor.game_rotation_vector,0.305353,0.005193,1.72E-4,0.952224
131,android.sensor.rotation_vector,0.162105,0.258732,0.798258,0.519195,3.0
131,android.sensor.gravity,-0.09670827,5.701566,7.978293
131,android.sensor.linear_acceleration,-0.2600278,-0.21405602,-0.35276031
131,android.sensor.accelerometer,-0.35673606,5.48751,7.6255326
137,android.sensor.accelerometer,-0.415394,5.4671597,7.6351094
137,android.sensor.gyroscope,0.02130529,0.19281286,0.070307456
137,android.sensor.gyroscope_uncalibrated,0.029827405,0.18429075,0.05965481,0.008522116,-0.008522116,-0.010652645
141,android.sensor.orientation,246.34686,-35.634445,-0.9653276
141,android.sensor.magnetic_field,38.7,-44.9,-33.9
141,android.sensor.gyroscope,0.033023197,0.15765914,0.08628642
141,android.sensor.magnetic_field_uncalibrated,1.4,3.4,3.5,-37.600002,48.4,37.2
141,android.sensor.gyroscope_uncalibrated,0.041545313,0.14913702,0.07563378,0.008522116,-0.008522116,-0.010652645
142,android.sensor.game_rotation_vector,0.306049,0.007296,4.23E-4,0.951987
142,android.sensor.rotation_vector,0.160907,0.260368,0.797855,0.519368,3.0
142,android.sensor.gravity,-0.13427939,5.713469,7.969226
142,android.sensor.linear_acceleration,-0.26794648,-0.24630928,-0.3185544
142,android.sensor.accelerometer,-0.40222588,5.4671597,7.6506715
144,android.sensor.accelerometer,-0.3878607,5.4623713,7.669825
144,android.sensor.gyroscope,0.04580637,0.1257012,0.10013486
144,android.sensor.gyroscope_uncalibrated,0.054328486,0.11717909,0.08948222,0.008522116,-0.008522116,-0.010652645
151,android.sensor.orientation,246.43279,-35.698593,-1.1851451
151,android.sensor.magnetic_field_uncalibrated,1.6,3.4,3.7,-37.600002,48.4,37.2
151,android.sensor.gyroscope_uncalibrated,0.066046394,0.08948222,0.098004326,0.008522116,-0.008522116,-0.010652645
151,android.sensor.game_rotation_vector,0.30657,0.009031,7.18E-4,0.951804
152,android.sensor.rotation_vector,0.159913,0.26166,0.797539,0.519511,3.0
152,android.sensor.accelerometer,-0.33997664,5.483919,7.715315
152,android.sensor.gyroscope,0.05752428,0.098004326,0.10865697
152,android.sensor.gravity,-0.16472015,5.7223887,7.962252
152,android.sensor.linear_acceleration,-0.22314054,-0.2600174,-0.29242706
152,android.sensor.magnetic_field,39.0,-45.0,-33.7
158,android.sensor.gyroscope_uncalibrated,0.07669904,0.06178534,0.101200126,0.008522116,-0.008522116,-0.010652645
158,android.sensor.accelerometer,-0.30765492,5.5246205,7.896077
158,android.sensor.gyroscope,0.068176925,0.070307456,0.111852765
159,android.sensor.gyroscope_uncalibrated,0.07669904,0.06178534,0.101200126,0.008522116,-0.008522116,-0.010652645
159,android.sensor.accelerometer,-0.30765492,5.5246205,7.896077
159,android.sensor.gyroscope,0.068176925,0.070307456,0.111852765
164,android.sensor.linear_acceleration,-0.007921129,-0.12860632,0.10761309
164,android.sensor.rotation_vector,0.159167,0.2626,0.797312,0.519614,3.0
164,android.sensor.gravity,-0.18720631,5.728644,7.957255
164,android.sensor.magnetic_field_uncalibrated,1.8000001,3.3,3.8,-37.600002,48.4,37.2
164,android.sensor.orientation,246.49567,-35.743607,-1.3477201
164,android.sensor.game_rotation_vector,0.306934,0.01035,0.001055,0.951673
164,android.sensor.magnetic_field,39.2,-45.0,-33.5
164,android.sensor.rotation_vector,0.159167,0.2626,0.797312,0.519614,3.0
165,android.sensor.gravity,-0.18720631,5.728644,7.957255
165,android.sensor.linear_acceleration,-0.007921129,-0.12860632,0.10761309
165,android.sensor.orientation,246.49567,-35.743607,-1.3477201
165,android.sensor.accelerometer,-0.19512744,5.6000376,8.064868
165,android.sensor.gyroscope,0.07882957,0.049002163,0.1107875
165,android.sensor.gyroscope_uncalibrated,0.08735169,0.040480047,0.10013486,0.008522116,-0.008522116,-0.010652645
165,android.sensor.game_rotation_vector,0.306934,0.01035,0.001055,0.951673
165,android.sensor.magnetic_field,39.2,-45.0,-33.5
165,android.sensor.magnetic_field_uncalibrated,1.8000001,3.3,3.8,-37.600002,48.4,37.2
170,android.sensor.orientation,246.52684,-35.75362,-1.4330546
171,android.sensor.magnetic_field,39.4,-45.100002,-33.4
171,android.sensor.gyroscope,0.094808534,0.05219796,0.09161274
171,android.sensor.magnetic_field_uncalibrated,2.0,3.2,4.0,-37.600002,48.4,37.2
171,android.sensor.gyroscope_uncalibrated,0.10333065,0.043675844,0.080960095,0.008522116,-0.008522116,-0.010652645
171,android.sensor.game_rotation_vector,0.307007,0.011107,0.001426,0.951641
171,android.sensor.rotation_vector,0.158709,0.263002,0.797231,0.519675,3.0
171,android.sensor.gravity,-0.19903234,5.730035,7.955967
171,android.sensor.linear_acceleration,0.10446137,-0.010286808,0.2824812
171,android.sensor.accelerometer,-0.094570965,5.719748,8.238448
174,android.sensor.accelerometer,-0.110133275,5.783194,8.196549
174,android.sensor.gyroscope,0.09267801,0.066046394,0.0777643
175,android.sensor.gyroscope_uncalibrated,0.101200126,0.05752428,0.06711166,0.008522116,-0.008522116,-0.010652645
181,android.sensor.gyroscope_uncalibrated,0.09267801,0.07350325,0.05006743,0.008522116,-0.008522116,-0.010652645
181,android.sensor.accelerometer,-0.1412579,5.827487,8.194156
181,android.sensor.gyroscope,0.084155895,0.082025364,0.060720075
181,android.sensor.rotation_vector,0.158403,0.263062,0.797317,0.519607,3.0
181,android.sensor.gyroscope_uncalibrated,0.09267801,0.07350325,0.05006743,0.008522116,-0.008522116,-0.010652645
181,android.sensor.accelerometer,-0.1412579,5.827487,8.194156
182,android.sensor.gyroscope,0.084155895,0.082025364,0.060720075
182,android.sensor.gravity,-0.20381069,5.728086,7.957251
182,android.sensor.linear_acceleration,0.09367742,0.05510807,0.23929834
182,android.sensor.magnetic_field,39.600002,-45.2,-33.2
182,android.sensor.orientation,246.5221,-35.73959,-1.4672077
182,android.sensor.magnetic_field_uncalibrated,2.3,3.1000001,4.1,-37.600002,48.4,37.2
182,android.sensor.game_rotation_vector,0.306881,0.011498,0.001839,0.951676
184,android.sensor.accelerometer,-0.21428105,5.7879825,8.163031
184,android.sensor.gyroscope,0.07243799,0.10652645,0.04580637
184,android.sensor.gyroscope_uncalibrated,0.080960095,0.098004326,0.035153728,0.008522116,-0.008522116,-0.010652645
191,android.sensor.gyroscope_uncalibrated,0.06711166,0.13102753,0.027696876,0.008522116,-0.008522116,-0.010652645
191,android.sensor.gyroscope,0.058589544,0.13954964,0.03834952
191,android.sensor.accelerometer,-0.33638534,5.7125654,8.103176
191,android.sensor.game_rotation_vector,0.306724,0.01184,0.002228,0.951722
191,android.sensor.rotation_vector,0.158092,0.263086,0.797457,0.519474,3.0
191,android.sensor.accelerometer,-0.33638534,5.7125654,8.103176
191,android.sensor.gyroscope,0.058589544,0.13954964,0.03834952
191,android.sensor.gyroscope_uncalibrated,0.06711166,0.13102753,0.027696876,0.008522116,-0.008522116,-0.010652645
191,android.sensor.gravity,-0.20779838,5.7256017,7.958934
191,android.sensor.linear_acceleration,-0.12858696,-0.013036251,0.14424229
192,android.sensor.orientation,246.506,-35.721714,-1.4955854
192,android.sensor.magnetic_field,39.9,-45.3,-33.100002
192,android.sensor.magnetic_field_uncalibrated,2.5,3.1000001,4.3,-37.600002,48.4,37.2
194,android.sensor.accelerometer,-0.4237737,5.602432,8.0445175
195,android.sensor.gyroscope,0.04580637,0.16937704,0.03834952
195,android.sensor.gyroscope_uncalibrated,0.054328486,0.16085494,0.027696876,0.008522116,-0.008522116,-0.010652645
201,android.sensor.gyroscope_uncalibrated,0.046871636,0.18216023,0.033023197,0.008522116,-0.008522116,-0.010652645
201,android.sensor.gyroscope,0.03834952,0.19068234,0.043675844
201,android.sensor.accelerometer,-0.45250413,5.5282116,8.10557
202,android.sensor.game_rotation_vector,0.306413,0.012586,0.002569,0.951811
202,android.sensor.rotation_vector,0.157327,0.263223,0.797667,0.519314,3.0
202,android.sensor.accelerometer,-0.45250413,5.5282116,8.10557
202,android.sensor.gyroscope,0.03834952,0.19068234,0.043675844
202,android.sensor.gyroscope_uncalibrated,0.046871636,0.18216023,0.033023197,0.008522116,-0.008522116,-0.010652645
202,android.sensor.gravity,-0.2196852,5.720541,7.962252
202,android.sensor.linear_acceleration,-0.23281893,-0.1923294,0.1433177
202,android.sensor.orientation,246.49548,-35.6853,-1.5804375
202,android.sensor.magnetic_field,40.100002,-45.3,-32.9
202,android.sensor.magnetic_field_uncalibrated,2.7,3.1000001,4.4,-37.600002,48.4,37.2
204,android.sensor.accelerometer,-0.40701428,5.5126495,8.182184
204,android.sensor.gyroscope,0.037284255,0.20240025,0.05219796
204,android.sensor.gyroscope_uncalibrated,0.04580637,0.19387813,0.041545313,0.008522116,-0.008522116,-0.010652645
210,android.sensor.orientation,246.4829,-35.606564,-1.7221762
210,android.sensor.magnetic_field,40.3,-45.3,-32.8
211,android.sensor.gyroscope,0.04474111,0.20879184,0.058589544
211,android.sensor.magnetic_field_uncalibrated,2.8,3.1000001,4.5,-37.600002,48.4,37.2
211,android.sensor.gyroscope_uncalibrated,0.053263225,0.20026971,0.0479369,0.008522116,-0.008522116,-0.010652645
211,android.sensor.game_rotation_vector,0.305752,0.013771,0.002945,0.952006
211,android.sensor.rotation_vector,0.155977,0.263321,0.798034,0.519108,3.0
211,android.sensor.gravity,-0.23961763,5.7095895,7.9695354
211,android.sensor.linear_acceleration,-0.024941668,-0.10596037,0.3622861
211,android.sensor.accelerometer,-0.2645593,5.603629,8.331821
214,android.sensor.accelerometer,-0.11851298,5.6910176,8.499416
214,android.sensor.gyroscope,0.06498113,0.21518342,0.058589544
214,android.sensor.gyroscope_uncalibrated,0.07350325,0.2066613,0.0479369,0.008522116,-0.008522116,-0.010652645
226,android.sensor.accelerometer,0.025139118,5.93762,8.622718
226,android.sensor.gyroscope_uncalibrated,0.101200126,0.2130529,0.039414786,0.008522116,-0.008522116,-0.010652645
227,android.sensor.gyroscope,0.09267801,0.221575,0.05006743
227,android.sensor.linear_acceleration,0.2806371,0.24288273,0.6430545
227,android.sensor.rotation_vector,0.154606,0.263149,0.798617,0.518709,3.0
227,android.sensor.magnetic_field,40.4,-45.3,-32.7
227,android.sensor.orientation,246.42963,-35.499905,-1.8339064
227,android.sensor.game_rotation_vector,0.304856,0.014791,0.003487,0.952277
227,android.sensor.gravity,-0.25549796,5.6947374,7.9796634
227,android.sensor.magnetic_field_uncalibrated,2.9,3.1000001,4.6,-37.600002,48.4,37.2
227,android.sensor.gyroscope_uncalibrated,0.101200126,0.2130529,0.039414786,0.008522116,-0.008522116,-0.010652645
227,android.sensor.accelerometer,0.025139118,5.93762,8.622718
227,android.sensor.gyroscope,0.09267801,0.221575,0.05006743
227,android.sensor.orientation,246.42963,-35.499905,-1.8339064
227,android.sensor.accelerometer,0.025139118,5.93762,8.622718
227,android.sensor.gyroscope,0.09267801,0.221575,0.05006743
228,android.sensor.gyroscope_uncalibrated,0.101200126,0.2130529,0.039414786,0.008522116,-0.008522116,-0.010652645
228,android.sensor.game_rotation_vector,0.304856,0.014791,0.003487,0.952277
228,android.sensor.magnetic_field_uncalibrated,2.9,3.1000001,4.6,-37.600002,48.4,37.2
0,android.sensor.magnetic_field,40.4,-45.3,-32.7
0,android.sensor.gravity,-0.25549796,5.6947374,7.9796634
0,android.sensor.linear_acceleration,0.2806371,0.24288273,0.6430545
0,android.sensor.rotation_vector,0.154606,0.263149,0.798617,0.518709,3.0
2,android.sensor.orientation,246.32327,-35.42025,-1.853926
2,android.sensor.magnetic_field,40.5,-45.3,-32.600002
2,android.sensor.gyroscope,0.15978967,0.22796659,0.015978966
2,android.sensor.magnetic_field_uncalibrated,3.0,3.0,4.7000003,-37.600002,48.4,37.2
2,android.sensor.gyroscope_uncalibrated,0.16831179,0.21944448,0.0053263223,0.008522116,-0.008522116,-0.010652645
2,android.sensor.game_rotation_vector,0.30418,0.015185,0.004227,0.952484
2,android.sensor.rotation_vector,0.153858,0.26283,0.799293,0.518052,3.0
2,android.sensor.gravity,-0.25854203,5.6836324,7.9874797
2,android.sensor.linear_acceleration,0.27410436,0.3222227,0.55024385
3,android.sensor.accelerometer,0.015562311,6.005855,8.537724
6,android.sensor.accelerometer,-0.06703765,5.9747305,8.354567
6,android.sensor.gyroscope,0.18855181,0.23648871,-0.0010652645
6,android.sensor.gyroscope_uncalibrated,0.19707392,0.22796659,-0.011717909,0.008522116,-0.008522116,-0.010652645
13,android.sensor.gyroscope_uncalibrated,0.21731395,0.23861924,-0.025566347,0.008522116,-0.008522116,-0.010652645
14,android.sensor.gyroscope,0.20879184,0.24714136,-0.014913702
14,android.sensor.accelerometer,-0.1340753,5.923255,8.239645
14,android.sensor.game_rotation_vector,0.303942,0.015186,0.004963,0.952556
14,android.sensor.rotation_vector,0.153662,0.26267,0.799886,0.517274,3.0
14,android.sensor.accelerometer,-0.1340753,5.923255,8.239645
14,android.sensor.gyroscope,0.20879184,0.24714136,-0.014913702
14,android.sensor.gyroscope_uncalibrated,0.21731395,0.23861924,-0.025566347,0.008522116,-0.008522116,-0.010652645
14,android.sensor.gravity,-0.2541943,5.679844,7.99031
14,android.sensor.linear_acceleration,0.12011899,0.24341106,0.24933481
14,android.sensor.orientation,246.19861,-35.393093,-1.8221257
14,android.sensor.magnetic_field,40.600002,-45.4,-32.5
14,android.sensor.magnetic_field_uncalibrated,3.1000001,3.0,4.8,-37.600002,48.4,37.2
16,android.sensor.accelerometer,-0.16998832,5.843049,8.103176
16,android.sensor.gyroscope,0.22050974,0.25885928,-0.025566347
16,android.sensor.gyroscope_uncalibrated,0.22903186,0.25033715,-0.036218993,0.008522116,-0.008522116,-0.010652645
22,android.sensor.orientation,246.0948,-35.420147,-1.8052745
22,android.sensor.magnetic_field,40.7,-45.4,-32.4
22,android.sensor.gyroscope,0.2247708,0.27057716,-0.03195793
22,android.sensor.magnetic_field_uncalibrated,3.3,3.0,4.9,-37.600002,48.4,37.2
23,android.sensor.gyroscope_uncalibrated,0.23329292,0.26205507,-0.04261058,0.008522116,-0.008522116,-0.010652645
23,android.sensor.game_rotation_vector,0.304155,0.015262,0.005601,0.952483
23,android.sensor.rotation_vector,0.153663,0.262922,0.800279,0.516539,3.0
23,android.sensor.gravity,-0.25175986,5.683618,7.9877067
23,android.sensor.linear_acceleration,0.015930995,0.056480408,0.006532669
23,android.sensor.accelerometer,-0.23582886,5.7400985,7.9942393
26,android.sensor.accelerometer,-0.31603462,5.627571,7.9355817
26,android.sensor.gyroscope,0.2247708,0.28122982,-0.033023197
26,android.sensor.gyroscope_uncalibrated,0.23329292,0.2727077,-0.043675844,0.008522116,-0.008522116,-0.010652645
33,android.sensor.gyroscope_uncalibrated,0.23009712,0.28336033,-0.041545313,0.008522116,-0.008522116,-0.010652645
34,android.sensor.accelerometer,-0.36990416,5.544971,7.949947
34,android.sensor.gyroscope,0.221575,0.29188246,-0.03089267
34,android.sensor.rotation_vector,0.153592,0.263439,0.800493,0.515965,3.0
34,android.sensor.gyroscope,0.221575,0.29188246,-0.03089267
34,android.sensor.pressure,1007.84595,0.0,0.0
34,android.sensor.gyroscope_uncalibrated,0.23009712,0.28336033,-0.041545313,0.008522116,-0.008522116,-0.010652645
34,android.sensor.accelerometer,-0.36990416,5.544971,7.949947
34,android.sensor.orientation,246.02777,-35.46871,-1.8260423
34,android.sensor.magnetic_field_uncalibrated,3.3,2.9,4.9,-37.600002,48.4,37.2
34,android.sensor.game_rotation_vector,0.304548,0.015591,0.006158,0.952349
34,android.sensor.magnetic_field,40.9,-45.4,-32.3
34,android.sensor.gravity,-0.25450155,5.69039,7.9827976
34,android.sensor.linear_acceleration,-0.061533064,-0.062819004,-0.04721594
34,android.sensor.light,257.0,3448.0,257.0
36,android.sensor.accelerometer,-0.4249708,5.542577,7.941567
36,android.sensor.gyroscope,0.21198763,0.30679616,-0.025566347
36,android.sensor.gyroscope_uncalibrated,0.22050974,0.29827404,-0.036218993,0.008522116,-0.008522116,-0.010652645
42,android.sensor.orientation,245.98868,-35.495167,-1.8987421
42,android.sensor.gyroscope,0.19920446,0.3270362,-0.020240024
43,android.sensor.magnetic_field_uncalibrated,3.4,2.9,5.0,-37.600002,48.4,37.2
43,android.sensor.gyroscope_uncalibrated,0.20772657,0.31851408,-0.03089267,0.008522116,-0.008522116,-0.010652645
43,android.sensor.game_rotation_vector,0.304757,0.016294,0.006663,0.952267
43,android.sensor.rotation_vector,0.153131,0.263993,0.800678,0.515531,3.0
43,android.sensor.accelerometer,-0.48722005,5.5641246,8.007407
43,android.sensor.gravity,-0.26454315,5.6940775,7.97984
43,android.sensor.linear_acceleration,-0.16042766,-0.1515007,-0.038272858
43,android.sensor.magnetic_field,40.9,-45.5,-32.3
47,android.sensor.accelerometer,-0.49320555,5.6000376,8.112753
47,android.sensor.gyroscope,0.18642128,0.35579833,-0.014913702
47,android.sensor.gyroscope_uncalibrated,0.1949434,0.3472762,-0.025566347,0.008522116,-0.008522116,-0.010652645
56,android.sensor.game_rotation_vector,0.304733,0.017476,0.007166,0.95225
56,android.sensor.rotation_vector,0.152158,0.264605,0.800882,0.515188,3.0
56,android.sensor.gravity,-0.28362206,5.6938853,7.9793215
56,android.sensor.linear_acceleration,-0.24190524,-0.050751686,0.2818718
57,android.sensor.orientation,245.97218,-35.49379,-2.0357006
57,android.sensor.magnetic_field,41.0,-45.5,-32.2
57,android.sensor.magnetic_field_uncalibrated,3.5,2.9,5.1,-37.600002,48.4,37.2
57,android.sensor.accelerometer,-0.5255273,5.6431336,8.261193
57,android.sensor.gyroscope_uncalibrated,0.18429075,0.3834952,-0.02130529,0.008522116,-0.008522116,-0.010652645
57,android.sensor.gyroscope,0.17576863,0.3920173,-0.010652645
57,android.sensor.orientation,245.97218,-35.49379,-2.0357006
58,android.sensor.gyroscope_uncalibrated,0.18429075,0.3834952,-0.02130529,0.008522116,-0.008522116,-0.010652645
58,android.sensor.accelerometer,-0.5255273,5.6431336,8.261193
58,android.sensor.magnetic_field,41.0,-45.5,-32.2
58,android.sensor.gyroscope,0.17576863,0.3920173,-0.010652645
58,android.sensor.magnetic_field_uncalibrated,3.5,2.9,5.1,-37.600002,48.4,37.2
58,android.sensor.rotation_vector,0.152158,0.264605,0.800882,0.515188,3.0
58,android.sensor.game_rotation_vector,0.304733,0.017476,0.007166,0.95225
59,android.sensor.gravity,-0.28362206,5.6938853,7.9793215
59,android.sensor.linear_acceleration,-0.24190524,-0.050751686,0.2818718
63,android.sensor.orientation,245.96164,-35.453808,-2.2324402
63,android.sensor.magnetic_field,41.100002,-45.5,-32.100002
63,android.sensor.gyroscope,0.18002969,0.45380265,-0.0053263223
63,android.sensor.magnetic_field_uncalibrated,3.6000001,2.8,5.1,-37.600002,48.4,37.2
64,android.sensor.gyroscope_uncalibrated,0.18855181,0.44528055,-0.015978966,0.008522116,-0.008522116,-0.010652645
64,android.sensor.game_rotation_vector,0.304386,0.019134,0.00775,0.952324
64,android.sensor.rotation_vector,0.150615,0.265203,0.801198,0.514843,3.0
64,android.sensor.gravity,-0.31117415,5.688312,7.9822702
64,android.sensor.linear_acceleration,-0.24308354,-0.0020828247,0.24420643
64,android.sensor.accelerometer,-0.5542577,5.686229,8.226477
70,android.sensor.accelerometer,-0.5267244,5.74369,8.207323
70,android.sensor.gyroscope,0.18855181,0.4708469,-0.004261058
70,android.sensor.gyroscope_uncalibrated,0.19707392,0.46232477,-0.014913702,0.008522116,-0.008522116,-0.010652645
73,android.sensor.orientation,245.94727,-35.412193,-2.4736044
73,android.sensor.magnetic_field,41.2,-45.600002,-32.100002
74,android.sensor.gyroscope,0.2034655,0.479369,-0.007456851
74,android.sensor.magnetic_field_uncalibrated,3.7,2.8,5.3,-37.600002,48.4,37.2
74,android.sensor.gyroscope_uncalibrated,0.21198763,0.4708469,-0.018109497,0.008522116,-0.008522116,-0.010652645
74,android.sensor.game_rotation_vector,0.304022,0.021154,0.008425,0.952392
74,android.sensor.rotation_vector,0.148753,0.265989,0.801572,0.514396,3.0
74,android.sensor.gravity,-0.3449477,5.6825085,7.985014
74,android.sensor.linear_acceleration,-0.06685498,0.12941599,0.28336143
75,android.sensor.accelerometer,-0.41180268,5.8119245,8.268375
78,android.sensor.accelerometer,-0.25139117,5.90889,8.268375
78,android.sensor.gyroscope,0.22690132,0.48469532,-0.01917476
78,android.sensor.gyroscope_uncalibrated,0.23542345,0.47617322,-0.029827405,0.008522116,-0.008522116,-0.010652645
82,android.sensor.orientation,245.90863,-35.396446,-2.6909401
82,android.sensor.magnetic_field,41.3,-45.600002,-31.9
82,android.sensor.gyroscope,0.25992453,0.4857606,-0.036218993
82,android.sensor.magnetic_field_uncalibrated,3.8,2.8,5.4,-37.600002,48.4,37.2
82,android.sensor.gyroscope_uncalibrated,0.26844665,0.47723848,-0.046871636,0.008522116,-0.008522116,-0.010652645
83,android.sensor.game_rotation_vector,0.303871,0.023029,0.00921,0.95239
83,android.sensor.rotation_vector,0.147115,0.26688,0.801973,0.51378,3.0
83,android.sensor.gravity,-0.37530735,5.680312,7.985207
83,android.sensor.linear_acceleration,0.25440016,0.29202414,0.28316832
83,android.sensor.accelerometer,-0.12090719,5.9723363,8.268375
86,android.sensor.accelerometer,-0.10534488,5.9926867,8.198944
86,android.sensor.gyroscope,0.29827404,0.48149952,-0.05965481
86,android.sensor.gyroscope_uncalibrated,0.30679616,0.47297743,-0.070307456,0.008522116,-0.008522116,-0.010652645
94,android.sensor.gyroscope,0.33662358,0.47191215,-0.08522116
94,android.sensor.gyroscope_uncalibrated,0.34514567,0.46339005,-0.0958738,0.008522116,-0.008522116,-0.010652645
94,android.sensor.accelerometer,-0.22625206,5.971139,8.160637
94,android.sensor.rotation_vector,0.146327,0.267802,0.802285,0.513038,3.0
94,android.sensor.gyroscope,0.33662358,0.47191215,-0.08522116
94,android.sensor.gyroscope_uncalibrated,0.34514567,0.46339005,-0.0958738,0.008522116,-0.008522116,-0.010652645
94,android.sensor.accelerometer,-0.22625206,5.971139,8.160637
94,android.sensor.gravity,-0.3922,5.686383,7.980073
94,android.sensor.linear_acceleration,0.2868551,0.30630398,0.21887112
94,android.sensor.magnetic_field,41.4,-45.600002,-31.800001
94,android.sensor.orientation,245.84163,-35.439972,-2.8136756
94,android.sensor.magnetic_field_uncalibrated,3.9,2.7,5.5,-37.600002,48.4,37.2
95,android.sensor.game_rotation_vector,0.304208,0.024226,0.010105,0.952243
98,android.sensor.accelerometer,-0.3890578,5.920861,8.119935
99,android.sensor.gyroscope,0.3749731,0.45806372,-0.10333065
99,android.sensor.gyroscope_uncalibrated,0.3834952,0.4495416,-0.113983296,0.008522116,-0.008522116,-0.010652645
102,sound,-Infinity
106,android.sensor.accelerometer,-0.7254431,5.7736173,8.007407
106,android.sensor.gyroscope,0.4346279,0.43036684,-0.111852765
106,android.sensor.gyroscope_uncalibrated,0.44315,0.42184472,-0.12250541,0.008522116,-0.008522116,-0.010652645
116,android.sensor.gyroscope_uncalibrated,0.46552056,0.41225734,-0.11504856,0.008522116,-0.008522116,-0.010652645
116,android.sensor.gyroscope,0.45699844,0.42077947,-0.10439592
116,android.sensor.accelerometer,-0.93254155,5.744887,7.69257
116,android.sensor.orientation,245.81152,-35.67936,-3.0328293
116,android.sensor.gravity,-0.42145965,5.719715,7.954718
116,android.sensor.linear_acceleration,-0.51108193,0.025171757,-0.2621479
116,android.sensor.magnetic_field,41.600002,-45.7,-31.6
117,android.sensor.magnetic_field_uncalibrated,4.1,2.7,5.7000003,-37.600002,48.4,37.2
117,android.sensor.game_rotation_vector,0.306162,0.026216,0.011295,0.951551
117,android.sensor.rotation_vector,0.145879,0.270447,0.80208,0.512097,3.0
117,android.sensor.orientation,245.81152,-35.67936,-3.0328293
117,android.sensor.accelerometer,-0.93254155,5.744887,7.69257
117,android.sensor.magnetic_field,41.600002,-45.7,-31.6
117,android.sensor.gyroscope,0.45699844,0.42077947,-0.10439592
117,android.sensor.magnetic_field_uncalibrated,4.1,2.7,5.7000003,-37.600002,48.4,37.2
117,android.sensor.gyroscope_uncalibrated,0.46552056,0.41225734,-0.11504856,0.008522116,-0.008522116,-0.010652645
117,android.sensor.game_rotation_vector,0.306162,0.026216,0.011295,0.951551
117,android.sensor.rotation_vector,0.145879,0.270447,0.80208,0.512097,3.0
117,android.sensor.gravity,-0.42145965,5.719715,7.954718
117,android.sensor.linear_acceleration,-0.51108193,0.025171757,-0.2621479
122,android.sensor.orientation,245.91006,-35.853046,-3.2820048
123,android.sensor.magnetic_field,41.7,-45.7,-31.5
123,android.sensor.gyroscope,0.48469532,0.40053943,-0.08735169
123,android.sensor.magnetic_field_uncalibrated,4.2000003,2.6000001,5.8,-37.600002,48.4,37.2
123,android.sensor.gyroscope_uncalibrated,0.49321744,0.3920173,-0.098004326,0.008522116,-0.008522116,-0.010652645
123,android.sensor.game_rotation_vector,0.307593,0.028101,0.011462,0.951033
123,android.sensor.rotation_vector,0.145231,0.272602,0.801467,0.512099,3.0
123,android.sensor.gravity,-0.45505545,5.7438364,7.9354653
123,android.sensor.linear_acceleration,-0.5169904,0.0429492,-0.34345198
123,android.sensor.accelerometer,-0.9720459,5.7867856,7.5920134
127,android.sensor.accelerometer,-0.93852705,5.876568,7.499837
127,android.sensor.gyroscope,0.49002165,0.38562572,-0.082025364
127,android.sensor.gyroscope_uncalibrated,0.49854377,0.37710363,-0.09267801,0.008522116,-0.008522116,-0.010652645
133,android.sensor.gyroscope_uncalibrated,0.49428272,0.3653857,-0.08948222,0.008522116,-0.008522116,-0.010652645
133,android.sensor.gyroscope,0.4857606,0.37390783,-0.07882957
133,android.sensor.accelerometer,-0.85473,5.9771247,7.3968863
134,android.sensor.game_rotation_vector,0.30927,0.030436,0.01149,0.950417
134,android.sensor.rotation_vector,0.144378,0.275191,0.800634,0.512258,3.0
134,android.sensor.accelerometer,-0.85473,5.9771247,7.3968863
134,android.sensor.gyroscope,0.4857606,0.37390783,-0.07882957
134,android.sensor.gyroscope_uncalibrated,0.49428272,0.3653857,-0.08948222,0.008522116,-0.008522116,-0.010652645
134,android.sensor.gravity,-0.49768466,5.771921,7.912494
134,android.sensor.linear_acceleration,-0.35704535,0.20520353,-0.51560783
134,android.sensor.orientation,246.05502,-36.055748,-3.599082
134,android.sensor.magnetic_field,41.8,-45.8,-31.4
134,android.sensor.magnetic_field_uncalibrated,4.2000003,2.5,6.0,-37.600002,48.4,37.2
136,android.sensor.accelerometer,-0.81283146,6.0262055,7.120356
136,android.sensor.gyroscope,0.47617322,0.37071204,-0.0777643
136,android.sensor.gyroscope_uncalibrated,0.48469532,0.36218992,-0.08841695,0.008522116,-0.008522116,-0.010652645
143,android.sensor.gyroscope,0.45380265,0.3717773,-0.07669904
143,android.sensor.gyroscope_uncalibrated,0.46232477,0.36325517,-0.08735169,0.008522116,-0.008522116,-0.010652645
143,android.sensor.accelerometer,-0.94570965,6.0501475,6.217742
144,android.sensor.rotation_vector,0.143769,0.278173,0.79963,0.512387,3.0
144,android.sensor.gyroscope,0.45380265,0.3717773,-0.07669904
144,android.sensor.gyroscope_uncalibrated,0.46232477,0.36325517,-0.08735169,0.008522116,-0.008522116,-0.010652645
144,android.sensor.accelerometer,-0.94570965,6.0501475,6.217742
144,android.sensor.gravity,-0.5407432,5.807514,7.883571
144,android.sensor.linear_acceleration,-0.2720883,0.21869135,-0.76321507
144,android.sensor.magnetic_field,41.8,-45.9,-31.2
144,android.sensor.orientation,246.21057,-36.3134,-3.9238374
144,android.sensor.magnetic_field_uncalibrated,4.4,2.5,6.1,-37.600002,48.4,37.2
144,android.sensor.game_rotation_vector,0.311406,0.032793,0.011474,0.949641
146,android.sensor.accelerometer,-1.1707647,6.075287,5.3845596
146,android.sensor.gyroscope,0.39521313,0.3685815,-0.07137272
146,android.sensor.gyroscope_uncalibrated,0.40373522,0.36005938,-0.082025364,0.008522116,-0.008522116,-0.010652645
153,android.sensor.gyroscope,0.30253512,0.36218992,-0.05752428
153,android.sensor.gyroscope_uncalibrated,0.3110572,0.3536678,-0.068176925,0.008522116,-0.008522116,-0.010652645
153,android.sensor.accelerometer,-1.3132197,6.1076083,5.231331
153,android.sensor.rotation_vector,0.143729,0.282534,0.798017,0.512527,3.0
153,android.sensor.gyroscope,0.30253512,0.36218992,-0.05752428
153,android.sensor.gyroscope_uncalibrated,0.3110572,0.3536678,-0.068176925,0.008522116,-0.008522116,-0.010652645
154,android.sensor.accelerometer,-1.3132197,6.1076083,5.231331
154,android.sensor.gravity,-0.5905193,5.8669643,7.8358374
154,android.sensor.linear_acceleration,-0.5802454,0.20832253,-2.4512777
154,android.sensor.magnetic_field,42.0,-45.9,-31.1
154,android.sensor.orientation,246.42303,-36.745655,-4.3097405
154,android.sensor.magnetic_field_uncalibrated,4.5,2.4,6.3,-37.600002,48.4,37.2
154,android.sensor.game_rotation_vector,0.314993,0.035529,0.011389,0.94836
156,android.sensor.accelerometer,-1.2653356,6.1207767,5.5940523
156,android.sensor.gyroscope,0.20559604,0.33662358,-0.039414786
156,android.sensor.gyroscope_uncalibrated,0.21411815,0.32810146,-0.05006743,0.008522116,-0.008522116,-0.010652645
162,android.sensor.orientation,246.76047,-37.443874,-4.883763
162,android.sensor.magnetic_field,42.100002,-46.0,-30.9
163,android.sensor.gyroscope,0.12783173,0.29294774,-0.02130529
163,android.sensor.magnetic_field_uncalibrated,4.6,2.3,6.4,-37.600002,48.4,37.2
163,android.sensor.gyroscope_uncalibrated,0.13635385,0.28442562,-0.03195793,0.008522116,-0.008522116,-0.010652645
163,android.sensor.game_rotation_vector,0.320794,0.039471,0.011081,0.946261
163,android.sensor.rotation_vector,0.144044,0.289341,0.795364,0.512764,3.0
163,android.sensor.gravity,-0.66285574,5.9622865,7.75771
163,android.sensor.linear_acceleration,-0.45164514,0.18362951,-1.5830636
163,android.sensor.accelerometer,-1.1145009,6.145916,6.1746464
166,android.sensor.gyroscope,0.07669904,0.2545982,-0.008522116
166,android.sensor.gyroscope_uncalibrated,0.08522116,0.24607609,-0.01917476,0.008522116,-0.008522116,-0.010652645
166,android.sensor.accelerometer,-0.89902276,6.159084,6.683414
177,android.sensor.gyroscope,0.036218993,0.22690132,-0.010652645
177,android.sensor.accelerometer,-0.7350199,6.208165,7.023391
177,android.sensor.gyroscope_uncalibrated,0.04474111,0.21837921,-0.02130529,0.008522116,-0.008522116,-0.010652645
177,android.sensor.magnetic_field,42.2,-46.100002,-30.800001
177,android.sensor.linear_acceleration,-0.0048285127,0.1544342,-0.6570668
177,android.sensor.orientation,247.14886,-38.11987,-5.4308634
177,android.sensor.rotation_vector,0.144639,0.295779,0.792474,0.513397,3.0
177,android.sensor.gravity,-0.7301914,6.053731,7.6804576
177,android.sensor.magnetic_field_uncalibrated,4.7000003,2.3,6.6,-37.600002,48.4,37.2
177,android.sensor.game_rotation_vector,0.326407,0.043179,0.010845,0.94418
177,android.sensor.orientation,247.14886,-38.11987,-5.4308634
177,android.sensor.gyroscope_uncalibrated,0.04474111,0.21837921,-0.02130529,0.008522116,-0.008522116,-0.010652645
178,android.sensor.game_rotation_vector,0.326407,0.043179,0.010845,0.94418
178,android.sensor.accelerometer,-0.7350199,6.208165,7.023391
178,android.sensor.magnetic_field,42.2,-46.100002,-30.800001
178,android.sensor.gyroscope,0.036218993,0.22690132,-0.010652645
178,android.sensor.magnetic_field_uncalibrated,4.7000003,2.3,6.6,-37.600002,48.4,37.2
178,android.sensor.rotation_vector,0.144639,0.295779,0.792474,0.513397,3.0
178,android.sensor.gravity,-0.7301914,6.053731,7.6804576
178,android.sensor.linear_acceleration,-0.0048285127,0.1544342,-0.6570668
182,android.sensor.orientation,247.51138,-38.615704,-5.769798
182,android.sensor.magnetic_field,42.3,-46.100002,-30.6
182,android.sensor.gyroscope,0.033023197,0.20985709,-0.017044231
182,android.sensor.magnetic_field_uncalibrated,4.8,2.2,6.7000003,-37.600002,48.4,37.2
182,android.sensor.gyroscope_uncalibrated,0.041545313,0.20133498,-0.027696876,0.008522116,-0.008522116,-0.010652645
182,android.sensor.game_rotation_vector,0.330508,0.045487,0.010904,0.942643
182,android.sensor.rotation_vector,0.145741,0.300107,0.789935,0.514487,3.0
182,android.sensor.gravity,-0.770317,6.1202693,7.623598
182,android.sensor.linear_acceleration,0.026917398,0.09148693,-0.6576681
182,android.sensor.accelerometer,-0.7433996,6.211756,6.96593
186,android.sensor.accelerometer,-0.81642276,6.179435,6.9719152
186,android.sensor.gyroscope,0.034088463,0.17896444,-0.026631612
186,android.sensor.gyroscope_uncalibrated,0.04261058,0.17044231,-0.037284255,0.008522116,-0.008522116,-0.010652645
194,android.sensor.gyroscope_uncalibrated,0.046871636,0.12996227,-0.04474111,0.008522116,-0.008522116,-0.010652645
194,android.sensor.gyroscope,0.03834952,0.13848437,-0.034088463
194,android.sensor.accelerometer,-0.8702923,6.1566896,7.0664864
194,android.sensor.game_rotation_vector,0.333942,0.047096,0.011105,0.94135
194,android.sensor.rotation_vector,0.147191,0.30343,0.787479,0.515888,3.0
194,android.sensor.accelerometer,-0.8702923,6.1566896,7.0664864
194,android.sensor.gyroscope,0.03834952,0.13848437,-0.034088463
194,android.sensor.gyroscope_uncalibrated,0.046871636,0.12996227,-0.04474111,0.008522116,-0.008522116,-0.010652645
194,android.sensor.gravity,-0.79681104,6.1758127,7.575933
194,android.sensor.linear_acceleration,-0.07348126,-0.019123077,-0.5094466
194,android.sensor.orientation,247.8758,-39.03224,-6.0041027
194,android.sensor.magnetic_field,42.4,-46.2,-30.5
194,android.sensor.magnetic_field_uncalibrated,4.9,2.1000001,6.8,-37.600002,48.4,37.2
196,android.sensor.accelerometer,-0.8810662,6.147113,7.1754227
196,android.sensor.gyroscope,0.046871636,0.08948222,-0.039414786
196,android.sensor.gyroscope_uncalibrated,0.05539375,0.080960095,-0.05006743,0.008522116,-0.008522116,-0.010652645
202,android.sensor.orientation,248.26909,-39.359325,-6.1808014
202,android.sensor.magnetic_field,42.5,-46.3,-30.4
202,android.sensor.gyroscope,0.058589544,0.040480047,-0.043675844
202,android.sensor.magnetic_field_uncalibrated,5.0,2.0,6.9,-37.600002,48.4,37.2
202,android.sensor.gyroscope_uncalibrated,0.06711166,0.03195793,-0.054328486,0.008522116,-0.008522116,-0.010652645
202,android.sensor.game_rotation_vector,0.336642,0.048247,0.011128,0.940329
202,android.sensor.rotation_vector,0.148686,0.305856,0.785051,0.517724,3.0
202,android.sensor.gravity,-0.8163621,6.219198,7.5382657
202,android.sensor.linear_acceleration,-0.02998823,-0.09483051,-0.16771555
202,android.sensor.accelerometer,-0.8463503,6.1243677,7.37055
204,sound,-Infinity
206,android.sensor.accelerometer,-0.8283938,6.1040173,7.5704656
206,android.sensor.gyroscope,0.07989483,0.0010652645,-0.04580637
206,android.sensor.gyroscope_uncalibrated,0.08841695,-0.007456851,-0.056459017,0.008522116,-0.008522116,-0.010652645
213,android.sensor.gyroscope_uncalibrated,0.113983296,-0.040480047,-0.05965481,0.008522116,-0.008522116,-0.010652645
213,android.sensor.accelerometer,-0.8631097,6.0345855,7.645883
213,android.sensor.gyroscope,0.10546118,-0.03195793,-0.049002163
213,android.sensor.rotation_vector,0.150164,0.307193,0.782824,0.519874,3.0
213,android.sensor.gyroscope,0.10546118,-0.03195793,-0.049002163
213,android.sensor.pressure,1007.84717,0.0,0.0
213,android.sensor.gyroscope_uncalibrated,0.113983296,-0.040480047,-0.05965481,0.008522116,-0.008522116,-0.010652645
214,android.sensor.accelerometer,-0.8631097,6.0345855,7.645883
214,android.sensor.orientation,248.66205,-39.575085,-6.278852
214,android.sensor.magnetic_field_uncalibrated,5.1,2.0,7.1,-37.600002,48.4,37.2
214,android.sensor.game_rotation_vector,0.338431,0.048799,0.010947,0.939661
214,android.sensor.magnetic_field,42.600002,-46.4,-30.300001
214,android.sensor.gravity,-0.82669413,6.2477074,7.513527
214,android.sensor.linear_acceleration,-0.001699686,-0.14369011,0.05693865
214,android.sensor.light,243.0,3449.0,243.0
216,android.sensor.accelerometer,-0.9576807,5.9663506,7.4854717
216,android.sensor.gyroscope,0.13102753,-0.06498113,-0.049002163
216,android.sensor.gyroscope_uncalibrated,0.13954964,-0.07350325,-0.05965481,0.008522116,-0.008522116,-0.010652645
222,android.sensor.orientation,249.03172,-39.68156,-6.323878
222,android.sensor.magnetic_field,42.7,-46.4,-30.1
222,android.sensor.gyroscope,0.14807177,-0.096939065,-0.046871636
222,android.sensor.magnetic_field_uncalibrated,5.2000003,1.9,7.2000003,-37.600002,48.4,37.2
222,android.sensor.gyroscope_uncalibrated,0.15659387,-0.10546118,-0.05752428,0.008522116,-0.008522116,-0.010652645
222,android.sensor.game_rotation_vector,0.339328,0.048945,0.010582,0.939334
222,android.sensor.rotation_vector,0.151392,0.307603,0.780919,0.522135,3.0
222,android.sensor.gravity,-0.83131784,6.261744,7.50132
222,android.sensor.linear_acceleration,-0.26881784,-0.22715855,-0.6215811
222,android.sensor.accelerometer,-1.1001357,6.0345855,6.879739
226,android.sensor.accelerometer,-1.1001357,6.0345855,6.879739
226,android.sensor.gyroscope,0.15020229,-0.12676647,-0.041545313
226,android.sensor.gyroscope_uncalibrated,0.1587244,-0.13528858,-0.05219796,0.008522116,-0.008522116,-0.010652645
235,android.sensor.gyroscope_uncalibrated,0.10865697,-0.16937704,-0.03834952,0.008522116,-0.008522116,-0.010652645
235,android.sensor.gyroscope,0.10013486,-0.16085494,-0.027696876
235,android.sensor.accelerometer,-1.0702082,6.208165,6.5816603
236,android.sensor.linear_acceleration,-0.25817615,-0.24552536,-0.6050186
236,android.sensor.orientation,249.40155,-39.821136,-6.4182143
236,android.sensor.game_rotation_vector,0.340517,0.049318,0.009916,0.938891
236,android.sensor.rotation_vector,0.152472,0.308441,0.778963,0.524243,3.0
236,android.sensor.magnetic_field,42.8,-46.5,-30.0
236,android.sensor.magnetic_field_uncalibrated,5.3,1.8000001,7.3,-37.600002,48.4,37.2
236,android.sensor.gravity,-0.84195954,6.280111,7.4847574
236,android.sensor.orientation,249.40155,-39.821136,-6.4182143
236,android.sensor.magnetic_field,42.8,-46.5,-30.0
236,android.sensor.magnetic_field_uncalibrated,5.3,1.8000001,7.3,-37.600002,48.4,37.2
236,android.sensor.gyroscope_uncalibrated,0.10865697,-0.16937704,-0.03834952,0.008522116,-0.008522116,-0.010652645
236,android.sensor.game_rotation_vector,0.340517,0.049318,0.009916,0.938891
236,android.sensor.rotation_vector,0.152472,0.308441,0.778963,0.524243,3.0
236,android.sensor.accelerometer,-1.0702082,6.208165,6.5816603
236,android.sensor.gyroscope,0.10013486,-0.16085494,-0.027696876
236,android.sensor.gravity,-0.84195954,6.280111,7.4847574
236,android.sensor.linear_acceleration,-0.22824866,-0.07194567,-0.90309715
242,android.sensor.orientation,249.74496,-40.014656,-6.538878
242,android.sensor.magnetic_field,42.9,-46.600002,-29.9
242,android.sensor.gyroscope,0.058589544,-0.16405073,-0.022370555
242,android.sensor.magnetic_field_uncalibrated,5.4,1.8000001,7.5,-37.600002,48.4,37.2
242,android.sensor.gyroscope_uncalibrated,0.06711166,-0.17257284,-0.033023197,0.008522116,-0.008522116,-0.010652645
242,android.sensor.game_rotation_vector,0.342157,0.049799,0.009113,0.938277
242,android.sensor.rotation_vector,0.153591,0.309776,0.77701,0.526025,3.0
242,android.sensor.gravity,-0.85530007,6.305515,7.461853
242,android.sensor.linear_acceleration,-0.13949072,-0.15002203,-0.62161875
243,android.sensor.accelerometer,-0.9947908,6.155493,6.8402343
246,android.sensor.accelerometer,-0.9947908,6.155493,6.8402343
246,android.sensor.gyroscope,0.014913702,-0.16192019,-0.015978966
246,android.sensor.gyroscope_uncalibrated,0.023435818,-0.17044231,-0.026631612,0.008522116,-0.008522116,-0.010652645
253,android.sensor.gyroscope,-0.024501082,-0.165116,-0.010652645
253,android.sensor.gyroscope_uncalibrated,-0.015978966,-0.1736381,-0.02130529,0.008522116,-0.008522116,-0.010652645
253,android.sensor.accelerometer,-0.9624691,5.9567738,7.36217
253,android.sensor.rotation_vector,0.154469,0.311071,0.77531,0.52751,3.0
253,android.sensor.gyroscope,-0.024501082,-0.165116,-0.010652645
253,android.sensor.gyroscope_uncalibrated,-0.015978966,-0.1736381,-0.02130529,0.008522116,-0.008522116,-0.010652645
253,android.sensor.accelerometer,-0.9624691,5.9567738,7.36217
253,android.sensor.gravity,-0.8694911,6.328435,7.4407797
253,android.sensor.linear_acceleration,-0.12529969,-0.17294216,-0.6005454
253,android.sensor.magnetic_field,43.0,-46.600002,-29.7
253,android.sensor.orientation,250.0426,-40.18973,-6.665062
253,android.sensor.magnetic_field_uncalibrated,5.5,1.7,7.6,-37.600002,48.4,37.2
253,android.sensor.game_rotation_vector,0.343648,0.050324,0.008314,0.937712
255,android.sensor.accelerometer,-0.9624691,5.9567738,7.36217
256,android.sensor.gyroscope,-0.056459017,-0.16937704,-0.007456851
256,android.sensor.gyroscope_uncalibrated,-0.0479369,-0.17789917,-0.018109497,0.008522116,-0.008522116,-0.010652645
305,sound,-Infinity
