58,android.sensor.accelerometer,-3.5434184,4.3478703,8.236053
108,android.sensor.accelerometer,-3.2561142,3.3901896,7.690176
159,android.sensor.accelerometer,-3.2752678,3.2848446,7.920019
213,android.sensor.magnetic_field,9.66,14.46,-45.719997
263,android.sensor.magnetic_field,9.12,15.54,-45.12
314,android.sensor.magnetic_field,8.28,16.44,-46.02
369,android.sensor.accelerometer,-2.4037786,4.55856,9.586384
417,sound,-Infinity
469,android.sensor.accelerometer,0.36391866,2.27928,11.099519
520,android.sensor.accelerometer,0.93852705,1.685518,8.992621
570,android.sensor.accelerometer,2.0398598,1.1013328,9.998186
643,android.sensor.magnetic_field,0.84,17.94,-44.34
693,android.sensor.magnetic_field,-0.53999996,16.68,-43.86
743,android.sensor.magnetic_field,-1.38,16.38,-43.98
794,android.sensor.magnetic_field,-3.6599998,15.78,-44.82
849,android.sensor.accelerometer,-0.25857377,2.6240451,8.111555
899,android.sensor.accelerometer,0.06703765,2.4420857,8.446744
953,android.sensor.magnetic_field,-10.5,12.0,-45.3
1004,android.sensor.magnetic_field,-12.66,11.34,-44.64
1059,android.sensor.accelerometer,-0.36391866,2.96881,9.232041
1109,android.sensor.accelerometer,-0.019153614,3.3901896,8.619126
1158,android.sensor.accelerometer,1.0630256,3.1028855,8.379706
1210,android.sensor.accelerometer,0.7086837,2.5953147,9.356541
1263,android.sensor.magnetic_field,-12.48,10.86,-46.92
1314,android.sensor.magnetic_field,-13.08,10.26,-47.1
1369,android.sensor.accelerometer,-0.94810385,3.323152,9.595961
1417,sound,-Infinity
1470,android.sensor.accelerometer,-1.388637,2.0590134,11.712435
1524,android.sensor.magnetic_field,-14.16,10.62,-44.04
1573,android.sensor.magnetic_field,-16.38,9.48,-44.46
1623,android.sensor.magnetic_field,-18.779999,9.059999,-44.1
1679,android.sensor.accelerometer,1.0247183,2.0685902,9.80665
1729,android.sensor.accelerometer,1.7621324,2.6144683,9.126697
1779,android.sensor.accelerometer,1.7812861,2.834735,8.781932
1834,android.sensor.magnetic_field,-23.699999,10.38,-41.579998
1879,android.sensor.accelerometer,0.41180268,2.5761611,9.56723
1933,android.sensor.magnetic_field,-23.1,11.46,-40.559998
1988,android.sensor.accelerometer,3.169923,2.834735,10.218452
2080,android.sensor.accelerometer,0.34476504,2.815581,8.331821
2091,android.sensor.accelerometer,4.9703627,2.3750482,7.52737
2138,android.sensor.accelerometer,5.6407394,2.72939,5.2863975
2188,android.sensor.accelerometer,6.8569937,3.6966474,3.8881836
2238,android.sensor.accelerometer,7.038953,3.7732618,4.0892963
2292,android.sensor.magnetic_field,-42.48,5.64,-21.06
2342,android.sensor.magnetic_field,-44.219997,6.7799997,-17.88
2392,android.sensor.magnetic_field,-45.239998,10.5,-14.34
2448,android.sensor.accelerometer,11.9614315,2.72939,4.6926355
2500,android.sensor.accelerometer,9.892841,2.4133554,1.8962077
2548,android.sensor.accelerometer,8.571242,0.90979666,5.2959743
2598,android.sensor.accelerometer,8.801085,0.16280572,5.6790466
2648,android.sensor.accelerometer,7.632715,0.19153613,3.0358477
2702,android.sensor.magnetic_field,-40.079998,22.859999,-9.3
2754,android.sensor.magnetic_field,-38.64,24.72,-9.0
2802,android.sensor.magnetic_field,-38.219997,26.519999,-8.82
2852,android.sensor.magnetic_field,-37.32,27.96,-9.059999
2902,android.sensor.magnetic_field,-35.76,28.08,-10.74
2958,android.sensor.accelerometer,11.224017,-0.89064306,0.81402856
3008,android.sensor.accelerometer,10.093954,-0.63206923,1.0821792
3058,android.sensor.accelerometer,9.988609,-0.45010993,1.9057846
3108,android.sensor.accelerometer,10.01734,-0.16280572,2.5091233
3158,android.sensor.accelerometer,10.907983,-1.3215994,3.8594532
3218,android.sensor.accelerometer,10.620679,-2.2122424,7.52737
3263,android.sensor.magnetic_field,-32.1,21.66,-24.6
3312,android.sensor.magnetic_field,-30.359999,19.32,-29.16
3363,android.sensor.magnetic_field,-27.84,16.68,-34.2
3412,android.sensor.magnetic_field,-26.099998,15.599999,-34.92
3462,android.sensor.magnetic_field,-25.32,15.299999,-35.76
3513,android.sensor.magnetic_field,-24.119999,10.38,-38.52
3563,android.sensor.magnetic_field,-22.199999,5.52,-41.579998
3619,android.sensor.accelerometer,3.7924154,2.2888567,4.8267107
3668,android.sensor.accelerometer,4.0701427,1.8579005,3.6966474
3718,android.sensor.accelerometer,4.5394063,0.8714894,3.3901896
3768,android.sensor.accelerometer,6.8186865,0.11492168,2.4037786
3821,android.sensor.accelerometer,10.400413,-0.6991069,8.858546
3873,android.sensor.magnetic_field,-15.78,7.02,-46.32
3923,android.sensor.magnetic_field,-15.12,10.86,-45.899998
3978,android.sensor.accelerometer,14.355634,-4.644751,8.743625
4028,android.sensor.accelerometer,9.969456,-5.267244,7.019799
4079,android.sensor.accelerometer,7.6135616,-4.4819455,7.8912888
4128,android.sensor.accelerometer,2.6527755,-1.8387469,3.8498764
4179,android.sensor.accelerometer,0.22984336,-1.8100165,2.5378537
4232,android.sensor.magnetic_field,-12.24,8.82,-46.379997
4283,android.sensor.magnetic_field,-12.36,9.42,-48.12
4338,android.sensor.accelerometer,9.825804,-4.3382936,4.4340615
4388,android.sensor.accelerometer,13.43626,-5.9663506,10.630256
4440,android.sensor.accelerometer,7.52737,-6.8186865,5.3342814
4492,android.sensor.magnetic_field,-11.34,22.38,-41.399998
4542,android.sensor.magnetic_field,-9.599999,21.3,-43.14
4592,android.sensor.magnetic_field,-8.639999,19.68,-45.42
4642,android.sensor.magnetic_field,-9.78,17.94,-46.379997
4698,android.sensor.accelerometer,7.3549876,-3.4572272,4.060566
4749,android.sensor.accelerometer,8.054094,-3.763685,4.5872903
4798,android.sensor.accelerometer,9.672575,-4.0701427,5.7748146
4849,android.sensor.accelerometer,10.67814,-4.912902,6.0046577
4902,android.sensor.magnetic_field,-19.5,18.24,-40.559998
4952,android.sensor.magnetic_field,-20.64,17.64,-40.98
5002,android.sensor.magnetic_field,-21.72,16.68,-42.48
5058,android.sensor.accelerometer,5.8705826,-5.707777,8.073248
5108,android.sensor.accelerometer,6.799533,-4.510676,5.046977
5158,android.sensor.accelerometer,5.2002063,-3.7062242,12.315774
5208,android.sensor.accelerometer,7.335834,-1.0247183,3.8786068
5259,android.sensor.accelerometer,10.486604,-1.3120226,5.793968
5314,android.sensor.magnetic_field,-18.84,-3.1799998,-47.579998
5363,android.sensor.magnetic_field,-17.88,-4.2,-47.76
5413,android.sensor.magnetic_field,-18.66,-0.29999998,-47.879997
5463,android.sensor.orientation,161.14063,26.15625,9.046875
5519,android.sensor.accelerometer,13.599066,-7.0485296,17.496826
5568,android.sensor.accelerometer,9.56723,-8.456321,9.873688
5629,android.sensor.accelerometer,8.513782,-6.081272,5.659893
5678,android.sensor.accelerometer,4.7500963,-1.4077905,0.7374141
5728,android.sensor.accelerometer,1.0055647,-1.3024458,3.6391866
5778,android.sensor.accelerometer,1.340753,-4.31914,2.0015526
5829,android.sensor.magnetic_field,-11.16,21.0,-42.6
5878,android.sensor.accelerometer,5.353435,-5.7843914,0.4405331
5930,android.sensor.accelerometer,1.9057846,-3.620033,-1.0534488
5983,android.sensor.magnetic_field,-1.3199999,37.86,-21.84
6032,android.sensor.magnetic_field,9.66,40.86,-15.599999
6083,android.sensor.magnetic_field,16.98,37.559998,-21.06
6133,android.sensor.magnetic_field,18.0,34.92,-26.16
6189,android.sensor.accelerometer,-1.6950948,-9.356541,2.681506
6239,android.sensor.accelerometer,-2.27928,-10.879252,-5.8322754
6288,android.sensor.accelerometer,-0.4405331,-9.653421,-0.63206923
6338,android.sensor.accelerometer,-0.80445176,-10.01734,-0.5746084
6389,android.sensor.accelerometer,-0.92895025,-9.835381,-0.50757074
6443,android.sensor.magnetic_field,15.719999,37.62,-19.439999
6493,android.sensor.magnetic_field,15.36,37.8,-19.98
6543,android.sensor.magnetic_field,15.66,38.46,-20.64
6598,android.sensor.accelerometer,2.0973208,-11.070788,4.5202527
6648,android.sensor.accelerometer,-1.6184803,-10.113108,-8.073248
6706,android.sensor.magnetic_field,15.299999,36.36,-22.98
6748,android.sensor.accelerometer,0.51714754,-10.46745,2.5187001
6798,android.sensor.accelerometer,0.8523358,-9.5385,1.4269443
6848,android.sensor.accelerometer,0.095768064,-8.90643,0.91937345
6899,android.sensor.accelerometer,0.25857377,-9.787497,0.4405331
6953,android.sensor.magnetic_field,7.02,39.3,-22.859999
7002,android.sensor.magnetic_field,6.8399997,39.059998,-22.56
7053,android.sensor.magnetic_field,6.06,38.52,-23.519999
7103,android.sensor.magnetic_field,5.8799996,38.399998,-23.939999
7159,android.sensor.accelerometer,0.90021986,-9.883265,0.1340753
7208,android.sensor.accelerometer,1.283292,-9.911995,-0.21068975
7258,android.sensor.accelerometer,0.91937345,-9.576807,0.16280572
7308,android.sensor.accelerometer,1.13964,-9.9790325,-0.40222588
7358,android.sensor.accelerometer,1.3311762,-9.9790325,-0.46926352
7409,android.sensor.accelerometer,1.1204864,-9.835381,-0.076614454
7463,android.sensor.magnetic_field,7.2599998,40.079998,-21.48
7513,android.sensor.magnetic_field,7.08,39.12,-20.82
7563,android.sensor.magnetic_field,8.28,39.42,-20.46
7614,android.sensor.magnetic_field,7.98,39.42,-20.52
7668,android.sensor.accelerometer,1.1683705,-9.77792,-0.30645782
7718,android.sensor.accelerometer,1.13964,-9.672575,-0.23942018
7768,android.sensor.accelerometer,1.1683705,-9.864111,-0.37349546
7818,android.sensor.accelerometer,1.1779473,-9.825804,-0.33518824
7869,android.sensor.accelerometer,1.1875241,-9.797073,-0.34476504
7923,android.sensor.magnetic_field,7.2599998,39.059998,-19.859999
7983,android.sensor.magnetic_field,6.96,39.059998,-19.74
8028,android.sensor.accelerometer,1.2545617,-9.768343,-0.5554548
8078,android.sensor.accelerometer,1.2258313,-9.730036,-0.41180268
8130,android.sensor.accelerometer,1.1875241,-9.950302,-0.48841715
8183,android.sensor.magnetic_field,6.72,40.14,-19.439999
8233,android.sensor.magnetic_field,6.8399997,40.02,-20.46
8289,android.sensor.accelerometer,1.1204864,-9.758766,-0.45968673
8339,android.sensor.accelerometer,1.1683705,-9.825804,-0.5363012
8389,android.sensor.accelerometer,1.2066777,-9.911995,-0.5363012
8438,android.sensor.accelerometer,1.1683705,-9.873688,-0.5650316
8489,android.sensor.accelerometer,1.1204864,-9.816227,-0.5363012
8543,android.sensor.magnetic_field,6.6,40.02,-19.68
8593,android.sensor.magnetic_field,6.8399997,39.899998,-20.279999
8643,android.sensor.magnetic_field,7.5,40.2,-21.06
8694,android.sensor.magnetic_field,7.8599997,39.899998,-21.0
8757,android.sensor.accelerometer,1.1683705,-9.873688,-0.48841715
9098,android.sensor.accelerometer,1.1875241,-9.739613,-0.47884035
9100,android.sensor.accelerometer,1.1587936,-9.883265,-0.50757074
9158,android.sensor.accelerometer,1.13964,-9.825804,-0.51714754
9208,android.sensor.accelerometer,1.1300632,-9.864111,-0.48841715
9258,android.sensor.accelerometer,1.1013328,-9.816227,-0.49799395
9308,android.sensor.accelerometer,1.1013328,-9.825804,-0.46926352
9357,android.sensor.accelerometer,1.1013328,-9.835381,-0.45968673
9412,android.sensor.magnetic_field,6.24,40.98,-14.5199995
9464,android.sensor.magnetic_field,6.48,40.86,-13.799999
9513,android.sensor.magnetic_field,6.3599997,41.219997,-14.099999
9570,android.sensor.accelerometer,1.1587936,-9.816227,-0.49799395
9612,android.sensor.gravity,1.1168685,-9.724928,-0.47671217
9663,android.sensor.magnetic_field,5.8799996,40.32,-13.259999
9718,android.sensor.accelerometer,1.1013328,-9.758766,-0.4405331
9768,android.sensor.accelerometer,1.13964,-9.844957,-0.48841715
9818,android.sensor.accelerometer,1.1779473,-9.873688,-0.51714754
9868,android.sensor.accelerometer,1.1587936,-9.883265,-0.51714754
9918,sound,-Infinity
9973,android.sensor.magnetic_field,6.48,41.1,-13.86
10023,android.sensor.magnetic_field,6.06,40.92,-13.559999
10074,android.sensor.magnetic_field,6.06,41.16,-14.639999
10123,android.sensor.linear_acceleration,0.027240695,-0.14982383,0.0
10178,android.sensor.accelerometer,1.1300632,-9.720459,-0.41180268
10228,android.sensor.accelerometer,1.13964,-9.80665,-0.36391866
10278,android.sensor.accelerometer,1.1109096,-9.77792,-0.41180268
10328,android.sensor.accelerometer,1.1492168,-9.864111,-0.4213795
10378,android.sensor.accelerometer,1.1587936,-9.844957,-0.51714754
10434,android.sensor.magnetic_field,6.12,40.86,-14.04
10483,android.sensor.magnetic_field,6.12,41.94,-14.46
10534,android.sensor.magnetic_field,6.12,41.28,-14.16
10583,android.sensor.orientation,221.92188,97.34375,6.953125
10638,android.sensor.accelerometer,1.1971009,-9.825804,-0.4405331
10688,android.sensor.accelerometer,1.2066777,-9.825804,-0.4309563
10738,android.sensor.accelerometer,1.1779473,-9.80665,-0.4405331
10788,android.sensor.accelerometer,1.2066777,-9.873688,-0.4405331
10838,android.sensor.accelerometer,1.2162545,-9.864111,-0.5363012
10889,android.sensor.accelerometer,1.0821792,-9.662998,-0.23942018
10944,android.sensor.magnetic_field,5.94,40.739998,-14.219999
10995,android.sensor.magnetic_field,6.6,40.26,-14.219999
11044,android.sensor.magnetic_field,6.06,40.14,-14.099999
11095,android.sensor.magnetic_field,5.7,40.44,-14.04
11150,android.sensor.accelerometer,1.1300632,-9.873688,-0.46926352
11200,android.sensor.accelerometer,1.1587936,-9.768343,-0.46926352
11250,android.sensor.accelerometer,1.1300632,-9.835381,-0.4405331
11301,android.sensor.accelerometer,1.0821792,-9.816227,-0.37349546
11354,android.sensor.magnetic_field,6.8999996,40.68,-14.16
11405,android.sensor.magnetic_field,6.42,39.899998,-14.34
11457,android.sensor.magnetic_field,6.24,40.2,-14.639999
11509,android.sensor.accelerometer,1.1779473,-9.787497,-0.37349546
11559,android.sensor.accelerometer,1.13964,-9.825804,-0.38307226
11611,android.sensor.accelerometer,1.1683705,-9.844957,-0.4213795
11665,android.sensor.magnetic_field,5.8799996,41.04,-15.12
11715,android.sensor.accelerometer,1.1492168,-9.816227,-0.40222588
11770,android.sensor.accelerometer,1.1492168,-9.835381,-0.4213795
11823,android.sensor.accelerometer,1.1109096,-9.864111,-0.38307226
11873,android.sensor.magnetic_field,5.7,40.5,-14.219999
11925,android.sensor.magnetic_field,6.06,40.559998,-14.219999
11974,android.sensor.magnetic_field,5.04,40.5,-14.34
12031,android.sensor.accelerometer,1.1492168,-9.816227,-0.46926352
12082,android.sensor.accelerometer,1.1109096,-9.854534,-0.46926352
12130,android.sensor.accelerometer,1.1492168,-9.854534,-0.45968673
12181,android.sensor.magnetic_field,6.12,40.86,-13.559999
12235,android.sensor.magnetic_field,6.06,40.68,-14.82
12285,android.sensor.magnetic_field,6.24,40.44,-14.34
12344,android.sensor.accelerometer,1.1875241,-9.787497,-0.4405331
12390,android.sensor.accelerometer,1.1779473,-9.797073,-0.5554548
12439,android.sensor.accelerometer,1.1587936,-9.825804,-0.59376204
12490,android.sensor.accelerometer,1.1587936,-9.80665,-0.49799395
12546,android.sensor.magnetic_field,5.7,41.16,-14.5199995
12594,android.sensor.magnetic_field,5.3399997,40.68,-13.559999
12646,android.sensor.magnetic_field,5.2799997,40.44,-13.86
12699,android.sensor.accelerometer,1.1683705,-9.797073,-0.51714754
12752,android.sensor.magnetic_field,5.64,40.98,-14.219999
12803,android.sensor.magnetic_field,6.0,40.5,-13.86
12853,android.sensor.magnetic_field,6.06,40.2,-13.32
12905,android.sensor.magnetic_field,5.7599998,40.02,-13.559999
12955,android.sensor.magnetic_field,5.4,40.26,-13.86
13010,android.sensor.accelerometer,1.2354081,-9.844957,-0.641646
13063,android.sensor.accelerometer,1.2354081,-9.844957,-0.63206923
13110,android.sensor.accelerometer,1.2449849,-9.80665,-0.58418524
13165,android.sensor.magnetic_field,6.0,40.8,-13.74
13215,android.sensor.magnetic_field,5.8799996,41.219997,-13.08
13265,android.sensor.magnetic_field,5.7,41.399998,-13.38
13321,android.sensor.accelerometer,1.2545617,-9.816227,-0.5746084
13370,android.sensor.accelerometer,1.2066777,-9.80665,-0.5554548
13423,android.sensor.magnetic_field,5.7,40.86,-14.82
13474,android.sensor.magnetic_field,5.64,40.8,-16.14
13526,android.sensor.magnetic_field,5.8199997,40.14,-16.56
13574,android.sensor.magnetic_field,6.0,39.84,-16.859999
13630,android.sensor.accelerometer,1.1971009,-9.816227,-0.58418524
13680,android.sensor.accelerometer,1.2258313,-9.854534,-0.60333884
13729,android.sensor.accelerometer,1.1971009,-9.80665,-0.59376204
13779,android.sensor.accelerometer,1.2258313,-9.854534,-0.545878
13845,android.sensor.magnetic_field,5.52,41.34,-18.6
13883,android.sensor.magnetic_field,6.12,41.82,-19.439999
13934,android.sensor.magnetic_field,6.6,40.68,-19.26
13985,android.sensor.magnetic_field,6.48,39.96,-18.9
14039,android.sensor.accelerometer,1.2066777,-9.77792,-0.46926352
14088,android.sensor.accelerometer,1.2354081,-9.80665,-0.51714754
14138,android.sensor.accelerometer,1.2258313,-9.835381,-0.46926352
14188,android.sensor.accelerometer,1.1971009,-9.80665,-0.47884035
14243,android.sensor.linear_acceleration,0.027240695,-0.10896278,0.068101734
14299,android.sensor.accelerometer,1.2066777,-9.787497,-0.4405331
14348,android.sensor.magnetic_field,6.8999996,40.98,-19.859999
14401,android.sensor.accelerometer,1.2258313,-9.825804,-0.48841715
14450,android.sensor.accelerometer,1.2258313,-9.797073,-0.47884035
14503,android.sensor.magnetic_field,5.7,40.32,-15.48
14554,android.sensor.magnetic_field,5.8799996,40.32,-16.619999
14609,android.sensor.accelerometer,1.2258313,-9.80665,-0.46926352
14658,android.sensor.accelerometer,1.1875241,-9.825804,-0.47884035
14708,android.sensor.accelerometer,1.1875241,-9.797073,-0.45968673
14758,android.sensor.accelerometer,1.1971009,-9.835381,-0.48841715
14808,android.sensor.accelerometer,1.1875241,-9.825804,-0.49799395
14863,android.sensor.magnetic_field,7.2,39.48,-18.42
14914,android.sensor.magnetic_field,6.48,38.76,-18.48
14963,android.sensor.magnetic_field,5.4,38.94,-19.08
15017,android.sensor.magnetic_field,5.4,38.94,-19.74
15064,android.sensor.magnetic_field,5.4,40.379997,-19.619999
15115,android.sensor.magnetic_field,5.7,41.64,-18.18
15169,android.sensor.accelerometer,1.1971009,-9.835381,-0.5267244
15219,android.sensor.accelerometer,1.2066777,-9.864111,-0.51714754
15270,android.sensor.accelerometer,1.1683705,-9.797073,-0.5363012
15323,android.sensor.magnetic_field,6.0,38.82,-19.619999
15374,android.sensor.magnetic_field,5.2799997,39.059998,-19.26
15425,android.sensor.magnetic_field,5.52,39.84,-19.439999
15478,android.sensor.magnetic_field,5.8799996,41.04,-18.18
15526,android.sensor.magnetic_field,6.24,41.1,-15.059999
15580,android.sensor.accelerometer,1.1587936,-9.825804,-0.5554548
15630,android.sensor.accelerometer,1.1587936,-9.892841,-0.545878
15683,android.sensor.magnetic_field,7.2,40.26,-17.46
15733,android.sensor.magnetic_field,6.54,40.8,-15.839999
15789,android.sensor.accelerometer,1.13964,-9.864111,-0.50757074
15839,android.sensor.accelerometer,1.1204864,-9.787497,-0.47884035
15891,android.sensor.accelerometer,1.1300632,-9.80665,-0.47884035
15939,android.sensor.accelerometer,1.13964,-9.77792,-0.47884035
15991,android.sensor.accelerometer,1.1300632,-9.77792,-0.47884035
16044,android.sensor.magnetic_field,5.8799996,40.8,-15.66
16094,android.sensor.magnetic_field,6.2999997,39.96,-17.64
16150,android.sensor.accelerometer,1.1683705,-9.854534,-0.5746084
16200,android.sensor.accelerometer,1.1587936,-9.825804,-0.545878
16250,android.sensor.accelerometer,1.1587936,-9.835381,-0.5554548
16300,android.sensor.accelerometer,1.1492168,-9.80665,-0.51714754
16357,android.sensor.accelerometer,1.1300632,-9.844957,-0.5363012
16404,android.sensor.accelerometer,1.1587936,-9.816227,-0.5267244
16454,android.sensor.magnetic_field,6.2999997,40.739998,-15.059999
16510,android.sensor.accelerometer,1.1492168,-9.835381,-0.5267244
16560,android.sensor.accelerometer,1.13964,-9.787497,-0.49799395
16614,android.sensor.magnetic_field,5.7,40.559998,-15.24
16663,android.sensor.magnetic_field,6.42,40.44,-16.14
16713,android.sensor.magnetic_field,6.48,40.559998,-13.5
16769,android.sensor.accelerometer,1.1492168,-9.816227,-0.48841715
16815,android.sensor.magnetic_field,6.12,40.92,-14.58
16870,android.sensor.accelerometer,1.1300632,-9.816227,-0.49799395
16919,android.sensor.accelerometer,1.1300632,-9.797073,-0.46926352
16970,android.sensor.accelerometer,1.1492168,-9.844957,-0.48841715
17027,android.sensor.magnetic_field,6.06,40.559998,-16.14
17074,android.sensor.magnetic_field,6.7799997,39.66,-19.5
17130,android.sensor.accelerometer,1.1587936,-9.80665,-0.48841715
17180,android.sensor.accelerometer,1.1492168,-9.77792,-0.46926352
17231,android.sensor.accelerometer,1.1875241,-9.844957,-0.5267244
17284,android.sensor.magnetic_field,7.08,40.32,-18.119999
17335,android.sensor.magnetic_field,7.02,40.62,-16.619999
17391,android.sensor.accelerometer,1.1683705,-9.816227,-0.48841715
17445,android.sensor.accelerometer,1.1779473,-9.825804,-0.49799395
17490,android.sensor.accelerometer,1.1492168,-9.80665,-0.48841715
17543,android.sensor.magnetic_field,5.8199997,40.739998,-14.219999
17595,android.sensor.magnetic_field,6.72,41.1,-16.44
17645,android.sensor.magnetic_field,7.3199997,41.04,-15.179999
17701,android.sensor.accelerometer,1.1492168,-9.80665,-0.46926352
17749,android.sensor.accelerometer,1.1587936,-9.80665,-0.49799395
17801,android.sensor.accelerometer,1.1779473,-9.816227,-0.47884035
17853,android.sensor.magnetic_field,6.06,40.68,-15.12
17903,android.sensor.magnetic_field,6.12,40.2,-16.14
17953,android.sensor.magnetic_field,5.2799997,40.44,-16.08
18009,android.sensor.accelerometer,1.1779473,-9.835381,-0.46926352
18058,android.sensor.accelerometer,1.1875241,-9.797073,-0.48841715
18113,android.sensor.accelerometer,1.1971009,-9.835381,-0.47884035
18159,android.sensor.accelerometer,1.1587936,-9.816227,-0.47884035
18210,android.sensor.accelerometer,1.1875241,-9.825804,-0.46926352
18264,android.sensor.magnetic_field,7.02,40.44,-17.4
18314,android.sensor.magnetic_field,5.52,40.92,-14.34
18364,android.sensor.magnetic_field,5.7,40.44,-15.66
18415,android.sensor.magnetic_field,6.12,41.34,-15.66
18466,android.sensor.magnetic_field,6.12,41.28,-14.5199995
18519,android.sensor.accelerometer,1.1875241,-9.816227,-0.50757074
18574,android.sensor.accelerometer,1.2162545,-9.835381,-0.5363012
18621,android.sensor.accelerometer,1.1683705,-9.80665,-0.50757074
18677,android.sensor.magnetic_field,6.06,40.86,-13.559999
18726,android.sensor.magnetic_field,5.8199997,40.98,-12.96
18775,android.sensor.magnetic_field,6.0,40.8,-13.559999
18829,android.sensor.accelerometer,1.2258313,-9.797073,-0.50757074
18879,android.sensor.accelerometer,1.2066777,-9.844957,-0.5267244
18930,android.sensor.accelerometer,1.2258313,-9.835381,-0.5650316
18980,android.sensor.accelerometer,1.2545617,-9.825804,-0.5554548
19031,android.sensor.accelerometer,1.2066777,-9.835381,-0.5650316
19085,android.sensor.magnetic_field,4.8599997,41.28,-14.34
19140,android.sensor.accelerometer,1.2545617,-9.825804,-0.5554548
19183,android.sensor.magnetic_field,5.52,40.739998,-15.54
19236,android.sensor.magnetic_field,5.8199997,40.68,-14.58
19290,android.sensor.accelerometer,1.2258313,-9.825804,-0.50757074
19340,android.sensor.accelerometer,1.2545617,-9.825804,-0.49799395
19391,android.sensor.accelerometer,1.1779473,-9.864111,-0.45968673
19445,android.sensor.magnetic_field,6.42,40.559998,-13.559999
19493,android.sensor.linear_acceleration,-0.16344418,-0.12258312,0.17706451
19551,android.sensor.accelerometer,0.63206923,-9.768343,-0.2777274
19600,android.sensor.accelerometer,0.5554548,-9.80665,-0.05746084
19649,android.sensor.accelerometer,0.90021986,-9.854534,-0.32561144
19705,android.sensor.magnetic_field,6.8399997,40.379997,-15.24
19752,android.sensor.accelerometer,1.091756,-9.825804,-0.34476504
19803,android.sensor.magnetic_field,8.28,40.739998,-13.799999
19858,android.sensor.accelerometer,0.93852705,-10.065224,-0.31603462
19908,android.sensor.accelerometer,0.9672575,-10.065224,-0.48841715
19958,android.sensor.accelerometer,1.1587936,-9.998186,-0.50757074
20008,android.sensor.accelerometer,1.3599066,-9.825804,-0.095768064
20058,android.sensor.accelerometer,1.13964,-9.500193,-0.10534488
20110,android.sensor.accelerometer,1.13964,-9.787497,-0.35434186
20164,android.sensor.magnetic_field,10.98,39.78,-12.84
20214,android.sensor.magnetic_field,10.86,40.92,-10.74
20263,android.sensor.magnetic_field,10.32,40.92,-10.62
20323,android.sensor.accelerometer,1.2737153,-9.662998,-0.2777274
20370,android.sensor.accelerometer,1.2545617,-9.32781,-0.29688102
20419,android.sensor.accelerometer,1.3790601,-9.653421,-0.45010993
20470,android.sensor.accelerometer,1.934515,-9.739613,-0.58418524
20521,android.sensor.accelerometer,2.4037786,-9.5385,-0.7086837
20574,android.sensor.magnetic_field,6.66,41.34,-7.62
20625,android.sensor.magnetic_field,6.66,41.52,-8.22
20678,android.sensor.accelerometer,2.1164744,-9.816227,-1.4556746
20728,android.sensor.accelerometer,1.5131354,-9.768343,-1.3503298
20783,android.sensor.magnetic_field,3.72,41.1,-10.2
20833,android.sensor.magnetic_field,4.2599998,40.86,-12.24
20884,android.sensor.magnetic_field,4.3199997,41.579998,-9.48
20934,android.sensor.magnetic_field,3.3,41.879997,-9.42
20986,android.sensor.magnetic_field,3.36,42.059998,-9.54
21040,android.sensor.accelerometer,1.6089035,-9.624691,-1.5801731
21090,android.sensor.accelerometer,1.8195933,-9.682152,-1.5993267
21140,android.sensor.accelerometer,1.7717092,-9.682152,-1.5610195
21196,android.sensor.magnetic_field,2.52,41.7,-9.9
21243,android.sensor.magnetic_field,2.04,41.879997,-8.82
21298,android.sensor.accelerometer,1.9153614,-9.557653,-1.3599066
21349,android.sensor.accelerometer,2.030283,-9.701305,-1.4652514
21399,android.sensor.accelerometer,1.982399,-9.3182335,-1.283292
21450,android.sensor.accelerometer,1.8674773,-9.825804,-1.6663644
21500,android.sensor.accelerometer,1.9057846,-9.481039,-1.4173675
21550,android.sensor.accelerometer,2.1068976,-9.710882,-1.4939818
21605,android.sensor.magnetic_field,2.22,42.899998,-9.3
21656,android.sensor.accelerometer,1.9249382,-9.653421,-1.3694834
21709,android.sensor.accelerometer,1.982399,-9.56723,-1.3215994
21759,android.sensor.accelerometer,2.0015526,-9.643845,-1.4460979
21809,android.sensor.accelerometer,2.030283,-9.634268,-1.436521
21868,android.sensor.magnetic_field,2.46,41.579998,-11.219999
21911,android.sensor.accelerometer,1.9249382,-9.615114,-1.4173675
21965,android.sensor.magnetic_field,1.74,42.66,-9.42
22019,android.sensor.accelerometer,1.8962077,-9.662998,-1.4556746
22064,android.sensor.magnetic_field,2.76,42.12,-11.219999
22117,android.sensor.magnetic_field,2.7,41.399998,-10.98
22169,android.sensor.accelerometer,1.8962077,-9.691729,-1.388637
22220,android.sensor.accelerometer,1.8195933,-9.56723,-1.283292
22275,android.sensor.magnetic_field,5.22,40.98,-13.799999
22321,android.sensor.accelerometer,1.6376339,-9.682152,-1.388637
22374,android.sensor.magnetic_field,3.06,40.92,-13.44
22424,android.sensor.magnetic_field,3.84,40.8,-12.78
22475,android.sensor.magnetic_field,3.9599998,41.64,-10.679999
22530,android.sensor.accelerometer,1.7908629,-9.797073,-1.541866
22580,android.sensor.magnetic_field,3.6599998,42.059998,-9.0
22630,android.sensor.accelerometer,1.6663644,-9.682152,-1.4556746
22683,android.sensor.magnetic_field,4.44,41.399998,-12.3
22733,android.sensor.magnetic_field,5.04,40.92,-12.719999
22783,android.sensor.magnetic_field,4.5,41.219997,-11.88
22833,android.sensor.orientation,223.0,103.046875,9.640625
22889,android.sensor.accelerometer,1.5801731,-9.691729,-1.532289
22939,android.sensor.accelerometer,1.5514427,-9.643845,-1.3790601
22989,android.sensor.accelerometer,1.532289,-9.691729,-1.4269443
23044,android.sensor.magnetic_field,4.14,40.86,-11.88
23094,android.sensor.magnetic_field,4.14,42.12,-9.24
23146,android.sensor.magnetic_field,4.14,42.18,-8.5199995
23195,android.sensor.magnetic_field,4.3199997,41.94,-9.36
23245,android.sensor.orientation,224.60938,102.328125,8.984375
23300,android.sensor.accelerometer,1.532289,-9.701305,-1.4269443
23350,android.sensor.accelerometer,1.541866,-9.672575,-1.3790601
23402,android.sensor.accelerometer,1.5514427,-9.691729,-1.436521
23458,android.sensor.magnetic_field,4.5,42.78,-8.7
23505,android.sensor.magnetic_field,4.68,41.399998,-9.66
23559,android.sensor.accelerometer,1.4652514,-9.701305,-1.4077905
23609,android.sensor.accelerometer,1.4652514,-9.710882,-1.388637
23662,android.sensor.accelerometer,1.4269443,-9.720459,-1.4077905
23715,android.sensor.magnetic_field,5.1,40.92,-11.5199995
23765,android.sensor.magnetic_field,5.1,42.12,-9.0
23815,android.sensor.magnetic_field,5.7599998,42.42,-8.88
23870,android.sensor.accelerometer,1.3790601,-9.720459,-1.388637
23920,sound,-Infinity
23974,android.sensor.magnetic_field,5.1,41.7,-11.639999
24025,android.sensor.magnetic_field,5.46,42.18,-11.82
24076,android.sensor.magnetic_field,5.7,41.82,-9.54
24129,android.sensor.accelerometer,1.3024458,-9.682152,-1.3694834
24186,android.sensor.magnetic_field,6.12,41.579998,-10.559999
24236,android.sensor.magnetic_field,5.94,42.18,-8.82
24284,android.sensor.magnetic_field,5.4,41.1,-9.66
24341,android.sensor.accelerometer,1.340753,-9.758766,-1.388637
24394,android.sensor.accelerometer,1.3503298,-9.749189,-1.3599066
24440,android.sensor.accelerometer,1.340753,-9.710882,-1.3599066
24491,android.sensor.accelerometer,1.3503298,-9.682152,-1.3599066
24544,android.sensor.magnetic_field,5.2799997,41.7,-9.66
24594,android.sensor.magnetic_field,6.2999997,40.86,-12.96
24650,android.sensor.accelerometer,1.6184803,-9.691729,-1.3599066
24700,android.sensor.accelerometer,1.5514427,-9.682152,-1.3024458
24749,android.sensor.accelerometer,1.4652514,-9.701305,-1.283292
24804,android.sensor.magnetic_field,5.8199997,41.04,-11.16
24854,android.sensor.magnetic_field,5.8799996,41.46,-10.139999
24916,sound,-Infinity
24968,android.sensor.accelerometer,1.4748282,-9.710882,-1.3311762
25018,android.sensor.accelerometer,1.4460979,-9.749189,-1.3215994
25073,android.sensor.magnetic_field,5.46,42.239998,-11.28
25126,android.sensor.magnetic_field,6.72,41.64,-10.5
25174,android.sensor.magnetic_field,5.94,42.239998,-9.059999
25229,android.sensor.accelerometer,1.541866,-9.691729,-1.3120226
25275,android.sensor.magnetic_field,6.0,42.36,-10.98
25330,android.sensor.accelerometer,1.5705963,-9.720459,-1.3215994
25379,android.sensor.accelerometer,1.6376339,-9.730036,-1.3503298
25431,android.sensor.accelerometer,1.5993267,-9.720459,-1.3215994
25484,android.sensor.magnetic_field,5.58,42.18,-11.5199995
25533,android.sensor.magnetic_field,5.8799996,41.219997,-13.5
25584,android.sensor.magnetic_field,5.52,41.34,-14.04
25635,android.sensor.magnetic_field,5.04,41.7,-10.44
25688,android.sensor.accelerometer,1.3215994,-9.758766,-1.2162545
25739,android.sensor.accelerometer,1.388637,-9.758766,-1.2354081
25789,android.sensor.accelerometer,1.2354081,-9.691729,-1.1779473
25839,android.sensor.accelerometer,1.2641385,-9.672575,-1.1875241
25892,android.sensor.accelerometer,1.2258313,-9.691729,-1.2449849
25946,android.sensor.magnetic_field,7.2599998,41.399998,-10.8
25995,android.sensor.magnetic_field,7.14,42.0,-9.42
26050,android.sensor.accelerometer,1.283292,-9.825804,-1.3311762
26099,android.sensor.accelerometer,1.5227122,-9.988609,-1.4460979
26154,android.sensor.accelerometer,1.5514427,-9.883265,-1.3311762
26201,android.sensor.accelerometer,1.283292,-9.749189,-1.3503298
26251,android.sensor.accelerometer,1.2354081,-9.835381,-1.3982137
26306,android.sensor.magnetic_field,5.7,42.719997,-10.92
26370,android.sensor.accelerometer,1.283292,-9.883265,-1.3599066
26408,android.sensor.accelerometer,1.2449849,-10.0269165,-1.1587936
26458,android.sensor.accelerometer,1.1013328,-9.749189,-1.0726024
26508,android.sensor.accelerometer,0.9864111,-9.615114,-1.1587936
26559,android.sensor.accelerometer,0.8810662,-9.921572,-1.3024458
26614,android.sensor.accelerometer,0.7374141,-10.25676,-1.1109096
26663,android.sensor.magnetic_field,-0.24,41.1,-12.599999
26714,android.sensor.magnetic_field,-0.06,40.92,-14.219999
26764,android.sensor.magnetic_field,-0.24,40.32,-15.599999
26813,android.sensor.linear_acceleration,0.38136974,0.095342435,0.51757324
26870,android.sensor.accelerometer,0.94810385,-9.634268,-0.39264908
26918,sound,-Infinity
26970,android.sensor.accelerometer,0.9959879,-9.892841,-0.2873042
27022,android.sensor.accelerometer,1.1204864,-9.557653,0.18195933
27071,android.sensor.accelerometer,1.1109096,-9.509769,-0.10534488
27124,android.sensor.magnetic_field,-1.14,39.96,-17.58
27179,android.sensor.accelerometer,1.292869,-9.797073,0.08619126
27225,android.sensor.magnetic_field,-0.48,38.34,-23.46
27279,android.sensor.accelerometer,0.82360536,-10.084377,0.1436521
27329,android.sensor.accelerometer,1.283292,-9.662998,0.08619126
27379,android.sensor.accelerometer,1.3120226,-9.77792,0.12449849
27433,android.sensor.magnetic_field,-2.3999999,36.6,-25.439999
27482,android.sensor.magnetic_field,-1.38,36.78,-24.9
27534,android.sensor.magnetic_field,-1.8,37.38,-23.64
27590,android.sensor.accelerometer,1.3120226,-10.314221,0.46926352
27642,android.sensor.accelerometer,1.1300632,-9.9790325,0.45010993
27689,android.sensor.accelerometer,1.091756,-9.816227,0.5650316
27740,android.sensor.accelerometer,1.2162545,-9.835381,0.641646
27789,android.sensor.accelerometer,1.3120226,-9.873688,0.5554548
27839,android.sensor.accelerometer,1.3982137,-9.730036,0.60333884
27891,android.sensor.accelerometer,1.4269443,-9.768343,0.63206923
27943,android.sensor.magnetic_field,-4.3199997,38.219997,-26.88
27993,android.sensor.linear_acceleration,0.3949901,-0.08172209,-0.10896278
28050,android.sensor.accelerometer,1.7812861,-9.710882,0.35434186
28100,android.sensor.accelerometer,1.8579005,-9.797073,0.2681506
28150,android.sensor.accelerometer,1.8195933,-9.950302,0.33518824
28199,android.sensor.accelerometer,1.3599066,-10.352529,0.6703765
28249,android.sensor.accelerometer,1.3599066,-9.279925,0.15322891
28307,android.sensor.magnetic_field,-5.94,38.399998,-20.34
28352,android.sensor.magnetic_field,-6.12,38.46,-20.34
28403,android.sensor.magnetic_field,-6.72,38.579998,-20.34
28453,android.sensor.magnetic_field,-6.12,38.579998,-20.64
28503,android.sensor.orientation,196.32813,100.453125,10.234375
28560,android.sensor.accelerometer,1.5897499,-9.030929,-0.22026655
28609,android.sensor.accelerometer,1.8100165,-9.299079,0.095768064
28659,android.sensor.accelerometer,1.733402,-9.864111,-0.1436521
28710,android.sensor.accelerometer,1.5801731,-9.902418,-0.45968673
28760,android.sensor.accelerometer,1.7908629,-9.586384,-0.36391866
28813,android.sensor.magnetic_field,-7.5,38.76,-19.74
28864,android.sensor.magnetic_field,-6.8999996,38.1,-20.939999
28915,android.sensor.magnetic_field,-6.96,38.1,-21.84
28967,android.sensor.magnetic_field,-7.3199997,38.16,-22.92
29020,android.sensor.accelerometer,1.8866309,-9.730036,-0.33518824
29070,android.sensor.accelerometer,1.7525556,-9.854534,-0.22984336
29121,android.sensor.accelerometer,1.6950948,-9.797073,-0.22026655
29177,android.sensor.magnetic_field,-6.8399997,39.54,-22.92
29224,android.sensor.magnetic_field,-6.48,38.82,-22.619999
29273,android.sensor.magnetic_field,-6.54,37.38,-21.72
29324,android.sensor.magnetic_field,-7.08,37.44,-21.779999
29379,android.sensor.accelerometer,1.7717092,-9.768343,-0.17238252
29430,android.sensor.accelerometer,1.733402,-9.701305,-0.05746084
29479,android.sensor.accelerometer,1.7908629,-9.662998,-0.076614454
29530,android.sensor.accelerometer,1.8004397,-9.787497,-0.047884032
29584,android.sensor.magnetic_field,-7.02,39.42,-23.82
29633,android.sensor.magnetic_field,-6.2999997,39.12,-23.22
29685,android.sensor.magnetic_field,-5.94,37.079998,-23.64
29738,android.sensor.accelerometer,1.9728222,-9.710882,-0.019153614
29803,android.sensor.accelerometer,1.9057846,-9.720459,-0.095768064
29839,android.sensor.accelerometer,1.982399,-9.720459,-0.06703765
29891,android.sensor.accelerometer,1.9632454,-9.77792,-0.10534488
29943,android.sensor.magnetic_field,-7.2599998,38.28,-20.16
29993,android.sensor.magnetic_field,-7.44,38.52,-18.66
30049,android.sensor.accelerometer,1.9536686,-9.739613,-0.019153614
30099,android.sensor.accelerometer,1.982399,-9.730036,-0.02873042
30150,android.sensor.accelerometer,1.982399,-9.749189,-0.038307227
30201,android.sensor.accelerometer,1.9536686,-9.720459,-0.009576807
30251,android.sensor.accelerometer,1.9632454,-9.720459,0.0
30302,android.sensor.accelerometer,1.9728222,-9.758766,-0.019153614
30354,android.sensor.magnetic_field,-7.3199997,38.7,-19.98
30405,android.sensor.magnetic_field,-6.72,39.0,-21.119999
30460,android.sensor.accelerometer,1.934515,-9.758766,-0.019153614
30510,android.sensor.accelerometer,1.9249382,-9.720459,-0.019153614
30564,android.sensor.magnetic_field,-8.34,38.46,-20.279999
30616,android.sensor.magnetic_field,-7.3199997,38.64,-19.26
30670,android.sensor.accelerometer,1.8195933,-9.758766,-0.038307227
30719,android.sensor.accelerometer,1.8483237,-9.730036,0.0
30768,android.sensor.accelerometer,1.8483237,-9.720459,-0.009576807
30819,android.sensor.accelerometer,1.8387469,-9.672575,0.05746084
30873,android.sensor.magnetic_field,-7.02,38.76,-21.359999
30928,android.sensor.magnetic_field,-6.54,38.1,-20.46
30975,android.sensor.magnetic_field,-7.5,39.059998,-19.5
31026,android.sensor.magnetic_field,-6.72,37.32,-21.18
31075,android.sensor.magnetic_field,-6.72,38.04,-20.76
31129,android.sensor.accelerometer,1.8770541,-9.739613,0.02873042
31179,android.sensor.accelerometer,1.8770541,-9.739613,-0.019153614
31231,android.sensor.accelerometer,1.8674773,-9.739613,0.009576807
31284,android.sensor.accelerometer,1.8483237,-9.749189,-0.019153614
31335,android.sensor.magnetic_field,-6.8999996,38.879997,-20.76
31385,android.sensor.magnetic_field,-6.72,39.18,-20.82
31440,android.sensor.accelerometer,1.7908629,-9.77792,-0.076614454
31489,android.sensor.accelerometer,1.7717092,-9.758766,-0.095768064
31541,android.sensor.accelerometer,1.7621324,-9.787497,-0.08619126
31593,android.sensor.accelerometer,1.7525556,-9.77792,-0.11492168
31645,android.sensor.magnetic_field,-6.8999996,38.94,-19.74
31700,android.sensor.accelerometer,1.5993267,-9.797073,-0.08619126
31751,android.sensor.accelerometer,1.484405,-9.835381,-0.15322891
31800,android.sensor.accelerometer,1.4173675,-9.816227,-0.1340753
31850,android.sensor.accelerometer,1.3982137,-9.892841,-0.18195933
31905,android.sensor.magnetic_field,-6.2999997,39.48,-18.72
31954,android.sensor.magnetic_field,-5.7,39.54,-18.48
32010,android.sensor.accelerometer,1.1587936,-9.279925,0.34476504
32064,android.sensor.accelerometer,0.63206923,-9.337387,0.6607997
32110,android.sensor.accelerometer,0.63206923,-9.557653,0.8619126
32164,android.sensor.magnetic_field,-2.1,38.46,-22.8
32214,android.sensor.magnetic_field,-1.1999999,38.28,-24.24
32266,android.sensor.magnetic_field,-0.59999996,38.219997,-25.8
32320,android.sensor.accelerometer,1.4077905,-10.04607,0.5267244
32374,android.sensor.magnetic_field,-0.12,36.48,-24.66
32423,android.sensor.magnetic_field,-1.1999999,36.059998,-25.439999
32475,android.sensor.magnetic_field,-1.14,35.76,-27.359999
32531,android.sensor.accelerometer,0.6512229,-10.850522,1.4652514
32580,android.sensor.accelerometer,1.4556746,-10.007763,1.4460979
32630,android.sensor.accelerometer,1.283292,-9.509769,1.5514427
32681,android.sensor.accelerometer,1.1779473,-9.730036,1.1013328
32733,android.sensor.accelerometer,1.13964,-9.825804,1.3599066
32784,android.sensor.orientation,185.79688,79.21875,6.875
32840,android.sensor.accelerometer,1.4173675,-9.969456,1.2737153
32889,android.sensor.accelerometer,1.5993267,-9.892841,1.0821792
32940,android.sensor.accelerometer,1.8004397,-9.720459,1.1204864
32996,android.sensor.magnetic_field,-8.76,37.68,-21.48
33042,android.sensor.accelerometer,1.484405,-10.065224,0.9672575
33096,android.sensor.magnetic_field,-9.78,36.96,-23.46
33146,android.sensor.magnetic_field,-9.96,37.44,-20.64
33203,android.sensor.accelerometer,0.33518824,-9.873688,-0.41180268
33250,android.sensor.accelerometer,0.22984336,-9.490616,-0.10534488
33304,android.sensor.magnetic_field,-10.5,39.36,-17.58
33354,android.sensor.magnetic_field,-10.26,40.079998,-14.94
33405,android.sensor.magnetic_field,-10.26,40.2,-14.28
33461,android.sensor.accelerometer,1.1300632,-10.151415,-1.541866
33510,android.sensor.accelerometer,0.6607997,-9.959879,-1.3311762
33559,android.sensor.accelerometer,0.9576807,-9.519346,-1.7717092
33614,android.sensor.magnetic_field,-7.5,40.5,-14.58
33665,android.sensor.accelerometer,0.90021986,-9.835381,-1.9440918
33714,android.sensor.magnetic_field,-7.5,40.86,-13.92
33770,android.sensor.accelerometer,0.9576807,-9.653421,-1.3215994
33819,android.sensor.accelerometer,0.78529817,-9.797073,-1.7717092
33870,android.sensor.accelerometer,0.63206923,-9.77792,-1.436521
33923,android.sensor.magnetic_field,-7.56,41.399998,-13.559999
33976,android.sensor.magnetic_field,-7.8599997,40.92,-14.58
34025,android.sensor.magnetic_field,-8.04,40.86,-15.059999
34074,android.sensor.magnetic_field,-9.059999,40.02,-16.5
34127,android.sensor.magnetic_field,-9.66,40.26,-17.699999
34180,android.sensor.accelerometer,0.59376204,-9.691729,-0.79487497
34230,android.sensor.accelerometer,0.29688102,-9.902418,-0.9959879
34280,android.sensor.accelerometer,0.90979666,-10.28549,-1.3024458
34335,android.sensor.magnetic_field,-10.26,38.1,-17.4
34384,android.sensor.magnetic_field,-10.44,39.18,-15.9
34443,android.sensor.accelerometer,0.4213795,-9.289502,0.8331822
34489,android.sensor.accelerometer,0.6703765,-9.586384,0.23942018
34540,android.sensor.accelerometer,3.122039,-10.70687,0.24899697
34591,android.sensor.accelerometer,2.6719291,-9.643845,0.18195933
34645,android.sensor.magnetic_field,-11.34,36.96,-21.72
34695,android.sensor.magnetic_field,-12.66,36.66,-21.119999
34750,android.sensor.accelerometer,1.8770541,-10.955867,0.1436521
34800,android.sensor.magnetic_field,-14.219999,35.34,-22.68
34850,android.sensor.accelerometer,1.484405,-9.959879,0.10534488
34902,android.sensor.accelerometer,1.8579005,-9.710882,0.21068975
34963,android.sensor.magnetic_field,-14.759999,34.44,-24.119999
35013,android.sensor.magnetic_field,-15.179999,34.079998,-24.18
35069,android.sensor.accelerometer,2.96881,-9.270349,1.2258313
35119,android.sensor.accelerometer,2.825158,-9.270349,1.436521
35168,android.sensor.accelerometer,3.265691,-9.433155,1.0151415
35220,android.sensor.accelerometer,2.9113493,-9.615114,1.043872
35271,android.sensor.accelerometer,3.0550013,-9.107543,1.4173675
35324,android.sensor.magnetic_field,-19.38,35.219997,-19.199999
35374,android.sensor.magnetic_field,-20.1,35.1,-17.64
35431,android.sensor.accelerometer,2.3750482,-9.615114,0.9768343
35481,android.sensor.accelerometer,2.0111294,-9.337387,0.50757074
35530,android.sensor.accelerometer,0.4309563,-10.04607,-0.5554548
35582,android.sensor.accelerometer,2.633622,-12.631808,-0.7086837
35633,android.sensor.magnetic_field,-23.1,36.0,-9.12
35685,android.sensor.magnetic_field,-23.039999,36.12,-6.0
35739,android.sensor.accelerometer,-0.36391866,-8.561666,-0.7374141
35788,android.sensor.accelerometer,1.1204864,-7.73806,-0.4309563
35843,android.sensor.magnetic_field,-23.4,36.42,2.1
35894,android.sensor.magnetic_field,-24.0,37.14,5.16
35948,android.sensor.magnetic_field,-23.279999,37.62,7.5
35994,android.sensor.magnetic_field,-23.1,37.44,8.4
36046,android.sensor.magnetic_field,-23.88,37.8,8.88
36105,android.sensor.accelerometer,0.78529817,-11.118672,-3.016694
36151,android.sensor.accelerometer,1.9249382,-11.789049,-4.8841715
36200,android.sensor.accelerometer,0.6512229,-14.767436,-0.7182605
36254,android.sensor.magnetic_field,-24.119999,37.62,11.639999
36304,android.sensor.magnetic_field,-23.58,38.1,9.3
36357,android.sensor.magnetic_field,-24.0,38.34,9.12
36410,android.sensor.accelerometer,1.4269443,-10.314221,0.1340753
36459,android.sensor.accelerometer,1.9153614,-8.935161,0.94810385
36510,android.sensor.accelerometer,1.5514427,-8.580819,1.2449849
36565,android.sensor.magnetic_field,-27.24,35.46,12.54
36621,android.sensor.accelerometer,1.6089035,-10.409989,0.9576807
36671,android.sensor.accelerometer,0.8810662,-9.11712,1.1683705
36720,android.sensor.accelerometer,-0.10534488,-8.437167,0.6895301
36771,android.sensor.accelerometer,0.095768064,-8.90643,-0.06703765
36824,android.sensor.magnetic_field,-25.38,34.92,12.54
36874,android.sensor.magnetic_field,-24.18,35.88,13.2
36926,android.sensor.magnetic_field,-23.4,36.54,14.04
36977,android.sensor.magnetic_field,-24.3,35.399998,15.839999
37033,android.sensor.accelerometer,-0.842759,-7.28795,1.091756
37084,android.sensor.magnetic_field,-23.039999,34.92,17.16
37136,android.sensor.magnetic_field,-21.96,33.6,16.199999
37185,android.sensor.magnetic_field,-22.74,31.98,18.779999
37239,android.sensor.accelerometer,-0.009576807,-9.126697,0.009576807
37290,android.sensor.accelerometer,-0.095768064,-8.781932,-1.1683705
37342,android.sensor.accelerometer,0.15322891,-8.801085,-1.3694834
37390,android.sensor.accelerometer,0.047884032,-8.676587,-0.40222588
37445,android.sensor.magnetic_field,-19.02,26.34,23.58
37499,android.sensor.magnetic_field,-19.14,27.06,24.6
37549,android.sensor.accelerometer,2.633622,-9.461885,-2.3175871
37600,android.sensor.accelerometer,4.7309427,-10.381259,-2.9975405
37650,android.sensor.accelerometer,4.9895163,-10.208876,-3.3997664
37702,android.sensor.accelerometer,1.5131354,-11.549629,-1.4173675
37751,android.sensor.accelerometer,-2.9879637,-15.859192,1.7046716
37805,android.sensor.magnetic_field,-12.059999,25.92,21.72
37854,android.sensor.magnetic_field,-10.38,26.4,23.699999
37915,android.sensor.accelerometer,0.009576807,-10.994174,-0.78529817
37961,android.sensor.accelerometer,-0.80445176,-9.844957,-1.934515
38009,android.sensor.accelerometer,1.0055647,-8.983045,0.94810385
38063,android.sensor.magnetic_field,-9.48,27.359999,19.26
38114,android.sensor.magnetic_field,-8.82,28.26,16.8
38163,android.sensor.magnetic_field,-9.36,29.279999,17.46
38221,android.sensor.accelerometer,0.93852705,-9.222465,-0.91937345
38270,android.sensor.accelerometer,0.90979666,-9.605537,-0.81402856
38323,android.sensor.magnetic_field,-7.9199996,28.859999,19.02
38373,android.sensor.magnetic_field,-7.44,28.619999,16.859999
38423,android.sensor.magnetic_field,-7.7999997,28.92,16.8
38474,android.sensor.magnetic_field,-8.7,29.519999,18.48
38530,android.sensor.accelerometer,-2.0973208,-5.2863975,1.0821792
38583,android.sensor.accelerometer,-1.0726024,-9.768343,3.1124623
38629,android.sensor.accelerometer,0.82360536,-9.720459,-0.45968673
38680,android.sensor.accelerometer,1.4269443,-8.561666,-1.9249382
38734,android.sensor.magnetic_field,-5.1,29.279999,15.78
38781,android.sensor.accelerometer,-0.9768343,-8.925584,-0.5267244
38834,android.sensor.magnetic_field,-3.48,29.4,20.58
38885,android.sensor.magnetic_field,-2.7,29.939999,18.6
38934,android.sensor.orientation,9.265625,100.015625,2.90625
38993,android.sensor.magnetic_field,1.62,30.119999,19.74
39045,android.sensor.magnetic_field,7.3799996,30.359999,15.12
39100,android.sensor.accelerometer,1.7142484,-11.453861,0.095768064
39150,android.sensor.accelerometer,-2.0590134,-13.962984,2.432509
39200,android.sensor.accelerometer,-3.2273839,-10.457873,1.340753
39253,android.sensor.accelerometer,-0.641646,-8.762778,2.6144683
39304,android.sensor.magnetic_field,6.24,31.92,17.82
39354,android.sensor.magnetic_field,6.8999996,32.28,16.14
39406,android.sensor.magnetic_field,8.099999,32.52,16.859999
39458,android.sensor.accelerometer,-1.1683705,-7.2209125,-0.02873042
39508,android.sensor.accelerometer,1.0342951,-8.542512,3.4380736
39563,android.sensor.magnetic_field,5.64,30.24,18.119999
39613,android.sensor.magnetic_field,6.7799997,31.26,18.06
39664,android.sensor.magnetic_field,7.3799996,31.32,19.32
39720,android.sensor.accelerometer,-1.5897499,-10.984597,-0.545878
39766,android.sensor.magnetic_field,7.3799996,31.08,20.16
39816,android.sensor.magnetic_field,6.8399997,31.679998,20.1
39870,android.sensor.accelerometer,0.8810662,-14.729129,1.2737153
39926,android.sensor.accelerometer,-0.16280572,-10.611102,3.6870706
39974,android.sensor.magnetic_field,5.8199997,32.399998,19.98
40023,android.sensor.magnetic_field,4.8599997,32.7,19.32
40073,android.sensor.linear_acceleration,1.8115062,-1.1577295,-2.1383946
40129,android.sensor.accelerometer,1.5610195,-9.308656,0.047884032
40179,android.sensor.accelerometer,1.436521,-10.189722,-0.33518824
40230,android.sensor.accelerometer,1.9632454,-9.710882,-0.9768343
40285,android.sensor.magnetic_field,-3.12,31.439999,22.619999
40335,android.sensor.magnetic_field,-4.38,32.1,22.14
40385,android.sensor.accelerometer,2.5761611,-8.034941,-0.47884035
40440,android.sensor.accelerometer,3.9935284,-9.299079,-2.0207062
40485,android.sensor.magnetic_field,-5.7,32.52,21.96
40540,android.sensor.accelerometer,4.4436383,-9.050082,-1.685518
40596,android.sensor.accelerometer,5.3725886,-8.781932,-2.0015526
40643,android.sensor.magnetic_field,-7.3799996,30.72,21.96
40694,android.sensor.magnetic_field,-7.9199996,30.3,22.439999
40753,android.sensor.magnetic_field,-9.54,29.22,22.859999
40803,android.sensor.magnetic_field,-9.12,29.099998,22.859999
40859,android.sensor.accelerometer,2.4612393,-6.3302693,-0.90979666
40909,android.sensor.accelerometer,5.257667,-8.954314,1.1779473
40959,android.sensor.accelerometer,6.531382,-9.9790325,0.5746084
41010,android.sensor.accelerometer,3.8881836,-8.37013,-0.63206923
41064,android.sensor.gravity,4.33127,-8.785125,0.10896278
41123,android.sensor.accelerometer,6.3206925,-7.6231384,-0.5746084
41170,android.sensor.accelerometer,5.631162,-8.073248,-0.37349546
41222,android.sensor.accelerometer,4.9799395,-8.073248,-1.2545617
41279,android.sensor.accelerometer,5.085284,-7.97748,-1.3311762
41324,android.sensor.magnetic_field,-6.42,29.22,26.16
41381,android.sensor.accelerometer,5.755661,-8.63828,-0.7661445
41431,android.sensor.accelerometer,6.129156,-8.954314,-1.3311762
41484,android.sensor.accelerometer,6.349423,-9.414001,-1.0726024
41530,android.sensor.accelerometer,7.4507556,-11.425131,-0.038307227
41585,android.sensor.magnetic_field,-0.9,26.279999,31.74
41634,android.sensor.magnetic_field,0.59999996,25.38,31.74
41686,android.sensor.magnetic_field,0.9,25.92,31.08
41738,android.sensor.accelerometer,1.8962077,-8.542512,0.37349546
41791,android.sensor.accelerometer,3.0262709,-10.007763,0.5554548
41844,android.sensor.magnetic_field,3.3,25.98,29.46
41894,android.sensor.magnetic_field,5.58,26.16,27.9
41945,android.sensor.magnetic_field,8.7,26.88,25.38
42000,android.sensor.accelerometer,3.2273839,-7.920019,-4.175488
42049,android.sensor.accelerometer,0.7278373,-10.333375,2.4708161
42101,android.sensor.accelerometer,5.353435,-8.647857,-4.5298295
42155,android.sensor.magnetic_field,16.08,28.68,17.039999
42203,android.sensor.accelerometer,2.5091233,-8.00621,-3.5051112
42255,android.sensor.magnetic_field,13.92,28.74,15.839999
42310,android.sensor.accelerometer,6.0142345,-8.034941,0.095768064
42360,android.sensor.accelerometer,8.494628,-10.534488,-2.27928
42414,android.sensor.accelerometer,5.5162406,-15.140931,1.3503298
42464,android.sensor.magnetic_field,5.7599998,28.859999,17.52
42521,android.sensor.accelerometer,3.715801,-9.174581,-2.231396
42571,android.sensor.accelerometer,3.9073372,-7.1347213,-2.0207062
42619,android.sensor.accelerometer,3.86903,-5.8705826,-1.3311762
42673,android.sensor.accelerometer,5.0757074,-5.6886234,-1.8483237
42723,android.sensor.accelerometer,6.157887,-7.0006456,-1.388637
42779,android.sensor.accelerometer,5.803545,-8.274361,-2.6719291
42828,android.sensor.accelerometer,6.2632318,-9.481039,-2.7485435
42879,android.sensor.accelerometer,7.4986396,-9.548077,-4.654328
42929,android.sensor.accelerometer,7.929596,-9.873688,-0.6607997
42979,android.sensor.gravity,5.761407,-7.5865335,-2.2745981
43031,android.sensor.accelerometer,2.2505496,-8.916007,1.1683705
43089,android.sensor.magnetic_field,-0.9,31.679998,22.439999
43135,android.sensor.magnetic_field,-1.74,32.04,22.98
43191,android.sensor.accelerometer,6.4643445,-5.2768207,0.82360536
43240,android.sensor.accelerometer,5.0374002,-5.650316,-0.6799533
43291,android.sensor.accelerometer,4.5202527,-7.038953,-2.1739352
43345,android.sensor.magnetic_field,-2.1,31.679998,22.199999
43394,android.sensor.magnetic_field,-1.68,31.679998,20.88
43446,android.sensor.magnetic_field,-1.4399999,32.94,20.82
43499,android.sensor.accelerometer,8.743625,-8.034941,-6.5984197
43550,android.sensor.accelerometer,8.082825,-7.4507556,-2.566584
43605,android.sensor.magnetic_field,0.42,33.3,20.279999
43658,android.sensor.magnetic_field,0.9,33.48,18.72
43705,android.sensor.magnetic_field,1.1999999,34.5,17.279999
43758,android.sensor.accelerometer,5.6982,-10.362105,0.30645782
43809,android.sensor.accelerometer,4.8458643,-8.236053,-0.79487497
43860,android.sensor.accelerometer,3.016694,-6.483498,-2.6910827
43913,android.sensor.magnetic_field,4.08,38.28,6.96
43964,android.sensor.magnetic_field,4.92,38.879997,4.08
44015,android.sensor.magnetic_field,5.3399997,39.3,1.4399999
44066,android.sensor.magnetic_field,6.42,38.579998,0.48
44122,android.sensor.accelerometer,6.847417,-8.686164,-2.0685902
44171,android.sensor.magnetic_field,5.94,39.18,2.76
44223,android.sensor.magnetic_field,6.0,39.42,1.92
44274,android.sensor.magnetic_field,5.16,38.94,0.17999999
44324,android.sensor.magnetic_field,5.16,39.18,0.59999996
44379,android.sensor.accelerometer,0.7278373,-6.5601125,-0.10534488
44429,android.sensor.accelerometer,5.9663506,-8.963891,-1.3694834
44479,android.sensor.accelerometer,5.889736,-8.111555,-0.45968673
44530,android.sensor.accelerometer,3.2465374,-7.747637,-0.6991069
44582,android.sensor.magnetic_field,3.06,36.899998,0.29999998
44632,android.sensor.magnetic_field,3.12,37.8,-0.29999998
44682,android.sensor.magnetic_field,2.58,39.059998,-1.38
44738,android.sensor.accelerometer,4.9703627,-6.742072,-2.7006595
44787,android.sensor.magnetic_field,4.5,38.04,-0.48
44838,android.sensor.accelerometer,8.274361,-8.686164,-4.0701427
44888,android.sensor.accelerometer,9.165004,-9.069236,-3.7253778
44938,android.sensor.accelerometer,7.335834,-11.750742,0.6512229
44988,android.sensor.accelerometer,2.183512,-10.170568,0.16280572
45038,android.sensor.accelerometer,1.6663644,-7.7572136,0.32561144
45088,android.sensor.accelerometer,4.5872903,-8.762778,-0.7565677
45139,android.sensor.magnetic_field,1.14,39.0,-3.24
45192,android.sensor.magnetic_field,0.65999997,38.82,-3.6
45242,android.sensor.magnetic_field,1.14,38.46,-3.36
45292,android.sensor.magnetic_field,1.14,38.219997,-6.96
45342,android.sensor.magnetic_field,1.1999999,38.04,-7.7999997
45392,android.sensor.magnetic_field,1.38,37.8,-6.8399997
45448,android.sensor.accelerometer,7.9008656,-10.323798,-4.2904096
45498,android.sensor.accelerometer,9.672575,-11.645397,-1.8195933
45548,android.sensor.accelerometer,8.686164,-12.315774,1.2737153
45598,android.sensor.accelerometer,2.5474305,-8.121132,0.7757214
45648,android.sensor.accelerometer,0.4309563,-6.7324953,-0.9576807
45698,android.sensor.accelerometer,5.1906295,-8.111555,-1.7142484
45760,android.sensor.accelerometer,6.933608,-7.8529816,-1.13964
45814,android.sensor.magnetic_field,-2.3999999,39.3,-3.36
45863,android.sensor.magnetic_field,-3.78,39.66,-2.58
45913,android.sensor.magnetic_field,-3.54,39.18,-4.02
45968,android.sensor.accelerometer,4.76925,-6.493075,-2.1164744
46018,android.sensor.accelerometer,5.899313,-6.8569937,-3.0933087
46068,android.sensor.accelerometer,7.9966335,-8.350976,-3.2848446
46118,android.sensor.accelerometer,9.892841,-8.820239,-6.0525417
46168,android.sensor.accelerometer,9.155427,-10.314221,-1.7621324
46218,android.sensor.accelerometer,6.4068837,-11.109096,2.9592333
46268,android.sensor.accelerometer,2.5953147,-7.9104424,-1.2066777
46318,android.sensor.accelerometer,3.7349546,-7.240066,0.12449849
46372,android.sensor.magnetic_field,-6.2999997,38.579998,-7.44
46422,android.sensor.magnetic_field,-6.3599997,39.899998,-6.72
46473,android.sensor.magnetic_field,-6.2999997,40.079998,-5.7
46528,android.sensor.accelerometer,5.746084,-6.8665705,-1.8579005
46578,android.sensor.accelerometer,5.717354,-7.086837,-2.183512
46628,android.sensor.accelerometer,5.6982,-7.0102224,-1.6759412
46678,android.sensor.accelerometer,5.5641246,-7.192182,-1.8770541
46728,android.sensor.accelerometer,6.483498,-8.925584,-2.2601264
46783,android.sensor.magnetic_field,-3.1799998,39.0,-7.44
46833,android.sensor.magnetic_field,-2.76,39.84,-6.66
46883,android.sensor.magnetic_field,-2.46,40.62,-5.7
46933,android.sensor.magnetic_field,-1.86,41.399998,-4.98
46988,android.sensor.accelerometer,4.9703627,-7.9391727,-1.6663644
47038,android.sensor.accelerometer,8.063671,-7.5082164,-0.7565677
47092,android.sensor.magnetic_field,-3.72,40.86,-4.2599998
47143,android.sensor.magnetic_field,-4.3199997,41.219997,-5.4
47193,android.sensor.magnetic_field,-4.02,40.86,-7.74
47243,android.sensor.magnetic_field,-4.5,40.739998,-6.72
47294,android.sensor.magnetic_field,-4.44,40.44,-8.88
47349,android.sensor.accelerometer,7.4986396,-7.699753,-4.0797195
47399,android.sensor.accelerometer,9.768343,-9.32781,-3.5434184
47449,android.sensor.accelerometer,10.429143,-10.658986,-3.4763808
47499,android.sensor.accelerometer,5.841852,-10.70687,3.074155
47549,android.sensor.accelerometer,2.4899697,-8.944737,-0.15322891
47600,android.sensor.accelerometer,3.5817258,-6.885724,0.6991069
47655,android.sensor.magnetic_field,-9.66,38.64,-10.8
47703,android.sensor.magnetic_field,-8.34,39.18,-11.46
47754,android.sensor.magnetic_field,-8.94,39.78,-10.139999
47846,android.sensor.magnetic_field,-7.74,39.18,-10.2
47862,android.sensor.accelerometer,5.6407394,-6.83784,-1.4748282
47908,android.sensor.accelerometer,6.0142345,-6.694188,-1.532289
47962,android.sensor.magnetic_field,-5.64,40.079998,-10.8
48012,android.sensor.magnetic_field,-4.08,40.02,-11.5199995
48063,android.sensor.magnetic_field,-4.2599998,40.079998,-9.54
48112,android.sensor.magnetic_field,-4.3199997,40.14,-11.759999
48162,android.sensor.magnetic_field,-3.8999999,40.26,-11.28
48218,android.sensor.accelerometer,1.2066777,-6.588843,-0.58418524
48268,android.sensor.accelerometer,5.2002063,-8.571242,-0.82360536
48318,android.sensor.accelerometer,7.2592196,-7.565677,-1.3982137
48368,android.sensor.accelerometer,4.5872903,-5.544971,0.545878
48417,sound,-Infinity
48468,android.sensor.accelerometer,4.6926355,-7.4124484,-1.8291701
48518,android.sensor.accelerometer,4.7309427,-6.8091097,-1.3503298
48568,android.sensor.accelerometer,5.8226986,-6.291962,-2.8634653
48619,android.sensor.accelerometer,7.3166804,-7.2687964,-2.1643584
48672,android.sensor.magnetic_field,-7.2599998,41.28,-5.8199997
48722,android.sensor.magnetic_field,-8.46,40.98,-4.38
48773,android.sensor.magnetic_field,-9.719999,40.68,-4.38
48822,android.sensor.magnetic_field,-10.679999,40.2,-4.44
48872,android.sensor.orientation,306.15625,53.375,34.65625
48928,android.sensor.accelerometer,4.1946416,-7.8625584,-0.29688102
48978,android.sensor.accelerometer,5.171476,-7.4507556,-4.0701427
49028,android.sensor.accelerometer,5.889736,-6.3206925,-0.2777274
49078,android.sensor.accelerometer,6.799533,-6.1866174,-0.7278373
49128,android.sensor.accelerometer,6.0525417,-6.2632318,-0.90979666
49179,android.sensor.accelerometer,5.6407394,-6.933608,-0.7757214
49234,android.sensor.magnetic_field,-5.46,39.239998,-13.799999
49282,android.sensor.magnetic_field,-4.74,39.719997,-11.58
49332,android.sensor.magnetic_field,-4.68,40.86,-8.04
49382,android.sensor.magnetic_field,-3.72,40.26,-9.78
49438,android.sensor.accelerometer,6.2728086,-9.892841,2.0398598
49488,android.sensor.accelerometer,1.043872,-5.755661,-0.8523358
49538,android.sensor.accelerometer,3.4763808,-6.0046577,0.7757214
49588,android.sensor.accelerometer,7.0485296,-8.063671,-0.25857377
49638,android.sensor.accelerometer,5.410896,-8.274361,-1.0821792
49688,android.sensor.accelerometer,4.711789,-7.441179,-1.3982137
49743,android.sensor.magnetic_field,-5.04,40.14,-7.68
49793,android.sensor.magnetic_field,-5.8199997,39.96,-6.8399997
49842,android.sensor.magnetic_field,-6.72,40.5,-7.14
49892,android.sensor.magnetic_field,-6.12,40.26,-7.9199996
49943,android.sensor.magnetic_field,-5.04,41.1,-7.8599997
49998,android.sensor.accelerometer,9.165004,-8.66701,-7.8529816
50048,android.sensor.accelerometer,8.552089,-9.749189,-1.8195933
50098,android.sensor.accelerometer,7.422025,-10.716447,-0.11492168
50148,android.sensor.accelerometer,1.541866,-9.030929,1.6376339
50203,android.sensor.accelerometer,2.4612393,-6.8761473,-0.24899697
50252,android.sensor.magnetic_field,-7.74,39.78,-6.2999997
50302,android.sensor.magnetic_field,-7.2599998,40.62,-7.14
50352,android.sensor.magnetic_field,-7.44,40.379997,-7.8599997
50403,android.sensor.magnetic_field,-6.54,40.14,-7.2
50454,android.sensor.magnetic_field,-5.1,40.559998,-7.5
50508,android.sensor.accelerometer,4.223372,-7.4507556,-2.2984335
50558,android.sensor.accelerometer,4.9224787,-7.28795,-2.2984335
50608,android.sensor.accelerometer,5.93762,-8.322245,-1.9536686
50658,android.sensor.accelerometer,6.0046577,-9.988609,-5.544971
50708,android.sensor.accelerometer,9.030929,-11.147403,-2.6719291
50758,android.sensor.accelerometer,8.7532015,-12.220005,0.38307226
50809,android.sensor.accelerometer,4.453215,-9.892841,2.0590134
50859,android.sensor.accelerometer,0.12449849,-6.157887,-0.08619126
50915,android.sensor.magnetic_field,0.9,41.879997,-6.48
50963,android.sensor.magnetic_field,-0.12,41.76,-6.54
51013,android.sensor.magnetic_field,0.12,42.0,-8.099999
51068,android.sensor.accelerometer,3.074155,-6.6846113,-1.6376339
51118,android.sensor.accelerometer,3.86903,-6.6079965,-1.13964
51168,android.sensor.accelerometer,3.7924154,-7.019799,-1.0151415
51218,android.sensor.accelerometer,4.405331,-7.422025,-2.183512
51268,android.sensor.accelerometer,5.2002063,-7.9966335,-2.5953147
51318,android.sensor.accelerometer,5.93762,-8.552089,-3.0454245
51373,android.sensor.magnetic_field,-2.82,41.64,-10.559999
51422,android.sensor.magnetic_field,-4.2599998,41.52,-11.099999
51472,android.sensor.magnetic_field,-5.64,40.62,-10.38
51522,android.sensor.magnetic_field,-7.3199997,40.26,-12.12
51572,android.sensor.magnetic_field,-6.3599997,40.26,-10.98
51623,android.sensor.magnetic_field,-5.94,40.62,-10.62
51678,android.sensor.accelerometer,4.5202527,-11.836933,2.0973208
51728,android.sensor.accelerometer,5.66947,-10.113108,0.15322891
51779,android.sensor.accelerometer,5.793968,-8.169016,0.32561144
51829,android.sensor.accelerometer,4.865018,-7.785944,-0.5363012
51878,android.sensor.accelerometer,5.707777,-6.301539,-0.21068975
51928,android.sensor.accelerometer,8.7053175,-7.4124484,1.9632454
51986,android.sensor.magnetic_field,-8.16,29.519999,-30.06
52030,android.sensor.accelerometer,7.843405,-6.042965,0.24899697
52082,android.sensor.magnetic_field,-8.34,21.24,-35.82
52132,android.sensor.magnetic_field,-10.74,18.66,-39.54
52182,android.sensor.magnetic_field,-13.44,18.9,-39.6
52238,android.sensor.accelerometer,10.247183,0.32561144,5.995081
52288,android.sensor.accelerometer,7.632715,-1.1587936,4.510676
52338,android.sensor.accelerometer,4.4340615,-1.0151415,4.2521024
52389,android.sensor.accelerometer,4.865018,-2.6527755,6.033388
52439,android.sensor.accelerometer,3.9264908,0.10534488,4.261679
52490,android.sensor.accelerometer,4.596867,-1.6567876,8.801085
52543,android.sensor.magnetic_field,-26.82,11.04,-32.76
52593,android.sensor.gravity,5.529861,-0.8172208,8.063246
52646,android.sensor.accelerometer,5.6982,3.0358477,8.571242
52699,android.sensor.accelerometer,3.1316159,3.5434184,8.7532015
52748,android.sensor.accelerometer,5.8801594,3.7349546,8.054094
52799,android.sensor.accelerometer,5.4683566,4.0318356,8.130709
52852,android.sensor.magnetic_field,-12.36,11.219999,-41.7
52902,android.sensor.magnetic_field,-12.12,11.16,-40.5
52952,android.sensor.magnetic_field,-10.32,11.219999,-43.2
53003,android.sensor.magnetic_field,-9.36,12.96,-42.66
53052,android.sensor.orientation,17.21875,-1.84375,5.1875
53108,android.sensor.accelerometer,0.8523358,1.2545617,8.724471
53159,android.sensor.accelerometer,2.327164,0.93852705,9.605537
53208,android.sensor.accelerometer,2.6719291,0.5363012,10.860099
53262,android.sensor.magnetic_field,-6.54,13.139999,-42.84
53312,android.sensor.magnetic_field,-6.18,12.12,-42.36
53362,android.sensor.magnetic_field,-5.8199997,12.0,-41.879997
53412,android.sensor.magnetic_field,-5.8199997,11.219999,-43.5
53504,android.sensor.accelerometer,1.6089035,2.3080103,9.557653
53518,android.sensor.accelerometer,1.4748282,2.7581203,7.431602
53568,android.sensor.accelerometer,2.1164744,2.825158,9.519346
53619,android.sensor.accelerometer,0.47884035,2.5091233,10.821792
53668,android.sensor.accelerometer,0.047884032,2.8060043,9.548077
53722,android.sensor.magnetic_field,-4.74,10.92,-43.98
53773,android.sensor.magnetic_field,-3.06,10.5,-45.3
53822,android.sensor.magnetic_field,-3.1799998,10.26,-44.94
53872,android.sensor.magnetic_field,-3.6599998,10.08,-45.66
53962,android.sensor.magnetic_field,-3.48,9.66,-45.42
54012,android.sensor.magnetic_field,-3.48,9.3,-46.14
54062,android.sensor.magnetic_field,-3.24,9.84,-45.48
54114,android.sensor.magnetic_field,-4.3199997,9.66,-44.579998
54163,android.sensor.orientation,350.125,-18.125,13.234375
54219,android.sensor.accelerometer,2.1260512,3.2752678,9.050082
54268,android.sensor.accelerometer,2.1164744,3.2082303,9.165004
54319,android.sensor.accelerometer,2.3463178,3.4093432,9.270349
54374,android.sensor.magnetic_field,-7.62,8.7,-43.92
54423,android.sensor.magnetic_field,-8.639999,8.34,-43.92
54475,android.sensor.magnetic_field,-10.0199995,8.22,-42.18
54524,android.sensor.magnetic_field,-10.08,7.62,-42.36
54578,android.sensor.accelerometer,2.9592333,3.715801,9.356541
