0,activityrecognition,foot,97
0,activityrecognition,walking,95
0,activityrecognition,vehicle,3
0,activityrecognition,running,3
0,activityrecognition,foot,92
0,activityrecognition,walking,85
0,activityrecognition,bicycle,8
0,activityrecognition,running,8
8,android.sensor.accelerometer,-1.3335704,10.150218,6.4380083
8,android.sensor.accelerometer,-1.3335704,10.150218,6.4380083
9,android.sensor.accelerometer,-1.3335704,10.150218,6.4380083
9,android.sensor.accelerometer,-1.3335704,10.150218,6.4380083
9,android.sensor.accelerometer,-1.3335704,10.150218,6.4380083
9,android.sensor.accelerometer,-1.3335704,10.150218,6.4380083
9,android.sensor.accelerometer,-1.1803415,10.18254,7.013814
9,android.sensor.accelerometer,-1.0905589,10.183737,7.513005
9,android.sensor.accelerometer,-1.0295067,10.107122,7.9272017
10,android.sensor.accelerometer,-1.401805,9.5732155,9.016563
10,android.sensor.accelerometer,-1.401805,9.5732155,9.016563
10,android.sensor.accelerometer,-1.401805,9.5732155,9.016563
10,android.sensor.accelerometer,-1.401805,9.5732155,9.016563
10,android.sensor.accelerometer,-1.8088194,9.15423,9.144653
10,android.sensor.proximity,8.0,0.0,0.0
11,android.sensor.accelerometer,-2.0350714,8.900445,9.107543
11,android.sensor.accelerometer,-2.0350714,8.900445,9.107543
11,android.sensor.accelerometer,-2.4887726,8.507795,8.684967
11,android.sensor.accelerometer,-2.4887726,8.507795,8.684967
11,android.sensor.accelerometer,-2.694674,8.318654,7.937976
11,android.sensor.accelerometer,-2.694674,8.318654,7.937976
11,android.sensor.step_counter,22673.0
11,android.sensor.accelerometer,-2.5797524,8.198944,7.1670427
11,android.sensor.accelerometer,-2.3810337,8.202535,6.835446
12,android.sensor.accelerometer,-2.3810337,8.202535,6.835446
12,android.sensor.proximity,8.0,0.0,0.0
12,android.sensor.accelerometer,-1.8088194,8.137892,6.087258
12,android.sensor.accelerometer,-1.8088194,8.137892,6.087258
12,android.sensor.accelerometer,-1.5119383,8.013393,5.779603
12,android.sensor.accelerometer,-1.2976574,7.8793178,5.5138464
12,android.sensor.accelerometer,-1.0785879,7.785944,5.3223104
12,android.sensor.accelerometer,-0.6895301,7.7201033,5.130774
13,android.sensor.accelerometer,-0.6895301,7.7201033,5.130774
13,android.sensor.accelerometer,-0.5494693,7.7488337,5.009867
13,android.sensor.accelerometer,-0.5494693,7.7488337,5.009867
13,android.sensor.accelerometer,-0.40342298,7.7703815,4.9919105
13,android.sensor.accelerometer,-0.25977087,7.773973,4.9667716
13,android.sensor.accelerometer,-0.142455,7.7703815,4.945224
13,android.sensor.game_rotation_vector,-0.645961,-0.024814,-0.003544,0.762958
15,android.sensor.rotation_vector,-0.223665,0.645354,-0.699198,0.211219,3.0
17,android.sensor.gravity,0.39373893,-9.776691,0.65689296
17,android.sensor.linear_acceleration,-0.5361939,17.547073,4.288331
17,android.sensor.orientation,147.22626,85.52026,2.3062358
17,android.sensor.accelerometer,-0.05865794,7.7332716,4.9105077
17,android.sensor.accelerometer,0.02633622,7.7069354,4.829105
17,android.sensor.game_rotation_vector,-0.611985,-0.022855,-0.008011,0.790498
17,android.sensor.rotation_vector,-0.074288,-0.607622,0.779484,0.132965,3.0
18,android.sensor.gravity,0.44887307,-9.483213,2.457091
18,android.sensor.linear_acceleration,-0.42253685,17.19015,2.3720138
18,android.sensor.orientation,200.34624,75.243866,2.709982
18,android.sensor.accelerometer,0.02633622,7.7069354,4.829105
18,android.sensor.accelerometer,-0.0047884034,7.642292,4.5394063
18,android.sensor.game_rotation_vector,-0.46479,-0.022074,-0.017688,0.884968
18,android.sensor.rotation_vector,-0.097917,-0.455043,0.850761,0.244035,3.0
19,android.sensor.gravity,0.54412115,-8.061616,5.557392
19,android.sensor.linear_acceleration,-0.54890954,15.703908,-1.0179858
19,android.sensor.orientation,213.2044,55.29114,3.8613331
19,android.sensor.accelerometer,-0.0047884034,7.642292,4.5394063
19,android.sensor.accelerometer,-0.1592144,7.5764513,4.406528
19,android.sensor.accelerometer,-0.1592144,7.5764513,4.406528
19,android.sensor.gravity,0.5847176,-4.2305164,8.827864
19,android.sensor.game_rotation_vector,-0.222145,-0.023573,-0.030815,0.974241
19,android.sensor.rotation_vector,-0.023138,-0.222191,0.946533,0.232742,3.0
20,android.sensor.orientation,208.35649,25.555971,3.7894769
20,android.sensor.linear_acceleration,-1.0096884,11.683666,-4.5566077
20,android.sensor.accelerometer,-0.4249708,7.45315,4.271256
20,android.sensor.rotation_vector,-0.023138,-0.222191,0.946533,0.232742,3.0
20,android.sensor.game_rotation_vector,-0.222145,-0.023573,-0.030815,0.974241
20,android.sensor.accelerometer,-0.4249708,7.45315,4.271256
20,android.sensor.gravity,0.5847176,-4.2305164,8.827864
20,android.sensor.linear_acceleration,-1.0096884,11.683666,-4.5566077
20,android.sensor.orientation,208.35649,25.555971,3.7894769
30,android.sensor.accelerometer,-1.1755531,7.0090256,4.0821137
31,android.sensor.game_rotation_vector,0.014217,-0.014661,-0.038294,0.999057
31,android.sensor.rotation_vector,0.016106,0.012557,0.989134,0.145586,3.0
31,android.sensor.gravity,0.27660382,0.2895975,9.79847
31,android.sensor.linear_acceleration,-1.4521569,6.719428,-5.716356
31,android.sensor.orientation,196.7221,-1.6922321,1.6169896
31,android.sensor.accelerometer,-1.6089035,6.7468605,3.9636009
38,android.sensor.accelerometer,-2.0458453,6.501455,3.857059
39,android.sensor.game_rotation_vector,0.145284,0.005576,-0.041465,0.988504
39,android.sensor.rotation_vector,-0.004666,0.145316,0.988225,0.047656,3.0
39,android.sensor.gravity,-0.2262637,2.812205,9.392054
39,android.sensor.linear_acceleration,-1.8195815,3.6892498,-5.5349946
39,android.sensor.orientation,185.71034,-16.664387,-1.380044
74,android.sensor.accelerometer,-2.3762453,6.2763996,3.788824
76,android.sensor.accelerometer,-2.3762453,6.2763996,3.788824
77,android.sensor.magnetic_field,1.5,-17.0,-34.100002
77,android.sensor.game_rotation_vector,0.235258,0.033668,-0.044257,0.97034
77,android.sensor.rotation_vector,0.066614,-0.228128,-0.966841,0.093471,3.0
77,android.sensor.gravity,-0.84497625,4.4481,8.6988945
77,android.sensor.linear_acceleration,-1.5312691,1.8282995,-4.9100704
77,android.sensor.orientation,170.06097,-26.973604,-5.5480795
77,android.sensor.accelerometer,-2.6659436,6.199785,3.6870706
77,android.sensor.orientation,126.03313,-33.42344,-9.990743
77,android.sensor.magnetic_field_uncalibrated,-14.7,19.5,10.1,-16.0,36.8,44.0
77,android.sensor.game_rotation_vector,0.291934,0.061577,-0.046918,0.9533
78,android.sensor.rotation_vector,0.202842,-0.218797,-0.841914,0.449625,3.0
78,android.sensor.accelerometer,-2.574964,6.2979474,3.5865142
78,android.sensor.gravity,-1.4199818,5.4017205,8.060733
79,android.sensor.linear_acceleration,-1.2459618,0.7980647,-4.373662
79,android.sensor.magnetic_field,1.2,-17.2,-33.8
79,android.sensor.accelerometer,-2.3116016,6.3063273,3.3327289
79,android.sensor.magnetic_field,0.8,-16.800001,-36.0
79,android.sensor.magnetic_field_uncalibrated,-15.1,19.9,7.9,-16.0,36.8,44.0
79,android.sensor.game_rotation_vector,0.333058,0.084276,-0.048035,0.937903
79,android.sensor.rotation_vector,0.33692,-0.067192,-0.446823,0.826025,3.0
79,android.sensor.accelerometer,-2.3116016,6.3063273,3.3327289
79,android.sensor.gravity,-1.8640741,6.047315,7.4916954
80,android.sensor.linear_acceleration,-0.44752753,0.25901222,-4.1589665
80,android.sensor.orientation,60.101723,-38.07224,-13.972524
80,android.sensor.accelerometer,-2.2266076,6.173449,3.2992098
80,android.sensor.pressure,1007.14795,0.0,0.0
80,android.sensor.accelerometer,-2.2266076,6.173449,3.2992098
80,android.sensor.light,3169.0,4954.0,3169.0
80,android.sensor.rotation_vector,0.372941,0.061757,-0.144422,0.914462,3.0
80,android.sensor.magnetic_field_uncalibrated,-15.0,19.5,10.1,-16.0,36.8,44.0
80,android.sensor.game_rotation_vector,0.364346,0.100751,-0.047158,0.924595
81,android.sensor.magnetic_field,0.90000004,-17.2,-33.8
81,android.sensor.gravity,-2.1640394,6.5139947,7.0039306
81,android.sensor.linear_acceleration,-0.06256819,-0.34054565,-3.7047207
81,android.sensor.orientation,22.03693,-41.624245,-17.16984
86,android.sensor.orientation,16.499395,-44.14371,-19.657244
86,android.sensor.magnetic_field,0.3,-17.2,-35.100002
87,android.sensor.magnetic_field_uncalibrated,-15.6,19.5,8.8,-16.0,36.8,44.0
87,android.sensor.game_rotation_vector,0.386474,0.112919,-0.045182,0.914245
87,android.sensor.rotation_vector,0.391987,0.091972,-0.094281,0.910493,3.0
88,android.sensor.gravity,-2.3672624,6.8299437,6.627086
88,android.sensor.linear_acceleration,0.18255329,-1.0347786,-3.3386502
88,android.sensor.accelerometer,-2.184709,5.795165,3.288436
89,android.sensor.accelerometer,-2.1655555,5.746084,3.3195608
100,android.sensor.orientation,27.739304,-45.917652,-21.672127
100,android.sensor.magnetic_field,0.90000004,-17.2,-35.100002
100,android.sensor.magnetic_field_uncalibrated,-15.0,19.5,8.8,-16.0,36.8,44.0
100,android.sensor.game_rotation_vector,0.402084,0.122766,-0.042754,0.906326
100,android.sensor.rotation_vector,0.415928,0.061213,-0.177903,0.889722,3.0
100,android.sensor.gravity,-2.5194736,7.044515,6.3401337
100,android.sensor.linear_acceleration,0.4520805,-1.2541385,-2.960718
100,android.sensor.accelerometer,-2.067393,5.7903767,3.3794158
139,android.sensor.accelerometer,-1.6053122,6.087258,3.654749
140,android.sensor.magnetic_field,0.90000004,-17.1,-35.4
140,android.sensor.magnetic_field_uncalibrated,-15.1,19.6,8.5,-16.0,36.8,44.0
140,android.sensor.game_rotation_vector,0.413362,0.13042,-0.039741,0.900301
140,android.sensor.rotation_vector,0.433001,0.019691,-0.270011,0.859776,3.0
140,android.sensor.accelerometer,-1.6053122,6.087258,3.654749
140,android.sensor.gravity,-2.62514,7.1974354,6.1217504
140,android.sensor.linear_acceleration,1.0198277,-1.1101775,-2.4670014
140,android.sensor.orientation,40.31922,-47.21723,-23.210709
140,android.sensor.accelerometer,-1.34195,6.227319,3.8271315
141,android.sensor.accelerometer,-1.1013328,6.2859764,3.9205053
141,android.sensor.magnetic_field,0.6,-17.7,-36.0
141,android.sensor.gyroscope,0.38136467,-0.42077947,0.3355583
141,android.sensor.magnetic_field_uncalibrated,-15.3,19.0,7.9,-16.0,36.8,44.0
141,android.sensor.game_rotation_vector,0.421938,0.13425,-0.035262,0.895936
141,android.sensor.rotation_vector,0.442779,0.001373,-0.302631,0.844013,3.0
141,android.sensor.accelerometer,-1.1013328,6.2859764,3.9205053
141,android.sensor.gravity,-2.6508842,7.3215613,5.9613624
141,android.sensor.linear_acceleration,1.5495514,-1.0355849,-2.040857
141,android.sensor.orientation,45.03796,-48.295975,-23.973642
141,android.sensor.accelerometer,-0.90500826,6.2584434,3.9683893
141,android.sensor.gyroscope,0.4261058,-0.4111921,0.3323625
142,android.sensor.orientation,44.749924,-50.09497,-23.688879
142,android.sensor.magnetic_field,0.0,-17.5,-36.3
142,android.sensor.gyroscope,0.46871635,-0.38136467,0.32490566
142,android.sensor.magnetic_field_uncalibrated,-16.0,19.2,7.6,-16.0,36.8,44.0
142,android.sensor.gyroscope_uncalibrated,0.47510794,-0.3888215,0.314253,0.0063915867,-0.007456851,-0.010652645
142,android.sensor.game_rotation_vector,0.435414,0.129166,-0.031849,0.890345
142,android.sensor.rotation_vector,0.454087,-0.008617,-0.299723,0.838984,3.0
142,android.sensor.gravity,-2.5275815,7.522768,5.7610292
142,android.sensor.linear_acceleration,1.7686195,-1.3098145,-1.7447557
142,android.sensor.accelerometer,-0.7589619,6.2129536,4.0162735
142,android.sensor.accelerometer,-0.58657944,6.2871737,3.8738184
142,android.sensor.gyroscope,0.5091964,-0.33449304,0.30360037
142,android.sensor.gyroscope_uncalibrated,0.515588,-0.34194988,0.29294774,0.0063915867,-0.007456851,-0.010652645
142,android.sensor.accelerometer,-0.58657944,6.2871737,3.8738184
143,android.sensor.gyroscope,0.5091964,-0.33449304,0.30360037
143,android.sensor.gyroscope_uncalibrated,0.515588,-0.34194988,0.29294774,0.0063915867,-0.007456851,-0.010652645
143,android.sensor.orientation,43.439507,-51.480484,-22.883358
143,android.sensor.gyroscope,0.5454154,-0.27803403,0.27483824
143,android.sensor.magnetic_field_uncalibrated,-15.6,18.6,10.1,-16.0,36.8,44.0
143,android.sensor.gyroscope_uncalibrated,0.551807,-0.28549087,0.26418558,0.0063915867,-0.007456851,-0.010652645
143,android.sensor.game_rotation_vector,0.445127,0.122388,-0.028249,0.886613
143,android.sensor.rotation_vector,0.461382,-0.015608,-0.290792,0.838046,3.0
143,android.sensor.accelerometer,-0.58657944,6.2871737,3.8738184
143,android.sensor.gravity,-2.3748956,7.6726847,5.626724
143,android.sensor.linear_acceleration,1.7883161,-1.3855109,-1.7529054
143,android.sensor.magnetic_field,0.3,-18.1,-33.8
144,android.sensor.accelerometer,-0.7098808,6.3087215,3.775656
144,android.sensor.gyroscope,0.5763081,-0.22690132,0.2396845
144,android.sensor.gyroscope_uncalibrated,0.58269966,-0.23435818,0.22903186,0.0063915867,-0.007456851,-0.010652645
149,android.sensor.gyroscope_uncalibrated,0.6125271,-0.1949434,0.19600865,0.0063915867,-0.007456851,-0.010652645
149,android.sensor.gyroscope,0.6061355,-0.18748654,0.2066613
149,android.sensor.accelerometer,-0.94570965,6.3589997,3.6858735
149,android.sensor.orientation,40.57937,-52.707287,-15.7885475
149,android.sensor.gravity,-2.20597,7.801686,5.517034
150,android.sensor.linear_acceleration,1.2602603,-1.4426861,-1.8311605
150,android.sensor.magnetic_field,0.90000004,-17.9,-33.5
150,android.sensor.magnetic_field_uncalibrated,-15.0,18.800001,10.400001,-16.0,36.8,44.0
150,android.sensor.game_rotation_vector,0.453348,0.114827,-0.024296,0.883571
150,android.sensor.rotation_vector,0.467356,-0.016968,-0.271202,0.841272,3.0
150,android.sensor.orientation,40.57937,-52.707287,-15.7885475
150,android.sensor.accelerometer,-0.94570965,6.3589997,3.6858735
150,android.sensor.magnetic_field,0.90000004,-17.9,-33.5
150,android.sensor.gyroscope,0.6061355,-0.18748654,0.2066613
150,android.sensor.magnetic_field_uncalibrated,-15.0,18.800001,10.400001,-16.0,36.8,44.0
150,android.sensor.gyroscope_uncalibrated,0.6125271,-0.1949434,0.19600865,0.0063915867,-0.007456851,-0.010652645
150,android.sensor.game_rotation_vector,0.453348,0.114827,-0.024296,0.883571
150,android.sensor.rotation_vector,0.467356,-0.016968,-0.271202,0.841272,3.0
151,android.sensor.gravity,-2.20597,7.801686,5.517034
151,android.sensor.linear_acceleration,1.2602603,-1.4426861,-1.8311605
156,android.sensor.orientation,35.741013,-53.777313,-14.640621
157,android.sensor.magnetic_field,-0.8,-18.1,-35.7
157,android.sensor.gyroscope,0.6540724,-0.16405073,0.16937704
157,android.sensor.magnetic_field_uncalibrated,-16.800001,18.6,8.2,-16.0,36.8,44.0
157,android.sensor.gyroscope_uncalibrated,0.660464,-0.17150758,0.1587244,0.0063915867,-0.007456851,-0.010652645
157,android.sensor.game_rotation_vector,0.460612,0.108643,-0.021045,0.880675
157,android.sensor.rotation_vector,0.473187,-0.007798,-0.236673,0.848539,3.0
157,android.sensor.gravity,-2.0667257,7.9112835,5.4139233
157,android.sensor.linear_acceleration,0.5344367,-1.2901187,-1.9243743
158,android.sensor.accelerometer,-1.532289,6.621165,3.489549
193,android.sensor.gyroscope_uncalibrated,0.6870956,-0.17044231,0.16831179,0.0063915867,-0.007456851,-0.010652645
193,android.sensor.gyroscope,0.680704,-0.16298546,0.17896444
193,android.sensor.accelerometer,-1.9572599,6.9024835,3.4560301
193,android.sensor.orientation,32.86903,-54.738678,-13.915408
193,android.sensor.gravity,-1.9839164,8.0074,5.3024397
193,android.sensor.linear_acceleration,0.026656508,-1.1049161,-1.8464096
193,android.sensor.magnetic_field,0.4,-19.0,-35.600002
193,android.sensor.magnetic_field_uncalibrated,-15.5,17.7,8.3,-16.0,36.8,44.0
193,android.sensor.game_rotation_vector,0.467567,0.105032,-0.019219,0.877484
194,android.sensor.rotation_vector,0.479212,-0.002591,-0.215679,0.850782,3.0
194,android.sensor.orientation,32.86903,-54.738678,-13.915408
194,android.sensor.accelerometer,-1.9572599,6.9024835,3.4560301
194,android.sensor.magnetic_field,0.4,-19.0,-35.600002
194,android.sensor.gyroscope,0.680704,-0.16298546,0.17896444
194,android.sensor.magnetic_field_uncalibrated,-15.5,17.7,8.3,-16.0,36.8,44.0
194,android.sensor.gyroscope_uncalibrated,0.6870956,-0.17044231,0.16831179,0.0063915867,-0.007456851,-0.010652645
194,android.sensor.game_rotation_vector,0.467567,0.105032,-0.019219,0.877484
194,android.sensor.rotation_vector,0.479212,-0.002591,-0.215679,0.850782,3.0
194,android.sensor.gravity,-1.9839164,8.0074,5.3024397
194,android.sensor.linear_acceleration,0.026656508,-1.1049161,-1.8464096
194,android.sensor.orientation,30.816387,-55.629883,-13.554274
194,android.sensor.magnetic_field,1.4,-17.300001,-34.5
194,android.sensor.gyroscope,0.6743124,-0.10972224,0.22903186
194,android.sensor.magnetic_field_uncalibrated,-14.6,19.5,9.5,-16.0,36.8,44.0
194,android.sensor.gyroscope_uncalibrated,0.680704,-0.11717909,0.21837921,0.0063915867,-0.007456851,-0.010652645
194,android.sensor.game_rotation_vector,0.474434,0.103734,-0.018624,0.873959
194,android.sensor.rotation_vector,0.485634,0.002832,-0.199914,0.850991,3.0
194,android.sensor.gravity,-1.951426,8.094488,5.180885
194,android.sensor.linear_acceleration,-0.08723664,-0.8616047,-1.6841533
194,android.sensor.accelerometer,-2.0386627,7.2328835,3.4967315
195,android.sensor.accelerometer,-1.9955671,7.433996,3.5625722
195,android.sensor.gyroscope,0.660464,-0.053263225,0.25885928
195,android.sensor.gyroscope_uncalibrated,0.6668556,-0.060720075,0.24820662,0.0063915867,-0.007456851,-0.010652645
195,android.sensor.accelerometer,-1.9955671,7.433996,3.5625722
195,android.sensor.gyroscope,0.660464,-0.053263225,0.25885928
195,android.sensor.gyroscope_uncalibrated,0.6668556,-0.060720075,0.24820662,0.0063915867,-0.007456851,-0.010652645
195,android.sensor.rotation_vector,0.492266,0.012217,-0.180797,0.851373,3.0
195,android.sensor.magnetic_field_uncalibrated,-14.7,19.4,9.5,-16.0,36.8,44.0
195,android.sensor.game_rotation_vector,0.481308,0.10401,-0.018482,0.870162
195,android.sensor.magnetic_field,1.3000001,-17.4,-34.5
195,android.sensor.gravity,-1.9495902,8.176651,5.050914
195,android.sensor.linear_acceleration,-0.045976877,-0.7426548,-1.4883416
195,android.sensor.orientation,28.380278,-56.489677,-13.410855
195,android.sensor.accelerometer,-1.6448165,8.109161,3.882198
195,android.sensor.gyroscope,0.6061355,0.10226539,0.32170987
195,android.sensor.gyroscope_uncalibrated,0.6125271,0.094808534,0.3110572,0.0063915867,-0.007456851,-0.010652645
195,android.sensor.gyroscope,0.6061355,0.10226539,0.32170987
195,android.sensor.gyroscope_uncalibrated,0.6125271,0.094808534,0.3110572,0.0063915867,-0.007456851,-0.010652645
195,android.sensor.accelerometer,-1.6448165,8.109161,3.882198
196,android.sensor.orientation,26.568468,-57.311203,-13.332144
196,android.sensor.magnetic_field,1.2,-17.5,-34.600002
196,android.sensor.gyroscope,0.5784386,0.1949434,0.34940675
196,android.sensor.magnetic_field_uncalibrated,-14.8,19.300001,9.400001,-16.0,36.8,44.0
196,android.sensor.gyroscope_uncalibrated,0.58483016,0.18748654,0.3387541,0.0063915867,-0.007456851,-0.010652645
196,android.sensor.game_rotation_vector,0.487881,0.104995,-0.01795,0.866386
196,android.sensor.rotation_vector,0.498659,0.019768,-0.16627,0.850471,3.0
196,android.sensor.gravity,-1.9559196,8.253438,4.921927
196,android.sensor.linear_acceleration,0.3111031,-0.14427662,-1.0397289
196,android.sensor.accelerometer,-1.6448165,8.109161,3.882198
202,android.sensor.orientation,25.452047,-58.088593,-13.182163
202,android.sensor.magnetic_field,1.1,-17.6,-34.600002
202,android.sensor.gyroscope,0.5336975,0.3653857,0.3920173
203,android.sensor.magnetic_field_uncalibrated,-14.900001,19.2,9.400001,-16.0,36.8,44.0
203,android.sensor.gyroscope_uncalibrated,0.5400891,0.35792887,0.38136467,0.0063915867,-0.007456851,-0.010652645
203,android.sensor.game_rotation_vector,0.493863,0.105847,-0.016347,0.862918
203,android.sensor.rotation_vector,0.504525,0.023647,-0.157263,0.848624,3.0
203,android.sensor.gravity,-1.9497685,8.324536,4.803206
203,android.sensor.linear_acceleration,0.4869113,0.13417816,-0.7953124
203,android.sensor.accelerometer,-1.4628572,8.4587145,4.0078936
210,android.sensor.accelerometer,-1.3311762,8.635885,4.06296
210,android.sensor.gyroscope,0.5230448,0.4261058,0.40586576
210,android.sensor.gyroscope_uncalibrated,0.5294364,0.41864893,0.39521313,0.0063915867,-0.007456851,-0.010652645
210,android.sensor.accelerometer,-1.3311762,8.635885,4.06296
210,android.sensor.gyroscope,0.5230448,0.4261058,0.40586576
210,android.sensor.gyroscope_uncalibrated,0.5294364,0.41864893,0.39521313,0.0063915867,-0.007456851,-0.010652645
215,android.sensor.orientation,24.678482,-58.83769,-12.928484
216,android.sensor.gravity,-1.9263235,8.391598,4.6947355
216,android.sensor.linear_acceleration,0.75675595,0.44180965,-0.56593466
216,android.sensor.rotation_vector,0.509915,0.024936,-0.151217,0.846461,3.0
216,android.sensor.magnetic_field_uncalibrated,-15.0,19.1,9.400001,-16.0,36.8,44.0
216,android.sensor.magnetic_field,1.0,-17.7,-34.600002
216,android.sensor.game_rotation_vector,0.499328,0.106335,-0.013603,0.859755
216,android.sensor.gravity,-1.9263235,8.391598,4.6947355
216,android.sensor.linear_acceleration,0.75675595,0.44180965,-0.56593466
216,android.sensor.accelerometer,-1.1695676,8.833407,4.128801
216,android.sensor.orientation,24.678482,-58.83769,-12.928484
216,android.sensor.gyroscope,0.52411014,0.46232477,0.4101268
216,android.sensor.gyroscope_uncalibrated,0.5305017,0.45486793,0.39947417,0.0063915867,-0.007456851,-0.010652645
216,android.sensor.magnetic_field,1.0,-17.7,-34.600002
216,android.sensor.magnetic_field_uncalibrated,-15.0,19.1,9.400001,-16.0,36.8,44.0
216,android.sensor.game_rotation_vector,0.499328,0.106335,-0.013603,0.859755
216,android.sensor.rotation_vector,0.509915,0.024936,-0.151217,0.846461,3.0
222,android.sensor.orientation,23.856495,-59.598804,-12.510602
222,android.sensor.magnetic_field,0.90000004,-17.800001,-34.600002
222,android.sensor.gyroscope,0.56245965,0.4708469,0.3920173
222,android.sensor.magnetic_field_uncalibrated,-15.1,19.0,9.400001,-16.0,36.8,44.0
222,android.sensor.gyroscope_uncalibrated,0.56885123,0.46339005,0.38136467,0.0063915867,-0.007456851,-0.010652645
222,android.sensor.game_rotation_vector,0.504532,0.105902,-0.009813,0.856817
222,android.sensor.rotation_vector,0.514935,0.024675,-0.145364,0.844453,3.0
222,android.sensor.gravity,-1.8767946,8.458266,4.5940833
222,android.sensor.linear_acceleration,0.9705892,0.7223005,-0.40423012
222,android.sensor.accelerometer,-0.90620536,9.180567,4.189853
225,android.sensor.accelerometer,-0.7781156,9.361329,4.1096473
225,android.sensor.gyroscope,0.5944176,0.4527374,0.36645097
225,android.sensor.gyroscope_uncalibrated,0.60080916,0.44528055,0.35579833,0.0063915867,-0.007456851,-0.010652645
233,android.sensor.gyroscope_uncalibrated,0.6348976,0.41864893,0.3174488,0.0063915867,-0.007456851,-0.010652645
233,android.sensor.gyroscope,0.628506,0.4261058,0.32810146
233,android.sensor.accelerometer,-0.62967503,9.531317,3.9875429
233,android.sensor.game_rotation_vector,0.509772,0.104158,-0.00528,0.853964
233,android.sensor.rotation_vector,0.519807,0.022724,-0.139461,0.842516,3.0
233,android.sensor.accelerometer,-0.62967503,9.531317,3.9875429
233,android.sensor.gyroscope,0.628506,0.4261058,0.32810146
233,android.sensor.gyroscope_uncalibrated,0.6348976,0.41864893,0.3174488,0.0063915867,-0.007456851,-0.010652645
233,android.sensor.gravity,-1.7973262,8.527404,4.497022
233,android.sensor.linear_acceleration,1.1676512,1.0039129,-0.5094793
233,android.sensor.orientation,22.947216,-60.406754,-11.902062
233,android.sensor.magnetic_field,0.8,-17.9,-34.600002
233,android.sensor.magnetic_field_uncalibrated,-15.2,18.9,9.400001,-16.0,36.8,44.0
235,android.sensor.accelerometer,-0.51595044,9.710882,3.799598
236,android.sensor.gyroscope,0.6593987,0.3888215,0.27803403
236,android.sensor.gyroscope_uncalibrated,0.66579026,0.38136467,0.26738137,0.0063915867,-0.007456851,-0.010652645
242,android.sensor.gyroscope_uncalibrated,0.6849651,0.3355583,0.20453078,0.0063915867,-0.007456851,-0.010652645
242,android.sensor.gyroscope,0.6785734,0.34301516,0.21518342
242,android.sensor.accelerometer,-0.415394,9.896433,3.608062
242,android.sensor.game_rotation_vector,0.515639,0.10097,-2.46E-4,0.850835
242,android.sensor.rotation_vector,0.525082,0.019174,-0.133165,0.840349,3.0
242,android.sensor.accelerometer,-0.415394,9.896433,3.608062
242,android.sensor.gyroscope,0.6785734,0.34301516,0.21518342
243,android.sensor.gyroscope_uncalibrated,0.6849651,0.3355583,0.20453078,0.0063915867,-0.007456851,-0.010652645
243,android.sensor.gravity,-1.6874381,8.604332,4.3918347
243,android.sensor.linear_acceleration,1.2720442,1.2921009,-0.7837727
243,android.sensor.orientation,21.91116,-61.330017,-11.095738
243,android.sensor.magnetic_field,0.7,-18.0,-34.600002
243,android.sensor.magnetic_field_uncalibrated,-15.3,18.800001,9.400001,-16.0,36.8,44.0
249,android.sensor.gyroscope,0.6785734,0.23116238,0.056459017
249,android.sensor.gyroscope_uncalibrated,0.6849651,0.22370553,0.04580637,0.0063915867,-0.007456851,-0.010652645
249,android.sensor.accelerometer,-0.49799395,10.079589,3.3159695
249,android.sensor.gyroscope,0.6785734,0.23116238,0.056459017
249,android.sensor.pressure,1007.1416,0.0,0.0
249,android.sensor.gyroscope_uncalibrated,0.6849651,0.22370553,0.04580637,0.0063915867,-0.007456851,-0.010652645
249,android.sensor.accelerometer,-0.49799395,10.079589,3.3159695
249,android.sensor.light,3293.0,4950.0,3293.0
254,android.sensor.orientation,20.74346,-62.420464,-10.132049
254,android.sensor.magnetic_field,0.7,-18.2,-34.600002
254,android.sensor.gyroscope,0.6785734,0.23116238,0.056459017
254,android.sensor.magnetic_field_uncalibrated,-15.3,18.6,9.400001,-16.0,36.8,44.0
254,android.sensor.gyroscope_uncalibrated,0.6849651,0.22370553,0.04580637,0.0063915867,-0.007456851,-0.010652645
254,android.sensor.game_rotation_vector,0.522645,0.096549,0.004941,0.84705
254,android.sensor.rotation_vector,0.531292,0.014453,-0.126283,0.837599,3.0
254,android.sensor.gravity,-1.5533532,8.69231,4.2662835
254,android.sensor.linear_acceleration,1.0553592,1.3872786,-0.95031404
254,android.sensor.accelerometer,-0.49799395,10.079589,3.3159695
262,android.sensor.orientation,19.568739,-63.59155,-9.192042
262,android.sensor.gyroscope,0.628506,0.10972224,-0.113983296
262,android.sensor.magnetic_field_uncalibrated,-15.400001,18.5,9.400001,-16.0,36.8,44.0
262,android.sensor.step_detector,1.0
262,android.sensor.gyroscope_uncalibrated,0.6348976,0.10226539,-0.12463594,0.0063915867,-0.007456851,-0.010652645
262,android.sensor.game_rotation_vector,0.530385,0.091916,0.009408,0.842706
262,android.sensor.rotation_vector,0.538199,0.009897,-0.119307,0.834271,3.0
263,android.sensor.accelerometer,-0.9888053,9.915586,3.052607
263,android.sensor.gravity,-1.4213305,8.783289,4.123576
263,android.sensor.linear_acceleration,0.9233365,1.2962999,-0.8076067
263,android.sensor.magnetic_field,0.6,-18.300001,-34.600002
267,android.sensor.accelerometer,-1.3096284,9.757569,2.9879637
267,android.sensor.gyroscope,0.58269966,0.058589544,-0.19281286
267,android.sensor.gyroscope_uncalibrated,0.58909124,0.051132694,-0.2034655,0.0063915867,-0.007456851,-0.010652645
274,android.sensor.gyroscope,0.5251754,0.026631612,-0.25672874
274,android.sensor.gyroscope_uncalibrated,0.531567,0.01917476,-0.26738137,0.0063915867,-0.007456851,-0.010652645
274,android.sensor.accelerometer,-1.6723499,9.506178,2.9843724
274,android.sensor.rotation_vector,0.545168,0.007147,-0.113498,0.830577,3.0
274,android.sensor.orientation,18.64382,-64.68701,-8.532338
274,android.sensor.magnetic_field_uncalibrated,-15.5,18.300001,9.5,-16.0,36.8,44.0
274,android.sensor.game_rotation_vector,0.537963,0.088627,0.012038,0.838209
274,android.sensor.magnetic_field,0.5,-18.5,-34.5
274,android.sensor.gyroscope,0.5251754,0.026631612,-0.25672874
274,android.sensor.gyroscope_uncalibrated,0.531567,0.01917476,-0.26738137,0.0063915867,-0.007456851,-0.010652645
275,android.sensor.accelerometer,-1.6723499,9.506178,2.9843724
275,android.sensor.gravity,-1.3300095,8.865071,3.9764159
275,android.sensor.linear_acceleration,0.020381093,0.892498,-0.9884522
275,android.sensor.step_counter,22674.0
283,android.sensor.gyroscope_uncalibrated,0.37923414,0.0,-0.34301516,0.0063915867,-0.007456851,-0.010652645
283,android.sensor.accelerometer,-2.4313118,9.084799,3.1316159
283,android.sensor.gyroscope,0.37284255,0.007456851,-0.3323625
283,android.sensor.rotation_vector,0.551316,0.007071,-0.109799,0.827008,3.0
283,android.sensor.gyroscope_uncalibrated,0.37923414,0.0,-0.34301516,0.0063915867,-0.007456851,-0.010652645
283,android.sensor.accelerometer,-2.4313118,9.084799,3.1316159
283,android.sensor.gyroscope,0.37284255,0.007456851,-0.3323625
283,android.sensor.gravity,-1.3019646,8.927316,3.8442197
283,android.sensor.linear_acceleration,-0.3703853,0.5788622,-0.8598473
283,android.sensor.magnetic_field,0.5,-18.6,-34.5
283,android.sensor.orientation,18.145014,-65.551384,-8.29755
284,android.sensor.magnetic_field_uncalibrated,-15.5,18.2,9.5,-16.0,36.8,44.0
284,android.sensor.game_rotation_vector,0.544348,0.087662,0.012387,0.834174
286,android.sensor.accelerometer,-2.815581,9.018958,3.241749
286,android.sensor.gyroscope,0.27803403,0.020240024,-0.34194988
286,android.sensor.gyroscope_uncalibrated,0.28442562,0.0127831735,-0.35260254,0.0063915867,-0.007456851,-0.010652645
293,android.sensor.gyroscope_uncalibrated,0.18216023,0.04580637,-0.3472762,0.0063915867,-0.007456851,-0.010652645
294,android.sensor.gyroscope,0.17576863,0.053263225,-0.33662358
294,android.sensor.accelerometer,-3.1399956,9.035717,3.4871547
294,android.sensor.game_rotation_vector,0.548906,0.089297,0.010722,0.83103
294,android.sensor.rotation_vector,0.556037,0.009774,-0.10839,0.824001,3.0
294,android.sensor.accelerometer,-3.1399956,9.035717,3.4871547
294,android.sensor.gyroscope,0.17576863,0.053263225,-0.33662358
294,android.sensor.gyroscope_uncalibrated,0.18216023,0.04580637,-0.3472762,0.0063915867,-0.007456851,-0.010652645
294,android.sensor.gravity,-1.3400323,8.965547,3.740792
294,android.sensor.linear_acceleration,-1.7999632,0.0701704,-0.2536373
294,android.sensor.orientation,18.102873,-66.0968,-8.500766
294,android.sensor.magnetic_field,0.4,-18.800001,-34.5
294,android.sensor.magnetic_field_uncalibrated,-15.6,18.0,9.5,-16.0,36.8,44.0
302,android.sensor.gyroscope_uncalibrated,-0.02130529,0.18322548,-0.2908172,0.0063915867,-0.007456851,-0.010652645
303,android.sensor.gyroscope,-0.027696876,0.19068234,-0.28016454
303,android.sensor.accelerometer,-3.9731777,9.041702,5.046977
303,android.sensor.game_rotation_vector,0.551497,0.093672,0.00746,0.828866
303,android.sensor.rotation_vector,0.559196,0.014941,-0.109533,0.821631,3.0
303,android.sensor.accelerometer,-3.9731777,9.041702,5.046977
303,android.sensor.gyroscope,-0.027696876,0.19068234,-0.28016454
303,android.sensor.gyroscope_uncalibrated,-0.02130529,0.18322548,-0.2908172,0.0063915867,-0.007456851,-0.010652645
303,android.sensor.gravity,-1.4420955,8.979287,3.6691895
303,android.sensor.linear_acceleration,-2.5310822,0.062415123,1.3777876
303,android.sensor.orientation,18.554491,-66.29571,-9.123929
303,android.sensor.magnetic_field,0.4,-19.0,-34.4
303,android.sensor.magnetic_field_uncalibrated,-15.6,17.800001,9.6,-16.0,36.8,44.0
310,android.sensor.accelerometer,-4.1395745,9.029732,5.6060233
310,android.sensor.gyroscope,-0.17896444,0.43888897,-0.17044231
310,android.sensor.gyroscope_uncalibrated,-0.17257284,0.4314321,-0.18109496,0.0063915867,-0.007456851,-0.010652645
310,android.sensor.accelerometer,-4.1395745,9.029732,5.6060233
310,android.sensor.gyroscope,-0.17896444,0.43888897,-0.17044231
310,android.sensor.gyroscope_uncalibrated,-0.17257284,0.4314321,-0.18109496,0.0063915867,-0.007456851,-0.010652645
313,android.sensor.orientation,19.61871,-65.81397,-10.263527
313,android.sensor.magnetic_field_uncalibrated,-15.6,17.7,9.6,-16.0,36.8,44.0
313,android.sensor.gyroscope_uncalibrated,-0.2066613,0.58269966,-0.10546118,0.0063915867,-0.007456851,-0.010652645
313,android.sensor.game_rotation_vector,0.549789,0.101342,0.002611,0.829128
313,android.sensor.rotation_vector,0.558578,0.022997,-0.114045,0.821251,3.0
313,android.sensor.accelerometer,-4.209007,8.992621,6.0106435
313,android.sensor.gyroscope,-0.2130529,0.5901565,-0.094808534
314,android.sensor.gravity,-1.6198494,8.945823,3.6767435
314,android.sensor.linear_acceleration,-2.519725,0.083909035,1.9292798
314,android.sensor.magnetic_field,0.4,-19.1,-34.4
321,android.sensor.accelerometer,-4.209007,8.992621,6.0106435
321,android.sensor.gyroscope,-0.2130529,0.5901565,-0.094808534
321,android.sensor.gyroscope_uncalibrated,-0.2066613,0.58269966,-0.10546118,0.0063915867,-0.007456851,-0.010652645
323,android.sensor.orientation,21.09572,-64.59784,-11.811519
323,android.sensor.magnetic_field,0.4,-19.300001,-34.4
323,android.sensor.gyroscope,-0.18642128,0.87351686,0.05965481
323,android.sensor.magnetic_field_uncalibrated,-15.6,17.5,9.6,-16.0,36.8,44.0
323,android.sensor.gyroscope_uncalibrated,-0.18002969,0.86606,0.049002163,0.0063915867,-0.007456851,-0.010652645
324,android.sensor.game_rotation_vector,0.543013,0.112118,-0.002111,0.832202
324,android.sensor.rotation_vector,0.55346,0.033396,-0.120974,0.823365,3.0
324,android.sensor.gravity,-1.8525031,8.858535,3.7768693
324,android.sensor.linear_acceleration,-2.1206746,0.12570667,2.589313
324,android.sensor.accelerometer,-3.9731777,8.9842415,6.3661823
326,android.sensor.accelerometer,-3.9731777,8.9842415,6.3661823
326,android.sensor.gyroscope,-0.18642128,0.87351686,0.05965481
326,android.sensor.gyroscope_uncalibrated,-0.18002969,0.86606,0.049002163,0.0063915867,-0.007456851,-0.010652645
334,android.sensor.gyroscope_uncalibrated,-0.06178534,1.0567423,0.16405073,0.0063915867,-0.007456851,-0.010652645
334,android.sensor.gyroscope,-0.068176925,1.0641992,0.17470337
334,android.sensor.accelerometer,-3.6595373,9.165004,6.087258
334,android.sensor.game_rotation_vector,0.53338,0.123221,-0.00559,0.836833
334,android.sensor.rotation_vector,0.545874,0.041215,-0.131968,0.826381,3.0
334,android.sensor.accelerometer,-3.6595373,9.165004,6.087258
334,android.sensor.gyroscope,-0.068176925,1.0641992,0.17470337
334,android.sensor.gyroscope_uncalibrated,-0.06178534,1.0567423,0.16405073,0.0063915867,-0.007456851,-0.010652645
334,android.sensor.gravity,-2.0809162,8.74088,3.9289935
334,android.sensor.linear_acceleration,-1.5786211,0.42412376,2.1582644
334,android.sensor.orientation,23.076166,-63.0398,-13.390974
334,android.sensor.magnetic_field,0.4,-19.4,-34.4
334,android.sensor.magnetic_field_uncalibrated,-15.6,17.4,9.6,-16.0,36.8,44.0
338,android.sensor.accelerometer,-3.6595373,9.165004,6.087258
338,android.sensor.gyroscope,-0.068176925,1.0641992,0.17470337
339,android.sensor.gyroscope_uncalibrated,-0.06178534,1.0567423,0.16405073,0.0063915867,-0.007456851,-0.010652645
342,android.sensor.orientation,25.959412,-61.638737,-14.707013
342,android.sensor.magnetic_field,0.4,-19.6,-34.3
342,android.sensor.gyroscope,0.09054748,1.1132014,0.221575
342,android.sensor.magnetic_field_uncalibrated,-15.6,17.2,9.7,-16.0,36.8,44.0
342,android.sensor.gyroscope_uncalibrated,0.096939065,1.1057445,0.21092236,0.0063915867,-0.007456851,-0.010652645
343,android.sensor.game_rotation_vector,0.524197,0.132929,-0.007011,0.841128
343,android.sensor.rotation_vector,0.539189,0.041569,-0.150379,0.827606,3.0
343,android.sensor.gravity,-2.265051,8.629557,4.070687
343,android.sensor.linear_acceleration,-1.2400603,0.822752,1.3497858
343,android.sensor.accelerometer,-3.5051112,9.452309,5.4204726
347,android.sensor.accelerometer,-3.4392707,9.601946,5.0014873
347,android.sensor.gyroscope,0.09054748,1.1132014,0.221575
347,android.sensor.gyroscope_uncalibrated,0.096939065,1.1057445,0.21092236,0.0063915867,-0.007456851,-0.010652645
354,android.sensor.gyroscope_uncalibrated,0.23542345,1.0077401,0.21092236,0.0063915867,-0.007456851,-0.010652645
354,android.sensor.accelerometer,-3.4344823,9.76954,4.571728
354,android.sensor.gyroscope,0.22903186,1.015197,0.221575
354,android.sensor.rotation_vector,0.535449,0.035386,-0.174243,0.825639,3.0
354,android.sensor.gyroscope_uncalibrated,0.23542345,1.0077401,0.21092236,0.0063915867,-0.007456851,-0.010652645
354,android.sensor.accelerometer,-3.4344823,9.76954,4.571728
354,android.sensor.gyroscope,0.22903186,1.015197,0.221575
355,android.sensor.gravity,-2.40291,8.549866,4.158847
355,android.sensor.linear_acceleration,-1.0363607,1.0520802,0.8426404
355,android.sensor.magnetic_field,0.4,-19.7,-34.3
355,android.sensor.orientation,29.517763,-60.673595,-15.697832
355,android.sensor.magnetic_field_uncalibrated,-15.6,17.1,9.7,-16.0,36.8,44.0
355,android.sensor.game_rotation_vector,0.517764,0.140989,-0.006852,0.843797
5,android.sensor.gyroscope_uncalibrated,0.3121225,0.7978831,0.18322548,0.0063915867,-0.007456851,-0.010652645
5,android.sensor.gyroscope,0.3057309,0.80533993,0.19387813
5,android.sensor.accelerometer,-3.4201171,9.999383,3.807978
5,android.sensor.game_rotation_vector,0.514848,0.147555,-0.005922,0.844466
5,android.sensor.rotation_vector,0.534853,0.027798,-0.195979,0.821432,3.0
5,android.sensor.accelerometer,-3.4201171,9.999383,3.807978
5,android.sensor.gyroscope,0.3057309,0.80533993,0.19387813
5,android.sensor.gyroscope_uncalibrated,0.3121225,0.7978831,0.18322548,0.0063915867,-0.007456851,-0.010652645
6,android.sensor.gravity,-2.5037186,8.510162,4.1807623
6,android.sensor.linear_acceleration,-0.9163985,1.4892206,-0.37278438
6,android.sensor.orientation,32.765663,-60.20341,-16.39406
6,android.sensor.magnetic_field,0.5,-19.9,-34.2
6,android.sensor.magnetic_field_uncalibrated,-15.5,16.9,9.8,-16.0,36.8,44.0
12,android.sensor.accelerometer,-3.3877954,10.08318,3.4368765
12,android.sensor.gyroscope,0.3174488,0.680704,0.16937704
12,android.sensor.gyroscope_uncalibrated,0.32384038,0.67324716,0.1587244,0.0063915867,-0.007456851,-0.010652645
12,android.sensor.accelerometer,-3.3877954,10.08318,3.4368765
12,android.sensor.gyroscope,0.3174488,0.680704,0.16937704
12,android.sensor.gyroscope_uncalibrated,0.32384038,0.67324716,0.1587244,0.0063915867,-0.007456851,-0.010652645
18,android.sensor.orientation,34.996346,-60.1251,-16.872244
18,android.sensor.magnetic_field,0.5,-20.0,-34.2
18,android.sensor.gyroscope,0.30786142,0.5475459,0.14061491
18,android.sensor.magnetic_field_uncalibrated,-15.5,16.800001,9.8,-16.0,36.8,44.0
18,android.sensor.gyroscope_uncalibrated,0.314253,0.5400891,0.12996227,0.0063915867,-0.007456851,-0.010652645
18,android.sensor.game_rotation_vector,0.514905,0.152853,-0.004981,0.843494
18,android.sensor.rotation_vector,0.536628,0.022831,-0.210286,0.816876,3.0
19,android.sensor.gravity,-2.57906,8.503493,4.1483917
19,android.sensor.linear_acceleration,-0.7895818,1.612009,-1.0718424
19,android.sensor.accelerometer,-3.3686419,10.115502,3.0765493
21,android.sensor.accelerometer,-3.3626564,10.141838,2.7712884
21,android.sensor.gyroscope,0.30786142,0.5475459,0.14061491
21,android.sensor.gyroscope_uncalibrated,0.314253,0.5400891,0.12996227,0.0063915867,-0.007456851,-0.010652645
25,android.sensor.orientation,36.306248,-60.335377,-17.218155
25,android.sensor.gyroscope,0.21518342,0.26844665,0.066046394
25,android.sensor.magnetic_field_uncalibrated,-15.5,16.6,9.900001,-16.0,36.8,44.0
26,android.sensor.gyroscope_uncalibrated,0.221575,0.2609898,0.05539375,0.0063915867,-0.007456851,-0.010652645
26,android.sensor.game_rotation_vector,0.51734,0.157268,-0.00454,0.841192
26,android.sensor.rotation_vector,0.540312,0.020908,-0.21775,0.812533,3.0
26,android.sensor.accelerometer,-3.430891,10.166978,2.517503
26,android.sensor.gravity,-2.6407619,8.521363,4.0722275
26,android.sensor.linear_acceleration,-0.7218945,1.6204748,-1.3009391
26,android.sensor.magnetic_field,0.5,-20.2,-34.100002
35,android.sensor.gyroscope,0.00958738,0.0031957934,-0.0127831735
35,android.sensor.gyroscope_uncalibrated,0.015978966,-0.004261058,-0.023435818,0.0063915867,-0.007456851,-0.010652645
35,android.sensor.accelerometer,-3.8271315,10.180145,2.5821466
36,android.sensor.rotation_vector,0.545955,0.02083,-0.221375,0.807769,3.0
36,android.sensor.gyroscope,0.00958738,0.0031957934,-0.0127831735
36,android.sensor.gyroscope_uncalibrated,0.015978966,-0.004261058,-0.023435818,0.0063915867,-0.007456851,-0.010652645
36,android.sensor.accelerometer,-3.8271315,10.180145,2.5821466
36,android.sensor.gravity,-2.700489,8.559132,3.952065
36,android.sensor.linear_acceleration,-0.730402,1.6078463,-1.434562
36,android.sensor.magnetic_field,0.6,-20.300001,-34.0
36,android.sensor.orientation,37.144306,-60.78432,-17.510992
36,android.sensor.magnetic_field_uncalibrated,-15.400001,16.5,10.0,-16.0,36.8,44.0
36,android.sensor.game_rotation_vector,0.521994,0.161316,-0.004938,0.83754
43,android.sensor.orientation,37.903065,-61.283936,-17.854973
43,android.sensor.gyroscope,-0.29827404,-0.15233281,-0.03834952
43,android.sensor.magnetic_field_uncalibrated,-15.3,16.300001,10.1,-16.0,36.8,44.0
43,android.sensor.gyroscope_uncalibrated,-0.29188246,-0.15978967,-0.049002163,0.0063915867,-0.007456851,-0.010652645
44,android.sensor.game_rotation_vector,0.52755,0.165444,-0.006445,0.833232
44,android.sensor.rotation_vector,0.552453,0.021841,-0.223953,0.802597,3.0
44,android.sensor.accelerometer,-4.2676644,10.031705,3.3147724
44,android.sensor.gravity,-2.770438,8.600545,3.8112304
44,android.sensor.linear_acceleration,-1.0566936,1.5796003,-1.2290838
44,android.sensor.magnetic_field,0.7,-20.5,-33.9
47,android.sensor.accelerometer,-4.382586,9.801862,3.8666358
47,android.sensor.gyroscope,-0.46658584,-0.16192019,-0.02130529
47,android.sensor.gyroscope_uncalibrated,-0.46019423,-0.16937704,-0.03195793,0.0063915867,-0.007456851,-0.010652645
54,android.sensor.gyroscope_uncalibrated,-0.62104917,-0.12996227,-0.0010652645,0.0063915867,-0.007456851,-0.010652645
54,android.sensor.gyroscope,-0.62744075,-0.12250541,0.00958738
54,android.sensor.accelerometer,-4.35625,9.5013895,4.44723
54,android.sensor.game_rotation_vector,0.531374,0.169726,-0.008749,0.829914
54,android.sensor.rotation_vector,0.557309,0.023905,-0.226844,0.798358,3.0
55,android.sensor.accelerometer,-4.35625,9.5013895,4.44723
55,android.sensor.gyroscope,-0.62744075,-0.12250541,0.00958738
55,android.sensor.gyroscope_uncalibrated,-0.62104917,-0.12996227,-0.0010652645,0.0063915867,-0.007456851,-0.010652645
55,android.sensor.gravity,-2.8538716,8.62023,3.7036827
55,android.sensor.linear_acceleration,-1.5023782,0.8811598,0.7435472
55,android.sensor.orientation,38.703102,-61.524227,-18.317991
55,android.sensor.magnetic_field,0.7,-20.7,-33.8
55,android.sensor.magnetic_field_uncalibrated,-15.3,16.1,10.2,-16.0,36.8,44.0
57,android.sensor.accelerometer,-4.3023806,9.187749,4.981137
57,android.sensor.gyroscope,-0.777643,-0.05539375,0.0479369
57,android.sensor.gyroscope_uncalibrated,-0.77125144,-0.0628506,0.037284255,0.0063915867,-0.007456851,-0.010652645
63,android.sensor.orientation,39.440025,-61.322285,-18.85882
63,android.sensor.magnetic_field,0.8,-20.800001,-33.7
64,android.sensor.gyroscope,-0.9108011,0.01917476,0.08948222
64,android.sensor.magnetic_field_uncalibrated,-15.2,16.0,10.3,-16.0,36.8,44.0
64,android.sensor.gyroscope_uncalibrated,-0.9044095,0.011717909,0.07882957,0.0063915867,-0.007456851,-0.010652645
64,android.sensor.game_rotation_vector,0.531407,0.173788,-0.010843,0.829027
64,android.sensor.rotation_vector,0.558461,0.026783,-0.230103,0.796527,3.0
64,android.sensor.gravity,-2.938797,8.603697,3.6756105
64,android.sensor.linear_acceleration,-1.3013344,0.31350708,1.7328911
64,android.sensor.accelerometer,-4.2401314,8.917204,5.4085016
71,android.sensor.accelerometer,-4.19105,8.717288,5.9663506
71,android.sensor.gyroscope,-1.0237192,0.080960095,0.13315806
71,android.sensor.pressure,1007.1255,0.0,0.0
71,android.sensor.gyroscope_uncalibrated,-1.0173275,0.07350325,0.12250541,0.0063915867,-0.007456851,-0.010652645
71,android.sensor.accelerometer,-4.19105,8.717288,5.9663506
71,android.sensor.gyroscope,-1.0237192,0.080960095,0.13315806
71,android.sensor.light,2855.0,4896.0,2855.0
71,android.sensor.gyroscope_uncalibrated,-1.0173275,0.07350325,0.12250541,0.0063915867,-0.007456851,-0.010652645
77,android.sensor.orientation,40.058193,-60.711975,-19.437117
77,android.sensor.gravity,-3.0182445,8.553081,3.7289534
77,android.sensor.linear_acceleration,-1.0710518,0.07322788,2.8491158
77,android.sensor.rotation_vector,0.555847,0.030173,-0.233577,0.797222,3.0
77,android.sensor.magnetic_field_uncalibrated,-15.2,15.900001,10.3,-16.0,36.8,44.0
77,android.sensor.magnetic_field,0.8,-20.9,-33.7
77,android.sensor.game_rotation_vector,0.527585,0.177568,-0.012115,0.830648
77,android.sensor.gravity,-3.0182445,8.553081,3.7289534
77,android.sensor.linear_acceleration,-1.0710518,0.07322788,2.8491158
77,android.sensor.accelerometer,-4.0892963,8.626308,6.578069
77,android.sensor.orientation,40.058193,-60.711975,-19.437117
77,android.sensor.gyroscope,-1.107875,0.13422333,0.17576863
77,android.sensor.gyroscope_uncalibrated,-1.1014835,0.12676647,0.165116,0.0063915867,-0.007456851,-0.010652645
77,android.sensor.magnetic_field,0.8,-20.9,-33.7
77,android.sensor.magnetic_field_uncalibrated,-15.2,15.900001,10.3,-16.0,36.8,44.0
78,android.sensor.game_rotation_vector,0.527585,0.177568,-0.012115,0.830648
78,android.sensor.rotation_vector,0.555847,0.030173,-0.233577,0.797222,3.0
84,android.sensor.gyroscope,-1.164334,0.25885928,0.25992453
84,android.sensor.gyroscope_uncalibrated,-1.1579424,0.2514024,0.24927188,0.0063915867,-0.007456851,-0.010652645
84,android.sensor.accelerometer,-3.7325604,8.574833,7.621941
84,android.sensor.rotation_vector,0.54941,0.03347,-0.237852,0.800283,3.0
84,android.sensor.gyroscope,-1.164334,0.25885928,0.25992453
85,android.sensor.gyroscope_uncalibrated,-1.1579424,0.2514024,0.24927188,0.0063915867,-0.007456851,-0.010652645
85,android.sensor.accelerometer,-3.7325604,8.574833,7.621941
85,android.sensor.gravity,-3.0883837,8.4675045,3.8643777
85,android.sensor.linear_acceleration,-1.0009127,0.15880394,2.7136915
85,android.sensor.magnetic_field,0.90000004,-21.0,-33.7
85,android.sensor.orientation,40.622368,-59.705627,-20.038616
85,android.sensor.magnetic_field_uncalibrated,-15.1,15.8,10.3,-16.0,36.8,44.0
85,android.sensor.game_rotation_vector,0.519905,0.180749,-0.01265,0.834786
87,android.sensor.accelerometer,-3.4883518,8.549694,7.9355817
87,android.sensor.gyroscope,-1.1366372,0.33129725,0.29614353
87,android.sensor.gyroscope_uncalibrated,-1.1302456,0.32384038,0.28549087,0.0063915867,-0.007456851,-0.010652645
95,android.sensor.gyroscope,-1.0759171,0.39840892,0.32277513
95,android.sensor.gyroscope_uncalibrated,-1.0695255,0.39095205,0.3121225,0.0063915867,-0.007456851,-0.010652645
95,android.sensor.accelerometer,-3.2273839,8.468291,8.040926
95,android.sensor.rotation_vector,0.539144,0.03502,-0.244312,0.805237,3.0
95,android.sensor.gyroscope,-1.0759171,0.39840892,0.32277513
95,android.sensor.gyroscope_uncalibrated,-1.0695255,0.39095205,0.3121225,0.0063915867,-0.007456851,-0.010652645
95,android.sensor.accelerometer,-3.2273839,8.468291,8.040926
96,android.sensor.gravity,-3.1365342,8.347085,4.081476
96,android.sensor.linear_acceleration,-0.3518176,0.20260906,3.8541055
96,android.sensor.magnetic_field,1.0,-21.1,-33.600002
96,android.sensor.orientation,41.29387,-58.338696,-20.594416
96,android.sensor.magnetic_field_uncalibrated,-15.0,15.7,10.400001,-16.0,36.8,44.0
96,android.sensor.game_rotation_vector,0.508465,0.182663,-0.012246,0.841395
98,android.sensor.accelerometer,-2.9101522,8.348581,7.98586
98,android.sensor.gyroscope,-0.9917612,0.44741106,0.34940675
98,android.sensor.gyroscope_uncalibrated,-0.9853696,0.43995422,0.3387541,0.0063915867,-0.007456851,-0.010652645
104,android.sensor.orientation,42.158703,-56.792892,-20.973087
104,android.sensor.magnetic_field,1.1,-21.2,-33.5
104,android.sensor.gyroscope,-0.8926916,0.48682585,0.3653857
104,android.sensor.magnetic_field_uncalibrated,-14.900001,15.6,10.5,-16.0,36.8,44.0
104,android.sensor.gyroscope_uncalibrated,-0.8863,0.479369,0.35473305,0.0063915867,-0.007456851,-0.010652645
104,android.sensor.game_rotation_vector,0.494649,0.182644,-0.010483,0.849619
104,android.sensor.rotation_vector,0.526245,0.033198,-0.253572,0.810965,3.0
105,android.sensor.gravity,-3.1452556,8.205189,4.3534484
105,android.sensor.linear_acceleration,0.61099315,0.063186646,3.568965
105,android.sensor.accelerometer,-2.5342624,8.268375,7.9224133
108,android.sensor.accelerometer,-2.1404164,8.1881695,7.69257
108,android.sensor.gyroscope,-0.78083885,0.51452273,0.36432046
108,android.sensor.gyroscope_uncalibrated,-0.77444726,0.5070659,0.3536678,0.0063915867,-0.007456851,-0.010652645
115,android.sensor.gyroscope,-0.6593987,0.5336975,0.3472762
115,android.sensor.gyroscope_uncalibrated,-0.6530071,0.52624065,0.33662358,0.0063915867,-0.007456851,-0.010652645
115,android.sensor.accelerometer,-1.827973,8.141483,7.392098
115,android.sensor.rotation_vector,0.512632,0.027474,-0.264613,0.816353,3.0
116,android.sensor.gyroscope,-0.6593987,0.5336975,0.3472762
116,android.sensor.gyroscope_uncalibrated,-0.6530071,0.52624065,0.33662358,0.0063915867,-0.007456851,-0.010652645
116,android.sensor.accelerometer,-1.827973,8.141483,7.392098
116,android.sensor.gravity,-3.100423,8.065356,4.6376357
116,android.sensor.linear_acceleration,0.9600067,0.122813225,3.0549345
116,android.sensor.magnetic_field,1.2,-21.2,-33.4
116,android.sensor.orientation,43.11235,-55.329536,-21.027382
116,android.sensor.magnetic_field_uncalibrated,-14.8,15.6,10.6,-16.0,36.8,44.0
116,android.sensor.game_rotation_vector,0.480697,0.180212,-0.007136,0.858138
123,sound,-Infinity
134,android.sensor.gyroscope_uncalibrated,-0.40053943,0.51771855,0.26312032,0.0063915867,-0.007456851,-0.010652645
134,android.sensor.accelerometer,-1.2306197,8.078036,6.5828576
135,android.sensor.gyroscope,-0.406931,0.5251754,0.27377295
135,android.sensor.gravity,-3.00424,7.950418,4.8924108
135,android.sensor.linear_acceleration,1.7736204,0.12761831,1.6904469
135,android.sensor.orientation,43.806488,-54.166042,-20.700172
135,android.sensor.magnetic_field,1.2,-21.2,-33.4
135,android.sensor.magnetic_field_uncalibrated,-14.8,15.6,10.6,-16.0,36.8,44.0
135,android.sensor.game_rotation_vector,0.468735,0.175624,-0.002423,0.8657
135,android.sensor.rotation_vector,0.500179,0.019428,-0.274345,0.821083,3.0
135,android.sensor.gyroscope,-0.406931,0.5251754,0.27377295
135,android.sensor.gyroscope_uncalibrated,-0.40053943,0.51771855,0.26312032,0.0063915867,-0.007456851,-0.010652645
135,android.sensor.accelerometer,-1.2306197,8.078036,6.5828576
135,android.sensor.gyroscope,-0.406931,0.5251754,0.27377295
135,android.sensor.accelerometer,-1.2306197,8.078036,6.5828576
135,android.sensor.gyroscope_uncalibrated,-0.40053943,0.51771855,0.26312032,0.0063915867,-0.007456851,-0.010652645
135,android.sensor.orientation,43.806488,-54.166042,-20.700172
136,android.sensor.magnetic_field,1.2,-21.2,-33.4
136,android.sensor.magnetic_field_uncalibrated,-14.8,15.6,10.6,-16.0,36.8,44.0
136,android.sensor.game_rotation_vector,0.468735,0.175624,-0.002423,0.8657
136,android.sensor.rotation_vector,0.500179,0.019428,-0.274345,0.821083,3.0
136,android.sensor.accelerometer,-1.2306197,8.078036,6.5828576
136,android.sensor.gyroscope,-0.406931,0.5251754,0.27377295
136,android.sensor.gravity,-3.00424,7.950418,4.8924108
136,android.sensor.linear_acceleration,1.7736204,0.12761831,1.6904469
136,android.sensor.gyroscope_uncalibrated,-0.40053943,0.51771855,0.26312032,0.0063915867,-0.007456851,-0.010652645
143,android.sensor.orientation,43.340984,-53.119167,-19.04637
144,android.sensor.magnetic_field,1.5,-21.2,-33.4
144,android.sensor.gyroscope,-0.07350325,0.3291667,0.05219796
144,android.sensor.magnetic_field_uncalibrated,-14.5,15.6,10.6,-16.0,36.8,44.0
144,android.sensor.gyroscope_uncalibrated,-0.06711166,0.32170987,0.041545313,0.0063915867,-0.007456851,-0.010652645
144,android.sensor.game_rotation_vector,0.455231,0.162304,0.008806,0.87541
144,android.sensor.rotation_vector,0.483287,0.003379,-0.279897,0.829504,3.0
144,android.sensor.gravity,-2.7080765,7.844197,5.2254195
144,android.sensor.linear_acceleration,1.906019,0.10814428,-0.044366837
144,android.sensor.accelerometer,-0.80205756,7.952341,5.1810527
147,android.sensor.accelerometer,-0.78649527,7.8865004,4.924873
147,android.sensor.gyroscope,-0.035153728,0.28229508,-0.0010652645
147,android.sensor.gyroscope_uncalibrated,-0.02876214,0.27483824,-0.011717909,0.0063915867,-0.007456851,-0.010652645
155,android.sensor.gyroscope,-0.013848438,0.2514024,-0.051132694
155,android.sensor.gyroscope_uncalibrated,-0.007456851,0.24394555,-0.06178534,0.0063915867,-0.007456851,-0.010652645
155,android.sensor.accelerometer,-0.82599956,7.789535,4.6926355
155,android.sensor.rotation_vector,0.478968,-0.003742,-0.276714,0.833069,3.0
155,android.sensor.gyroscope,-0.013848438,0.2514024,-0.051132694
155,android.sensor.gyroscope_uncalibrated,-0.007456851,0.24394555,-0.06178534,0.0063915867,-0.007456851,-0.010652645
155,android.sensor.accelerometer,-0.82599956,7.789535,4.6926355
155,android.sensor.gravity,-2.5383494,7.846278,5.3068814
155,android.sensor.linear_acceleration,1.7518542,0.040222168,-0.38200855
155,android.sensor.magnetic_field,1.6,-21.300001,-33.4
155,android.sensor.orientation,42.393204,-53.13943,-17.926912
156,android.sensor.magnetic_field_uncalibrated,-14.400001,15.5,10.6,-16.0,36.8,44.0
156,android.sensor.game_rotation_vector,0.45329,0.154767,0.014165,0.877709
164,android.sensor.gyroscope_uncalibrated,-0.0063915867,0.22050974,-0.15233281,0.0063915867,-0.007456851,-0.010652645
164,android.sensor.gyroscope,-0.0127831735,0.22796659,-0.14168017
164,android.sensor.accelerometer,-1.021127,7.53575,4.1982327
164,android.sensor.game_rotation_vector,0.453613,0.147583,0.018957,0.878689
164,android.sensor.rotation_vector,0.476916,-0.009817,-0.271091,0.83604,3.0
164,android.sensor.accelerometer,-1.021127,7.53575,4.1982327
164,android.sensor.gyroscope,-0.0127831735,0.22796659,-0.14168017
164,android.sensor.gyroscope_uncalibrated,-0.0063915867,0.22050974,-0.15233281,0.0063915867,-0.007456851,-0.010652645
164,android.sensor.gravity,-2.374783,7.8724284,5.343737
165,android.sensor.linear_acceleration,1.353656,-0.3366785,-1.1455045
165,android.sensor.orientation,41.202652,-53.394894,-16.78637
165,android.sensor.magnetic_field,1.7,-21.300001,-33.4
165,android.sensor.magnetic_field_uncalibrated,-14.3,15.5,10.6,-16.0,36.8,44.0
167,android.sensor.accelerometer,-1.2413936,7.4124484,3.8510735
167,android.sensor.gyroscope,-0.029827405,0.22690132,-0.18002969
167,android.sensor.gyroscope_uncalibrated,-0.023435818,0.21944448,-0.19068234,0.0063915867,-0.007456851,-0.010652645
174,android.sensor.gyroscope_uncalibrated,-0.054328486,0.21518342,-0.22903186,0.0063915867,-0.007456851,-0.010652645
174,android.sensor.gyroscope,-0.060720075,0.22264028,-0.21837921
174,android.sensor.accelerometer,-1.5191209,7.277176,3.5087025
175,android.sensor.game_rotation_vector,0.455546,0.141704,0.022936,0.878561
175,android.sensor.rotation_vector,0.476904,-0.01286,-0.261766,0.838972,3.0
175,android.sensor.accelerometer,-1.5191209,7.277176,3.5087025
175,android.sensor.gyroscope,-0.060720075,0.22264028,-0.21837921
175,android.sensor.gyroscope_uncalibrated,-0.054328486,0.21518342,-0.22903186,0.0063915867,-0.007456851,-0.010652645
175,android.sensor.gravity,-2.236859,7.913484,5.342608
175,android.sensor.linear_acceleration,0.71773815,-0.6363082,-1.8339055
175,android.sensor.orientation,39.624718,-53.79908,-15.7837
175,android.sensor.magnetic_field,1.8000001,-21.300001,-33.4
175,android.sensor.magnetic_field_uncalibrated,-14.2,15.5,10.6,-16.0,36.8,44.0
177,android.sensor.accelerometer,-1.8207904,7.1706343,3.2465374
177,android.sensor.gyroscope,-0.10652645,0.21092236,-0.24501082
177,android.sensor.gyroscope_uncalibrated,-0.10013486,0.2034655,-0.25566345,0.0063915867,-0.007456851,-0.010652645
187,android.sensor.gyroscope,-0.15978967,0.19068234,-0.26205507
187,android.sensor.gyroscope_uncalibrated,-0.15339808,0.18322548,-0.2727077,0.0063915867,-0.007456851,-0.010652645
187,android.sensor.accelerometer,-2.1631613,7.064092,2.2744915
187,android.sensor.rotation_vector,0.479102,-0.009909,-0.246013,0.842519,3.0
187,android.sensor.gyroscope,-0.15978967,0.19068234,-0.26205507
187,android.sensor.gyroscope_uncalibrated,-0.15339808,0.18322548,-0.2727077,0.0063915867,-0.007456851,-0.010652645
188,android.sensor.accelerometer,-2.1631613,7.064092,2.2744915
188,android.sensor.gravity,-2.147986,7.9647703,5.3027124
188,android.sensor.linear_acceleration,0.32719553,-0.79413605,-2.056175
188,android.sensor.magnetic_field,1.9,-21.2,-33.4
188,android.sensor.orientation,37.338715,-54.309525,-15.092799
188,android.sensor.magnetic_field_uncalibrated,-14.1,15.6,10.6,-16.0,36.8,44.0
188,android.sensor.game_rotation_vector,0.45883,0.138246,0.025655,0.877327
194,android.sensor.accelerometer,-3.7696705,7.231686,-2.4037786
194,android.sensor.magnetic_field,2.0,-21.2,-33.5
194,android.sensor.gyroscope,-0.50387007,0.0628506,-0.24714136
194,android.sensor.magnetic_field_uncalibrated,-14.0,15.6,10.5,-16.0,36.8,44.0
194,android.sensor.gyroscope_uncalibrated,-0.49747851,0.05539375,-0.257794,0.0063915867,-0.007456851,-0.010652645
195,android.sensor.accelerometer,-3.7696705,7.231686,-2.4037786
195,android.sensor.gyroscope,-0.50387007,0.0628506,-0.24714136
195,android.sensor.gyroscope_uncalibrated,-0.49747851,0.05539375,-0.257794,0.0063915867,-0.007456851,-0.010652645
198,android.sensor.orientation,34.750553,-55.074417,-14.762096
198,android.sensor.magnetic_field,2.1000001,-21.1,-33.5
198,android.sensor.gyroscope,-0.7840346,0.004261058,-0.20133498
198,android.sensor.magnetic_field_uncalibrated,-13.900001,15.7,10.5,-16.0,36.8,44.0
198,android.sensor.gyroscope_uncalibrated,-0.777643,-0.0031957934,-0.21198763,0.0063915867,-0.007456851,-0.010652645
198,android.sensor.game_rotation_vector,0.464648,0.137883,0.026958,0.874278
198,android.sensor.rotation_vector,0.48467,-0.002026,-0.226411,0.844883,3.0
198,android.sensor.gravity,-2.1186855,8.040437,5.1993065
198,android.sensor.linear_acceleration,-1.7587242,-0.64474773,-5.302257
198,android.sensor.accelerometer,-3.8774097,7.395689,-0.10295067
203,android.sensor.orientation,33.17536,-57.849285,-15.27106
203,android.sensor.gyroscope,-0.97045594,-0.017044231,-0.1555286
203,android.sensor.magnetic_field_uncalibrated,-13.8,15.8,10.400001,-16.0,36.8,44.0
203,android.sensor.gyroscope_uncalibrated,-0.96406436,-0.024501082,-0.16618125,0.0063915867,-0.007456851,-0.010652645
203,android.sensor.game_rotation_vector,0.488141,0.148521,0.024789,0.859677
203,android.sensor.rotation_vector,0.510106,0.011512,-0.207744,0.834566,3.0
203,android.sensor.accelerometer,-3.525462,7.5345526,2.1392193
203,android.sensor.gravity,-2.2668855,8.302812,4.70051
203,android.sensor.linear_acceleration,-1.6105242,-0.9071226,-4.8034606
203,android.sensor.magnetic_field,2.2,-21.0,-33.600002
206,android.sensor.accelerometer,-3.192668,7.645883,3.8857894
206,android.sensor.gyroscope,-1.055677,-0.05006743,-0.12783173
206,android.sensor.gyroscope_uncalibrated,-1.0492855,-0.05752428,-0.13848437,0.0063915867,-0.007456851,-0.010652645
214,android.sensor.gyroscope,-1.063134,-0.10226539,-0.113983296
214,android.sensor.gyroscope_uncalibrated,-1.0567423,-0.10972224,-0.12463594,0.0063915867,-0.007456851,-0.010652645
214,android.sensor.accelerometer,-3.1184478,7.678205,5.105635
214,android.sensor.rotation_vector,0.525268,0.02394,-0.198899,0.827018,3.0
214,android.sensor.gyroscope,-1.063134,-0.10226539,-0.113983296
214,android.sensor.gyroscope_uncalibrated,-1.0567423,-0.10972224,-0.12463594,0.0063915867,-0.007456851,-0.010652645
214,android.sensor.accelerometer,-3.1184478,7.678205,5.105635
214,android.sensor.gravity,-2.4374251,8.426746,4.383972
214,android.sensor.linear_acceleration,-0.7552428,-0.7808633,-0.49818277
214,android.sensor.magnetic_field,2.3,-20.9,-33.600002
214,android.sensor.orientation,32.75481,-59.236843,-16.132442
214,android.sensor.magnetic_field_uncalibrated,-13.7,15.900001,10.400001,-16.0,36.8,44.0
215,android.sensor.game_rotation_vector,0.501214,0.158946,0.021709,0.850322
216,android.sensor.accelerometer,-3.0669725,7.52737,5.7185507
216,android.sensor.gyroscope,-1.0162623,-0.15126756,-0.10226539
216,android.sensor.gyroscope_uncalibrated,-1.0098706,-0.1587244,-0.112918034,0.0063915867,-0.007456851,-0.010652645
222,android.sensor.orientation,32.81769,-59.1853,-16.766857
222,android.sensor.magnetic_field_uncalibrated,-13.6,16.0,10.3,-16.0,36.8,44.0
223,android.sensor.gyroscope_uncalibrated,-0.9289106,-0.18961707,-0.08841695,0.0063915867,-0.007456851,-0.010652645
223,android.sensor.game_rotation_vector,0.502044,0.164004,0.019618,0.848921
223,android.sensor.rotation_vector,0.527256,0.03078,-0.197161,0.825942,3.0
223,android.sensor.accelerometer,-2.967613,7.103596,5.8945246
223,android.sensor.gyroscope,-0.9353022,-0.18216023,-0.0777643
223,android.sensor.gravity,-2.5375063,8.422231,4.3355923
223,android.sensor.linear_acceleration,-0.52946615,-0.89486074,1.3829584
223,android.sensor.magnetic_field,2.4,-20.800001,-33.7
225,sound,-Infinity
226,android.sensor.accelerometer,-2.8742392,6.623559,5.85502
226,android.sensor.gyroscope,-0.8330368,-0.19600865,-0.043675844
226,android.sensor.gyroscope_uncalibrated,-0.8266452,-0.2034655,-0.054328486,0.0063915867,-0.007456851,-0.010652645
234,android.sensor.gyroscope,-0.721184,-0.20985709,-0.002130529
234,android.sensor.gyroscope_uncalibrated,-0.71479243,-0.21731395,-0.0127831735,0.0063915867,-0.007456851,-0.010652645
234,android.sensor.accelerometer,-2.8203697,6.2021794,5.717354
234,android.sensor.rotation_vector,0.523771,0.035088,-0.198093,0.827762,3.0
234,android.sensor.gyroscope,-0.721184,-0.20985709,-0.002130529
234,android.sensor.gyroscope_uncalibrated,-0.71479243,-0.21731395,-0.0127831735,0.0063915867,-0.007456851,-0.010652645
234,android.sensor.accelerometer,-2.8203697,6.2021794,5.717354
234,android.sensor.gravity,-2.6046438,8.367172,4.4018674
234,android.sensor.linear_acceleration,-0.26959538,-1.7436132,1.4531527
234,android.sensor.magnetic_field,2.5,-20.7,-33.7
234,android.sensor.orientation,33.02546,-58.562992,-17.291012
234,android.sensor.magnetic_field_uncalibrated,-13.5,16.1,10.3,-16.0,36.8,44.0
234,android.sensor.game_rotation_vector,0.497861,0.16644,0.017738,0.85095
236,android.sensor.accelerometer,-2.814384,5.957971,5.5856724
236,android.sensor.gyroscope,-0.6114618,-0.23116238,0.04474111
236,android.sensor.gyroscope_uncalibrated,-0.60507023,-0.23861924,0.034088463,0.0063915867,-0.007456851,-0.010652645
244,android.sensor.gyroscope,-0.5113269,-0.26418558,0.099069595
244,android.sensor.gyroscope_uncalibrated,-0.5049353,-0.27164245,0.08841695,0.0063915867,-0.007456851,-0.010652645
244,android.sensor.accelerometer,-2.847903,5.90889,5.5401826
244,android.sensor.rotation_vector,0.517587,0.03843,-0.201251,0.830737,3.0
244,android.sensor.gyroscope,-0.5113269,-0.26418558,0.099069595
244,android.sensor.gyroscope_uncalibrated,-0.5049353,-0.27164245,0.08841695,0.0063915867,-0.007456851,-0.010652645
244,android.sensor.accelerometer,-2.847903,5.90889,5.5401826
244,android.sensor.gravity,-2.6691766,8.28161,4.523353
244,android.sensor.linear_acceleration,-0.1452074,-2.3236384,1.0623193
244,android.sensor.magnetic_field,2.5,-20.6,-33.8
244,android.sensor.orientation,33.45946,-57.617245,-17.864216
244,android.sensor.magnetic_field_uncalibrated,-13.5,16.2,10.2,-16.0,36.8,44.0
244,android.sensor.game_rotation_vector,0.49101,0.168173,0.015548,0.854625
326,sound,-Infinity
427,sound,-Infinity
