173715,sound,-Infinity
56,android.sensor.orientation,184.45953,0.17252855,7.1571984
107,android.sensor.gyroscope_uncalibrated,0.002130529,-0.11717909,0.011717909,0.05539375,-0.018109497,-0.0063915867
160,android.sensor.accelerometer,0.90500826,-0.2669535,8.959103
210,android.sensor.orientation,184.22531,1.7701647,6.776387
262,android.sensor.accelerometer,-0.4189853,-1.2485762,9.490616
317,android.sensor.accelerometer,2.7353754,0.30047232,9.689334
368,android.sensor.gyroscope_uncalibrated,0.1438107,1.3156016,0.6221144,0.05539375,-0.018109497,-0.0063915867
420,android.sensor.gyroscope,0.03089267,1.6980315,0.4282363
470,android.sensor.accelerometer,-2.4911668,-0.60932434,7.513005
526,android.sensor.accelerometer,-0.49320555,0.5327099,11.147403
577,android.sensor.game_rotation_vector,-0.006125,0.080309,0.092259,0.992472
623,android.sensor.accelerometer,-2.9628246,-0.36870706,8.12233
681,android.sensor.accelerometer,-2.8072014,0.6500258,8.309077
727,android.sensor.gyroscope_uncalibrated,0.06711166,0.664725,0.40373522,0.05539375,-0.018109497,-0.0063915867
780,android.sensor.gyroscope_uncalibrated,-0.37071204,0.8479505,0.2066613,0.05539375,-0.018109497,-0.0063915867
831,android.sensor.accelerometer,-5.6443305,0.14844051,7.3909006
888,android.sensor.magnetic_field_uncalibrated,-17.800001,-32.2,13.400001,-25.6,44.0,35.600002
940,android.sensor.accelerometer,-6.2129536,-0.021547815,6.303933
991,android.sensor.accelerometer,-6.290765,-1.5622166,12.654553
1042,android.sensor.magnetic_field_uncalibrated,-9.6,-29.300001,12.8,-25.6,44.0,35.600002
1101,android.sensor.accelerometer,-7.565677,-1.4281414,7.843405
1147,android.sensor.orientation,181.04044,5.4115686,-39.577206
1197,android.sensor.gyroscope,-0.002130529,1.2357068,0.06711166
1249,android.sensor.accelerometer,-7.2328835,-0.33039984,6.3422403
1300,android.sensor.accelerometer,-10.474632,-0.62847793,12.417527
1351,android.sensor.accelerometer,-5.8226986,-0.6823475,4.8985367
1402,android.sensor.accelerometer,-5.685032,-0.14724341,-0.6799533
1455,android.sensor.proximity,0.0,0.0,0.0
1506,android.sensor.orientation,143.39151,174.46829,27.631252
1557,android.sensor.gyroscope_uncalibrated,-0.21411815,1.7385116,0.18322548,0.05539375,-0.018109497,-0.0063915867
1606,android.sensor.orientation,156.03592,177.70729,4.243414
1657,android.sensor.gyroscope_uncalibrated,0.15659387,-0.4708469,-0.0010652645,0.05539375,-0.018109497,-0.0063915867
1710,android.sensor.accelerometer,-1.1540052,-0.62847793,-11.380837
1763,sound,-Infinity
1822,android.sensor.gyroscope,-0.010652645,0.34408042,-0.023435818
1867,android.sensor.orientation,170.0322,177.16217,-4.6949987
1920,android.sensor.gyroscope_uncalibrated,0.0010652645,0.24394555,-0.026631612,0.05539375,-0.018109497,-0.0063915867
1966,android.sensor.orientation,170.36937,176.83235,-5.2796493
2020,android.sensor.orientation,171.85573,176.31073,-1.909074
2071,android.sensor.accelerometer,-1.5514427,1.2653356,-10.00896
2121,android.sensor.gyroscope_uncalibrated,-0.015978966,-0.29294774,-0.39095205,0.05539375,-0.018109497,-0.0063915867
2180,android.sensor.gyroscope,0.049002163,0.24074976,0.257794
2231,android.sensor.gyroscope,-0.4250405,0.29188246,-0.2428803
2289,android.sensor.gyroscope_uncalibrated,-0.10333065,-0.07243799,0.03089267,0.05539375,-0.018109497,-0.0063915867
2339,android.sensor.gyroscope,-0.45806372,-0.10759171,0.094808534
2391,android.sensor.gyroscope_uncalibrated,-0.10865697,0.3057309,0.32810146,0.05539375,-0.018109497,-0.0063915867
2439,android.sensor.accelerometer,2.3475149,0.19991584,-9.257181
2492,android.sensor.accelerometer,-2.3451207,-0.48003745,-13.098678
2545,android.sensor.accelerometer,-1.1827357,0.061052144,-8.504205
2600,android.sensor.magnetic_field,16.2,-65.5,51.4
2646,android.sensor.orientation,170.58646,178.16939,-3.7295377
2701,android.sensor.gyroscope_uncalibrated,0.018109497,-0.10226539,-0.002130529,0.05539375,-0.018109497,-0.0063915867
2751,android.sensor.accelerometer,0.760159,-0.021547815,-10.577583
2809,android.sensor.gyroscope_uncalibrated,-0.0063915867,-0.046871636,0.17044231,0.05539375,-0.018109497,-0.0063915867
2858,android.sensor.orientation,168.74132,179.32315,-0.81128484
2910,android.sensor.accelerometer,0.31364042,0.1328782,-9.078813
2960,android.sensor.gyroscope_uncalibrated,0.0127831735,-0.1949434,-0.11930962,0.05539375,-0.018109497,-0.0063915867
3022,android.sensor.gyroscope_uncalibrated,-0.0031957934,0.12676647,0.024501082,0.05539375,-0.018109497,-0.0063915867
3069,android.sensor.gyroscope_uncalibrated,0.03195793,0.049002163,-0.029827405,0.05539375,-0.018109497,-0.0063915867
3119,android.sensor.gyroscope_uncalibrated,0.013848438,-0.039414786,0.0063915867,0.05539375,-0.018109497,-0.0063915867
3170,android.sensor.gyroscope_uncalibrated,0.023435818,0.027696876,0.0031957934,0.05539375,-0.018109497,-0.0063915867
3218,android.sensor.gyroscope_uncalibrated,0.011717909,0.056459017,-0.013848438,0.05539375,-0.018109497,-0.0063915867
3271,android.sensor.accelerometer,0.37110126,0.2908955,-10.084377
3325,android.sensor.gyroscope,-0.07456851,-0.002130529,-0.00958738
3385,android.sensor.gyroscope,-0.051132694,-0.014913702,-0.014913702
3431,android.sensor.gyroscope,-0.083090626,0.013848438,0.004261058
3479,android.sensor.orientation,166.53645,179.19801,1.7702161
3535,android.sensor.accelerometer,0.5770026,0.12689269,-9.235633
3581,android.sensor.magnetic_field_uncalibrated,-12.900001,-18.0,90.700005,-25.6,44.0,35.600002
3637,android.sensor.gyroscope,-0.06391586,0.025566347,-0.0063915867
3688,android.sensor.orientation,166.44864,-179.92155,2.1487453
3743,android.sensor.gyroscope_uncalibrated,0.033023197,0.02876214,-0.0127831735,0.05539375,-0.018109497,-0.0063915867
3791,android.sensor.accelerometer,0.33758244,0.008379706,-9.003395
3842,android.sensor.accelerometer,0.04189853,0.38187516,-10.803835
3898,android.sensor.gyroscope_uncalibrated,0.011717909,0.068176925,-0.015978966,0.05539375,-0.018109497,-0.0063915867
3947,android.sensor.orientation,167.3522,-178.34395,2.521933
4002,android.sensor.gyroscope,-0.040480047,-0.051132694,-0.008522116
4058,android.sensor.gyroscope_uncalibrated,0.015978966,-0.05539375,-0.01917476,0.05539375,-0.018109497,-0.0063915867
4102,android.sensor.gyroscope_uncalibrated,-0.014913702,0.011717909,-0.007456851,0.05539375,-0.018109497,-0.0063915867
4161,android.sensor.gyroscope_uncalibrated,0.0010652645,0.020240024,0.004261058,0.05539375,-0.018109497,-0.0063915867
4210,android.sensor.orientation,186.21758,178.63556,3.1078677
4259,android.sensor.gyroscope_uncalibrated,-0.09161274,-0.17044231,-0.0063915867,0.05539375,-0.018109497,-0.0063915867
4315,android.sensor.accelerometer,0.8511387,0.2777274,-8.568848
4367,android.sensor.gyroscope_uncalibrated,-0.0063915867,-0.04261058,-0.011717909,0.05539375,-0.018109497,-0.0063915867
4418,android.sensor.gyroscope_uncalibrated,-0.007456851,-0.068176925,-0.022370555,0.05539375,-0.018109497,-0.0063915867
4521,android.sensor.gyroscope_uncalibrated,0.02876214,-0.05219796,-0.0010652645,0.05539375,-0.018109497,-0.0063915867
4575,speed,44.263973,16.0
4627,android.sensor.gyroscope_uncalibrated,-0.007456851,-0.07669904,-0.0053263223,0.05539375,-0.018109497,-0.0063915867
4678,android.sensor.gyroscope_uncalibrated,-0.017044231,-0.08628642,-0.01917476,0.05539375,-0.018109497,-0.0063915867
4728,android.sensor.orientation,169.8498,179.68416,0.60300505
4778,android.sensor.gravity,0.061240558,-0.17035693,-9.80497
4830,android.sensor.accelerometer,0.19991584,0.29807812,-9.519346
4881,android.sensor.orientation,170.78984,-179.52698,1.1608949
4934,android.sensor.magnetic_field,13.900001,-88.6,45.100002
4987,android.sensor.gyroscope_uncalibrated,-0.018109497,-0.0479369,-0.0127831735,0.05539375,-0.018109497,-0.0063915867
5041,android.sensor.accelerometer,0.50158525,0.52073884,-10.229227
5092,android.sensor.accelerometer,-0.027533319,0.2813187,-9.428367
5147,android.sensor.orientation,171.88727,-177.99165,0.37260914
5199,android.sensor.orientation,171.0753,-178.66144,0.16484845
5245,android.sensor.game_rotation_vector,0.849345,0.52773,0.006126,0.008649
5301,android.sensor.accelerometer,-0.36990416,-0.46926352,-8.876503
5351,android.sensor.gyroscope_uncalibrated,0.022370555,-0.068176925,-0.00958738,0.05539375,-0.018109497,-0.0063915867
5403,android.sensor.rotation_vector,-0.993988,-0.109262,0.003386,0.006082,2.0
5458,android.sensor.game_rotation_vector,0.849366,0.527783,1.11E-4,0.004601
5506,android.sensor.orientation,173.4641,-178.28308,-0.19640392
5562,android.sensor.accelerometer,-0.30166942,0.19033903,-9.752781
5618,android.sensor.gyroscope,-0.05965481,0.0127831735,-0.011717909
5664,android.sensor.gyroscope,-0.05965481,0.03834952,-0.004261058
5725,android.sensor.gyroscope_uncalibrated,0.017044231,0.037284255,-0.0031957934,0.05539375,-0.018109497,-0.0063915867
5767,android.sensor.magnetic_field_uncalibrated,-7.8,-39.600002,82.3,-25.6,44.0,35.600002
5819,android.sensor.game_rotation_vector,-0.84927,-0.527619,0.005955,0.017965
5879,android.sensor.gyroscope_uncalibrated,0.024501082,-0.02876214,-0.011717909,0.05539375,-0.018109497,-0.0063915867
5931,android.sensor.orientation,166.0417,179.3477,0.13347055
5983,android.sensor.gyroscope_uncalibrated,0.008522116,-0.026631612,-0.00958738,0.05539375,-0.018109497,-0.0063915867
6034,android.sensor.gyroscope,-0.070307456,-0.056459017,-0.004261058
6086,android.sensor.gravity,0.034556717,0.22768827,-9.803918
6141,android.sensor.gyroscope,-0.0479369,0.03089267,-0.014913702
6190,android.sensor.accelerometer,-0.062249243,-0.16519992,-9.247604
6247,android.sensor.orientation,173.03775,179.71571,-0.74378896
6294,android.sensor.gyroscope_uncalibrated,-0.0127831735,-0.07243799,-0.00958738,0.05539375,-0.018109497,-0.0063915867
6350,android.sensor.gyroscope_uncalibrated,0.008522116,-0.029827405,-0.00958738,0.05539375,-0.018109497,-0.0063915867
6398,android.sensor.accelerometer,-0.04309563,0.29688102,-10.737994
6451,android.sensor.accelerometer,-0.08140286,0.5386954,-9.884461
6503,android.sensor.gyroscope_uncalibrated,-0.007456851,-0.02130529,0.0,0.05539375,-0.018109497,-0.0063915867
6558,android.sensor.gyroscope_uncalibrated,0.007456851,-0.002130529,-0.010652645,0.05539375,-0.018109497,-0.0063915867
6607,android.sensor.gyroscope,-0.036218993,0.039414786,-0.00958738
6659,android.sensor.gyroscope_uncalibrated,0.020240024,0.025566347,-0.011717909,0.05539375,-0.018109497,-0.0063915867
6711,android.sensor.accelerometer,-0.010773907,-0.17238252,-9.123106
6762,sound,-Infinity
6814,android.sensor.accelerometer,0.12569559,0.23942018,-10.177752
6869,android.sensor.orientation,168.11147,-179.27638,-0.14113402
6921,android.sensor.gyroscope,-0.04474111,0.03195793,-0.0127831735
6970,android.sensor.accelerometer,-0.11971009,0.15562311,-9.697714
7021,android.sensor.orientation,169.0119,-179.31302,0.5125187
7078,android.sensor.gyroscope_uncalibrated,0.0,-0.03195793,-0.014913702,0.05539375,-0.018109497,-0.0063915867
7129,android.sensor.orientation,169.2477,-179.48802,-0.41225153
7179,android.sensor.gyroscope_uncalibrated,0.01917476,0.017044231,-0.011717909,0.05539375,-0.018109497,-0.0063915867
7227,android.sensor.game_rotation_vector,-0.847508,-0.530781,6.17E-4,1.0E-6
7281,android.sensor.gyroscope_uncalibrated,0.008522116,-0.0127831735,-0.011717909,0.05539375,-0.018109497,-0.0063915867
7330,android.sensor.accelerometer,0.23702596,0.59495914,-10.448297
7389,android.sensor.gyroscope_uncalibrated,0.025566347,0.034088463,0.0010652645,0.05539375,-0.018109497,-0.0063915867
7439,android.sensor.gyroscope_uncalibrated,-0.0031957934,-0.043675844,-0.013848438,0.05539375,-0.018109497,-0.0063915867
7493,android.sensor.gyroscope_uncalibrated,0.0,-0.04474111,-0.020240024,0.05539375,-0.018109497,-0.0063915867
7545,android.sensor.accelerometer,0.2801216,0.24540567,-9.938332
7592,android.sensor.accelerometer,0.36032736,0.48003745,-9.097966
7647,android.sensor.orientation,170.09807,-178.29816,0.85435605
7702,android.sensor.gyroscope,-0.024501082,0.05006743,-0.00958738
7749,android.sensor.orientation,169.32956,-178.72281,0.067313336
7800,android.sensor.accelerometer,-0.32202014,0.0023942017,-9.671378
7850,android.sensor.accelerometer,0.11971009,0.10055647,-9.396045
7907,android.sensor.orientation,169.72769,-179.45908,0.24901003
7959,android.sensor.gyroscope_uncalibrated,-0.010652645,-0.07456851,-0.018109497,0.05539375,-0.018109497,-0.0063915867
8010,android.sensor.orientation,169.56392,-179.79904,-0.12948172
8064,android.sensor.gyroscope_uncalibrated,-0.017044231,-0.08522116,-0.011717909,0.05539375,-0.018109497,-0.0063915867
8112,android.sensor.accelerometer,0.20350714,0.095768064,-10.414778
8171,android.sensor.gyroscope_uncalibrated,0.022370555,0.033023197,-0.002130529,0.05539375,-0.018109497,-0.0063915867
8218,android.sensor.gyroscope_uncalibrated,0.014913702,0.02130529,-0.0010652645,0.05539375,-0.018109497,-0.0063915867
8268,android.sensor.orientation,165.38907,-179.31825,-0.60015005
8318,android.sensor.gyroscope_uncalibrated,0.013848438,-0.01917476,-0.008522116,0.05539375,-0.018109497,-0.0063915867
8370,android.sensor.accelerometer,0.19752164,0.05626374,-9.994595
8421,android.sensor.gyroscope,-0.084155895,-0.040480047,-0.0063915867
8471,android.sensor.accelerometer,-0.24540567,0.31004912,-10.33936
8523,android.sensor.accelerometer,0.04309563,0.18914193,-10.630256
8577,android.sensor.orientation,170.60028,-178.6755,-0.6905408
8627,android.sensor.gyroscope_uncalibrated,0.020240024,0.03195793,-0.00958738,0.05539375,-0.018109497,-0.0063915867
8679,android.sensor.gyroscope_uncalibrated,0.0010652645,-0.080960095,-0.017044231,0.05539375,-0.018109497,-0.0063915867
8726,android.sensor.orientation,172.27438,-179.24709,-0.025744805
8781,android.sensor.gyroscope,-0.011717909,0.035153728,-0.0010652645
8830,android.sensor.accelerometer,-0.07182605,0.1604115,-9.226056
8879,android.sensor.gravity,-0.093269244,0.11608103,-9.805489
8932,android.sensor.accelerometer,-0.019153614,0.16280572,-10.714052
8989,android.sensor.magnetic_field_uncalibrated,-12.7,-12.900001,79.4,-25.6,44.0,35.600002
9041,android.sensor.accelerometer,-0.02633622,0.051475335,-9.424775
9098,android.sensor.gyroscope_uncalibrated,0.015978966,0.008522116,-0.008522116,0.05539375,-0.018109497,-0.0063915867
9144,android.sensor.accelerometer,-0.06344634,-0.12330139,-9.886856
9202,android.sensor.gyroscope,-0.06498113,-0.04261058,-0.002130529
9247,android.sensor.gyroscope_uncalibrated,0.034088463,0.049002163,-0.0031957934,0.05539375,-0.018109497,-0.0063915867
9299,android.sensor.gyroscope_uncalibrated,0.004261058,0.007456851,-0.0127831735,0.05539375,-0.018109497,-0.0063915867
9354,android.sensor.accelerometer,-0.045489833,0.21428105,-9.451111
9408,android.sensor.gyroscope_uncalibrated,-0.010652645,-0.054328486,-0.0010652645,0.05539375,-0.018109497,-0.0063915867
9457,android.sensor.gyroscope,-0.05539375,-0.024501082,-0.0063915867
9509,android.sensor.magnetic_field_uncalibrated,-8.7,-33.0,80.4,-25.6,44.0,35.600002
9562,android.sensor.gyroscope_uncalibrated,-0.0063915867,-0.023435818,-0.008522116,0.05539375,-0.018109497,-0.0063915867
9621,android.sensor.gyroscope_uncalibrated,0.014913702,0.002130529,-0.008522116,0.05539375,-0.018109497,-0.0063915867
9669,android.sensor.magnetic_field,15.6,-76.5,43.7
9727,android.sensor.gyroscope,-0.05006743,-0.027696876,-0.007456851
9778,android.sensor.gyroscope_uncalibrated,0.023435818,0.02130529,-0.008522116,0.05539375,-0.018109497,-0.0063915867
9829,android.sensor.gyroscope_uncalibrated,0.0053263223,0.007456851,-0.010652645,0.05539375,-0.018109497,-0.0063915867
9878,android.sensor.gyroscope_uncalibrated,-0.022370555,-0.054328486,-0.020240024,0.05539375,-0.018109497,-0.0063915867
9927,android.sensor.orientation,167.82175,-178.43588,-0.5419705
9983,android.sensor.gyroscope,-0.040480047,0.007456851,-0.007456851
10031,android.sensor.accelerometer,-0.2717419,0.017956512,-9.871294
10086,android.sensor.orientation,168.94604,-179.51497,-0.35028806
10139,android.sensor.orientation,169.06386,-179.47603,-0.14571026
10189,android.sensor.gyroscope_uncalibrated,0.049002163,0.029827405,-0.0063915867,0.05539375,-0.018109497,-0.0063915867
10242,android.sensor.gyroscope,-0.040480047,0.025566347,-0.007456851
10293,android.sensor.gyroscope,-0.056459017,-0.020240024,-0.0053263223
10347,android.sensor.magnetic_field,14.2,-77.4,47.0
10402,android.sensor.accelerometer,-0.20470424,-0.0023942017,-10.113108
10451,android.sensor.accelerometer,0.1592144,-0.007182605,-9.895236
10501,android.sensor.gyroscope_uncalibrated,-0.02130529,-0.060720075,-0.010652645,0.05539375,-0.018109497,-0.0063915867
10558,android.sensor.gyroscope_uncalibrated,-0.007456851,-0.01917476,-0.004261058,0.05539375,-0.018109497,-0.0063915867
10607,android.sensor.gyroscope_uncalibrated,-0.011717909,-0.07456851,-0.011717909,0.05539375,-0.018109497,-0.0063915867
10662,android.sensor.gyroscope_uncalibrated,0.034088463,0.008522116,-0.00958738,0.05539375,-0.018109497,-0.0063915867
10707,android.sensor.gyroscope,-0.029827405,0.07563378,0.0
10761,sound,-Infinity
10811,android.sensor.accelerometer,-0.21787235,-0.061052144,-9.569624
10869,android.sensor.gyroscope_uncalibrated,-0.025566347,-0.0628506,-0.013848438,0.05539375,-0.018109497,-0.0063915867
10919,android.sensor.gyroscope_uncalibrated,0.03195793,0.036218993,-0.014913702,0.05539375,-0.018109497,-0.0063915867
10968,android.sensor.orientation,168.29579,-179.39186,-0.41147292
11019,android.sensor.orientation,169.02557,-179.0276,0.098882474
11070,android.sensor.accelerometer,-0.36391866,0.045489833,-10.292673
11122,android.sensor.accelerometer,0.044292733,0.038307227,-10.212467
11181,android.sensor.accelerometer,-0.08379706,0.2873042,-9.238028
11228,android.sensor.orientation,169.52603,-179.08878,-1.0246054
11279,android.sensor.gyroscope_uncalibrated,-0.04580637,-0.128897,-0.013848438,0.05539375,-0.018109497,-0.0063915867
11332,android.sensor.accelerometer,0.06703765,0.51475334,-12.156559
11382,android.sensor.magnetic_field_uncalibrated,-8.1,-37.100002,84.6,-25.6,44.0,35.600002
11439,android.sensor.gyroscope_uncalibrated,0.00958738,-0.011717909,0.0031957934,0.05539375,-0.018109497,-0.0063915867
11486,android.sensor.gyroscope,-0.05006743,-0.026631612,-0.008522116
11541,android.sensor.gyroscope,-0.029827405,-0.010652645,-0.0127831735
11590,android.sensor.gyroscope,-0.03834952,-0.010652645,-0.008522116
11647,android.sensor.orientation,169.14322,179.9168,-0.38139275
11701,android.sensor.gyroscope_uncalibrated,0.026631612,-0.0053263223,0.004261058,0.05539375,-0.018109497,-0.0063915867
11747,android.sensor.orientation,168.19405,-178.7963,-0.24358685
11801,android.sensor.gyroscope_uncalibrated,0.014913702,-0.017044231,-0.013848438,0.05539375,-0.018109497,-0.0063915867
11850,android.sensor.linear_acceleration,0.28894228,-0.23593497,-0.0025463104
11903,android.sensor.gyroscope,-0.070307456,-0.0010652645,-0.0053263223
11961,android.sensor.gyroscope,-0.054328486,-0.017044231,0.0031957934
12007,android.sensor.orientation,169.38454,-179.39206,0.23142911
12060,android.sensor.gyroscope_uncalibrated,0.036218993,0.029827405,-0.01917476,0.05539375,-0.018109497,-0.0063915867
12110,android.sensor.accelerometer,0.092176765,-0.06703765,-10.129868
12166,android.sensor.orientation,169.28156,179.56657,-0.50944513
12217,android.sensor.gyroscope,-0.07350325,-0.051132694,-0.007456851
12267,android.sensor.orientation,168.9517,-179.46254,-0.39752567
12321,android.sensor.gyroscope,-0.018109497,0.10652645,-0.0053263223
12366,android.sensor.orientation,168.12822,-178.67047,-0.37162557
12418,android.sensor.gyroscope_uncalibrated,-0.010652645,-0.0958738,-0.0063915867,0.05539375,-0.018109497,-0.0063915867
12469,android.sensor.gyroscope_uncalibrated,0.0063915867,-0.010652645,-0.011717909,0.05539375,-0.018109497,-0.0063915867
12528,android.sensor.orientation,169.33508,-179.50984,-0.8180604
12578,android.sensor.gyroscope_uncalibrated,0.0063915867,-0.01917476,-0.0053263223,0.05539375,-0.018109497,-0.0063915867
12627,android.sensor.orientation,169.55377,-179.342,-0.39741638
12680,android.sensor.gyroscope,-0.04474111,-0.0010652645,0.0
12727,android.sensor.gyroscope_uncalibrated,-0.0063915867,-0.03089267,-0.007456851,0.05539375,-0.018109497,-0.0063915867
12779,android.sensor.gyroscope_uncalibrated,0.013848438,0.007456851,-0.0053263223,0.05539375,-0.018109497,-0.0063915867
12838,android.sensor.gyroscope_uncalibrated,0.0053263223,-0.025566347,-0.004261058,0.05539375,-0.018109497,-0.0063915867
12888,android.sensor.gyroscope_uncalibrated,0.008522116,-0.0010652645,-0.017044231,0.05539375,-0.018109497,-0.0063915867
12937,android.sensor.gyroscope_uncalibrated,0.0,-0.043675844,-0.017044231,0.05539375,-0.018109497,-0.0063915867
12987,android.sensor.orientation,168.79352,-179.75479,0.12131282
13041,android.sensor.gyroscope,-0.022370555,0.014913702,0.0
13091,android.sensor.accelerometer,-0.06584055,0.2657564,-9.169792
13140,android.sensor.game_rotation_vector,0.841581,0.540038,-0.002402,0.009632
13199,android.sensor.gyroscope_uncalibrated,-0.025566347,-0.08841695,-0.018109497,0.05539375,-0.018109497,-0.0063915867
13248,android.sensor.orientation,169.77881,-179.43756,-0.006128501
13301,android.sensor.orientation,169.60867,-179.63269,-0.2617142
13358,android.sensor.gyroscope_uncalibrated,0.035153728,0.08628642,-0.00958738,0.05539375,-0.018109497,-0.0063915867
13403,android.sensor.magnetic_field_uncalibrated,-10.400001,-37.8,78.8,-25.6,44.0,35.600002
13462,android.sensor.gyroscope,-0.08841695,-0.08735169,-0.004261058
13507,android.sensor.orientation,169.45558,-179.14372,-0.7417945
13558,android.sensor.linear_acceleration,0.2125538,-0.017704621,0.09446335
13610,android.sensor.accelerometer,-0.272939,0.010773907,-9.223662
13662,android.sensor.gyroscope_uncalibrated,-0.015978966,-0.026631612,-0.0063915867,0.05539375,-0.018109497,-0.0063915867
13718,android.sensor.gyroscope_uncalibrated,-0.0127831735,-0.04261058,-0.0053263223,0.05539375,-0.018109497,-0.0063915867
13767,android.sensor.orientation,168.81514,-179.24922,-0.71099037
13822,android.sensor.gyroscope,-0.039414786,0.015978966,-0.0053263223
13869,android.sensor.magnetic_field_uncalibrated,-9.8,-33.2,82.6,-25.6,44.0,35.600002
13921,android.sensor.gravity,-0.04434612,0.08860998,-9.806149
13974,android.sensor.magnetic_field_uncalibrated,-9.7,-34.3,83.0,-25.6,44.0,35.600002
14028,android.sensor.orientation,168.93735,-179.97394,-0.7129848
14081,android.sensor.gyroscope,-0.03834952,0.010652645,0.002130529
14134,android.sensor.rotation_vector,0.995117,0.098637,-0.002753,0.002152,2.0
14188,android.sensor.orientation,168.35518,-179.75096,-0.56716025
14244,android.sensor.accelerometer,0.0023942017,0.15083471,-9.743204
14290,android.sensor.accelerometer,-0.19991584,0.045489833,-9.309854
14342,android.sensor.magnetic_field_uncalibrated,-9.900001,-33.3,80.6,-25.6,44.0,35.600002
14401,android.sensor.gyroscope_uncalibrated,0.007456851,0.008522116,-0.0127831735,0.05539375,-0.018109497,-0.0063915867
14448,android.sensor.gyroscope_uncalibrated,0.029827405,0.10546118,0.0031957934,0.05539375,-0.018109497,-0.0063915867
14498,android.sensor.gyroscope_uncalibrated,-0.029827405,-0.06498113,-0.00958738,0.05539375,-0.018109497,-0.0063915867
14552,android.sensor.accelerometer,-0.10055647,0.3172317,-9.822212
14601,android.sensor.gyroscope,-0.04474111,-0.034088463,-0.0053263223
14663,android.sensor.gyroscope,-0.026631612,0.05219796,-0.0053263223
14704,android.sensor.accelerometer,-0.23702596,0.46567222,-8.160637
14759,android.sensor.gyroscope_uncalibrated,-0.025566347,-0.10972224,-0.02130529,0.05539375,-0.018109497,-0.0063915867
14811,android.sensor.accelerometer,-0.0011971008,-0.14604631,-10.267534
14859,android.sensor.game_rotation_vector,0.839641,0.543107,-0.001789,0.005751
14912,android.sensor.accelerometer,-0.44532153,0.16160862,-10.135853
14968,android.sensor.orientation,167.51892,-179.81523,-0.8540692
15024,android.sensor.gyroscope_uncalibrated,0.022370555,-0.06711166,-0.002130529,0.05539375,-0.018109497,-0.0063915867
15082,android.sensor.accelerometer,0.051475335,0.1412579,-10.644621
15127,android.sensor.orientation,166.51494,-178.01483,-1.0252473
15179,android.sensor.accelerometer,-0.38187516,0.047884032,-8.747216
15231,android.sensor.accelerometer,-0.45370123,0.059855044,-8.908825
15281,android.sensor.gyroscope_uncalibrated,0.010652645,-0.03834952,-0.017044231,0.05539375,-0.018109497,-0.0063915867
15340,android.sensor.gyroscope_uncalibrated,0.027696876,0.004261058,-0.023435818,0.05539375,-0.018109497,-0.0063915867
15387,android.sensor.orientation,167.46846,179.56018,-0.2657713
15441,android.sensor.accelerometer,-0.24779987,-0.19512744,-9.405622
15488,android.sensor.accelerometer,0.03232172,0.24779987,-11.036073
15539,android.sensor.linear_acceleration,0.39530432,0.50876594,-0.10145092
15592,android.sensor.accelerometer,-0.17597382,0.260968,-8.730456
15647,android.sensor.orientation,167.57426,-178.54362,-0.4649123
15698,android.sensor.gyroscope,-0.0777643,-0.03834952,-0.011717909
15747,android.sensor.orientation,168.31448,-179.69797,-0.63807124
15801,android.sensor.accelerometer,0.06943185,0.36870706,-9.178172
15849,android.sensor.accelerometer,-0.33399114,0.12808979,-8.639477
15900,android.sensor.accelerometer,-0.3172317,0.05267244,-10.426748
15957,android.sensor.gyroscope_uncalibrated,0.020240024,-0.014913702,-0.0127831735,0.05539375,-0.018109497,-0.0063915867
16005,android.sensor.gyroscope_uncalibrated,0.04580637,0.06391586,-0.007456851,0.05539375,-0.018109497,-0.0063915867
16064,android.sensor.orientation,163.48712,-179.22446,-0.6359949
16111,android.sensor.accelerometer,-0.31244332,0.21547815,-9.9550905
16162,android.sensor.magnetic_field_uncalibrated,-13.900001,-22.7,78.6,-25.6,44.0,35.600002
16222,android.sensor.gyroscope,-0.037284255,0.00958738,0.0010652645
16268,android.sensor.accelerometer,-0.21308395,0.17477672,-8.991425
16320,android.sensor.gyroscope,-0.066046394,-0.01917476,-0.004261058
16371,android.sensor.gyroscope_uncalibrated,-0.017044231,-0.06711166,-0.014913702,0.05539375,-0.018109497,-0.0063915867
16425,android.sensor.accelerometer,0.14844051,-0.07062895,-10.382456
16482,android.sensor.gyroscope_uncalibrated,0.037284255,0.054328486,-0.0063915867,0.05539375,-0.018109497,-0.0063915867
16531,android.sensor.accelerometer,-0.062249243,-0.027533319,-9.0476885
16583,android.sensor.gyroscope,-0.084155895,-0.068176925,-0.002130529
16647,android.sensor.gyroscope_uncalibrated,-0.024501082,-0.08735169,-0.0063915867,0.05539375,-0.018109497,-0.0063915867
16687,android.sensor.orientation,165.60356,-179.2212,-0.615436
16739,android.sensor.gyroscope_uncalibrated,0.03089267,0.051132694,-0.020240024,0.05539375,-0.018109497,-0.0063915867
16788,android.sensor.gyroscope_uncalibrated,0.0053263223,-0.029827405,-0.0063915867,0.05539375,-0.018109497,-0.0063915867
16840,android.sensor.accelerometer,-0.5398925,-0.039504327,-10.09156
16894,android.sensor.magnetic_field_uncalibrated,-12.6,-13.1,79.0,-25.6,44.0,35.600002
16947,android.sensor.orientation,167.27037,-179.03552,-0.7844559
17001,android.sensor.gyroscope_uncalibrated,0.026631612,0.040480047,-0.010652645,0.05539375,-0.018109497,-0.0063915867
17051,android.sensor.accelerometer,-0.33039984,-0.027533319,-9.035717
17100,android.sensor.accelerometer,-0.20949265,0.075417355,-11.003751
17158,android.sensor.gyroscope,-0.035153728,0.026631612,-0.0031957934
17209,android.sensor.magnetic_field_uncalibrated,-12.0,-10.400001,78.3,-25.6,44.0,35.600002
17262,sound,-Infinity
17318,android.sensor.gyroscope_uncalibrated,-0.017044231,-0.07243799,-0.010652645,0.05539375,-0.018109497,-0.0063915867
17367,android.sensor.orientation,166.33159,-179.20409,-0.4491209
17425,android.sensor.gyroscope,-0.025566347,0.05965481,0.0
17482,android.sensor.gyroscope_uncalibrated,0.034088463,0.056459017,-0.007456851,0.05539375,-0.018109497,-0.0063915867
17526,android.sensor.orientation,164.77582,-179.32959,-0.61790854
17582,android.sensor.gyroscope_uncalibrated,-0.008522116,-0.07243799,-0.011717909,0.05539375,-0.018109497,-0.0063915867
17626,android.sensor.orientation,163.9846,-179.3732,-0.5533496
17678,android.sensor.gyroscope_uncalibrated,0.002130529,-0.018109497,-0.010652645,0.05539375,-0.018109497,-0.0063915867
17730,android.sensor.accelerometer,-0.4177882,-0.15442601,-9.56723
17781,android.sensor.gyroscope,-0.039414786,-0.0127831735,-0.008522116
17842,android.sensor.gyroscope,-0.037284255,-0.008522116,-0.004261058
17888,android.sensor.accelerometer,-0.050278235,0.14844051,-8.420407
17942,android.sensor.gyroscope_uncalibrated,-0.017044231,-0.05006743,-0.00958738,0.05539375,-0.018109497,-0.0063915867
17991,android.sensor.accelerometer,-0.533907,0.1388637,-10.515334
18041,android.sensor.accelerometer,0.11133038,0.079008654,-11.07438
18099,android.sensor.gyroscope,-0.01917476,0.06711166,0.0
18145,android.sensor.gyroscope_uncalibrated,-0.0063915867,-0.023435818,-0.010652645,0.05539375,-0.018109497,-0.0063915867
18203,android.sensor.gyroscope_uncalibrated,-0.0127831735,-0.039414786,-0.011717909,0.05539375,-0.018109497,-0.0063915867
18251,android.sensor.accelerometer,-0.21906945,0.19393034,-10.868479
18301,android.sensor.accelerometer,0.19393034,0.22984336,-10.020931
18357,android.sensor.gyroscope,-0.022370555,0.068176925,-0.0053263223
18407,android.sensor.orientation,164.84357,-179.16727,-0.74157596
18465,android.sensor.gyroscope_uncalibrated,-0.0127831735,-0.068176925,-0.00958738,0.05539375,-0.018109497,-0.0063915867
18513,android.sensor.gyroscope,-0.022370555,-0.0063915867,-0.002130529
18568,android.sensor.gyroscope_uncalibrated,0.040480047,0.07137272,-0.011717909,0.05539375,-0.018109497,-0.0063915867
18621,android.sensor.accelerometer,0.044292733,0.15083471,-8.456321
18669,android.sensor.orientation,165.23228,-179.19553,-0.37528655
18723,android.sensor.gyroscope_uncalibrated,-0.002130529,-0.04474111,-0.014913702,0.05539375,-0.018109497,-0.0063915867
18777,android.sensor.gyroscope,-0.03834952,-0.025566347,-0.00958738
18827,android.sensor.gyroscope_uncalibrated,0.036218993,0.07989483,-0.007456851,0.05539375,-0.018109497,-0.0063915867
18882,android.sensor.gyroscope,-0.024501082,0.039414786,-0.0010652645
18928,android.sensor.game_rotation_vector,0.834997,0.550243,-0.002331,0.002554
18981,android.sensor.gyroscope,-0.054328486,-0.023435818,-0.0053263223
19033,android.sensor.gyroscope,-0.03089267,0.10013486,0.0031957934
19088,android.sensor.gyroscope_uncalibrated,0.010652645,0.023435818,-0.004261058,0.05539375,-0.018109497,-0.0063915867
19138,android.sensor.gyroscope,-0.068176925,-0.029827405,-0.004261058
19188,android.sensor.magnetic_field_uncalibrated,-11.6,-5.5,82.700005,-25.6,44.0,35.600002
19241,android.sensor.gyroscope_uncalibrated,0.03834952,0.05539375,-0.00958738,0.05539375,-0.018109497,-0.0063915867
19298,android.sensor.gyroscope,-0.033023197,0.084155895,0.0031957934
19344,android.sensor.accelerometer,-0.50038815,0.10414778,-9.106346
19402,android.sensor.accelerometer,-0.41180268,0.017956512,-9.020155
19448,android.sensor.gyroscope_uncalibrated,0.017044231,-0.060720075,-0.007456851,0.05539375,-0.018109497,-0.0063915867
19501,android.sensor.magnetic_field,15.3,-49.3,45.7
19559,android.sensor.gyroscope_uncalibrated,0.046871636,0.10226539,-0.002130529,0.05539375,-0.018109497,-0.0063915867
19607,android.sensor.gyroscope_uncalibrated,-0.02130529,-0.06178534,-0.008522116,0.05539375,-0.018109497,-0.0063915867
19659,android.sensor.gyroscope_uncalibrated,-0.018109497,-0.07243799,-0.017044231,0.05539375,-0.018109497,-0.0063915867
19707,android.sensor.orientation,161.48286,-178.66014,-0.48988348
19763,sound,-Infinity
19821,android.sensor.accelerometer,-0.10175357,0.075417355,-10.180145
19867,android.sensor.orientation,162.49017,-179.1098,-0.9832144
19920,android.sensor.gyroscope,-0.035153728,-0.018109497,0.0053263223
19966,android.sensor.orientation,163.02019,-179.41472,-0.39192492
20019,android.sensor.gyroscope_uncalibrated,0.0053263223,-0.020240024,-0.015978966,0.05539375,-0.018109497,-0.0063915867
20072,android.sensor.accelerometer,-0.22984336,0.18195933,-10.524911
20123,android.sensor.gravity,-0.13765065,0.1568853,-9.804407
20184,android.sensor.gyroscope,-0.035153728,-0.018109497,-0.002130529
20227,android.sensor.gyroscope_uncalibrated,-0.0053263223,-0.040480047,-0.015978966,0.05539375,-0.018109497,-0.0063915867
20280,android.sensor.rotation_vector,0.991089,0.132658,-0.009198,0.007627,2.0
20338,android.sensor.gyroscope_uncalibrated,0.014913702,-0.024501082,-0.008522116,0.05539375,-0.018109497,-0.0063915867
20389,android.sensor.gyroscope_uncalibrated,0.013848438,0.022370555,-0.00958738,0.05539375,-0.018109497,-0.0063915867
20440,android.sensor.gyroscope,-0.07243799,-0.025566347,-0.0127831735
20487,android.sensor.magnetic_field_uncalibrated,-13.3,-5.4,78.4,-25.6,44.0,35.600002
20541,android.sensor.accelerometer,-0.06823475,0.09696517,-10.747571
20591,android.sensor.accelerometer,-0.19512744,0.34955344,-10.257957
20648,android.sensor.gyroscope_uncalibrated,0.037284255,0.07669904,-0.004261058,0.05539375,-0.018109497,-0.0063915867
20697,android.sensor.gyroscope_uncalibrated,-0.018109497,-0.08841695,-0.015978966,0.05539375,-0.018109497,-0.0063915867
20747,android.sensor.gyroscope_uncalibrated,-0.002130529,-0.051132694,-0.027696876,0.05539375,-0.018109497,-0.0063915867
20798,android.sensor.gyroscope,-0.020240024,0.020240024,0.002130529
20848,android.sensor.orientation,165.83408,-179.53459,-0.44642982
20902,android.sensor.accelerometer,-0.37708676,0.051475335,-8.300697
20951,android.sensor.accelerometer,-0.44891283,-0.010773907,-9.5971575
21007,android.sensor.orientation,165.75334,-179.37372,-1.5542319
21053,android.sensor.magnetic_field,13.5,-49.600002,41.0
21109,android.sensor.gyroscope,-0.056459017,-0.034088463,0.004261058
21158,android.sensor.gyroscope_uncalibrated,-0.0010652645,-0.046871636,-0.004261058,0.05539375,-0.018109497,-0.0063915867
21209,android.sensor.rotation_vector,0.989884,0.14171,-0.00633,0.002381,2.0
21262,sound,-Infinity
21321,android.sensor.gyroscope_uncalibrated,0.025566347,0.01917476,-0.00958738,0.05539375,-0.018109497,-0.0063915867
21369,android.sensor.gyroscope_uncalibrated,-0.004261058,-0.051132694,-0.00958738,0.05539375,-0.018109497,-0.0063915867
21418,android.sensor.gyroscope_uncalibrated,-0.025566347,-0.09374327,-0.013848438,0.05539375,-0.018109497,-0.0063915867
21472,android.sensor.accelerometer,0.05746084,0.24181437,-10.522516
21523,android.sensor.magnetic_field_uncalibrated,-11.7,-2.9,77.4,-25.6,44.0,35.600002
21575,android.sensor.magnetic_field_uncalibrated,-11.7,-2.7,77.6,-25.6,44.0,35.600002
21627,android.sensor.orientation,164.21147,-179.16444,-1.7690003
21686,android.sensor.accelerometer,0.15682021,-0.04070143,-10.553641
21741,android.sensor.gyroscope_uncalibrated,0.014913702,0.0,0.0010652645,0.05539375,-0.018109497,-0.0063915867
21787,android.sensor.gyroscope,-0.024501082,0.056459017,0.020240024
21838,android.sensor.gyroscope,-0.07350325,-0.04474111,-0.0031957934
21889,android.sensor.gyroscope_uncalibrated,0.011717909,0.022370555,-0.023435818,0.05539375,-0.018109497,-0.0063915867
21940,android.sensor.accelerometer,-0.061052144,0.12689269,-10.133459
22003,android.sensor.gyroscope_uncalibrated,0.015978966,-0.00958738,-0.0053263223,0.05539375,-0.018109497,-0.0063915867
22047,android.sensor.orientation,163.50308,-179.25804,-0.7453872
22102,android.sensor.gyroscope,-0.05752428,0.035153728,0.0053263223
22150,android.sensor.gyroscope_uncalibrated,-0.023435818,-0.04580637,-0.010652645,0.05539375,-0.018109497,-0.0063915867
22200,android.sensor.gyroscope,-0.034088463,0.017044231,-0.00958738
22258,android.sensor.gyroscope_uncalibrated,0.00958738,0.026631612,-0.0127831735,0.05539375,-0.018109497,-0.0063915867
22307,android.sensor.orientation,164.99643,-179.85158,-0.6734926
22359,android.sensor.gyroscope_uncalibrated,-0.0053263223,-0.05752428,-0.0031957934,0.05539375,-0.018109497,-0.0063915867
22411,android.sensor.orientation,164.33577,-179.74344,-0.85508
22461,android.sensor.gyroscope,-0.039414786,0.011717909,-0.014913702
22510,android.sensor.orientation,163.7507,-178.92729,-0.7971464
22568,android.sensor.orientation,163.87442,-179.24416,-0.5015358
22618,android.sensor.gyroscope,-0.05752428,-0.0063915867,-0.00958738
22667,android.sensor.orientation,164.22424,-179.20258,-1.225208
22718,android.sensor.linear_acceleration,0.13044795,-0.14548174,-0.059448242
22771,android.sensor.orientation,162.81267,-178.77417,-0.71549827
22823,android.sensor.pressure,1020.2866,0.0,0.0
22882,android.sensor.gyroscope,-0.06178534,-0.020240024,-0.0010652645
22929,android.sensor.orientation,164.29149,-179.7727,-1.5411316
22979,android.sensor.gyroscope_uncalibrated,0.014913702,-0.0127831735,-0.010652645,0.05539375,-0.018109497,-0.0063915867
23032,android.sensor.gyroscope_uncalibrated,-0.010652645,-0.09161274,-0.017044231,0.05539375,-0.018109497,-0.0063915867
23084,android.sensor.magnetic_field_uncalibrated,-11.8,-1.9,78.3,-25.6,44.0,35.600002
23140,android.sensor.gyroscope_uncalibrated,0.020240024,0.01917476,0.0063915867,0.05539375,-0.018109497,-0.0063915867
23189,android.sensor.gyroscope_uncalibrated,0.0063915867,-0.02876214,-0.010652645,0.05539375,-0.018109497,-0.0063915867
23244,android.sensor.gyroscope,-0.04580637,0.023435818,-0.022370555
23302,android.sensor.gyroscope,-0.024501082,0.039414786,-0.007456851
23351,android.sensor.gyroscope,-0.070307456,-0.08522116,-0.0010652645
23409,android.sensor.gyroscope_uncalibrated,0.014913702,-0.008522116,-0.0063915867,0.05539375,-0.018109497,-0.0063915867
23459,android.sensor.gyroscope,-0.034088463,0.013848438,0.0010652645
23509,android.sensor.gyroscope_uncalibrated,0.0127831735,0.022370555,-0.01917476,0.05539375,-0.018109497,-0.0063915867
23558,android.sensor.gyroscope_uncalibrated,0.026631612,0.03195793,-0.007456851,0.05539375,-0.018109497,-0.0063915867
23610,android.sensor.accelerometer,-0.4321534,-0.051475335,-9.841366
23661,android.sensor.accelerometer,-0.24061728,0.15203181,-11.228806
23713,android.sensor.game_rotation_vector,0.829204,0.558814,-0.003454,0.011572
23768,android.sensor.gyroscope,-0.03089267,0.0053263223,0.0053263223
23818,android.sensor.orientation,163.12115,-179.25902,-0.11620384
23868,android.sensor.gyroscope_uncalibrated,0.014913702,0.0127831735,-0.014913702,0.05539375,-0.018109497,-0.0063915867
23920,android.sensor.accelerometer,0.06823475,0.15682021,-9.578004
23970,android.sensor.accelerometer,-0.24540567,0.04309563,-8.495825
24023,android.sensor.gravity,-0.1142045,0.07826109,-9.805654
24082,android.sensor.accelerometer,-0.19153613,-0.1352724,-11.0935335
24128,android.sensor.orientation,164.02296,179.88684,-1.2709019
24184,android.sensor.gyroscope_uncalibrated,0.00958738,-0.0063915867,-0.0031957934,0.05539375,-0.018109497,-0.0063915867
24239,android.sensor.gyroscope_uncalibrated,-0.004261058,-0.04580637,-0.002130529,0.05539375,-0.018109497,-0.0063915867
24287,android.sensor.accelerometer,-0.30645782,0.12689269,-10.03769
24340,android.sensor.gyroscope,-0.04580637,0.029827405,-0.008522116
24394,android.sensor.gyroscope_uncalibrated,-0.007456851,-0.05006743,-0.007456851,0.05539375,-0.018109497,-0.0063915867
24449,android.sensor.orientation,163.42001,-179.093,-0.5868858
24507,android.sensor.accelerometer,-0.130484,-0.18195933,-10.102334
24553,android.sensor.linear_acceleration,-0.3519723,-0.031921797,-0.34749794
24604,android.sensor.magnetic_field_uncalibrated,-12.2,0.2,76.6,-25.6,44.0,35.600002
24658,android.sensor.gyroscope_uncalibrated,0.04580637,0.0,0.0010652645,0.05539375,-0.018109497,-0.0063915867
24707,android.sensor.game_rotation_vector,0.828421,0.560048,5.1E-5,0.008028
24763,sound,-Infinity
24818,android.sensor.gyroscope,-0.05539375,0.022370555,0.0010652645
24863,android.sensor.game_rotation_vector,0.828238,0.560239,0.001619,0.012269
24922,android.sensor.gyroscope_uncalibrated,-0.017044231,-0.060720075,-0.015978966,0.05539375,-0.018109497,-0.0063915867
24969,android.sensor.orientation,162.6344,-178.84712,-1.2701097
25022,android.sensor.accelerometer,0.18555063,0.08379706,-10.200497
25074,android.sensor.orientation,163.13548,-179.43976,-0.37342876
25128,android.sensor.orientation,162.83932,-179.95387,-1.2159326
25182,android.sensor.gyroscope_uncalibrated,0.007456851,0.0,-0.014913702,0.05539375,-0.018109497,-0.0063915867
25231,android.sensor.accelerometer,-0.21428105,0.44771573,-10.96305
25285,android.sensor.gyroscope,-0.004261058,0.094808534,0.010652645
25343,android.sensor.magnetic_field,13.3,-41.4,42.9
25392,android.sensor.accelerometer,-0.80445176,0.06584055,-10.353725
25441,android.sensor.accelerometer,0.25378537,0.47524905,-9.411607
25493,android.sensor.orientation,163.11638,-178.67813,-0.90059644
25546,android.sensor.orientation,161.6548,-178.39392,-0.3268059
25598,android.sensor.gyroscope,-0.04261058,0.02130529,-0.018109497
25647,android.sensor.orientation,163.61617,-179.60275,-0.7523403
25703,android.sensor.gyroscope,-0.02876214,0.035153728,0.008522116
25762,android.sensor.gyroscope,-0.043675844,-0.026631612,-0.007456851
25807,android.sensor.orientation,164.4561,179.90887,-1.4977052
25859,android.sensor.gyroscope_uncalibrated,0.008522116,-0.004261058,-0.014913702,0.05539375,-0.018109497,-0.0063915867
25907,android.sensor.orientation,164.186,-178.79633,-0.47498
25960,android.sensor.orientation,162.23761,-178.05275,-0.30478534
26013,android.sensor.gravity,-0.15662852,0.2889936,-9.801124
