time,activityrecognition#0,activityrecognition#1,android.sensor.accelerometer#mean,android.sensor.accelerometer#min,android.sensor.accelerometer#max,android.sensor.accelerometer#std,android.sensor.gravity#mean,android.sensor.gravity#min,android.sensor.gravity#max,android.sensor.gravity#std,android.sensor.linear_acceleration#mean,android.sensor.linear_acceleration#min,android.sensor.linear_acceleration#max,android.sensor.linear_acceleration#std,android.sensor.orientation#mean,android.sensor.orientation#min,android.sensor.orientation#max,android.sensor.orientation#std,android.sensor.gyroscope_uncalibrated#mean,android.sensor.gyroscope_uncalibrated#min,android.sensor.gyroscope_uncalibrated#max,android.sensor.gyroscope_uncalibrated#std,android.sensor.magnetic_field_uncalibrated#mean,android.sensor.magnetic_field_uncalibrated#min,android.sensor.magnetic_field_uncalibrated#max,android.sensor.magnetic_field_uncalibrated#std,android.sensor.rotation_vector#mean,android.sensor.rotation_vector#min,android.sensor.rotation_vector#max,android.sensor.rotation_vector#std,android.sensor.gyroscope#mean,android.sensor.gyroscope#min,android.sensor.gyroscope#max,android.sensor.gyroscope#std,android.sensor.game_rotation_vector#mean,android.sensor.game_rotation_vector#min,android.sensor.game_rotation_vector#max,android.sensor.game_rotation_vector#std,android.sensor.magnetic_field#mean,android.sensor.magnetic_field#min,android.sensor.magnetic_field#max,android.sensor.magnetic_field#std,android.sensor.pressure#mean,android.sensor.pressure#min,android.sensor.pressure#max,android.sensor.pressure#std,android.sensor.light#mean,android.sensor.light#min,android.sensor.light#max,android.sensor.light#std,sound#mean,sound#min,sound#max,sound#std,speed#mean,speed#min,speed#max,speed#std,android.sensor.proximity#mean,android.sensor.proximity#min,android.sensor.proximity#max,android.sensor.proximity#std,android.sensor.step_counter#mean,android.sensor.step_counter#min,android.sensor.step_counter#max,android.sensor.step_counter#std,target,user
1,,,9.910720487643529,6.087336679330001,14.9482805365,2.5302573743916557,9.806644675205,9.80664264538,9.80664670503,2.87060604373296e-06,2.89279520587,2.89279520587,2.89279520587,0.35611869156798115,306.59802752748,304.039508898,309.24374404599996,1.8227326254747833,0.23605842820797499,0.029903398160599996,0.673409765737,0.1743080127162784,56.713398541375,56.3960123803,57.086425707,0.2839694515638538,0.6064687542110001,0.598844931326,0.6140925770960001,0.010781713721097404,0.36930608876172727,0.10054765210899999,1.45474803273,0.369881741919157,0.49568124385400003,0.493533124999,0.497829362709,0.0030378988183303915,54.004496742200004,52.817232036499995,55.636229203599996,1.2218752074056636,nan,nan,nan,nan,nan,nan,nan,nan,nan,nan,nan,nan,nan,nan,nan,nan,nan,nan,nan,nan,nan,nan,nan,nan,Car,U13
2,,,9.6568641322975,6.72779533471,12.3088222894,1.5582462488634359,9.806641761549999,9.806641761549999,9.806641761549999,2.87060604373296e-06,1.907377954375,1.5461585881,2.26859732065,0.5108413267779196,305.72709008328576,303.533808469,308.881565054,1.2952198176519847,0.16127494607331713,0.046164189537300004,0.495984429744,0.09330056167681561,59.16725391555,58.495640863199995,59.8388669679,0.9498042873001673,0.6011413621305,0.587789373674,0.614493350587,0.01888256315983137,0.17923095218425,0.133706602433,0.236752476957,0.04720331661426851,0.48210353605274997,0.47597280216399995,0.488022587017,0.004920879225900824,58.898560064,58.5455378317,59.2515822963,0.49924882873788384,nan,nan,nan,nan,nan,nan,nan,nan,72.06938319467676,72.06938319467676,72.06938319467676,nan,9.191596,9.191596,9.191596,nan,nan,nan,nan,nan,nan,nan,nan,nan,Car,U13
3,,,9.78876952902862,8.99582158152,10.284913834400001,0.2494548227195248,9.80664383388,9.80664383388,9.80664383388,2.87060604373296e-06,1.907377954375,1.5461585881,2.26859732065,0.5108413267779196,306.49014347448,301.967000384,309.638353813,2.4885362466093413,0.03618708324622105,0.015473859959700001,0.07864942043880001,0.016756404312305382,59.93116512063333,59.8098673164,60.171505312700006,0.20814376682420108,0.5951830970606666,0.582403288109,0.616760328814,0.018792220397407012,0.025820595788719092,0.00398585470511,0.041599904418199996,0.012305323655319866,0.462964160461,0.462964160461,0.462964160461,0.004920879225900824,59.27947919376666,58.3216102521,59.8030935655,0.8307412205985971,nan,nan,nan,nan,nan,nan,nan,nan,72.06938319467676,72.06938319467676,72.06938319467676,nan,9.191596,9.191596,9.191596,nan,nan,nan,nan,nan,nan,nan,nan,nan,Car,U13
4,,,9.75970238291926,9.47982468146,10.0466190865,0.1559545939411664,9.80664632753,9.80664632753,9.80664632753,2.87060604373296e-06,0.12807480573966665,0.012010434346799999,0.31877338218699997,0.16644390936584746,309.47639326808,308.891271551,309.831190262,0.2000399705657398,0.024100839869686964,0.0100496850876,0.0476876913478,0.010551121104441804,60.0747037263,60.0747037263,60.0747037263,0.20814376682420108,0.583362649912,0.5828831331100001,0.5838312978719999,0.0004741758141970008,0.013033563776406666,0.004519534510239999,0.0228721992844,0.006767932482137041,0.493206825861,0.492882288974,0.493531362748,0.00045896446708576635,58.1406914304,58.1406914304,58.1406914304,0.8307412205985971,nan,nan,nan,nan,0.0,0.0,0.0,nan,68.22251202178806,65.9726956624887,70.47232838108742,3.181720808170014,9.191596,9.191596,9.191596,nan,nan,nan,nan,nan,nan,nan,nan,nan,Car,U13
5,,,9.759141208851155,9.463930322889999,10.0844070444,0.13968225926433903,9.806643739455001,9.806641573350001,9.806645905560002,3.0633350688867487e-06,0.189823455341,0.189823455341,0.189823455341,0.16644390936584746,309.49495594032,309.15784216099996,309.766872911,0.12878596821229976,0.021225099295703844,0.011957564266800001,0.0364687772697,0.0075118610335908435,60.0747037263,60.0747037263,60.0747037263,0.20814376682420108,0.5831861819349999,0.582569348695,0.5836393473979999,0.0005534570100978852,0.01169064140158909,0.00656673118978,0.017077488071600002,0.0033209480893755345,0.493206825861,0.492882288974,0.493531362748,0.00045896446708576635,58.0784055093,57.8942157767,58.262595241899994,0.260483617892789,nan,nan,nan,nan,0.0,0.0,0.0,nan,68.22251202178806,65.9726956624887,70.47232838108742,3.181720808170014,0.0,0.0,0.0,nan,nan,nan,nan,nan,nan,nan,nan,nan,Car,U13
6,,,9.925824230191111,6.35755514157,13.0368789445,1.261792214175309,9.80664184614,9.80664100849,9.806642683789999,1.1846159893075462e-06,0.189823455341,0.189823455341,0.189823455341,0.16644390936584746,312.19471916717237,306.166652079,315.399847625,2.1545752399812668,0.109976829433108,0.0158362948,0.403040388757,0.11084782816732841,58.5367862098,56.9992126454,59.4005050484,1.3349574692808104,0.569348739878,0.55717961766,0.582881739078,0.012905226912492686,0.0840652883013575,0.00698540622687,0.295671817709,0.09646417507751187,0.506736808129,0.5038931406989999,0.509580475559,0.004021553046384687,57.431269029940005,56.7158707947,58.1498925192,0.6436124701533725,nan,nan,nan,nan,0.0,0.0,0.0,nan,68.22251202178806,65.9726956624887,70.47232838108742,3.181720808170014,0.0,0.0,0.0,nan,nan,nan,nan,nan,nan,nan,nan,nan,Car,U13
7,,,9.813533175465714,6.78476500108,12.142657644200002,1.2858823809836997,9.80664232826,9.80664232826,9.80664232826,1.1846159893075462e-06,1.71091157181,1.3536223947100001,2.06820074891,0.5052831999439424,309.4429136528077,304.802791793,313.513034122,3.1114264004426824,0.20410949316369997,0.0912466065986,0.49349805263,0.10529567940152536,58.5367862098,56.9992126454,59.4005050484,1.3349574692808104,0.5840107449280001,0.580150919088,0.5878705707680001,0.005458618051326199,0.20822475625531112,0.0341881855915,0.542328427478,0.12569113041901797,0.506736808129,0.5038931406989999,0.509580475559,0.004021553046384687,56.380019256400004,55.3683141372,57.391724375600006,1.4307671006949314,nan,nan,nan,nan,0.0,0.0,0.0,nan,68.22251202178806,65.9726956624887,70.47232838108742,3.181720808170014,5.6756363,5.6756363,5.6756363,nan,nan,nan,nan,nan,nan,nan,nan,nan,Car,U13
8,,,10.047779225404481,7.275634693160001,14.0151536916,1.6317139829507932,9.806641000720001,9.806641000720001,9.806641000720001,1.1846159893075462e-06,1.71091157181,1.3536223947100001,2.06820074891,0.5052831999439424,310.39522753660873,306.65541095599997,314.124461596,2.626911464309259,0.2549224123305643,0.0243151140133,1.62284393079,0.3453170221572281,59.7256706711,58.2681733007,61.1831680415,2.0612125483428008,0.5829117601895,0.578904995638,0.586918524741,0.005666420769967063,0.12591508437020002,0.021805418909400003,0.294498903932,0.08755863891577924,0.506736808129,0.5038931406989999,0.509580475559,0.004021553046384687,57.6703087991,57.5667461821,57.77387141609999,0.1464596575162475,nan,nan,nan,nan,0.0,0.0,0.0,nan,68.22251202178806,65.9726956624887,70.47232838108742,3.181720808170014,5.6756363,5.6756363,5.6756363,nan,nan,nan,nan,nan,nan,nan,nan,nan,Car,U13
9,,,10.1056434033485,7.24530099204,13.402670858699999,1.6888940952615898,9.80663834783,9.80663834783,9.80663834783,1.1846159893075462e-06,0.638308601828,0.638308601828,0.638308601828,0.5052831999439424,306.45196415742424,301.155412268,313.06715083,3.5733041222381825,0.2880796630776625,0.05933054392249999,1.07459050824,0.23379944361196497,58.820685909649995,56.7261846752,60.915187144099995,2.962072052166375,0.5829117601895,0.578904995638,0.586918524741,0.005666420769967063,0.34006229008176003,0.0659604307197,1.65379858144,0.4792262154482888,0.580441429255,0.580441429255,0.580441429255,0.004021553046384687,58.52794177325,58.5223034407,58.5335801058,0.007973806361378755,1021.81836,1021.81836,1021.81836,nan,0.0,0.0,0.0,nan,68.22251202178806,65.9726956624887,70.47232838108742,3.181720808170014,5.6756363,5.6756363,5.6756363,nan,nan,nan,nan,nan,nan,nan,nan,nan,Car,U13
10,,,9.861469907403793,6.03927430378,14.088343804900001,1.431953533560855,9.806643748346666,9.80664224667,9.80664476352,1.3270823636117999e-06,0.35545503854099997,0.35545503854099997,0.35545503854099997,0.5052831999439424,313.31153660082606,310.080464452,316.03896406900003,1.5842754106103896,0.23051484720095713,0.0513430945567,0.756864223825,0.18379229359332802,65.49397608870001,64.9425130404,66.045439137,0.7798865220534699,0.5969001253955,0.594299241514,0.599501009277,0.0036782052593748527,0.19747329181651,0.0815814510337,0.406910097272,0.10720337288246859,0.6017656611705,0.597765512353,0.605765809988,0.005657064709219189,64.27600626750001,64.2715333831,64.2804791519,0.006325613781399726,1021.81836,1021.81836,1021.81836,nan,0.0,0.0,0.0,nan,79.17987330060652,79.17987330060652,79.17987330060652,3.181720808170014,5.6756363,5.6756363,5.6756363,nan,nan,nan,nan,nan,nan,nan,nan,nan,Car,U13
11,,,9.301126631691428,7.048775544650001,14.38044364,1.480860528158789,9.806643748346666,9.80664224667,9.80664476352,1.3270823636117999e-06,2.271020866585,1.9715332697599999,2.57050846341,0.42353942119244053,309.46708162393105,305.107531288,313.69244061,2.413072761043548,0.21522497022124443,0.045719581233900006,0.507005436007,0.14014690357130397,64.9933762878,63.8310269383,66.1557256373,1.6438102142784414,0.5969001253955,0.594299241514,0.599501009277,0.0036782052593748527,0.2087616902218,0.10015752455299999,0.313918811891,0.07213090851239103,0.582304175804,0.582304175804,0.582304175804,0.005657064709219189,64.41034729444999,63.6981946369,65.122499952,1.0071359467872523,1021.81836,1021.81836,1021.81836,nan,0.0,0.0,0.0,nan,84.42411035348006,84.42411035348006,84.42411035348006,3.181720808170014,14.496068,14.496068,14.496068,nan,nan,nan,nan,nan,nan,nan,nan,nan,Car,U13
12,,,9.891732666133601,5.824825389909999,13.437487448699999,1.7474341603992896,9.8066487657,9.8066487657,9.8066487657,1.3270823636117999e-06,0.8153569593623332,0.492330031851,1.3831990795299998,0.49331812651132145,307.85465925716,304.755105822,315.438619186,2.9858129019864954,0.22388155455440004,0.08404794790650001,1.1169027093500001,0.22158827364067502,73.1492310281,73.1492310281,73.1492310281,1.6438102142784414,0.6377341899219999,0.63676976144,0.638698618404,0.0013639078391833143,0.16344544528362856,0.043519670634399994,0.7044822209839999,0.17194665825430222,0.590649890826,0.586422970197,0.593611167766,0.0037575173364036056,68.76202266569999,65.7066986418,70.39240475359999,2.6479813221147372,1021.81836,1021.81836,1021.81836,nan,0.0,0.0,0.0,nan,84.42411035348006,84.42411035348006,84.42411035348006,3.181720808170014,14.496068,14.496068,14.496068,nan,nan,nan,nan,nan,nan,nan,nan,nan,Car,U13
13,,,9.723715092810357,6.8922014345800005,12.115603739900001,1.077250886175462,9.8066487657,9.8066487657,9.8066487657,1.3270823636117999e-06,0.8153569593623332,0.492330031851,1.3831990795299998,0.49331812651132145,320.10552765628,315.739409274,322.325037854,1.683621541280968,0.190048366101948,0.0387908410667,0.626045657186,0.11626206597300824,73.79959349479999,73.79959349479999,73.79959349479999,1.6438102142784414,0.56778774148,0.56778774148,0.56778774148,0.0013639078391833143,0.15347899126206366,0.0756712784118,0.276761778913,0.06715334642133775,0.717096397512,0.717096397512,0.717096397512,0.0037575173364036056,72.66969251586666,72.5984893576,72.71980473020001,0.06334805320030686,1021.81836,1021.81836,1021.81836,nan,0.0,0.0,0.0,nan,78.95063491391186,78.95063491391186,78.95063491391186,3.181720808170014,14.496068,14.496068,14.496068,nan,nan,nan,nan,nan,nan,nan,nan,nan,Car,U13
14,,,9.559835082077932,7.495118764089999,13.052402855999999,1.4746193136707229,9.806639213963331,9.80663574444,9.806641342,3.0303233074716245e-06,0.970051866484,0.970051866484,0.970051866484,0.49331812651132145,317.7831485938,315.340736377,319.300205209,1.1253484366206463,0.19025199364054735,0.0582398704144,0.42033691685,0.10071171191411203,76.9484892639,76.9484892639,76.9484892639,1.6438102142784414,0.5870966459605,0.583263514984,0.590929776937,0.00542086581331874,0.11644387992251817,0.027033381472900003,0.336787024473,0.0843195426074503,0.7334937536340002,0.728295696013,0.736728197016,0.004546273633548872,72.62003525284999,72.2657599574,72.9743105483,0.5010209276391276,1021.81836,1021.81836,1021.81836,nan,0.0,0.0,0.0,nan,78.95063491391186,78.95063491391186,78.95063491391186,3.181720808170014,14.496068,14.496068,14.496068,nan,nan,nan,nan,nan,nan,nan,nan,nan,Car,U13
15,,,10.026168260864544,5.52298368737,13.7450060493,2.2648692245391455,9.80664088867,9.80664088867,9.80664088867,3.0303233074716245e-06,1.5976686938473332,0.581051701042,2.69060413356,1.0568449486038212,320.54676260033335,318.399075811,322.31072914599997,1.1660138456758207,0.21907322623858846,0.0631388275385,0.6387750677690001,0.14496023170140726,79.4809411117,79.4809411117,79.4809411117,1.6438102142784414,0.605538515822,0.605538515822,0.605538515822,0.00542086581331874,0.20457252035795453,0.048466605868899997,0.51612145351,0.14585545992950205,0.791568099514,0.780215347759,0.803553156743,0.009634411916067438,74.59714243933333,73.98148417,75.7854877295,1.0293614664176007,1021.81836,1021.81836,1021.81836,nan,0.0,0.0,0.0,nan,78.95063491391186,78.95063491391186,78.95063491391186,3.181720808170014,14.496068,14.496068,14.496068,nan,nan,nan,nan,nan,nan,nan,nan,nan,Car,U13
16,,,9.791188084357692,5.56975361546,18.252708887,2.5656728359661063,9.80664088867,9.80664088867,9.80664088867,3.0303233074716245e-06,2.14259494138,1.5163277294400002,2.72804518054,0.6068890460992542,322.8701142552857,320.68010814400003,325.103211299,1.3518313892054552,0.4705114847307037,0.105633203176,1.2110689332200002,0.3055807824669525,86.2516086807,86.2516086807,86.2516086807,1.6438102142784414,0.559553845098,0.559553845098,0.559553845098,0.00542086581331874,0.3811111888944111,0.0764990494597,1.12929485877,0.3091735823622714,0.7990886151527999,0.7869647183930001,0.807991602904,0.00788940056045578,77.58712732556667,77.2222765787,78.0885405195,0.44898806247406153,1021.81836,1021.81836,1021.81836,nan,0.0,0.0,0.0,nan,78.95063491391186,78.95063491391186,78.95063491391186,3.181720808170014,16.672947,16.672947,16.672947,nan,nan,nan,nan,nan,nan,nan,nan,nan,Car,U13
17,,,10.054784031109,4.7576777693,19.2458368111,2.397458947033696,9.806640944355001,9.80663952765,9.806642361060002,2.0035234254803203e-06,0.660989496584,0.660989496584,0.660989496584,0.6068890460992542,322.88486737270836,320.726228489,325.10478807,1.4667631900679992,0.29295648806655217,0.034959506727,1.25766814929,0.2757810878901457,87.5797353593,87.5797353593,87.5797353593,1.6438102142784414,0.5477431284625001,0.538848017154,0.556638239771,0.012579587051299008,0.28937846890490004,0.118742346194,0.5288745669430001,0.1382852686835495,0.778771258545,0.778771258545,0.778771258545,0.00788940056045578,77.58712732556667,77.2222765787,78.0885405195,0.44898806247406153,1021.81836,1021.81836,1021.81836,nan,0.0,0.0,0.0,nan,84.68983948477977,84.68983948477977,84.68983948477977,3.181720808170014,16.672947,16.672947,16.672947,nan,nan,nan,nan,nan,nan,nan,nan,nan,Car,U13
18,,,9.520152513638461,6.7912358380299995,16.1043603322,1.9423680558647514,9.80664087747,9.806639649660001,9.80664186754,1.1278910199923683e-06,1.85111268972,1.1971682651200002,2.50505711432,0.9248170743075897,320.94060421804346,319.010796963,322.80966648099997,1.1564954117316277,0.19597855352534232,0.0209832762498,0.56564842025,0.14416573251983036,87.0237323952,87.0237323952,87.0237323952,1.6438102142784414,0.5479803953169999,0.540708549868,0.555252240766,0.010283942457456874,0.229501484015,0.114861002882,0.368234967072,0.10369509184624519,0.7782285653125001,0.776558624944,0.779898505681,0.002361652317487087,78.30383658493334,77.9478714719,78.6663841803,0.3593015792316071,1021.81836,1021.81836,1021.81836,nan,0.0,0.0,0.0,nan,80.83495743446531,80.83495743446531,80.83495743446531,3.181720808170014,16.672947,16.672947,16.672947,nan,nan,nan,nan,nan,nan,nan,nan,nan,Car,U13
19,,,9.59648025535909,4.7469569757,15.1943262748,1.8172535136169672,9.80664087747,9.806639649660001,9.80664186754,1.1278910199923683e-06,0.98717484763,0.98717484763,0.98717484763,0.9248170743075897,322.05327077856,320.603492653,324.24298607,0.8937156261703104,0.21299631332998234,0.0309110300531,0.953833523742,0.25269373082464486,86.70643208450001,86.36678094959998,86.9825896384,0.312775736625384,0.553910846832,0.548816272309,0.559005421355,0.0072048163849470345,0.078722138142225,0.0337707314937,0.193309556928,0.05242778696824178,0.7712602958125,0.7679840232969999,0.773420755185,0.002473661221275499,78.555712714,78.555712714,78.555712714,0.3593015792316071,1021.81836,1021.81836,1021.81836,nan,0.0,0.0,0.0,nan,79.25212145848253,79.25212145848253,79.25212145848253,3.181720808170014,16.672947,16.672947,16.672947,nan,nan,nan,nan,nan,nan,nan,nan,nan,Car,U13
20,,,10.02488862628294,8.33867943039,11.800436393399998,1.0634056649054053,9.80664323744,9.80664262354,9.806643851339999,8.681857049225604e-07,0.46496724535800005,0.46496724535800005,0.46496724535800005,0.9248170743075897,320.00792028244445,317.920406915,323.896581255,2.214763369730433,0.13017354125335,0.029559889561799998,0.272797150776,0.06859742716787615,85.3762772594,84.8761453154,86.3294856246,0.8258378752345618,0.565406924613,0.5607162847070001,0.570097564519,0.006633566571273572,0.07538827872156251,0.035362929668000004,0.114717651974,0.028624771285629392,0.7756358409406667,0.762191175556,0.7856021335100001,0.012086874954380343,78.0997449445,78.0997449445,78.0997449445,0.3593015792316071,1021.81836,1021.81836,1021.81836,nan,0.0,0.0,0.0,nan,76.14122479834478,76.14122479834478,76.14122479834478,3.181720808170014,16.672947,16.672947,16.672947,nan,nan,nan,nan,nan,nan,nan,nan,nan,Car,U13
21,,,9.854651813528749,9.27953405607,10.7026671735,0.3074740612082601,9.80664323744,9.80664262354,9.806643851339999,8.681857049225604e-07,0.46496724535800005,0.46496724535800005,0.46496724535800005,0.9248170743075897,319.53459482834785,316.73782721599997,322.423175737,2.011649851572409,0.03181176061468,0.00964637982454,0.0944668020127,0.022620907157528913,85.87008900069999,85.2704520922,86.2156600775,0.5213124005783666,0.5543765013449999,0.5543765013449999,0.5543765013449999,0.006633566571273572,0.02867443989224125,0.00602604601366,0.0808478886027,0.01880027855280997,0.7805454760609999,0.7805454760609999,0.7805454760609999,0.012086874954380343,78.0997449445,78.0997449445,78.0997449445,0.3593015792316071,1021.81836,1021.81836,1021.81836,nan,0.0,0.0,0.0,nan,76.55642855365605,76.55642855365605,76.55642855365605,3.181720808170014,16.672947,16.672947,16.672947,nan,nan,nan,nan,nan,nan,nan,nan,nan,Car,U13
22,,,9.797945572781924,9.54411313856,10.037015118,0.13006167275140018,9.806640787765,9.806640732510001,9.806640843019998,7.81423686899733e-08,0.10482040358400001,0.10482040358400001,0.10482040358400001,0.9248170743075897,323.58130834876926,322.09988234900004,325.414730126,0.854062149745382,0.019721848222054396,0.009347658016459998,0.034666135083199996,0.0067520220606512756,86.22101329419999,86.0290067361,86.4130198523,0.271538278529594,0.551490760792,0.551490760792,0.551490760792,0.006633566571273572,0.008731846983635714,0.00238200383602,0.013724972398200001,0.004164032501455299,0.7805454760609999,0.7805454760609999,0.7805454760609999,0.012086874954380343,75.1219142693,73.65290218310001,76.5909263555,2.0774968155940283,1021.81836,1021.81836,1021.81836,nan,1.0,1.0,1.0,nan,66.53449232636576,64.46472546205996,69.81882410713574,2.876276938601324,0.0,0.0,0.0,nan,nan,nan,nan,nan,nan,nan,nan,nan,Car,U13
23,,,9.753850816295001,9.48119775627,10.1225961702,0.16639119876168457,9.806637428215,9.80663712986,9.806637726569999,4.219376865149975e-07,0.13324571387,0.13324571387,0.13324571387,0.9248170743075897,323.18216545514815,319.370372701,327.00391444900004,2.2121264681150867,0.01967654740241111,0.008319981447,0.034682494574300005,0.006375017923679954,86.75972591930001,86.75972591930001,86.75972591930001,0.271538278529594,0.54953247575,0.548887854834,0.550177096666,0.0009116316419965433,0.011402989708025715,0.00398585470511,0.0213584853406,0.005929778971507835,0.783565649144,0.783565649144,0.783565649144,0.012086874954380343,74.2609604463,74.2609604463,74.2609604463,2.0774968155940283,1021.81836,1021.81836,1021.81836,nan,1.0,1.0,1.0,nan,66.53449232636576,64.46472546205996,69.81882410713574,2.876276938601324,0.0,0.0,0.0,nan,nan,nan,nan,nan,nan,nan,nan,nan,Car,U13
24,,,9.80368859191069,9.59791421213,10.0992103029,0.10979795332112975,9.806637428215,9.80663712986,9.806637726569999,4.219376865149975e-07,0.13324571387,0.13324571387,0.13324571387,0.9248170743075897,319.60317557826926,319.342664032,320.00496217299997,0.15049428449587715,0.021645207776634614,0.0113239165408,0.040269251652300005,0.008345844857452916,86.75972591930001,86.75972591930001,86.75972591930001,0.271538278529594,0.5643772433356666,0.564261681123,0.564445993076,0.0001006790925621115,0.011303444684719999,0.0038408656934799997,0.0224970126661,0.006239719260517173,0.7826941637852499,0.781459474358,0.7835886431029999,0.0008954097961412857,70.45849842279999,70.45849842279999,70.45849842279999,2.0774968155940283,1021.81836,1021.81836,1021.81836,nan,1.0,1.0,1.0,nan,66.53449232636576,64.46472546205996,69.81882410713574,2.876276938601324,0.0,0.0,0.0,nan,nan,nan,nan,nan,nan,nan,nan,nan,Car,U13
25,,,9.799148534492858,9.39926780713,10.1091122306,0.1656920349137497,9.80664256266,9.80664256266,9.80664256266,4.219376865149975e-07,0.24202359969033335,0.16217622748,0.29117247473900004,0.06976249886375137,320.5462344924615,319.85901328299997,321.76262595099996,0.6450779593600413,0.04835189563670826,0.00804257014119,0.192544889982,0.04467828647121932,78.00798222385001,77.76355234430001,78.2524121034,0.3456760507088285,0.555950968428,0.55081555068,0.564282164591,0.00590423893388709,0.03940683562891857,0.0038408656934799997,0.13326028170999998,0.042768772396377296,0.782965603188,0.782965603188,0.782965603188,0.0008954097961412857,70.45849842279999,70.45849842279999,70.45849842279999,2.0774968155940283,1021.81836,1021.81836,1021.81836,nan,1.0,1.0,1.0,nan,63.59677856046374,63.59677856046374,63.59677856046374,2.876276938601324,0.0,0.0,0.0,nan,nan,nan,nan,nan,nan,nan,nan,nan,Car,U13
26,,,9.747369408218846,9.42311901734,10.062964280700001,0.20671297878691566,9.806640827875,9.80663882359,9.806642832160001,2.8344870313857466e-06,0.24202359969033335,0.16217622748,0.29117247473900004,0.06976249886375137,321.26546064807997,320.729644173,321.710281045,0.30447448044181064,0.025891590914006803,0.00698540622687,0.0522739912855,0.009029356568271384,77.7273883684,77.59033444960001,77.8704693706,0.14016468097082013,0.5537023758849999,0.553294066301,0.554110685469,0.0005774369513397316,0.029145308600744286,0.00782806292201,0.057425559757699994,0.015431818740296845,0.775555416639,0.774849298047,0.776261535231,0.0009986024894502476,68.30451064135,68.242655283,68.36636599970001,0.08747668668402023,1021.81836,1021.81836,1021.81836,nan,1.0,1.0,1.0,nan,63.59677856046374,63.59677856046374,63.59677856046374,2.876276938601324,0.0,0.0,0.0,nan,nan,nan,nan,nan,nan,nan,nan,nan,Car,U13
27,,,9.81878983540353,9.55731781057,10.0459310682,0.1389035643797149,9.80664129742,9.80664016522,9.80664242962,1.6011725959126664e-06,0.09010707022705,0.0699190612281,0.11029507922599999,0.02855015612362517,321.29817868159256,320.93836821,321.501859624,0.12093066858327094,0.028772170620315382,0.002130529,0.048804923893499996,0.01144904663545024,77.5736125248,77.365431557,77.8763765965,0.2682828377010576,0.5537023758849999,0.553294066301,0.554110685469,0.0005774369513397316,0.024041697571453337,0.0074568512,0.0387469356541,0.009096128863848647,0.774904769579,0.774904769579,0.774904769579,0.0009986024894502476,68.23543341626667,68.1047722263,68.3282536027,0.11644714492299392,1021.81836,1021.81836,1021.81836,nan,1.0,1.0,1.0,nan,71.63216732064116,71.63216732064116,71.63216732064116,2.876276938601324,0.0,0.0,0.0,nan,nan,nan,nan,nan,nan,nan,nan,nan,Car,U13
28,,,9.825035759596666,9.46086170203,10.0960215364,0.1880892540306991,9.806643066934999,9.80664117853,9.80664495534,2.670607961523203e-06,0.09010707022705,0.0699190612281,0.11029507922599999,0.02855015612362517,321.1928026206897,319.770614229,322.839425842,0.7437939761222215,0.033302307906675335,0.009163751689559999,0.0829402632166,0.014538504720213697,76.62809983105001,76.0855444115,77.1706552506,0.7672892326666425,0.551844814689,0.5496059863430001,0.554083643035,0.0031661814107384915,0.024541398898462498,0.013724972289499999,0.0294252188111,0.005141427484589668,0.774904769579,0.774904769579,0.774904769579,0.0009986024894502476,67.8969817768,67.8969817768,67.8969817768,0.11644714492299392,1021.81836,1021.81836,1021.81836,nan,1.0,1.0,1.0,nan,71.63216732064116,71.63216732064116,71.63216732064116,2.876276938601324,0.0,0.0,0.0,nan,nan,nan,nan,nan,nan,nan,nan,nan,Car,U13
29,,,9.779334401786539,9.506167821330001,10.7019264102,0.23920861656727782,9.806642162446666,9.806638822030001,9.80664448617,2.9657831147486407e-06,0.05573858251469999,0.05573858251469999,0.05573858251469999,0.02855015612362517,321.8655804258333,321.600179718,322.244159168,0.1757233402216102,0.03171043044546478,0.00804257014119,0.143142362124,0.028088354827071702,79.51486114375001,79.467603462,79.56211882550001,0.0668324544571673,0.5543412388075,0.552647661512,0.556034816103,0.002395079980223268,0.019499476001644613,0.007224975048680001,0.0434674899517,0.012757757923973857,0.7786229455114999,0.778088231485,0.779157659538,0.0007561998282674494,69.1133127552,69.1133127552,69.1133127552,0.11644714492299392,1021.81836,1021.81836,1021.81836,nan,1.0,1.0,1.0,nan,71.63216732064116,71.63216732064116,71.63216732064116,2.876276938601324,0.0,0.0,0.0,nan,nan,nan,nan,nan,nan,nan,nan,nan,Car,U13
30,,,9.76748276036875,9.50557821458,10.0494557991,0.15999852797674652,9.806642162446666,9.806638822030001,9.80664448617,2.9657831147486407e-06,0.105981898673,0.105981898673,0.105981898673,0.02855015612362517,321.79992107607404,321.678348309,321.895986234,0.0649963369678977,0.018764533108718066,0.00964638025523,0.031940174089599996,0.005743767032123711,79.554534968175,79.4975518617,79.5921478539,0.04258473157598917,0.555813006345,0.555183333698,0.556442678992,0.0008904915972427369,0.01740206858723,0.00398585470511,0.033871388448,0.009801110618291342,0.776903247258,0.776903247258,0.776903247258,0.0007561998282674494,69.1275632436,69.1275632436,69.1275632436,0.11644714492299392,1021.81836,1021.81836,1021.81836,nan,1.0,1.0,1.0,nan,67.2107036553718,65.68861467689038,68.73279263385322,2.152558876507035,0.0,0.0,0.0,nan,nan,nan,nan,nan,nan,nan,nan,nan,Car,U13
31,,,9.443173360794999,8.362689626389999,10.5001448855,0.8089331730533109,9.806642162446666,9.806638822030001,9.80664448617,2.9657831147486407e-06,0.105981898673,0.105981898673,0.105981898673,0.02855015612362517,321.9567854188,321.764048994,322.040405926,0.1115172740666473,0.08874629282345002,0.0254105205621,0.17672477088,0.06815278235650325,79.554534968175,79.4975518617,79.5921478539,0.04258473157598917,0.555813006345,0.555183333698,0.556442678992,0.0008904915972427369,0.13452390331666,0.0269913731459,0.488799711537,0.19855403527943902,0.776903247258,0.776903247258,0.776903247258,0.0007561998282674494,69.1275632436,69.1275632436,69.1275632436,0.11644714492299392,1021.81836,1021.81836,1021.81836,nan,1.0,1.0,1.0,nan,67.2107036553718,65.68861467689038,68.73279263385322,2.152558876507035,0.0,0.0,0.0,nan,nan,nan,nan,nan,nan,nan,nan,nan,Car,U13
