time,activityrecognition#0,activityrecognition#1,android.sensor.accelerometer#mean,android.sensor.accelerometer#min,android.sensor.accelerometer#max,android.sensor.accelerometer#std,android.sensor.gravity#mean,android.sensor.gravity#min,android.sensor.gravity#max,android.sensor.gravity#std,android.sensor.linear_acceleration#mean,android.sensor.linear_acceleration#min,android.sensor.linear_acceleration#max,android.sensor.linear_acceleration#std,android.sensor.orientation#mean,android.sensor.orientation#min,android.sensor.orientation#max,android.sensor.orientation#std,android.sensor.gyroscope_uncalibrated#mean,android.sensor.gyroscope_uncalibrated#min,android.sensor.gyroscope_uncalibrated#max,android.sensor.gyroscope_uncalibrated#std,android.sensor.magnetic_field_uncalibrated#mean,android.sensor.magnetic_field_uncalibrated#min,android.sensor.magnetic_field_uncalibrated#max,android.sensor.magnetic_field_uncalibrated#std,android.sensor.rotation_vector#mean,android.sensor.rotation_vector#min,android.sensor.rotation_vector#max,android.sensor.rotation_vector#std,android.sensor.gyroscope#mean,android.sensor.gyroscope#min,android.sensor.gyroscope#max,android.sensor.gyroscope#std,android.sensor.game_rotation_vector#mean,android.sensor.game_rotation_vector#min,android.sensor.game_rotation_vector#max,android.sensor.game_rotation_vector#std,android.sensor.magnetic_field#mean,android.sensor.magnetic_field#min,android.sensor.magnetic_field#max,android.sensor.magnetic_field#std,android.sensor.pressure#mean,android.sensor.pressure#min,android.sensor.pressure#max,android.sensor.pressure#std,android.sensor.light#mean,android.sensor.light#min,android.sensor.light#max,android.sensor.light#std,sound#mean,sound#min,sound#max,sound#std,speed#mean,speed#min,speed#max,speed#std,android.sensor.proximity#mean,android.sensor.proximity#min,android.sensor.proximity#max,android.sensor.proximity#std,android.sensor.step_counter#mean,android.sensor.step_counter#min,android.sensor.step_counter#max,android.sensor.step_counter#std,target,user
1,,,9.708295144662001,9.406216610469999,10.0829153012,0.18602682937568674,9.806630219299999,9.806630219299999,9.806630219299999,nan,5.7331502322365,0.311472397473,11.154828067,7.667410324740139,181.25568998010525,180.841396546,181.59466169400002,0.21350530711091578,0.02000520923992147,0.00871956522696,0.0597878182515,0.009901703923974728,149.9749668405,145.624757511,154.32517617,6.152125032940853,0.998978636296,0.998978636296,0.998978636296,0.11315920372037984,0.00969173859258,0.00630218955236,0.018389315131400002,0.004118833432696374,0.9997905710095,0.999786538757,0.999794603262,5.7024661724242014e-06,100.265647988,100.265647988,100.265647988,4.218494327414204,nan,nan,nan,nan,nan,nan,nan,nan,79.21322014541963,79.21322014541963,79.21322014541963,3.3333818768630232,nan,nan,nan,nan,nan,nan,nan,nan,nan,nan,nan,nan,Train,U12
2,,,9.77179856739,9.244682157849999,10.316157622999999,0.23283443014228522,9.806607715910001,9.806607715910001,9.806607715910001,nan,0.230897656062,0.230897656062,0.230897656062,7.667410324740139,180.1048794106875,179.170723592,181.364807985,0.659390705175891,0.02336602005852024,0.00797170933005,0.08332247306,0.013987546613133813,147.488136012,143.411645275,153.928230031,5.6426593099835225,0.999021728851,0.999021728851,0.999021728851,0.11315920372037984,0.017074566189378887,0.006903702845420001,0.0315109483264,0.008774633559348587,0.9997905710095,0.999786538757,0.999794603262,5.7024661724242014e-06,98.96487958430001,94.7078138276,103.22194534100001,6.020400129039224,nan,nan,nan,nan,nan,nan,nan,nan,79.21322014541963,79.21322014541963,79.21322014541963,3.3333818768630232,nan,nan,nan,nan,nan,nan,nan,nan,nan,nan,nan,nan,Train,U12
3,,,9.776093759183809,9.4693743802,10.2350376585,0.1969706732098897,9.8066149935,9.8066149935,9.8066149935,nan,0.230897656062,0.230897656062,0.230897656062,7.667410324740139,179.49329224385716,179.327112599,179.74316031700002,0.17050390708029817,0.029660438290219998,0.0105455803926,0.07586597777239999,0.015377763083945159,154.34291620875,153.708848151,155.232084312,0.6420968597713389,0.9990190711270001,0.9990190711270001,0.9990190711270001,0.11315920372037984,0.027577058065106252,0.00760750969412,0.0645166914317,0.016817190286164536,0.9999738800573333,0.999958857633,0.999989698686,1.5435935136636485e-05,104.06675753,102.307477733,105.82603732700001,2.4879973489263927,nan,nan,nan,nan,nan,nan,nan,nan,77.10311154353988,77.10311154353988,77.10311154353988,3.3333818768630232,nan,nan,nan,nan,nan,nan,nan,nan,nan,nan,nan,nan,Train,U12
4,,,9.812621510562222,9.244994616,10.597488739400001,0.35133644942795494,9.806619598663334,9.80661009135,9.806631960239999,1.1210361359868067e-05,0.18488356941200002,0.113883330901,0.25588380792300003,0.10040950023398075,179.28176365230772,178.321188545,179.64914347599998,0.33845616322355904,0.023432752613139537,0.012559282525500001,0.0521653362691,0.0080718182727291,119.79638972205,73.0968549051,166.495924539,66.04311549464524,0.9990190711270001,0.9990190711270001,0.9990190711270001,0.11315920372037984,0.014404093480010002,0.004881655206399999,0.027449944579099998,0.007768891985045148,0.999969446789,0.999969446789,0.999969446789,1.5435935136636485e-05,106.115243412,105.214353731,107.87682791,1.5257092988077476,nan,nan,nan,nan,nan,nan,nan,nan,76.82947643709448,76.192540837881,77.46641203630799,0.9007629627659576,nan,nan,nan,nan,nan,nan,nan,nan,nan,nan,nan,nan,Train,U12
5,,,9.625237176438889,9.095565171539999,9.93786291983,0.23604564578254136,9.806624610130001,9.806624610130001,9.806624610130001,1.1210361359868067e-05,0.43015957266399996,0.41503000659999995,0.445289138728,0.02139643752052858,197.26289043017647,179.888025389,214.43395122799998,16.255335983387614,0.02433550383540556,0.00760750969412,0.05590355097159999,0.011367538420686347,119.79638972205,73.0968549051,166.495924539,66.04311549464524,0.9996495155753333,0.9991070278,0.9999255162139999,0.00046983227482753096,0.01802388746771385,0.00583469378102,0.037481566113400006,0.011577602470984733,0.9999733905293334,0.9999597507979999,0.9999904602420001,1.5639407490707627e-05,65.5443372718,65.5443372718,65.5443372718,1.5257092988077476,nan,nan,nan,nan,nan,nan,nan,nan,76.82947643709448,76.192540837881,77.46641203630799,0.9007629627659576,23.703583,23.703583,23.703583,nan,nan,nan,nan,nan,nan,nan,nan,nan,Train,U12
6,,,9.613186262828334,8.79222804895,10.423660356100001,0.3813405819203545,9.806629240229999,9.806613411699999,9.8066471907,1.3910514783172775e-05,0.610502353281,0.610502353281,0.610502353281,0.02139643752052858,215.43372375083334,213.41766357900002,217.35526614900002,1.1808729029461678,0.03064282348805353,0.00884875151602,0.059244413270000004,0.013592343555115936,119.79638972205,73.0968549051,166.495924539,66.04311549464524,0.9996495155753333,0.9991070278,0.9999255162139999,0.00046983227482753096,0.016371579175585,0.00858843662182,0.037299469960800004,0.01014967790624062,0.9999586280644999,0.999954797946,0.9999624581829999,5.416605528153752e-06,58.9148535264,58.5755071476,59.254199905200004,0.47990825124116054,nan,nan,nan,nan,nan,nan,nan,nan,81.75433143415343,76.55126222509448,87.7242700743352,5.6258415053298165,25.000526,25.000526,25.000526,nan,nan,nan,nan,nan,nan,nan,nan,nan,Train,U12
7,,,9.85483134317647,9.25707021072,10.2781876151,0.2667153976887873,9.8066160966125,9.80660798562,9.80662651532,9.049566767225062e-06,0.21742716652966668,0.169940720726,0.27717768059000003,0.05466028647813166,213.2824880131111,210.93323054400003,214.864510294,1.0394411834475878,0.025632855469401028,0.00878439610544,0.047209369675900004,0.009472964176963408,89.47698510880001,87.1442482325,91.15097366459999,1.3308434209263598,0.9999134285205,0.999912770564,0.999914086477,9.304910057590711e-07,0.012763469709447276,0.004519534510239999,0.031690498938700004,0.0077250358445590155,0.999976433154,0.9999652299349999,0.9999844985680001,1.0010215761280803e-05,58.9148535264,58.5755071476,59.254199905200004,0.47990825124116054,nan,nan,nan,nan,nan,nan,nan,nan,76.73091089347366,76.72521605716975,76.73660572977758,0.00805371473649391,25.000526,25.000526,25.000526,nan,nan,nan,nan,nan,nan,nan,nan,nan,Train,U12
8,,,9.850052537674166,9.04760564575,10.4870076458,0.3575131113409928,9.80661975972,9.80661975972,9.80661975972,9.049566767225062e-06,0.5325649937035,0.29909851789700004,0.76603146951,0.33017145644500234,209.6040198425,207.77148080700002,212.525602737,1.4601771385700302,0.02586857747676774,0.012331327998,0.0435848111481,0.01003902345415001,90.58244863110001,90.58244863110001,90.58244863110001,1.3308434209263598,0.9998352570290001,0.9998352570290001,0.9998352570290001,9.304910057590711e-07,0.024189046272384666,0.00238200383602,0.0655462338097,0.016480463507968276,0.999976617293,0.999963925331,0.9999893092550001,1.79491447935866e-05,54.68628712939999,54.68628712939999,54.68628712939999,0.47990825124116054,nan,nan,nan,nan,nan,nan,nan,nan,76.73091089347366,76.72521605716975,76.73660572977758,0.00805371473649391,25.000526,25.000526,25.000526,nan,nan,nan,nan,nan,nan,nan,nan,nan,Train,U12
9,,,9.853939054055335,9.04301029459,10.653734380700001,0.4557837054819869,9.80661975972,9.80661975972,9.80661975972,9.049566767225062e-06,0.261128687604,0.22991603485,0.29234134035799997,0.04414135684234871,204.40985035566666,198.297498109,210.27032334900002,3.784449716036847,0.03404949013657955,0.012514024021,0.08884586642819998,0.017741410965223976,91.6555009496,91.5904480413,91.72055385790001,0.09199870518968867,0.9998352570290001,0.9998352570290001,0.9998352570290001,9.304910057590711e-07,0.019766389796196,0.004881655206399999,0.05010141304790001,0.014406155997227351,0.999989502583,0.999989502583,0.999989502583,1.79491447935866e-05,51.56859639735001,51.44657423,51.6906185647,0.17256540397652936,1019.6653,1019.6653,1019.6653,nan,nan,nan,nan,nan,81.87683533824256,81.87683533824256,81.87683533824256,0.00805371473649391,28.641037,28.641037,28.641037,nan,nan,nan,nan,nan,nan,nan,nan,nan,Train,U12
10,,,9.978316171950556,8.855375099369999,10.832743761800002,0.5374579036457491,9.80661975972,9.80661975972,9.80661975972,9.049566767225062e-06,0.2926776197745,0.127221716407,0.542971048063,0.17780110891140702,195.91642111838462,190.537297534,198.444800437,1.9726520574625526,0.038827101910422226,0.0101059862862,0.09458684598639999,0.021083449004741666,88.2913810962,81.2919441667,95.29081802569999,9.898698634673982,0.999737806425,0.999737806425,0.999737806425,9.304910057590711e-07,0.03865335857926667,0.0113239169359,0.0596357824291,0.018242448948941982,0.999986954083,0.999986954083,0.999986954083,1.79491447935866e-05,52.919378093275,45.7564203145,62.6546885716,7.062522908784309,1019.6653,1019.6653,1019.6653,nan,nan,nan,nan,nan,81.87683533824256,81.87683533824256,81.87683533824256,0.00805371473649391,28.641037,28.641037,28.641037,nan,nan,nan,nan,nan,nan,nan,nan,nan,Train,U12
11,,,9.887803619788096,8.91243253407,10.7175662026,0.5564645094288638,9.806624690645,9.80661139248,9.80664262667,1.336670866970498e-05,0.8404668305915,0.673950784913,1.00698287627,0.23548925015127248,187.78335835133333,179.88289797299998,192.864502452,3.392242105983077,0.04021054709002195,0.013390166832,0.11790798609200001,0.021217688111517575,88.2913810962,81.2919441667,95.29081802569999,9.898698634673982,0.999501040972,0.999407938313,0.999569401468,8.352675366658198e-05,0.032463850283991666,0.0177615075673,0.053092509336900004,0.013838566105610725,0.999928775351,0.999928775351,0.999928775351,1.79491447935866e-05,54.070417050399996,54.070417050399996,54.070417050399996,7.062522908784309,1019.6653,1019.6653,1019.6653,nan,nan,nan,nan,nan,82.74258238228063,82.54339227199792,82.94177249256333,0.281697355452397,28.641037,28.641037,28.641037,nan,nan,nan,nan,nan,nan,nan,nan,nan,Train,U12
12,,,9.7547224123,9.17615715729,10.3201125032,0.29667801988142906,9.806613409510001,9.806613409510001,9.806613409510001,1.336670866970498e-05,0.43389573905699996,0.43389573905699996,0.43389573905699996,0.23548925015127248,196.91900291576923,185.80059793799998,204.93211436599998,7.014387995630372,0.027657542454695528,0.009705020977530001,0.0601190557981,0.010725679983132785,105.99754122933335,105.82641447200001,106.084211835,0.1482042551959795,0.9998320028035,0.999829839618,0.9998341659890001,3.059206272112586e-06,0.018423778162238575,0.0033686620356500004,0.0407872502811,0.01082072941291501,0.9999973522855,0.999996501981,0.99999820259,1.202512156093519e-06,64.42646688699999,63.579005968999994,65.6163089483,1.0609285993089888,1019.6653,1019.6653,1019.6653,nan,nan,nan,nan,nan,80.68115500340666,79.35283128166023,82.00947872515309,1.8785334225157053,31.956356,31.956356,31.956356,nan,nan,nan,nan,nan,nan,nan,nan,nan,Train,U12
13,,,9.678247011897856,9.07515022082,10.2886595258,0.36486022824846037,9.806628486665,9.80662136789,9.806635502439999,7.413210277587011e-06,0.43389573905699996,0.43389573905699996,0.43389573905699996,0.23548925015127248,201.16330705673687,196.321233145,206.399327803,3.076644854241985,0.024706511297074286,0.0105455803926,0.0763877081772,0.012629802430466106,101.955427061875,99.1829622465,103.576203831,2.0634847048051164,0.9998320028035,0.999829839618,0.9998341659890001,3.059206272112586e-06,0.020791560996985713,0.0038408656934799997,0.0328163701042,0.009481205094224926,0.999974699473,0.999961208816,0.99998819013,1.907867009466601e-05,62.1048725311,60.0893501379,64.15933291420001,2.0352707621193233,1019.6653,1019.6653,1019.6653,nan,nan,nan,nan,nan,80.68115500340666,79.35283128166023,82.00947872515309,1.8785334225157053,32.637375,32.637375,32.637375,nan,nan,nan,nan,nan,nan,nan,nan,nan,Train,U12
14,,,9.726453900033334,9.11551057915,10.1771886209,0.32818672320313835,9.80663037346,9.80663037346,9.80663037346,7.413210277587011e-06,0.43389573905699996,0.43389573905699996,0.43389573905699996,0.23548925015127248,197.59410959800002,196.637928839,198.781758968,0.7810979476020814,0.02384224950038875,0.00714601135898,0.0731550556749,0.011244985623766232,104.228687142,103.66108687399999,104.51440092200001,0.4915599762147778,0.9997070402789999,0.9997070402789999,0.9997070402789999,3.059206272112586e-06,0.017530716674468573,0.00656673118978,0.0326082306975,0.009579917231108256,0.9999743453859999,0.9999743453859999,0.9999743453859999,1.907867009466601e-05,61.87430845350001,61.87430845350001,61.87430845350001,2.0352707621193233,1019.6653,1019.6653,1019.6653,nan,nan,nan,nan,nan,84.13023080683666,81.08996293273354,87.17049868093979,4.2995880608038535,33.4942035,33.169067,33.819340000000004,0.4598124479225238,nan,nan,nan,nan,nan,nan,nan,nan,Train,U12
15,,,10.016214221112145,9.14468864555,10.9175560094,0.5057678464408893,9.8066327234,9.8066327234,9.8066327234,7.413210277587011e-06,0.770877931241,0.770877931241,0.770877931241,0.23548925015127248,196.19387325131248,193.447400556,216.45664318400003,5.599583371215988,0.031054872066149482,0.00301302300683,0.0664403930571,0.01398648369364152,105.603082981,105.603082981,105.603082981,0.4915599762147778,0.999786063188,0.999786063188,0.999786063188,3.059206272112586e-06,0.025932502799525005,0.0131334623147,0.08860285238769999,0.016794771336942228,0.9999743453859999,0.9999743453859999,0.9999743453859999,1.907867009466601e-05,65.52860916413333,64.3737524151,66.4477990606,1.0569160425390765,1019.6653,1019.6653,1019.6653,nan,nan,nan,nan,nan,84.13023080683666,81.08996293273354,87.17049868093979,4.2995880608038535,33.691959999999995,33.691959999999995,33.691959999999995,0.4598124479225238,nan,nan,nan,nan,nan,nan,nan,nan,Train,U12
16,,,9.68490880590375,8.8579936643,10.4207085598,0.37349430766049074,9.8066130987,9.8066130987,9.8066130987,7.413210277587011e-06,0.770877931241,0.770877931241,0.770877931241,0.23548925015127248,216.13589194976925,213.63806349400002,218.52671362599997,1.7301953462402966,0.028730725267956055,0.009587380111110001,0.0784326965721,0.013980903700839513,98.12960532189999,95.95795954479999,100.301251099,3.0711709106450846,0.9999839048186666,0.999953302462,0.9999997371870001,2.65077410954485e-05,0.027827235392458,0.00797170933005,0.0559339944599,0.015906070033395812,0.9999743453859999,0.9999743453859999,0.9999743453859999,1.907867009466601e-05,62.6141357842,62.6141357842,62.6141357842,1.0569160425390765,1019.6653,1019.6653,1019.6653,nan,nan,nan,nan,nan,84.13023080683666,81.08996293273354,87.17049868093979,4.2995880608038535,34.990963,34.990963,34.990963,0.4598124479225238,nan,nan,nan,nan,nan,nan,nan,nan,Train,U12
17,,,9.563765233668,8.81489720756,10.065603673,0.4630502179302388,9.80662714361,9.80661916138,9.80663809635,9.810770584560118e-06,0.890777455123,0.890777455123,0.890777455123,0.23548925015127248,215.90522461350002,214.17533594,217.378265039,1.1265184622929079,0.02872336573138182,0.0103281220239,0.06816028060030001,0.013602740342828774,93.63404860019999,90.47706891799999,96.5154394623,3.0286039037633463,0.99996828539725,0.999939277956,0.9999921987200001,2.1975494176753865e-05,0.02338478397756625,0.00630218955236,0.0602133613193,0.01581404179761391,0.9999748249810001,0.99993144731,0.9999995266349999,2.4055741710139144e-05,61.715881262399996,61.715881262399996,61.715881262399996,1.0569160425390765,1019.6653,1019.6653,1019.6653,nan,nan,nan,nan,nan,84.13023080683666,81.08996293273354,87.17049868093979,4.2995880608038535,36.254020000000004,36.254020000000004,36.254020000000004,0.4598124479225238,nan,nan,nan,nan,nan,nan,nan,nan,Train,U12
18,,,9.686499578374,8.89569718918,10.373555550599999,0.44849053242264614,9.80662714361,9.80661916138,9.80663809635,9.810770584560118e-06,0.594886164789,0.594886164789,0.594886164789,0.23548925015127248,210.84494029407693,202.862238355,214.142779222,3.276848518913388,0.03194658826321539,0.0158720829035,0.0886732677133,0.0165859615873424,104.549179633,104.549179633,104.549179633,3.0286039037633463,0.99996828539725,0.999939277956,0.9999921987200001,2.1975494176753865e-05,0.01688679808105091,0.0031957934000000003,0.034780518106,0.009556444569498558,0.9999560199736667,0.999909302375,0.9999999997579999,4.541063246919322e-05,61.001642171600004,60.30547238850001,61.6978119547,0.9845327489743512,1019.6653,1019.6653,1019.6653,nan,nan,nan,nan,nan,79.5315843728022,79.5315843728022,79.5315843728022,4.2995880608038535,36.254020000000004,36.254020000000004,36.254020000000004,0.4598124479225238,nan,nan,nan,nan,nan,nan,nan,nan,Train,U12
19,,,9.745020021119,8.70628855084,10.9299029652,0.55899182856337,9.806630734199999,9.806630734199999,9.806630734199999,9.810770584560118e-06,0.594886164789,0.594886164789,0.594886164789,0.23548925015127248,201.33327662664286,199.301429205,203.284413188,1.0601742973112331,0.03262886958391163,0.00958738,0.0738267474509,0.014417173008946014,101.62012595899999,101.62012595899999,101.62012595899999,3.0286039037633463,0.99987162443825,0.9998438203389999,0.999930848809,3.989242177257534e-05,0.034903931965459,0.004643380165989999,0.0577703427267,0.017673314162988774,0.9999724614516666,0.9999574118729999,0.9999999976880001,2.3881486021008877e-05,61.001642171600004,60.30547238850001,61.6978119547,0.9845327489743512,1019.6653,1019.6653,1019.6653,nan,nan,nan,nan,nan,79.9021691548948,79.9021691548948,79.9021691548948,4.2995880608038535,36.254020000000004,36.254020000000004,36.254020000000004,0.4598124479225238,nan,nan,nan,nan,nan,nan,nan,nan,Train,U12
20,,,9.745411497641365,8.86928224457,10.3923784541,0.4662131459433862,9.806625880615,9.80661734068,9.80663442055,1.2077291897601376e-05,0.4511829092265,0.241327519289,0.661038299164,0.2967803385867069,201.41270114066666,197.833405748,206.11532449799998,2.4691861416813334,0.032446967527837205,0.0114236885446,0.07259447037410001,0.015976032875061618,99.1902882229,94.99042056969999,103.595849338,4.306400285827204,0.99987162443825,0.9998438203389999,0.999930848809,3.989242177257534e-05,0.024292327013451662,0.00583469378102,0.0594070002063,0.01709473232544493,0.9999724614516666,0.9999574118729999,0.9999999976880001,2.3881486021008877e-05,61.5247104829,61.5247104829,61.5247104829,0.9845327489743512,1019.6653,1019.6653,1019.6653,nan,nan,nan,nan,nan,81.58507244860155,81.58507244860155,81.58507244860155,4.2995880608038535,36.254020000000004,36.254020000000004,36.254020000000004,0.4598124479225238,nan,nan,nan,nan,nan,nan,nan,nan,Train,U12
21,,,9.792164572945294,8.87351233987,11.038223266,0.5781404153460269,9.806625880615,9.80661734068,9.80663442055,1.2077291897601376e-05,2.0077671157099997,2.0077671157099997,2.0077671157099997,0.2967803385867069,199.80897435356255,194.701699299,207.86379386099998,3.4860727604523634,0.047976026957838466,0.011373912097799999,0.10145210946699999,0.02371325192002845,98.41860762133335,95.2547636618,103.775386952,4.6644377442356815,0.9996357500785,0.9995965249959999,0.999674975161,5.5472643656757884e-05,0.04283070858656637,0.009705020977530001,0.0832611696788,0.024225537795181506,0.9999302829285,0.9997990387029999,0.9999962379680001,8.890919050334324e-05,61.5247104829,61.5247104829,61.5247104829,0.9845327489743512,1019.12866,1019.12866,1019.12866,nan,nan,nan,nan,nan,85.69312565577029,85.69312565577029,85.69312565577029,4.2995880608038535,36.254020000000004,36.254020000000004,36.254020000000004,0.4598124479225238,nan,nan,nan,nan,nan,nan,nan,nan,Train,U12
22,,,9.72809074326,7.446745506939999,10.960798101400002,0.9816562786366148,9.806609691744999,9.806605014439999,9.80661436905,6.614708166638685e-06,0.27288427554899997,0.164401981538,0.38136656956,0.15341713146770175,200.32378225715382,196.3234638,202.91127710799998,2.2490604732894797,0.04216264142237209,0.010328121941299999,0.0991211294664,0.022103180232501293,98.50301939916,97.1691309007,99.8224924557,1.0168390123965387,0.999912122114,0.999912122114,0.999912122114,5.5472643656757884e-05,0.046230686125344006,0.00964637982454,0.0799019352481,0.021251541994096564,0.9999835286986666,0.999978417317,0.9999889831209999,5.291248549779029e-06,59.0455756175,59.0455756175,59.0455756175,0.9845327489743512,1019.12866,1019.12866,1019.12866,nan,nan,nan,nan,nan,85.69312565577029,85.69312565577029,85.69312565577029,4.2995880608038535,36.254020000000004,36.254020000000004,36.254020000000004,0.4598124479225238,nan,nan,nan,nan,nan,nan,nan,nan,Train,U12
23,,,9.819247401586665,8.922330515339999,10.524598513099999,0.5225163697162742,9.806634281685,9.8066286777,9.806639885669998,7.925231589773342e-06,0.27288427554899997,0.164401981538,0.38136656956,0.15341713146770175,200.7855220700769,199.278750115,202.48356509799999,0.9415855597381096,0.03375434764091556,0.0107057752012,0.07500853780899999,0.014600757732562147,95.2820025001,95.2820025001,95.2820025001,1.0168390123965387,0.999912122114,0.999912122114,0.999912122114,5.5472643656757884e-05,0.03364966887578923,0.00439219797996,0.094370645169,0.023983248193132585,0.999999495992,0.999999495992,0.999999495992,5.291248549779029e-06,55.83142433523333,55.7323967484,55.9569477413,0.1145962845415499,1019.12866,1019.12866,1019.12866,nan,nan,nan,nan,nan,85.69312565577029,85.69312565577029,85.69312565577029,4.2995880608038535,36.254020000000004,36.254020000000004,36.254020000000004,0.4598124479225238,nan,nan,nan,nan,nan,nan,nan,nan,Train,U12
24,,,9.859413408252777,8.354475706,10.913434679000002,0.6510679723310746,9.806629936939999,9.806629936939999,9.806629936939999,7.925231589773342e-06,0.27288427554899997,0.164401981538,0.38136656956,0.15341713146770175,203.4129367413333,199.05440686900002,217.32602370799998,7.066587742642068,0.03668856447663903,0.009587380500000001,0.0857918237847,0.018115817549691954,96.14886737590001,95.59759411200001,97.0207194366,0.7638059282944603,0.99992986293925,0.999855064184,0.9999953548370001,7.108207319786942e-05,0.0354536895672125,0.007146011195,0.060015152436300005,0.021595082553905,0.9999950796029999,0.9999950796029999,0.9999950796029999,5.291248549779029e-06,58.086341368199996,55.3827594805,61.3101137138,2.6026344128488166,1019.12866,1019.12866,1019.12866,nan,nan,nan,nan,nan,81.17686829337522,81.17686829337522,81.17686829337522,4.2995880608038535,42.622479,42.520718,42.72424,0.14391178632064822,nan,nan,nan,nan,nan,nan,nan,nan,Train,U12
25,,,9.52983522640059,8.752844202330001,10.5645550665,0.5871989706154416,9.806615390660001,9.806615390660001,9.806615390660001,7.925231589773342e-06,0.27288427554899997,0.164401981538,0.38136656956,0.15341713146770175,231.10156095165,220.82477195200002,234.70560836599998,3.3574911661490763,0.033232114293170904,0.00476400767203,0.0740109699209,0.017216237742433284,91.68926292709999,91.68926292709999,91.68926292709999,0.7638059282944603,0.9999928595540001,0.9999928595540001,0.9999928595540001,7.108207319786942e-05,0.031673839644905874,0.010437417864399999,0.0678264869067,0.016650219587964733,0.99997757726375,0.999929963935,0.9999999352,3.287309983295106e-05,58.086341368199996,55.3827594805,61.3101137138,2.6026344128488166,1019.12866,1019.12866,1019.12866,nan,nan,nan,nan,nan,81.16658501679802,80.55840272811606,81.77476730547997,0.860099641049126,42.622479,42.520718,42.72424,0.14391178632064822,nan,nan,nan,nan,nan,nan,nan,nan,Train,U12
26,,,9.292382277991667,8.16880036389,10.124814621599999,0.6024453105075271,9.806622647100001,9.806622647100001,9.806622647100001,7.925231589773342e-06,0.27288427554899997,0.164401981538,0.38136656956,0.15341713146770175,232.78970930977778,231.98627991,233.47380555599997,0.440303691505675,0.035545223302536004,0.0111725883038,0.07824438178519999,0.016397038668666354,91.68926292709999,91.68926292709999,91.68926292709999,0.7638059282944603,0.999994213181,0.999994213181,0.999994213181,7.108207319786942e-05,0.027730881546146925,0.009347658016459998,0.058015361827800004,0.01524112325476836,0.999982250803,0.999968517392,0.9999959842139999,1.9421976093804324e-05,69.86769525080001,69.4551656869,70.2802248147,0.5834049041472404,1019.12866,1019.12866,1019.12866,nan,nan,nan,nan,nan,83.01267307492856,83.01267307492856,83.01267307492856,0.860099641049126,43.79104,43.79104,43.79104,0.14391178632064822,nan,nan,nan,nan,nan,nan,nan,nan,Train,U12
27,,,9.703328808741112,8.286143231810001,10.5072709263,0.5497607995846533,9.806622647100001,9.806622647100001,9.806622647100001,7.925231589773342e-06,0.27288427554899997,0.164401981538,0.38136656956,0.15341713146770175,232.32793660583334,228.072991902,236.027595044,2.9905820723440515,0.030889127782328264,0.014528270329700001,0.0714998030873,0.011223111059095469,91.79858257903334,88.9305346926,95.4901615194,3.3564607214017816,0.999921057272,0.999921057272,0.999921057272,7.108207319786942e-05,0.028857562084206666,0.0083879005783,0.119675243739,0.0277222129540112,0.999994695961,0.999994695961,0.999994695961,1.9421976093804324e-05,69.5739222784,68.98710024350001,70.1607443133,0.8298916804549513,1019.12866,1019.12866,1019.12866,nan,nan,nan,nan,nan,82.19479004458977,81.19883776123909,83.19074232794044,1.4084892265909768,43.79104,43.79104,43.79104,0.14391178632064822,nan,nan,nan,nan,nan,nan,nan,nan,Train,U12
28,,,9.773749226093601,8.98581723217,10.455884882000001,0.4559710481695705,9.806623297066666,9.80661199232,9.80664178266,1.6141236274365524e-05,0.38852552322899997,0.38852552322899997,0.38852552322899997,0.15341713146770175,235.90073400009095,228.602455644,242.74054384599998,5.408037724968549,0.027729605685644063,0.006821020658109999,0.0627059932588,0.011555658923144621,92.41887608886667,91.7800088189,93.596425717,1.0210174333358903,0.999921057272,0.999921057272,0.999921057272,7.108207319786942e-05,0.025372981997183335,0.009878856084549999,0.0354750654956,0.006598739489407583,0.9999661564119999,0.9999346868469999,0.999997625977,4.450468562505653e-05,77.9928209694,73.2989088705,81.3549030016,4.189879336568533,1019.12866,1019.12866,1019.12866,nan,nan,nan,nan,nan,82.5336652677658,82.5336652677658,82.5336652677658,1.4084892265909768,42.431065000000004,42.431065000000004,42.431065000000004,0.14391178632064822,nan,nan,nan,nan,nan,nan,nan,nan,Train,U12
29,,,9.703887852700953,9.01444678572,10.3463551009,0.30622356826464364,9.8066368428,9.8066368428,9.8066368428,1.6141236274365524e-05,0.248956576041,0.248956576041,0.248956576041,0.15341713146770175,242.28642027476923,241.20034386700002,243.31773955900002,0.6394972041824944,0.02418305486514146,0.0120990784348,0.049302299805699994,0.008437470902820992,95.32833218409999,95.32833218409999,95.32833218409999,1.0210174333358903,0.999881920684,0.999881920684,0.999881920684,7.108207319786942e-05,0.015960095964355714,0.004881655206399999,0.0299791994712,0.0077012278981879855,0.999949339141,0.999921120089,0.999975134339,2.7088578809609124e-05,77.9928209694,73.2989088705,81.3549030016,4.189879336568533,1019.12866,1019.12866,1019.12866,nan,nan,nan,nan,nan,82.5336652677658,82.5336652677658,82.5336652677658,1.4084892265909768,42.431065000000004,42.431065000000004,42.431065000000004,0.14391178632064822,nan,nan,nan,nan,nan,nan,nan,nan,Train,U12
30,,,10.035660863797334,8.924232550389998,10.8704292874,0.4740121730611086,9.806639626639999,9.806639626639999,9.806639626639999,1.6141236274365524e-05,0.34545187205100003,0.108968842646,0.581934901456,0.33443750745562645,241.74181819092857,238.45911732099998,244.60629519900002,2.0904495991566003,0.02922087895498182,0.0121925087884,0.0792674149927,0.01399690750099761,96.55533671546668,95.8888940583,96.9412708809,0.5795584566178839,0.999881920684,0.999881920684,0.999881920684,7.108207319786942e-05,0.017865079042330718,0.0035330825585300004,0.0358093685257,0.01015973131917839,0.999944304991,0.999944304991,0.999944304991,2.7088578809609124e-05,93.433505958,93.433505958,93.433505958,4.189879336568533,1019.12866,1019.12866,1019.12866,nan,nan,nan,nan,nan,79.77296250471504,79.77296250471504,79.77296250471504,1.4084892265909768,42.431065000000004,42.431065000000004,42.431065000000004,0.14391178632064822,nan,nan,nan,nan,nan,nan,nan,nan,Train,U12
31,,,9.698392531463,8.8055521196,10.5252031965,0.5169755998768473,9.806639626639999,9.806639626639999,9.806639626639999,1.6141236274365524e-05,0.356468880382,0.223694703691,0.489243057073,0.18777104140933384,233.51361985500003,230.181218505,236.04133382900002,2.423759004421751,0.02671408884993727,0.00630218955236,0.068318259474,0.01228351277328417,91.15163113285,88.63599720200001,93.0112359016,1.9166441998149013,0.999626416747,0.99961785926,0.999634974234,1.2102114175254102e-05,0.03068568998835,0.006903702845420001,0.0613152017784,0.023566373361452675,0.9996831664550001,0.9995736767200001,0.999793771303,0.00011005152872279517,84.53832063816667,77.34151690000002,92.7954239551,7.781322973278188,1019.12866,1019.12866,1019.12866,nan,nan,nan,nan,nan,79.77296250471504,79.77296250471504,79.77296250471504,1.4084892265909768,35.236027,35.236027,35.236027,0.14391178632064822,nan,nan,nan,nan,nan,nan,nan,nan,Train,U12
32,,,9.8256755578475,8.46080516609,10.5701271202,0.547826998106382,9.806622079532499,9.80660686391,9.806633485689998,1.1090633906290383e-05,0.629519823563,0.629519823563,0.629519823563,0.18777104140933384,234.34572422493335,227.730272481,236.67994907,2.2324884900441297,0.026150198746725577,0.012694090950200002,0.052197958449,0.009695053041147197,92.411836902225,91.70179933200001,93.3737650521,0.7117123481231211,0.99979875789,0.99979875789,0.99979875789,1.2102114175254102e-05,0.020440044058135456,0.007146011195,0.048466604495199996,0.011877227206306412,0.9998455320045,0.999800619612,0.999890444397,6.351571459218099e-05,73.7307713485,72.8344698615,74.6270728355,1.2675617188905757,1019.12866,1019.12866,1019.12866,nan,nan,nan,nan,nan,79.77296250471504,79.77296250471504,79.77296250471504,1.4084892265909768,32.145958,32.145958,32.145958,0.14391178632064822,nan,nan,nan,nan,nan,nan,nan,nan,Train,U12
33,,,9.811978690595263,9.36316744648,10.1701680331,0.19276682590176616,9.80663512617,9.80663512617,9.80663512617,1.1090633906290383e-05,0.37533649378,0.37533649378,0.37533649378,0.18777104140933384,233.39121347813335,231.903684511,234.951710517,0.9808309369443932,0.02644397755672222,0.011373912097799999,0.0449940268286,0.009200707250473334,92.411836902225,91.70179933200001,93.3737650521,0.7117123481231211,0.9998653809716666,0.999826371949,0.9999127045049999,4.376272240260202e-05,0.018936351305868463,0.0033686620356500004,0.0377530700663,0.009763739202944446,0.99994016205725,0.999916868927,0.9999698130940001,2.5783152169464878e-05,72.1649502293,72.1649502293,72.1649502293,1.2675617188905757,1019.12866,1019.12866,1019.12866,nan,nan,nan,nan,nan,77.05217432338827,76.82718940909709,77.27715923767946,0.31817671711994105,27.317308,27.317308,27.317308,0.14391178632064822,nan,nan,nan,nan,nan,nan,nan,nan,Train,U12
34,,,9.784864989692084,8.80332385322,11.0678102572,0.5449520936506618,9.80663512617,9.80663512617,9.80663512617,1.1090633906290383e-05,0.256525310114,0.256525310114,0.256525310114,0.18777104140933384,230.73506846108333,229.02666465299998,232.259565525,1.0089435038142964,0.02597531464595435,0.011571733848600002,0.0525554448969,0.00933894299805967,91.5838413695,91.5838413695,91.5838413695,0.7117123481231211,0.9999403701303334,0.9999220718359999,0.999951161963,1.593170101672363e-05,0.0188357399000875,0.0109675687601,0.032677757892900006,0.007444293543397372,0.999990492559,0.999981480131,0.999999504987,1.2745497907509953e-05,72.1649502293,72.1649502293,72.1649502293,1.2675617188905757,1019.12866,1019.12866,1019.12866,nan,nan,nan,nan,nan,77.05217432338827,76.82718940909709,77.27715923767946,0.31817671711994105,27.736195000000002,27.736195000000002,27.736195000000002,0.14391178632064822,nan,nan,nan,nan,nan,nan,nan,nan,Train,U12
35,,,9.854398782466998,9.682674234419999,10.1648089392,0.15433298784180763,9.80663512617,9.80663512617,9.80663512617,1.1090633906290383e-05,0.09252336715500001,0.058565717739,0.126481016571,0.048023368350418004,228.74315087811766,224.495267047,231.99831701,2.9101901643567594,0.021118864629324184,0.00964637982454,0.032747133704900004,0.005600033130226806,87.6681895835,87.6087324415,87.7276467255,0.08408509659634213,0.99995080261625,0.99992828514,0.999981752993,2.3139973612065003e-05,0.01326718783089,0.0026093544660999997,0.0218314257684,0.0061928720935187104,0.999996676952,0.999996676952,0.999996676952,1.2745497907509953e-05,66.74064423006666,62.9330596745,71.1104774277,4.117600384837874,1019.12866,1019.12866,1019.12866,nan,nan,nan,nan,nan,77.05217432338827,76.82718940909709,77.27715923767946,0.31817671711994105,27.736195000000002,27.736195000000002,27.736195000000002,0.14391178632064822,nan,nan,nan,nan,nan,nan,nan,nan,Train,U12
36,,,9.668154455697334,9.097459227829999,10.3670398327,0.3616540793958302,9.80662962977,9.80662962977,9.80662962977,1.1090633906290383e-05,0.09252336715500001,0.058565717739,0.126481016571,0.048023368350418004,225.44589820753845,224.16947241,226.62272775,0.7682227954251325,0.03690022357016222,0.0144499501416,0.09206375116589999,0.016787128175817685,88.750435231775,88.08104222819999,89.4485885858,0.6060422613577618,0.99995080261625,0.99992828514,0.999981752993,2.3139973612065003e-05,0.019186350522459997,0.00238200383602,0.048700179694600006,0.013423790254020249,0.9999990428425,0.9999981873899999,0.999999809655,7.160561712367763e-07,66.74064423006666,62.9330596745,71.1104774277,4.117600384837874,1019.12866,1019.12866,1019.12866,nan,nan,nan,nan,nan,77.05217432338827,76.82718940909709,77.27715923767946,0.31817671711994105,27.736195000000002,27.736195000000002,27.736195000000002,0.14391178632064822,nan,nan,nan,nan,nan,nan,nan,nan,Train,U12
37,,,9.682852413005625,9.11894299343,10.2340504463,0.3776747132921013,9.80661202122,9.80661202122,9.80661202122,1.1090633906290383e-05,0.27591302020833336,0.125046681219,0.355885404507,0.13073290959460127,226.72111431392858,223.823486534,237.580309993,4.303826199026723,0.029579319995916276,0.0151402525416,0.06871575039269999,0.011777082423751863,88.54225472620001,88.54225472620001,88.54225472620001,0.6060422613577618,0.999965510811,0.999961076578,0.999969945044,6.2709524473305145e-06,0.02492129440527923,0.0035330825585300004,0.054338928766700004,0.014812174954528816,0.9999990428425,0.9999981873899999,0.999999809655,7.160561712367763e-07,63.93901453475,63.3369568751,64.5410721944,0.8514381076076359,1019.12866,1019.12866,1019.12866,nan,nan,nan,nan,nan,78.25294212436634,78.25294212436634,78.25294212436634,0.31817671711994105,27.736195000000002,27.736195000000002,27.736195000000002,0.14391178632064822,nan,nan,nan,nan,nan,nan,nan,nan,Train,U12
38,,,9.75296875579625,9.090540046180001,10.2750821287,0.3346773123326777,9.806629445810001,9.806622063130002,9.80664006247,9.425392834358367e-06,0.2527166114655,0.192690105279,0.312743117652,0.08489029915082082,242.63255252044448,238.972066307,244.581722378,1.7991654441985694,0.02673259711827111,0.012468601272400001,0.0659518222318,0.012574979563042604,89.00865621950001,89.00865621950001,89.00865621950001,0.6060422613577618,0.9998299854845001,0.9997683749330001,0.999891596036,8.713047751651044e-05,0.025907793925449996,0.0121925087884,0.0465314534879,0.01270108371439449,0.9999990428425,0.9999981873899999,0.999999809655,7.160561712367763e-07,63.93901453475,63.3369568751,64.5410721944,0.8514381076076359,1019.12866,1019.12866,1019.12866,nan,nan,nan,nan,nan,78.25294212436634,78.25294212436634,78.25294212436634,0.31817671711994105,25.655731,25.655731,25.655731,0.14391178632064822,nan,nan,nan,nan,nan,nan,nan,nan,Train,U12
39,,,9.826824040703126,9.430819409269999,10.7073906155,0.2946057301845615,9.806623313483334,9.80662177842,9.80662485541,1.5385064814800742e-06,0.2527166114655,0.192690105279,0.312743117652,0.08489029915082082,238.84124737442858,235.61728891799999,243.43717093,2.0682683638004473,0.02262280097641064,0.0102730387024,0.038907680321400004,0.008111192409346962,87.18062217333333,85.9815145075,88.4842358841,1.2546293107102848,0.9996256177580001,0.9996256177580001,0.9996256177580001,8.713047751651044e-05,0.015943810144278998,0.006119478481310001,0.0294252188111,0.006507807559487118,0.9997693101530001,0.999705658621,0.999832961685,9.001685982022155e-05,63.93901453475,63.3369568751,64.5410721944,0.8514381076076359,1019.12866,1019.12866,1019.12866,nan,nan,nan,nan,nan,78.25294212436634,78.25294212436634,78.25294212436634,0.31817671711994105,25.655731,25.655731,25.655731,0.14391178632064822,nan,nan,nan,nan,nan,nan,nan,nan,Train,U12
40,,,9.812452519650908,9.35653109791,10.2754359793,0.2013665331112028,9.806625445639998,9.806625445639998,9.806625445639998,1.5385064814800742e-06,0.301860443516,0.301860443516,0.301860443516,0.08489029915082082,239.92900032070003,237.57324636400003,241.84979598700002,1.237638630707682,0.02288779845202108,0.00865424927828,0.037405801231400006,0.0066755715224672985,86.64332111344999,86.1185811355,87.16806109139999,0.7420943935362468,0.9993966708175,0.999300936543,0.9994924050920001,0.00013538870938191634,0.016057203024260527,0.00476400767203,0.0362503096522,0.0073762461672847,0.99959853997,0.99959853997,0.99959853997,9.001685982022155e-05,63.93901453475,63.3369568751,64.5410721944,0.8514381076076359,1019.12866,1019.12866,1019.12866,nan,nan,nan,nan,nan,74.98080537406916,74.98080537406916,74.98080537406916,0.31817671711994105,25.655731,25.655731,25.655731,0.14391178632064822,nan,nan,nan,nan,nan,nan,nan,nan,Train,U12
41,,,9.7549593126412,9.56052157583,10.0714623139,0.12628149462353164,9.80662509796,9.8066137006,9.80663649532,1.6118301086932276e-05,0.117979159928,0.117979159928,0.117979159928,0.08489029915082082,238.7321222498182,238.15743419400002,239.216858471,0.3363398918759088,0.02154111622435897,0.0167080197102,0.0266529087951,0.0022447661866301107,86.64332111344999,86.1185811355,87.16806109139999,0.7420943935362468,0.9993966708175,0.999300936543,0.9994924050920001,0.00013538870938191634,0.009996491371132666,0.0026093544660999997,0.017504081343099998,0.005005407521917852,0.999705755686,0.999705755686,0.999705755686,9.001685982022155e-05,74.7579427218,74.7579427218,74.7579427218,0.8514381076076359,1019.12866,1019.12866,1019.12866,nan,nan,nan,nan,nan,76.51111864580714,76.51111864580714,76.51111864580714,0.31817671711994105,25.655731,25.655731,25.655731,0.14391178632064822,nan,nan,nan,nan,nan,nan,nan,nan,Train,U12
42,,,9.77688142383,9.44726585142,10.113022944299999,0.17978553034483732,9.8066351103,9.80663361916,9.80663660144,2.1087904112848365e-06,0.06996990517675,0.030370384538500002,0.109569425815,0.05600217915008643,228.6452127431818,218.909930328,239.889532496,8.270189378679905,0.024910908284365,0.011522597006500001,0.037526956462199994,0.005501530746413559,86.83703974726666,85.1439956779,88.44710283549999,1.653116331680705,0.9999111139376667,0.999797974593,0.999987817878,0.00010002885699433684,0.010269080688836365,0.00439219805272,0.0215699621208,0.005050613438155636,0.999895376414,0.999895376414,0.999895376414,9.001685982022155e-05,69.3136617331,62.093318581000005,75.5723494408,6.790777137056424,1019.12866,1019.12866,1019.12866,nan,nan,nan,nan,nan,76.51111864580714,76.51111864580714,76.51111864580714,0.31817671711994105,25.655731,25.655731,25.655731,0.14391178632064822,nan,nan,nan,nan,nan,nan,nan,nan,Train,U12
43,,,9.761974221947332,9.39784789857,9.975413391230001,0.17947532369485758,9.806634495255,9.80663373494,9.806635255569999,1.0752477838328118e-06,0.254996791989,0.254996791989,0.254996791989,0.05600217915008643,216.09963735209524,208.119242341,219.50980467099998,3.6080842160514166,0.0198184015652975,0.013807405999399999,0.0283047807443,0.0035713269734751712,95.19987266516667,92.753436594,97.2877176215,2.2883109054092006,0.9999111139376667,0.999797974593,0.999987817878,0.00010002885699433684,0.009833934863242999,0.00476400767203,0.017143808963,0.004258148605381747,0.9999839992753333,0.999982736163,0.999985495397,1.3942966250773323e-06,65.6496001511,65.6496001511,65.6496001511,6.790777137056424,1019.12866,1019.12866,1019.12866,nan,nan,nan,nan,nan,76.51111864580714,76.51111864580714,76.51111864580714,0.31817671711994105,25.655731,25.655731,25.655731,0.14391178632064822,nan,nan,nan,nan,nan,nan,nan,nan,Train,U12
44,,,9.794161954925714,9.23458655341,10.154380338200001,0.22373764192953302,9.80662825725,9.80662627835,9.80663023615,2.7985872177625786e-06,0.12580200126,0.10659989290100001,0.14500410961899998,0.027155882067455554,206.21345663229408,198.122334791,212.94582848299999,5.551047709545332,0.018222917506632498,0.0097050209446,0.0273463983236,0.00386632470861076,98.22235677342499,94.6964099668,101.625439745,3.768933684938932,0.9999718810220001,0.999952953893,0.999991562132,1.599698520686327e-05,0.00903361400859,0.0033686620356500004,0.0163995381675,0.0044528476625690155,0.9999704023156668,0.9999509343780001,0.9999816259090001,1.6925407791135523e-05,65.6496001511,65.6496001511,65.6496001511,6.790777137056424,1019.12866,1019.12866,1019.12866,nan,nan,nan,nan,nan,76.51111864580714,76.51111864580714,76.51111864580714,0.31817671711994105,15.260587,15.260587,15.260587,0.14391178632064822,nan,nan,nan,nan,nan,nan,nan,nan,Train,U12
45,,,9.746822080700833,9.46622239577,10.1169067629,0.17640717743371684,9.80662825725,9.80662627835,9.80663023615,2.7985872177625786e-06,0.218010613892,0.218010613892,0.218010613892,0.027155882067455554,197.75810986541177,190.270308487,210.01947244099998,6.818008303640073,0.018524311083747618,0.011373912097799999,0.033753922575,0.005150822571943975,106.8361048765,106.688425935,106.98378381799999,0.20884956194619872,0.9999718810220001,0.999952953893,0.999991562132,1.599698520686327e-05,0.008099220140619999,0.002130529,0.019929272910900003,0.003879732083955549,0.99998157131,0.99998157131,0.99998157131,1.6925407791135523e-05,58.561997546149996,57.9197722699,59.2042228224,0.9082436957715557,1019.1247599999999,1019.1247599999999,1019.1247599999999,nan,nan,nan,nan,nan,75.41556792338295,75.41556792338295,75.41556792338295,0.31817671711994105,15.260587,15.260587,15.260587,0.14391178632064822,nan,nan,nan,nan,nan,nan,nan,nan,Train,U12
46,,,9.776023659575264,9.6169310642,9.983620313169999,0.09632576898212411,9.80660958194,9.80660946785,9.80660969603,1.6134762486429517e-07,0.31902407168900004,0.31902407168900004,0.31902407168900004,0.027155882067455554,189.00848332033334,187.77032631,190.44814002799998,0.9529224687580735,0.020398885043305406,0.011121687864299998,0.0300170274217,0.004085457054837556,104.13225914000002,102.149938815,105.23369232299999,1.7202777514783087,0.9996640492046667,0.999614783546,0.999719281474,5.2503852917780845e-05,0.012115035122552308,0.00602604601366,0.0205184418373,0.004441161249742692,0.9999928935250001,0.9999928935250001,0.9999928935250001,1.6925407791135523e-05,57.929885643724994,55.4958557011,58.889048217799996,1.626181336493461,1019.1247599999999,1019.1247599999999,1019.1247599999999,nan,nan,nan,nan,nan,75.41556792338295,75.41556792338295,75.41556792338295,0.31817671711994105,15.260587,15.260587,15.260587,0.14391178632064822,nan,nan,nan,nan,nan,nan,nan,nan,Train,U12
47,,,9.720776137978234,9.50360781913,9.997534103060001,0.12724149394264067,9.806631783955,9.80662996869,9.80663359922,2.5671723818054545e-06,0.180247412678,0.125692836883,0.217467175372,0.04828047338426102,186.68932110692307,185.292579502,188.418807123,1.3054970764092622,0.02223005966146389,0.015836294732800002,0.0435978275275,0.005279814882315571,106.16141418299999,104.798902666,106.90495779,1.1816124582700431,0.999577501958,0.9995622384839999,0.999592765432,2.1585811939798433e-05,0.01005082258007625,0.00439219805272,0.0182032467138,0.004113609099975848,0.999981603961,0.9999750567039999,0.9999881512180001,9.259219645899548e-06,63.785719348,62.549980356499994,65.0214583395,1.7475988413325556,1019.1247599999999,1019.1247599999999,1019.1247599999999,nan,nan,nan,nan,nan,75.41556792338295,75.41556792338295,75.41556792338295,0.31817671711994105,15.260587,15.260587,15.260587,0.14391178632064822,nan,nan,nan,nan,nan,nan,nan,nan,Train,U12
48,,,9.77625103482238,9.265623854860001,10.2390994738,0.2513829921175087,9.806631783955,9.80662996869,9.80663359922,2.5671723818054545e-06,0.594032257298,0.594032257298,0.594032257298,0.04828047338426102,186.6121460106154,185.467421994,188.29937386,1.0127183803560043,0.02495020776259025,0.012468601144299998,0.03862960809569999,0.0072437140538287445,105.82708054649999,103.81237883799999,107.841782255,2.8492184802969542,0.999440190954,0.999317744019,0.9995518774150001,0.00011743701559202777,0.017500032475819167,0.007224975048680001,0.0326777585123,0.008609423788637216,0.999990235891,0.9999895712010001,0.999990900581,9.400136127527663e-07,63.9344995163,63.9344995163,63.9344995163,1.7475988413325556,1019.1247599999999,1019.1247599999999,1019.1247599999999,nan,nan,nan,nan,nan,75.41556792338295,75.41556792338295,75.41556792338295,0.31817671711994105,15.260587,15.260587,15.260587,0.14391178632064822,nan,nan,nan,nan,nan,nan,nan,nan,Train,U12
49,,,9.642096267816429,7.6709958131899985,11.5933293727,0.9775534786645054,9.806631783955,9.80662996869,9.80663359922,2.5671723818054545e-06,0.594032257298,0.594032257298,0.594032257298,0.04828047338426102,186.28506749771427,185.862703048,187.453674494,0.5741724789244094,0.02203146930691132,0.012099078830999999,0.0450066370467,0.007074172001188507,105.82708054649999,103.81237883799999,107.841782255,2.8492184802969542,0.9994485371165001,0.9994263147310001,0.999470759502,3.142719896235699e-05,0.012278172733202222,0.0038408656934799997,0.0245242309027,0.006468147873882527,0.999961507721,0.999961507721,0.999961507721,9.400136127527663e-07,55.767015340600004,55.767015340600004,55.767015340600004,1.7475988413325556,1019.1247599999999,1019.1247599999999,1019.1247599999999,nan,nan,nan,nan,nan,79.96257014256533,79.96257014256533,79.96257014256533,0.31817671711994105,21.198695999999998,21.198695999999998,21.198695999999998,0.14391178632064822,nan,nan,nan,nan,nan,nan,nan,nan,Train,U12
50,,,9.988565792358422,8.974568732589999,12.236095784200002,0.6622189270480445,9.8066288152,9.8066228914,9.806634739,8.377518300591883e-06,1.23396583368,1.23396583368,1.23396583368,0.04828047338426102,185.6243479985882,184.41963882599998,186.458807704,0.655152068281961,0.023850510776263892,0.0105455798168,0.039773044756099996,0.005993447046345599,106.369312095,103.695467596,109.043156594,3.7813871541624904,0.9994485371165001,0.9994263147310001,0.999470759502,3.142719896235699e-05,0.013061025269019411,0.00398585470511,0.024547355545099996,0.006355003983761263,0.9999507968979999,0.999937524206,0.99996406959,1.877042103555272e-05,55.767015340600004,55.767015340600004,55.767015340600004,1.7475988413325556,1019.1247599999999,1019.1247599999999,1019.1247599999999,nan,nan,nan,nan,nan,79.96257014256533,79.96257014256533,79.96257014256533,0.31817671711994105,20.527164000000003,20.527164000000003,20.527164000000003,0.14391178632064822,nan,nan,nan,nan,nan,nan,nan,nan,Train,U12
51,,,9.766485433281538,9.35390495405,10.456365443300001,0.2865949155260579,9.8066288152,9.8066228914,9.806634739,8.377518300591883e-06,1.23396583368,1.23396583368,1.23396583368,0.04828047338426102,183.77560525045,182.47207603599998,184.97423094099997,0.7731350084424262,0.023406526515725782,0.009347658016459998,0.0492562429501,0.008804059050098312,107.55096466299999,107.55096466299999,107.55096466299999,3.7813871541624904,0.9992645042545,0.9992375313959999,0.999291477113,3.814538230675925e-05,0.0158117075783575,0.0031957934000000003,0.031618800669,0.009170663929481713,0.999944870207,0.9999410501799999,0.9999486902339999,5.402333992032904e-06,55.767015340600004,55.767015340600004,55.767015340600004,1.7475988413325556,1019.1247599999999,1019.1247599999999,1019.1247599999999,nan,nan,nan,nan,nan,79.96257014256533,79.96257014256533,79.96257014256533,0.31817671711994105,21.705738,21.705738,21.705738,0.14391178632064822,nan,nan,nan,nan,nan,nan,nan,nan,Train,U12
52,,,9.811015587828573,9.466292856819999,10.4167340308,0.24866658345889756,9.8066288152,9.8066228914,9.806634739,8.377518300591883e-06,0.27496252874,0.27496252874,0.27496252874,0.04828047338426102,183.07105540039998,181.759505343,185.47377568,0.9255063212237266,0.02767516038080952,0.011522597006500001,0.0778007805054,0.013298389830775708,109.247104869,106.953541316,111.54066842200001,3.243588682817231,0.9992426753485,0.9992288325380001,0.999256518159,1.9576690350363216e-05,0.01952776018412353,0.008319981447,0.059244414232,0.012138094514060211,0.9999067710155,0.9999059175299999,0.999907624501,1.2070107694622244e-06,58.949215431599995,58.949215431599995,58.949215431599995,1.7475988413325556,1019.1247599999999,1019.1247599999999,1019.1247599999999,nan,nan,nan,nan,nan,79.96257014256533,79.96257014256533,79.96257014256533,0.31817671711994105,21.705738,21.705738,21.705738,0.14391178632064822,nan,nan,nan,nan,nan,nan,nan,nan,Train,U12
53,,,9.840051608911667,8.21686942138,11.0568713102,0.773473417325013,9.80662297384,9.80662297384,9.80662297384,8.377518300591883e-06,0.27496252874,0.27496252874,0.27496252874,0.04828047338426102,183.03454161235294,181.28309634599998,184.66411976400002,1.1510507050976753,0.031201106083072493,0.0105455803926,0.0718244233902,0.01621388637136244,109.16771859400001,107.72377036700001,110.611666821,2.0420511659879743,0.9992852780515,0.999271603759,0.999298952344,1.9338369909339372e-05,0.031155145003321425,0.0111725883038,0.0982183131175,0.021969093500203176,0.9999067810955,0.9999000534829999,0.999913508708,9.514280839940037e-06,47.030416164399995,47.030416164399995,47.030416164399995,1.7475988413325556,1019.1247599999999,1019.1247599999999,1019.1247599999999,nan,nan,nan,nan,nan,79.96257014256533,79.96257014256533,79.96257014256533,0.31817671711994105,21.705738,21.705738,21.705738,0.14391178632064822,nan,nan,nan,nan,nan,nan,nan,nan,Train,U12
54,,,9.741208649056876,9.27361846638,10.163177692,0.26264611278183764,9.806640208165,9.80663595599,9.80664446034,6.013483554108348e-06,0.27496252874,0.27496252874,0.27496252874,0.04828047338426102,181.15200263149998,179.80117947099998,181.858866723,0.563057797459216,0.02654767034326174,0.00647975068954,0.0559846898864,0.011330540438585746,122.33553086650001,116.157479311,128.513582422,8.737084298828304,0.9992852780515,0.999271603759,0.999298952344,1.9338369909339372e-05,0.022221131717006667,0.00630218955236,0.037466428134900004,0.010531070673388198,0.9999207567944,0.9999026102899999,0.999947005083,1.8815927080392206e-05,69.14887605613333,65.9606700997,73.2099729026,3.7026411737381264,1019.1247599999999,1019.1247599999999,1019.1247599999999,nan,nan,nan,nan,nan,77.70496215562774,77.70496215562774,77.70496215562774,0.31817671711994105,21.705738,21.705738,21.705738,0.14391178632064822,nan,nan,nan,nan,nan,nan,nan,nan,Train,U12
55,,,9.771279626577646,8.58653290509,11.174228109400001,0.6185855964118414,9.806640208165,9.80663595599,9.80664446034,6.013483554108348e-06,0.559889514781,0.559889514781,0.559889514781,0.04828047338426102,189.37455790259997,180.97874366599999,207.920688745,7.350805376790001,0.03609710107779545,0.012959501477700001,0.07275841824469999,0.012875509896694498,103.97533706835,90.1263557457,117.824318391,19.585417211543323,0.9998624771355,0.99973107579,0.9999938784810001,0.00018582956492024138,0.03075526575278462,0.0113239165408,0.0594356471524,0.012653194680710753,0.9999898907526665,0.9999862711059999,0.9999965494299999,5.773886611887643e-06,46.7699101956,42.4397225439,51.1000978473,6.123810104654646,1019.1247599999999,1019.1247599999999,1019.1247599999999,nan,nan,nan,nan,nan,79.31155915821056,79.31155915821056,79.31155915821056,0.31817671711994105,25.837007999999997,25.837007999999997,25.837007999999997,0.14391178632064822,nan,nan,nan,nan,nan,nan,nan,nan,Train,U12
56,,,9.49108139127,8.65651453712,10.3230367225,0.5129040657354161,9.80663695001,9.80663695001,9.80663695001,6.013483554108348e-06,0.559889514781,0.559889514781,0.559889514781,0.04828047338426102,203.76748292778572,197.132456563,208.28796897799998,2.9688453556877885,0.03458666957376341,0.0143712034714,0.0627512209012,0.01338362884782892,86.8127716138,79.320930403,94.30461282459999,10.595063447459015,0.999949124921,0.999949124921,0.999949124921,0.00018582956492024138,0.0311090470118875,0.0120520920273,0.0519364199156,0.01070875464741257,0.9999809851559999,0.99995838457,0.9999998283020001,2.0975807422819697e-05,37.39563650425,33.0676579246,41.7236150839,6.120686005001276,1019.1247599999999,1019.1247599999999,1019.1247599999999,nan,nan,nan,nan,nan,79.31155915821056,79.31155915821056,79.31155915821056,0.31817671711994105,26.061076999999997,26.061076999999997,26.061076999999997,0.14391178632064822,nan,nan,nan,nan,nan,nan,nan,nan,Train,U12
57,,,9.776642197665833,9.26743627531,10.3501090635,0.4046298847025837,9.806627975675,9.806619460930001,9.806636490419999,1.20416678575298e-05,0.445792722229,0.445792722229,0.445792722229,0.04828047338426102,200.6276928430714,197.55816350900002,205.315042996,2.4264164384754943,0.031735264884459526,0.0144499501416,0.07614219635780001,0.013693590261601015,84.56186357886668,83.36288233020001,85.333116473,1.0524586943522074,0.999949124921,0.999949124921,0.999949124921,0.00018582956492024138,0.021682126615914617,0.0031957935,0.0610927060576,0.01607756362459565,0.9999933218465,0.9999810516519999,0.999999073839,8.308043146229127e-06,50.70478774456666,50.2089655675,51.003334836099995,0.4323698974872794,1019.1247599999999,1019.1247599999999,1019.1247599999999,nan,nan,nan,nan,nan,82.00909430150942,80.39561460807293,83.62257399494591,2.2818048650714657,26.061076999999997,26.061076999999997,26.061076999999997,0.14391178632064822,nan,nan,nan,nan,nan,nan,nan,nan,Train,U12
58,,,9.766558961139333,9.19426355672,10.5540823266,0.43390837452259934,9.80662640309,9.80661421651,9.8066382425,1.2016756805304844e-05,0.6280002101519999,0.6280002101519999,0.6280002101519999,0.04828047338426102,208.9627907119286,196.8858749,229.50076972,10.466089299781054,0.03032826934869736,0.0108636087688,0.0533696424514,0.01040218373029003,77.09716690435,74.9473148313,79.2470189774,3.0403499588032226,0.9998538910173332,0.9998218890739999,0.9998758192489999,2.8341236633945486e-05,0.02683139128183333,0.013176594077299998,0.0451702281603,0.008683436430242183,0.9999989268870001,0.9999989268870001,0.9999989268870001,8.308043146229127e-06,66.9095658333,66.9095658333,66.9095658333,0.4323698974872794,1019.1247599999999,1019.1247599999999,1019.1247599999999,nan,nan,nan,nan,nan,82.00909430150942,80.39561460807293,83.62257399494591,2.2818048650714657,26.061076999999997,26.061076999999997,26.061076999999997,0.14391178632064822,nan,nan,nan,nan,nan,nan,nan,nan,Train,U12
59,,,9.881031135955332,9.0808050861,10.5760715231,0.39123234706703847,9.80662640309,9.80661421651,9.8066382425,1.2016756805304844e-05,0.18277757331099997,0.18277757331099997,0.18277757331099997,0.04828047338426102,237.69070118766663,235.09264939,239.300887628,1.417369903047,0.025217117902272095,0.011121687864299998,0.0498857791922,0.008660532147585998,84.71304242263334,81.5647595472,88.5931148566,3.570865659371211,0.999820878784,0.999741412766,0.9998942449830001,7.506269790008457e-05,0.016782177459254616,0.0073803689500000005,0.0316725895059,0.008086829045533879,0.9998739879173334,0.999843325026,0.9999080589730001,3.2501271692700984e-05,75.9236615371,74.8807718977,76.96655117649999,1.4748686720978594,1019.1247599999999,1019.1247599999999,1019.1247599999999,nan,nan,nan,nan,nan,78.58019970987922,78.58019970987922,78.58019970987922,2.2818048650714657,24.465649,24.465649,24.465649,0.14391178632064822,nan,nan,nan,nan,nan,nan,nan,nan,Train,U12
60,,,9.795873104240586,9.085093219289998,10.2005409654,0.27571843586880423,9.80664955625,9.80664955625,9.80664955625,1.2016756805304844e-05,0.08381007620389999,0.08381007620389999,0.08381007620389999,0.04828047338426102,232.31177495572223,228.85827285599999,234.270539635,1.6530867558794753,0.022421171109926828,0.012559282525500001,0.0432581316576,0.006135878138576116,86.60792416345001,85.9496414253,87.2662069016,0.9309523761678262,0.9998201292450001,0.9998201292450001,0.9998201292450001,7.506269790008457e-05,0.01497402716914,0.00150651150341,0.0294637588395,0.009363834713538978,0.9998739879173334,0.999843325026,0.9999080589730001,3.2501271692700984e-05,68.10784234069999,65.5935210215,70.6221636599,3.5557873097764525,1019.1247599999999,1019.1247599999999,1019.1247599999999,nan,nan,nan,nan,nan,77.12853544940491,77.12853544940491,77.12853544940491,2.2818048650714657,24.465649,24.465649,24.465649,0.14391178632064822,nan,nan,nan,nan,nan,nan,nan,nan,Train,U12
61,,,9.667165500939475,9.41451712135,10.0564936772,0.186574317565067,9.80664955625,9.80664955625,9.80664955625,1.2016756805304844e-05,0.11487832377110001,0.06286874963219999,0.18351473253699999,0.06201775568376791,218.51608408481252,207.837089158,229.741600115,8.517842385839938,0.019109855219539045,0.009225460667879999,0.0361091659339,0.006363307916275497,89.821730249,86.3773697215,92.87728462870001,3.267353839980532,0.9999992312,0.9999992312,0.9999992312,7.506269790008457e-05,0.010620686498685,0.0026093544660999997,0.0215172881568,0.006137903913987288,0.9998739879173334,0.999843325026,0.9999080589730001,3.2501271692700984e-05,60.0733718048,60.0733718048,60.0733718048,3.5557873097764525,1019.1247599999999,1019.1247599999999,1019.1247599999999,nan,nan,nan,nan,nan,77.12853544940491,77.12853544940491,77.12853544940491,2.2818048650714657,24.465649,24.465649,24.465649,0.14391178632064822,nan,nan,nan,nan,nan,nan,nan,nan,Train,U12
62,,,9.74770875946375,9.377920296360001,9.99931885021,0.17007529722032166,9.80663627947,9.80663627947,9.80663627947,1.2016756805304844e-05,0.35918641902099996,0.35918641902099996,0.35918641902099996,0.06201775568376791,234.611779079,233.35976952099998,235.422025051,0.6757484610698994,0.022158711763583333,0.0111725883038,0.0383199177595,0.005805674888437716,86.68654142518001,84.74774833,88.1236631104,1.3379340124528365,0.9997492519366666,0.999717429857,0.999806959416,5.006421796664933e-05,0.010007600952908332,0.00439219797996,0.017568791240700002,0.003675140525693199,0.9998739879173334,0.999843325026,0.9999080589730001,3.2501271692700984e-05,69.27575444840001,69.27575444840001,69.27575444840001,3.5557873097764525,1019.1247599999999,1019.1247599999999,1019.1247599999999,nan,nan,nan,nan,nan,77.12853544940491,77.12853544940491,77.12853544940491,2.2818048650714657,18.028965,18.028965,18.028965,0.14391178632064822,nan,nan,nan,nan,nan,nan,nan,nan,Train,U12
63,,,9.779888050984118,9.31546784717,10.2156924585,0.265496354371493,9.806622859256665,9.80660357969,9.80664038138,1.8463681973115572e-05,0.2845652843606667,0.11187243458599999,0.463545903048,0.1759210309583469,238.68370706133337,230.56878291200002,246.32975029,7.890938484167696,0.019398161167666666,0.011571733848600002,0.0415043230008,0.006772286420476246,67.24133884606667,65.1625678954,71.215522857,3.4429651383018056,0.999963976279,0.999963976279,0.999963976279,5.006421796664933e-05,0.014308839318809049,0.0010652645,0.0322231504941,0.007487601691231073,0.9998739879173334,0.999843325026,0.9999080589730001,3.2501271692700984e-05,58.9046049622,43.463663975799996,74.34554594859999,21.836788158769473,1019.1247599999999,1019.1247599999999,1019.1247599999999,nan,nan,nan,nan,nan,76.5176059787236,76.5176059787236,76.5176059787236,2.2818048650714657,18.028965,18.028965,18.028965,0.14391178632064822,nan,nan,nan,nan,nan,nan,nan,nan,Train,U12
64,,,9.614929604474998,9.417072673,9.80737622454,0.1332917613218634,9.806621295760001,9.806621295760001,9.806621295760001,1.8463681973115572e-05,0.198490766495,0.198490766495,0.198490766495,0.1759210309583469,233.35852889992307,228.47205671400002,240.16891816900002,3.902975695470864,0.02111798417226905,0.0114236885446,0.045107376979000004,0.008678354019474328,67.24133884606667,65.1625678954,71.215522857,3.4429651383018056,0.9999842189129999,0.9999842189129999,0.9999842189129999,5.006421796664933e-05,0.013306206159632631,0.0026093544660999997,0.051969181978799996,0.012909611945735758,0.999999288837,0.9999988463189999,0.999999731355,6.258149572241315e-07,84.9628155772,84.9628155772,84.9628155772,21.836788158769473,1019.1247599999999,1019.1247599999999,1019.1247599999999,nan,nan,nan,nan,nan,77.03250406306618,77.03250406306618,77.03250406306618,2.2818048650714657,14.645919000000001,14.645919000000001,14.645919000000001,0.14391178632064822,nan,nan,nan,nan,nan,nan,nan,nan,Train,U12
65,,,9.724061486685,9.49788772665,9.889543301889999,0.13636582817512785,9.806640926110001,9.806640926110001,9.806640926110001,1.8463681973115572e-05,0.198490766495,0.198490766495,0.198490766495,0.1759210309583469,233.26966731715387,231.87068557799998,234.156779015,0.5963211757963861,0.017428496618414703,0.0101059862862,0.0259627470347,0.003286555032181043,95.540290662675,94.71008394040001,96.7148902703,0.8470326087646735,0.9999842189129999,0.9999842189129999,0.9999842189129999,5.006421796664933e-05,0.0073639923686050004,0.00150651150341,0.024868850603200002,0.004810933560310038,0.9999959472869999,0.9999959472869999,0.9999959472869999,6.258149572241315e-07,79.65092634736668,78.1281639359,81.17456649100001,1.5232014672197085,1019.1247599999999,1019.1247599999999,1019.1247599999999,nan,nan,nan,nan,nan,74.09158899392598,74.09158899392598,74.09158899392598,2.2818048650714657,14.645919000000001,14.645919000000001,14.645919000000001,0.14391178632064822,nan,nan,nan,nan,nan,nan,nan,nan,Train,U12
66,,,9.79904316644263,9.62014623278,10.028283032000001,0.1045573010634507,9.806625074115,9.80661057536,9.806639572869999,2.050433595747712e-05,0.07114226346245,0.0631902303069,0.07909429661799999,0.011245873137019321,234.17475075331248,233.193393808,235.688104246,0.6626154137933359,0.018278595302694444,0.0133901665535,0.0283047801798,0.0032350967263797856,95.540290662675,94.71008394040001,96.7148902703,0.8470326087646735,0.999929488407,0.999921609207,0.999937367607,1.1142871500657121e-05,0.005956639692105,0.0010652645,0.0197577120613,0.0046817226400259785,0.9999967382935,0.9999944054719999,0.999999071115,3.2991078039357786e-06,79.65092634736668,78.1281639359,81.17456649100001,1.5232014672197085,1019.1247599999999,1019.1247599999999,1019.1247599999999,nan,nan,nan,nan,nan,74.09158899392598,74.09158899392598,74.09158899392598,2.2818048650714657,14.645919000000001,14.645919000000001,14.645919000000001,0.14391178632064822,nan,nan,nan,nan,nan,nan,nan,nan,Train,U12
67,,,9.696744566390716,8.753381606749999,10.2717296323,0.3701697587564708,9.80661249028,9.80661249028,9.80661249028,2.050433595747712e-05,0.07114226346245,0.0631902303069,0.07909429661799999,0.011245873137019321,229.53585978775,168.118188581,253.22719624299998,20.03354939901014,0.5730582291336256,0.010437417864399999,4.603001257930001,1.3638182026226777,94.181414331925,91.6546829791,96.7037744868,2.124907036829795,0.999924917359,0.999909315844,0.9999430525859999,1.7010488310632836e-05,0.6007658643444554,0.0026093544660999997,2.23637621107,0.8841887420720622,0.99999546438,0.9999892536939999,0.9999987956470001,5.383354632334639e-06,82.60731549735,79.9698068023,85.2448241924,3.7300005674166763,1019.1247599999999,1019.1247599999999,1019.1247599999999,nan,nan,nan,nan,nan,74.09158899392598,74.09158899392598,74.09158899392598,2.2818048650714657,13.764288,13.764288,13.764288,0.14391178632064822,nan,nan,nan,nan,nan,nan,nan,nan,Train,U12
68,,,9.79024776036,9.79024776036,9.79024776036,0.3701697587564708,9.806650180830001,9.806650180830001,9.806650180830001,2.050433595747712e-05,0.07114226346245,0.0631902303069,0.07909429661799999,0.011245873137019321,229.53585978775,168.118188581,253.22719624299998,20.03354939901014,0.014381234947903332,0.00782806292201,0.022268869754499997,0.007312305975418035,94.181414331925,91.6546829791,96.7037744868,2.124907036829795,0.999924917359,0.999909315844,0.9999430525859999,1.7010488310632836e-05,0.022797656343200003,0.022797656343200003,0.022797656343200003,0.8841887420720622,0.99999546438,0.9999892536939999,0.9999987956470001,5.383354632334639e-06,82.60731549735,79.9698068023,85.2448241924,3.7300005674166763,1019.1247599999999,1019.1247599999999,1019.1247599999999,nan,nan,nan,nan,nan,74.09158899392598,74.09158899392598,74.09158899392598,2.2818048650714657,13.764288,13.764288,13.764288,0.14391178632064822,nan,nan,nan,nan,nan,nan,nan,nan,Train,U12
