time,activityrecognition#0,activityrecognition#1,android.sensor.accelerometer#mean,android.sensor.accelerometer#min,android.sensor.accelerometer#max,android.sensor.accelerometer#std,android.sensor.gravity#mean,android.sensor.gravity#min,android.sensor.gravity#max,android.sensor.gravity#std,android.sensor.linear_acceleration#mean,android.sensor.linear_acceleration#min,android.sensor.linear_acceleration#max,android.sensor.linear_acceleration#std,android.sensor.orientation#mean,android.sensor.orientation#min,android.sensor.orientation#max,android.sensor.orientation#std,android.sensor.gyroscope_uncalibrated#mean,android.sensor.gyroscope_uncalibrated#min,android.sensor.gyroscope_uncalibrated#max,android.sensor.gyroscope_uncalibrated#std,android.sensor.magnetic_field_uncalibrated#mean,android.sensor.magnetic_field_uncalibrated#min,android.sensor.magnetic_field_uncalibrated#max,android.sensor.magnetic_field_uncalibrated#std,android.sensor.rotation_vector#mean,android.sensor.rotation_vector#min,android.sensor.rotation_vector#max,android.sensor.rotation_vector#std,android.sensor.gyroscope#mean,android.sensor.gyroscope#min,android.sensor.gyroscope#max,android.sensor.gyroscope#std,android.sensor.game_rotation_vector#mean,android.sensor.game_rotation_vector#min,android.sensor.game_rotation_vector#max,android.sensor.game_rotation_vector#std,android.sensor.magnetic_field#mean,android.sensor.magnetic_field#min,android.sensor.magnetic_field#max,android.sensor.magnetic_field#std,android.sensor.pressure#mean,android.sensor.pressure#min,android.sensor.pressure#max,android.sensor.pressure#std,android.sensor.light#mean,android.sensor.light#min,android.sensor.light#max,android.sensor.light#std,sound#mean,sound#min,sound#max,sound#std,speed#mean,speed#min,speed#max,speed#std,android.sensor.proximity#mean,android.sensor.proximity#min,android.sensor.proximity#max,android.sensor.proximity#std,android.sensor.step_counter#mean,android.sensor.step_counter#min,android.sensor.step_counter#max,android.sensor.step_counter#std,target,user
1,,,10.04222972900794,5.860614331159999,17.0193863553,2.678424321695248,nan,nan,nan,nan,nan,nan,nan,nan,nan,nan,nan,nan,nan,nan,nan,nan,nan,nan,nan,nan,nan,nan,nan,nan,nan,nan,nan,nan,nan,nan,nan,nan,nan,nan,nan,nan,nan,nan,nan,nan,6.0,6.0,6.0,nan,nan,nan,nan,nan,nan,nan,nan,nan,nan,nan,nan,nan,nan,nan,nan,nan,Walking,U6
2,,,10.276058565600104,5.46576488956,24.656859681900002,3.4395495535906195,nan,nan,nan,nan,nan,nan,nan,nan,nan,nan,nan,nan,nan,nan,nan,nan,nan,nan,nan,nan,nan,nan,nan,nan,nan,nan,nan,nan,nan,nan,nan,nan,nan,nan,nan,nan,nan,nan,nan,nan,6.0,6.0,6.0,nan,76.88830080947648,76.88830080947648,76.88830080947648,nan,nan,nan,nan,nan,nan,nan,nan,nan,nan,nan,nan,nan,Walking,U6
3,,,10.310262000308555,4.8021552302599995,19.9407069744,3.4603186415536715,nan,nan,nan,nan,nan,nan,nan,nan,nan,nan,nan,nan,nan,nan,nan,nan,nan,nan,nan,nan,nan,nan,nan,nan,nan,nan,nan,nan,nan,nan,nan,nan,nan,nan,nan,nan,nan,nan,nan,nan,6.0,6.0,6.0,nan,76.88830080947648,76.88830080947648,76.88830080947648,nan,nan,nan,nan,nan,nan,nan,nan,nan,nan,nan,nan,nan,Walking,U6
4,,,10.359710203689382,5.09901784796,22.472232009200003,3.690381463389932,nan,nan,nan,nan,nan,nan,nan,nan,nan,nan,nan,nan,nan,nan,nan,nan,nan,nan,nan,nan,nan,nan,nan,nan,nan,nan,nan,nan,nan,nan,nan,nan,nan,nan,nan,nan,nan,nan,nan,nan,6.0,6.0,6.0,nan,76.88830080947648,76.88830080947648,76.88830080947648,nan,nan,nan,nan,nan,nan,nan,nan,nan,nan,nan,nan,nan,Walking,U6
5,,,10.27720502364928,2.95816378017,20.0832609004,3.9975112606495036,nan,nan,nan,nan,nan,nan,nan,nan,nan,nan,nan,nan,nan,nan,nan,nan,nan,nan,nan,nan,nan,nan,nan,nan,nan,nan,nan,nan,nan,nan,nan,nan,nan,nan,nan,nan,nan,nan,nan,nan,6.0,6.0,6.0,nan,76.88830080947648,76.88830080947648,76.88830080947648,nan,nan,nan,nan,nan,nan,nan,nan,nan,nan,nan,nan,nan,Walking,U6
6,,,10.432234992698042,4.34212897662,21.6417739494,3.548960351319853,nan,nan,nan,nan,nan,nan,nan,nan,nan,nan,nan,nan,nan,nan,nan,nan,nan,nan,nan,nan,nan,nan,nan,nan,nan,nan,nan,nan,nan,nan,nan,nan,nan,nan,nan,nan,nan,nan,nan,nan,6.0,6.0,6.0,nan,76.88830080947648,76.88830080947648,76.88830080947648,nan,nan,nan,nan,nan,nan,nan,nan,nan,nan,nan,nan,nan,Walking,U6
7,,,10.030324524688659,6.3471401688,15.933095590599999,2.346616322253816,nan,nan,nan,nan,nan,nan,nan,nan,nan,nan,nan,nan,nan,nan,nan,nan,nan,nan,nan,nan,nan,nan,nan,nan,nan,nan,nan,nan,nan,nan,nan,nan,nan,nan,nan,nan,nan,nan,nan,nan,6.0,6.0,6.0,nan,76.88830080947648,76.88830080947648,76.88830080947648,nan,nan,nan,nan,nan,nan,nan,nan,nan,nan,nan,nan,nan,Walking,U6
8,,,10.002181668701052,7.547562602210001,15.3898953398,1.6191514035092767,nan,nan,nan,nan,nan,nan,nan,nan,nan,nan,nan,nan,nan,nan,nan,nan,nan,nan,nan,nan,nan,nan,nan,nan,nan,nan,nan,nan,nan,nan,nan,nan,nan,nan,nan,nan,nan,nan,nan,nan,6.0,6.0,6.0,nan,61.393361938231905,61.393361938231905,61.393361938231905,nan,1.0,1.0,1.0,nan,nan,nan,nan,nan,nan,nan,nan,nan,Walking,U6
9,,,10.175581773402474,5.94573957414,20.672155213,2.3431885083985735,nan,nan,nan,nan,nan,nan,nan,nan,nan,nan,nan,nan,nan,nan,nan,nan,nan,nan,nan,nan,nan,nan,nan,nan,nan,nan,nan,nan,nan,nan,nan,nan,nan,nan,nan,nan,nan,nan,nan,nan,6.0,6.0,6.0,nan,61.393361938231905,61.393361938231905,61.393361938231905,nan,1.0,1.0,1.0,nan,nan,nan,nan,nan,nan,nan,nan,nan,Walking,U6
10,,,10.150361952893505,5.04677728613,19.2178833012,2.6155257749998353,nan,nan,nan,nan,nan,nan,nan,nan,nan,nan,nan,nan,nan,nan,nan,nan,nan,nan,nan,nan,nan,nan,nan,nan,nan,nan,nan,nan,nan,nan,nan,nan,nan,nan,nan,nan,nan,nan,nan,nan,6.0,6.0,6.0,nan,61.393361938231905,61.393361938231905,61.393361938231905,nan,1.0,1.0,1.0,nan,nan,nan,nan,nan,nan,nan,nan,nan,Walking,U6
11,,,10.152073013036736,5.3436524940400005,17.0187950469,2.9256374567736554,nan,nan,nan,nan,nan,nan,nan,nan,nan,nan,nan,nan,nan,nan,nan,nan,nan,nan,nan,nan,nan,nan,nan,nan,nan,nan,nan,nan,nan,nan,nan,nan,nan,nan,nan,nan,nan,nan,nan,nan,6.0,6.0,6.0,nan,72.15767488713979,72.15767488713979,72.15767488713979,nan,0.75,0.75,0.75,nan,nan,nan,nan,nan,nan,nan,nan,nan,Walking,U6
12,,,10.061393775126598,5.20884076453,17.2218814667,3.0171745677301414,nan,nan,nan,nan,nan,nan,nan,nan,nan,nan,nan,nan,nan,nan,nan,nan,nan,nan,nan,nan,nan,nan,nan,nan,nan,nan,nan,nan,nan,nan,nan,nan,nan,nan,nan,nan,nan,nan,nan,nan,6.0,6.0,6.0,nan,72.15767488713979,72.15767488713979,72.15767488713979,nan,0.75,0.75,0.75,nan,nan,nan,nan,nan,nan,nan,nan,nan,Walking,U6
13,,,10.27695520337698,4.85914207578,22.2842334332,3.5562310335132294,nan,nan,nan,nan,nan,nan,nan,nan,nan,nan,nan,nan,nan,nan,nan,nan,nan,nan,nan,nan,nan,nan,nan,nan,nan,nan,nan,nan,nan,nan,nan,nan,nan,nan,nan,nan,nan,nan,nan,nan,6.0,6.0,6.0,nan,86.61476716357754,86.61476716357754,86.61476716357754,nan,0.75,0.75,0.75,nan,nan,nan,nan,nan,nan,nan,nan,nan,Walking,U6
14,,,10.163259695595832,5.2714123542,17.7709557017,3.020053258090681,nan,nan,nan,nan,nan,nan,nan,nan,nan,nan,nan,nan,nan,nan,nan,nan,nan,nan,nan,nan,nan,nan,nan,nan,nan,nan,nan,nan,nan,nan,nan,nan,nan,nan,nan,nan,nan,nan,nan,nan,6.0,6.0,6.0,nan,86.61476716357754,86.61476716357754,86.61476716357754,nan,0.25,0.25,0.25,nan,nan,nan,nan,nan,nan,nan,nan,nan,Walking,U6
15,,,10.271841389846525,5.8806897315699995,20.364887580599998,2.7401129502646424,nan,nan,nan,nan,nan,nan,nan,nan,nan,nan,nan,nan,nan,nan,nan,nan,nan,nan,nan,nan,nan,nan,nan,nan,nan,nan,nan,nan,nan,nan,nan,nan,nan,nan,nan,nan,nan,nan,nan,nan,6.0,6.0,6.0,nan,86.61476716357754,86.61476716357754,86.61476716357754,nan,0.25,0.25,0.25,nan,nan,nan,nan,nan,nan,nan,nan,nan,Walking,U6
16,,,10.294209215448557,5.53610689896,18.4533539209,2.876066482412969,nan,nan,nan,nan,nan,nan,nan,nan,nan,nan,nan,nan,nan,nan,nan,nan,nan,nan,nan,nan,nan,nan,nan,nan,nan,nan,nan,nan,nan,nan,nan,nan,nan,nan,nan,nan,nan,nan,nan,nan,6.0,6.0,6.0,nan,72.38604151751217,72.38604151751217,72.38604151751217,nan,0.25,0.25,0.25,nan,nan,nan,nan,nan,nan,nan,nan,nan,Walking,U6
17,,,9.99438375290585,5.9551182651,18.5742756093,2.3446347511000796,nan,nan,nan,nan,nan,nan,nan,nan,nan,nan,nan,nan,nan,nan,nan,nan,nan,nan,nan,nan,nan,nan,nan,nan,nan,nan,nan,nan,nan,nan,nan,nan,nan,nan,nan,nan,nan,nan,nan,nan,6.0,6.0,6.0,nan,72.38604151751217,72.38604151751217,72.38604151751217,nan,0.75,0.75,0.75,0.0,nan,nan,nan,nan,nan,nan,nan,nan,Walking,U6
18,,,10.322878506010833,5.04081286453,23.049328321799997,3.4422097061811514,nan,nan,nan,nan,nan,nan,nan,nan,nan,nan,nan,nan,nan,nan,nan,nan,nan,nan,nan,nan,nan,nan,nan,nan,nan,nan,nan,nan,nan,nan,nan,nan,nan,nan,nan,nan,nan,nan,nan,nan,6.0,6.0,6.0,nan,72.38604151751217,72.38604151751217,72.38604151751217,nan,0.75,0.75,0.75,0.0,nan,nan,nan,nan,nan,nan,nan,nan,Walking,U6
19,,,10.25411220812598,5.23819822757,18.9730196206,2.72874201421417,nan,nan,nan,nan,nan,nan,nan,nan,nan,nan,nan,nan,nan,nan,nan,nan,nan,nan,nan,nan,nan,nan,nan,nan,nan,nan,nan,nan,nan,nan,nan,nan,nan,nan,nan,nan,nan,nan,nan,nan,6.0,6.0,6.0,nan,72.38604151751217,72.38604151751217,72.38604151751217,nan,0.75,0.75,0.75,0.0,nan,nan,nan,nan,nan,nan,nan,nan,Walking,U6
20,,,10.259285173736835,4.475669341650001,19.0319877773,2.8845323768075977,nan,nan,nan,nan,nan,nan,nan,nan,nan,nan,nan,nan,nan,nan,nan,nan,nan,nan,nan,nan,nan,nan,nan,nan,nan,nan,nan,nan,nan,nan,nan,nan,nan,nan,nan,nan,nan,nan,nan,nan,6.0,6.0,6.0,nan,72.38604151751217,72.38604151751217,72.38604151751217,nan,0.75,0.75,0.75,0.0,nan,nan,nan,nan,nan,nan,nan,nan,Walking,U6
21,,,10.181091639956842,5.940407668630001,16.7991557002,2.340203391218218,nan,nan,nan,nan,nan,nan,nan,nan,nan,nan,nan,nan,nan,nan,nan,nan,nan,nan,nan,nan,nan,nan,nan,nan,nan,nan,nan,nan,nan,nan,nan,nan,nan,nan,nan,nan,nan,nan,nan,nan,6.0,6.0,6.0,nan,73.7157762798705,71.10672655990533,76.32482599983567,3.6897534988804703,0.75,0.75,0.75,0.0,nan,nan,nan,nan,nan,nan,nan,nan,Walking,U6
22,,,10.04709251252937,5.88447809954,16.8885800831,2.4466082359592694,nan,nan,nan,nan,nan,nan,nan,nan,nan,nan,nan,nan,nan,nan,nan,nan,nan,nan,nan,nan,nan,nan,nan,nan,nan,nan,nan,nan,nan,nan,nan,nan,nan,nan,nan,nan,nan,nan,nan,nan,6.0,6.0,6.0,nan,73.7157762798705,71.10672655990533,76.32482599983567,3.6897534988804703,0.75,0.75,0.75,0.0,nan,nan,nan,nan,nan,nan,nan,nan,Walking,U6
23,,,10.030749088424786,6.64495816174,17.3407603225,2.3792116940706785,nan,nan,nan,nan,nan,nan,nan,nan,nan,nan,nan,nan,nan,nan,nan,nan,nan,nan,nan,nan,nan,nan,nan,nan,nan,nan,nan,nan,nan,nan,nan,nan,nan,nan,nan,nan,nan,nan,nan,nan,6.0,6.0,6.0,nan,77.13699357450345,77.13699357450345,77.13699357450345,3.6897534988804703,0.75,0.75,0.75,0.0,nan,nan,nan,nan,nan,nan,nan,nan,Walking,U6
24,,,10.046216608078936,6.45631627429,18.1112328931,2.291343712111949,nan,nan,nan,nan,nan,nan,nan,nan,nan,nan,nan,nan,nan,nan,nan,nan,nan,nan,nan,nan,nan,nan,nan,nan,nan,nan,nan,nan,nan,nan,nan,nan,nan,nan,nan,nan,nan,nan,nan,nan,6.0,6.0,6.0,nan,77.13699357450345,77.13699357450345,77.13699357450345,3.6897534988804703,0.75,0.75,0.75,0.0,nan,nan,nan,nan,nan,nan,nan,nan,Walking,U6
25,,,10.074090253471667,7.251091463860001,15.114218758699998,1.9764041664272316,nan,nan,nan,nan,nan,nan,nan,nan,nan,nan,nan,nan,nan,nan,nan,nan,nan,nan,nan,nan,nan,nan,nan,nan,nan,nan,nan,nan,nan,nan,nan,nan,nan,nan,nan,nan,nan,nan,nan,nan,6.0,6.0,6.0,nan,67.85042179863865,67.85042179863865,67.85042179863865,3.6897534988804703,0.75,0.75,0.75,0.0,nan,nan,nan,nan,nan,nan,nan,nan,Walking,U6
26,,,9.93634111931433,5.16610794884,16.3304232714,2.2884273238085373,nan,nan,nan,nan,nan,nan,nan,nan,nan,nan,nan,nan,nan,nan,nan,nan,nan,nan,nan,nan,nan,nan,nan,nan,nan,nan,nan,nan,nan,nan,nan,nan,nan,nan,nan,nan,nan,nan,nan,nan,6.0,6.0,6.0,nan,67.85042179863865,67.85042179863865,67.85042179863865,3.6897534988804703,0.75,0.75,0.75,0.0,nan,nan,nan,nan,nan,nan,nan,nan,Walking,U6
27,,,10.770534489595581,3.4120054507099997,22.6052016303,3.1664904702823917,nan,nan,nan,nan,nan,nan,nan,nan,nan,nan,nan,nan,nan,nan,nan,nan,nan,nan,nan,nan,nan,nan,nan,nan,nan,nan,nan,nan,nan,nan,nan,nan,nan,nan,nan,nan,nan,nan,nan,nan,6.0,6.0,6.0,nan,67.85042179863865,67.85042179863865,67.85042179863865,3.6897534988804703,0.75,0.75,0.75,0.0,nan,nan,nan,nan,nan,nan,nan,nan,Walking,U6
28,,,10.48549364553317,7.659835279660001,19.5608965963,2.226470624022929,nan,nan,nan,nan,nan,nan,nan,nan,nan,nan,nan,nan,nan,nan,nan,nan,nan,nan,nan,nan,nan,nan,nan,nan,nan,nan,nan,nan,nan,nan,nan,nan,nan,nan,nan,nan,nan,nan,nan,nan,6.0,6.0,6.0,nan,67.85042179863865,67.85042179863865,67.85042179863865,3.6897534988804703,0.75,0.75,0.75,0.0,nan,nan,nan,nan,nan,nan,nan,nan,Walking,U6
