time,activityrecognition#0,activityrecognition#1,android.sensor.accelerometer#mean,android.sensor.accelerometer#min,android.sensor.accelerometer#max,android.sensor.accelerometer#std,android.sensor.gravity#mean,android.sensor.gravity#min,android.sensor.gravity#max,android.sensor.gravity#std,android.sensor.linear_acceleration#mean,android.sensor.linear_acceleration#min,android.sensor.linear_acceleration#max,android.sensor.linear_acceleration#std,android.sensor.orientation#mean,android.sensor.orientation#min,android.sensor.orientation#max,android.sensor.orientation#std,android.sensor.gyroscope_uncalibrated#mean,android.sensor.gyroscope_uncalibrated#min,android.sensor.gyroscope_uncalibrated#max,android.sensor.gyroscope_uncalibrated#std,android.sensor.magnetic_field_uncalibrated#mean,android.sensor.magnetic_field_uncalibrated#min,android.sensor.magnetic_field_uncalibrated#max,android.sensor.magnetic_field_uncalibrated#std,android.sensor.rotation_vector#mean,android.sensor.rotation_vector#min,android.sensor.rotation_vector#max,android.sensor.rotation_vector#std,android.sensor.gyroscope#mean,android.sensor.gyroscope#min,android.sensor.gyroscope#max,android.sensor.gyroscope#std,android.sensor.game_rotation_vector#mean,android.sensor.game_rotation_vector#min,android.sensor.game_rotation_vector#max,android.sensor.game_rotation_vector#std,android.sensor.magnetic_field#mean,android.sensor.magnetic_field#min,android.sensor.magnetic_field#max,android.sensor.magnetic_field#std,android.sensor.pressure#mean,android.sensor.pressure#min,android.sensor.pressure#max,android.sensor.pressure#std,android.sensor.light#mean,android.sensor.light#min,android.sensor.light#max,android.sensor.light#std,sound#mean,sound#min,sound#max,sound#std,speed#mean,speed#min,speed#max,speed#std,android.sensor.proximity#mean,android.sensor.proximity#min,android.sensor.proximity#max,android.sensor.proximity#std,android.sensor.step_counter#mean,android.sensor.step_counter#min,android.sensor.step_counter#max,android.sensor.step_counter#std,target,user
1,,,10.026815867834879,8.72233690092,12.5842157673,0.5682995078451075,9.79537878048,9.79537878048,9.79537878048,nan,1.60402358954,1.60402358954,1.60402358954,nan,297.52958468,297.52958468,297.52958468,nan,nan,nan,nan,nan,nan,nan,nan,nan,nan,nan,nan,nan,nan,nan,nan,nan,nan,nan,nan,nan,45.2997006822,42.8470582421,46.4924500929,1.0079131854837746,nan,nan,nan,nan,nan,nan,nan,nan,55.05632862376543,55.05632862376543,55.05632862376543,nan,nan,nan,nan,nan,0.0,0.0,0.0,nan,nan,nan,nan,nan,Still,U4
2,,,10.002051598226217,9.21970463373,10.6246634163,0.2148034061967432,9.80405797546,9.80405797546,9.80405797546,nan,0.372012536773,0.372012536773,0.372012536773,nan,297.52958468,297.52958468,297.52958468,nan,nan,nan,nan,nan,nan,nan,nan,nan,nan,nan,nan,nan,nan,nan,nan,nan,nan,nan,nan,nan,45.43017930420351,43.8797766631,47.0413385894,0.6630901382227001,nan,nan,nan,nan,nan,nan,nan,nan,55.05632862376543,55.05632862376543,55.05632862376543,nan,nan,nan,nan,nan,0.0,0.0,0.0,nan,nan,nan,nan,nan,Still,U4
3,,,10.023891497441538,9.91821557296,10.2201539758,0.057082252870904016,9.80523100781,9.80523100781,9.80523100781,nan,0.2042430129585,0.176539876882,0.231946149035,0.03917815075965366,297.52958468,297.52958468,297.52958468,nan,nan,nan,nan,nan,nan,nan,nan,nan,nan,nan,nan,nan,nan,nan,nan,nan,nan,nan,nan,nan,45.04840169926852,43.9175812094,46.1806712814,0.4890322632270468,nan,nan,nan,nan,nan,nan,nan,nan,31.821292140529984,31.821292140529984,31.821292140529984,nan,nan,nan,nan,nan,0.0,0.0,0.0,nan,nan,nan,nan,nan,Still,U4
4,,,10.017728981383659,9.900329774089998,10.1040030274,0.03205564923157503,9.79633433589,9.79633433589,9.79633433589,nan,0.23194615925200002,0.23194615925200002,0.23194615925200002,0.03917815075965366,297.52958468,297.52958468,297.52958468,nan,nan,nan,nan,nan,nan,nan,nan,nan,nan,nan,nan,nan,nan,nan,nan,nan,nan,nan,nan,nan,45.060541291242316,44.1573090281,46.4119281358,0.46964270643367284,nan,nan,nan,nan,nan,nan,nan,nan,57.047817589304415,55.861832003531596,58.23380317507723,1.6772369001789156,nan,nan,nan,nan,0.0,0.0,0.0,nan,nan,nan,nan,nan,Still,U4
5,,,10.019761623872972,9.9715346646,10.0524041157,0.014263302345362047,9.79633433589,9.79633433589,9.79633433589,nan,0.23194615925200002,0.23194615925200002,0.23194615925200002,0.03917815075965366,203.28299204200002,203.28299204200002,203.28299204200002,nan,nan,nan,nan,nan,nan,nan,nan,nan,nan,nan,nan,nan,nan,nan,nan,nan,nan,nan,nan,nan,44.954573200876666,44.09126409939999,46.260311283,0.4143014687882362,nan,nan,nan,nan,nan,nan,nan,nan,57.047817589304415,55.861832003531596,58.23380317507723,1.6772369001789156,nan,nan,nan,nan,0.0,0.0,0.0,nan,nan,nan,nan,nan,Still,U4
6,,,10.013314470404472,9.684822825489999,10.4260820493,0.11882267115579898,9.79768824616,9.79768824616,9.79768824616,nan,0.23194615925200002,0.23194615925200002,0.23194615925200002,0.03917815075965366,203.28299204200002,203.28299204200002,203.28299204200002,nan,nan,nan,nan,nan,nan,nan,nan,nan,nan,nan,nan,nan,nan,nan,nan,nan,nan,nan,nan,nan,44.81104007445439,43.46464707,46.101713282700004,0.5907568513802052,nan,nan,nan,nan,nan,nan,nan,nan,45.1535714973837,45.1535714973837,45.1535714973837,1.6772369001789156,nan,nan,nan,nan,0.0,0.0,0.0,nan,nan,nan,nan,nan,Still,U4
7,,,10.07142071188794,8.42428641099,14.3877423485,1.1196490279486777,9.79768824616,9.79768824616,9.79768824616,nan,2.4986690142350003,0.8962561309799999,4.10108189749,2.2661540320205966,222.73736663900002,222.73736663900002,222.73736663900002,nan,nan,nan,nan,nan,nan,nan,nan,nan,nan,nan,nan,nan,nan,nan,nan,nan,nan,nan,nan,nan,45.315384685247466,43.264035872799994,48.001274983100004,1.3530588238937653,nan,nan,nan,nan,nan,nan,nan,nan,43.04576688766112,43.04576688766112,43.04576688766112,1.6772369001789156,nan,nan,nan,nan,0.0,0.0,0.0,nan,nan,nan,nan,nan,Still,U4
8,,,9.905350362722,9.855185724630001,9.949638596669999,0.02049336181093439,9.79768824616,9.79768824616,9.79768824616,nan,0.6298905505326666,0.305776037658,0.988015141771,0.34238875984464545,100.488448205,100.488448205,100.488448205,nan,nan,nan,nan,nan,nan,nan,nan,nan,nan,nan,nan,nan,nan,nan,nan,nan,nan,nan,nan,nan,44.12066393316667,42.9001678318,45.108988017899996,0.4832555770814477,nan,nan,nan,nan,nan,nan,nan,nan,43.04576688766112,43.04576688766112,43.04576688766112,1.6772369001789156,nan,nan,nan,nan,0.0,0.0,0.0,nan,nan,nan,nan,nan,Still,U4
9,,,9.941011362522554,9.43624610189,10.2614665288,0.12041137333761542,9.80345261982,9.80345261982,9.80345261982,nan,1.8062244535499998,1.8062244535499998,1.8062244535499998,0.34238875984464545,108.119484821,108.119484821,108.119484821,nan,nan,nan,nan,nan,nan,nan,nan,nan,nan,nan,nan,nan,nan,nan,nan,nan,nan,nan,nan,nan,44.428799724842214,43.7551410529,45.1697991207,0.3298046177314357,nan,nan,nan,nan,nan,nan,nan,nan,43.04576688766112,43.04576688766112,43.04576688766112,1.6772369001789156,nan,nan,nan,nan,0.0,0.0,0.0,nan,nan,nan,nan,nan,Still,U4
10,,,9.91361705295357,9.69489876505,10.6113576862,0.13224634522719866,9.80345261982,9.80345261982,9.80345261982,nan,1.8062244535499998,1.8062244535499998,1.8062244535499998,0.34238875984464545,108.119484821,108.119484821,108.119484821,nan,nan,nan,nan,nan,nan,nan,nan,nan,nan,nan,nan,nan,nan,nan,nan,nan,nan,nan,nan,nan,43.162761003994554,41.3578045839,44.8692495065,0.7706974815623223,nan,nan,nan,nan,nan,nan,nan,nan,43.04576688766112,43.04576688766112,43.04576688766112,1.6772369001789156,nan,nan,nan,nan,0.0,0.0,0.0,nan,nan,nan,nan,nan,Still,U4
11,,,10.023258159621315,8.130195200860001,17.468727348399998,1.382917449627994,9.798770027713333,9.79357934494,9.804890241779999,0.005712452901358778,0.9030942024265001,0.7026039814730001,1.10358442338,0.2835359895956182,108.119484821,108.119484821,108.119484821,nan,nan,nan,nan,nan,nan,nan,nan,nan,nan,nan,nan,nan,nan,nan,nan,nan,nan,nan,nan,nan,43.875397795371704,41.443802450999996,47.918631032200004,1.4113173696183392,nan,nan,nan,nan,nan,nan,nan,nan,59.590967494081895,59.590967494081895,59.590967494081895,1.6772369001789156,nan,nan,nan,nan,0.0,0.0,0.0,nan,nan,nan,nan,nan,Still,U4
12,,,10.045479347457073,9.289053133360001,11.152704590399999,0.2850659639365565,9.795757862050001,9.795757862050001,9.795757862050001,0.005712452901358778,0.292441259737,0.292441259737,0.292441259737,0.2835359895956182,108.119484821,108.119484821,108.119484821,nan,nan,nan,nan,nan,nan,nan,nan,nan,nan,nan,nan,nan,nan,nan,nan,nan,nan,nan,nan,nan,45.193718639979245,44.18554849270001,46.6157134696,0.5830602733244128,nan,nan,nan,nan,nan,nan,nan,nan,69.33735240708221,69.33735240708221,69.33735240708221,1.6772369001789156,nan,nan,nan,nan,0.0,0.0,0.0,nan,nan,nan,nan,nan,Still,U4
13,,,10.017784791595249,9.98217944268,10.0789426765,0.017709579201931155,9.795757862050001,9.795757862050001,9.795757862050001,0.005712452901358778,0.292441259737,0.292441259737,0.292441259737,0.2835359895956182,108.119484821,108.119484821,108.119484821,nan,nan,nan,nan,nan,nan,nan,nan,nan,nan,nan,nan,nan,nan,nan,nan,nan,nan,nan,nan,nan,45.20835640934546,44.3270075687,46.872404885600005,0.5138028706479332,nan,nan,nan,nan,nan,nan,nan,nan,69.33735240708221,69.33735240708221,69.33735240708221,1.6772369001789156,nan,nan,nan,nan,0.0,0.0,0.0,nan,nan,nan,nan,nan,Still,U4
14,,,10.022382268817632,9.964104086599999,10.181087313899999,0.03695370543114968,9.79603213545,9.79476331056,9.79730096034,0.0017943893677137934,0.225456857644,0.225456857644,0.225456857644,0.2835359895956182,108.119484821,108.119484821,108.119484821,nan,nan,nan,nan,nan,nan,nan,nan,nan,nan,nan,nan,nan,nan,nan,nan,nan,nan,nan,nan,nan,45.01131798659824,44.2274474678,46.2883570674,0.4397427024450423,nan,nan,nan,nan,nan,nan,nan,nan,69.33735240708221,69.33735240708221,69.33735240708221,1.6772369001789156,nan,nan,nan,nan,0.0,0.0,0.0,nan,nan,nan,nan,nan,Still,U4
15,,,10.018030395575332,9.8039605869,10.094581712,0.05537673973283413,9.79603213545,9.79476331056,9.79730096034,0.0017943893677137934,0.225456857644,0.225456857644,0.225456857644,0.2835359895956182,204.43352375700002,204.43352375700002,204.43352375700002,nan,nan,nan,nan,nan,nan,nan,nan,nan,nan,nan,nan,nan,nan,nan,nan,nan,nan,nan,nan,nan,45.315261234187695,44.3641876058,46.3070182327,0.4205340006921717,nan,nan,nan,nan,nan,nan,nan,nan,50.78152197585553,50.78152197585553,50.78152197585553,1.6772369001789156,nan,nan,nan,nan,0.0,0.0,0.0,nan,nan,nan,nan,nan,Still,U4
16,,,10.026893266050303,9.887967753689999,10.126530667799999,0.05417336471038197,9.79603213545,9.79476331056,9.79730096034,0.0017943893677137934,0.225456857644,0.225456857644,0.225456857644,0.2835359895956182,205.5635089495,205.37124997200002,205.755767927,0.2718952534684685,nan,nan,nan,nan,nan,nan,nan,nan,nan,nan,nan,nan,nan,nan,nan,nan,nan,nan,nan,nan,45.300542696019996,44.3654859205,46.5605025746,0.4527128171735378,nan,nan,nan,nan,nan,nan,nan,nan,73.31912058907912,73.31912058907912,73.31912058907912,1.6772369001789156,nan,nan,nan,nan,0.0,0.0,0.0,nan,nan,nan,nan,nan,Still,U4
17,,,10.028661514685652,9.97105650956,10.1504438404,0.035869752999111784,9.79603213545,9.79476331056,9.79730096034,0.0017943893677137934,0.244028587402,0.244028587402,0.244028587402,0.2835359895956182,205.5635089495,205.37124997200002,205.755767927,0.2718952534684685,nan,nan,nan,nan,nan,nan,nan,nan,nan,nan,nan,nan,nan,nan,nan,nan,nan,nan,nan,nan,45.32726546462709,44.3468594221,46.9046515791,0.504027789979592,nan,nan,nan,nan,nan,nan,nan,nan,68.57888580071149,68.57888580071149,68.57888580071149,1.6772369001789156,nan,nan,nan,nan,0.0,0.0,0.0,nan,nan,nan,nan,nan,Still,U4
18,,,10.017979975522618,9.97572808048,10.045326426399999,0.013824244101477878,9.79603213545,9.79476331056,9.79730096034,0.0017943893677137934,0.244028587402,0.244028587402,0.244028587402,0.2835359895956182,204.9821194675,204.832730481,205.13150845400003,0.2112679307774913,nan,nan,nan,nan,nan,nan,nan,nan,nan,nan,nan,nan,nan,nan,nan,nan,nan,nan,nan,nan,45.235360108126926,44.1957735536,46.6231273082,0.49711507102759733,nan,nan,nan,nan,nan,nan,nan,nan,51.26962170788821,51.26962170788821,51.26962170788821,1.6772369001789156,nan,nan,nan,nan,0.0,0.0,0.0,nan,nan,nan,nan,nan,Still,U4
19,,,9.954127352064056,9.600441774360002,10.3138522629,0.15613686748248215,9.79603213545,9.79476331056,9.79730096034,0.0017943893677137934,0.552590091943,0.552590091943,0.552590091943,0.2835359895956182,209.257596565,209.257596565,209.257596565,0.2112679307774913,nan,nan,nan,nan,nan,nan,nan,nan,nan,nan,nan,nan,nan,nan,nan,nan,nan,nan,nan,nan,45.19735984212069,44.4088366071,46.215619248,0.40683135186576247,nan,nan,nan,nan,nan,nan,nan,nan,51.26962170788821,51.26962170788821,51.26962170788821,1.6772369001789156,nan,nan,nan,nan,0.0,0.0,0.0,nan,nan,nan,nan,nan,Still,U4
20,,,9.947875675025385,9.83010125219,10.115596892200001,0.0553295211916903,9.79603213545,9.79476331056,9.79730096034,0.0017943893677137934,0.552590091943,0.552590091943,0.552590091943,0.2835359895956182,209.257596565,209.257596565,209.257596565,0.2112679307774913,nan,nan,nan,nan,nan,nan,nan,nan,nan,nan,nan,nan,nan,nan,nan,nan,nan,nan,nan,nan,45.035867285094916,43.8440319934,45.8934099766,0.47209106181459237,nan,nan,nan,nan,nan,nan,nan,nan,51.26962170788821,51.26962170788821,51.26962170788821,1.6772369001789156,nan,nan,nan,nan,0.0,0.0,0.0,nan,nan,nan,nan,nan,Still,U4
21,,,9.957455959370732,9.726090449510002,10.139626719099999,0.0843585396411068,9.79603213545,9.79476331056,9.79730096034,0.0017943893677137934,0.28407488586,0.28407488586,0.28407488586,0.2835359895956182,209.257596565,209.257596565,209.257596565,0.2112679307774913,nan,nan,nan,nan,nan,nan,nan,nan,nan,nan,nan,nan,nan,nan,nan,nan,nan,nan,nan,nan,45.109056845775925,44.0518100513,46.36556049479999,0.5146158908468392,nan,nan,nan,nan,nan,nan,nan,nan,51.26962170788821,51.26962170788821,51.26962170788821,1.6772369001789156,nan,nan,nan,nan,0.0,0.0,0.0,nan,nan,nan,nan,nan,Still,U4
22,,,10.01422154892489,9.73344287329,10.518334344500001,0.1086416414951926,9.80005046215,9.79879627417,9.80130465013,0.0017736896510811419,0.2504593977205,0.171205111105,0.329713684336,0.11208248700784457,209.257596565,209.257596565,209.257596565,0.2112679307774913,nan,nan,nan,nan,nan,nan,nan,nan,nan,nan,nan,nan,nan,nan,nan,nan,nan,nan,nan,nan,44.94722259677916,43.92893249189999,45.8841541275,0.5026816373117565,nan,nan,nan,nan,nan,nan,nan,nan,25.105450102066122,25.105450102066122,25.105450102066122,1.6772369001789156,nan,nan,nan,nan,0.0,0.0,0.0,nan,nan,nan,nan,nan,Still,U4
23,,,9.982262478205238,9.742611190529999,10.0977745025,0.06921123529807058,9.80005046215,9.79879627417,9.80130465013,0.0017736896510811419,0.2504593977205,0.171205111105,0.329713684336,0.11208248700784457,209.257596565,209.257596565,209.257596565,0.2112679307774913,nan,nan,nan,nan,nan,nan,nan,nan,nan,nan,nan,nan,nan,nan,nan,nan,nan,nan,nan,nan,45.02232017107925,44.0364844959,46.0896073305,0.4792577401446877,nan,nan,nan,nan,nan,nan,nan,nan,52.829482210082,52.829482210082,52.829482210082,1.6772369001789156,nan,nan,nan,nan,0.0,0.0,0.0,nan,nan,nan,nan,nan,Still,U4
24,,,10.008585585766843,9.831015462869999,10.225182011000001,0.09627132570653577,9.80005046215,9.79879627417,9.80130465013,0.0017736896510811419,0.2504593977205,0.171205111105,0.329713684336,0.11208248700784457,209.257596565,209.257596565,209.257596565,0.2112679307774913,nan,nan,nan,nan,nan,nan,nan,nan,nan,nan,nan,nan,nan,nan,nan,nan,nan,nan,nan,nan,45.21689901289482,44.165543130399996,46.6781876255,0.47614279063489157,nan,nan,nan,nan,nan,nan,nan,nan,52.27683643752138,52.27683643752138,52.27683643752138,1.6772369001789156,nan,nan,nan,nan,0.0,0.0,0.0,nan,nan,nan,nan,nan,Still,U4
25,,,10.00022450190279,9.79997492467,10.2587945555,0.07720014405226613,9.80005046215,9.79879627417,9.80130465013,0.0017736896510811419,0.2045319701345,0.204305216,0.204758724269,0.00032067877233405903,209.257596565,209.257596565,209.257596565,0.2112679307774913,nan,nan,nan,nan,nan,nan,nan,nan,nan,nan,nan,nan,nan,nan,nan,nan,nan,nan,nan,nan,44.967485919013214,43.8015609475,45.7047218567,0.4484336730274266,nan,nan,nan,nan,nan,nan,nan,nan,52.27683643752138,52.27683643752138,52.27683643752138,1.6772369001789156,nan,nan,nan,nan,0.0,0.0,0.0,nan,nan,nan,nan,nan,Still,U4
26,,,10.008984771195852,9.849171706089999,10.2799694847,0.08053209408494336,9.80005046215,9.79879627417,9.80130465013,0.0017736896510811419,0.2045319701345,0.204305216,0.204758724269,0.00032067877233405903,209.257596565,209.257596565,209.257596565,0.2112679307774913,nan,nan,nan,nan,nan,nan,nan,nan,nan,nan,nan,nan,nan,nan,nan,nan,nan,nan,nan,nan,45.05046489872037,44.0378739432,46.3038695657,0.511341314629225,nan,nan,nan,nan,nan,nan,nan,nan,52.27683643752138,52.27683643752138,52.27683643752138,1.6772369001789156,nan,nan,nan,nan,0.0,0.0,0.0,nan,nan,nan,nan,nan,Still,U4
27,,,10.009779136733043,9.91146235128,10.214687219,0.05095372087445246,9.797347174075,9.79284054375,9.8018538044,0.006373337726217316,0.18952886657266668,0.18222782306200003,0.201102028984,0.010136427488153302,206.76587548,206.629901659,206.901849301,0.19229602178588198,nan,nan,nan,nan,nan,nan,nan,nan,nan,nan,nan,nan,nan,nan,nan,nan,nan,nan,nan,nan,45.14541845767954,44.1376968801,46.83398765850001,0.5131816590746036,nan,nan,nan,nan,nan,nan,nan,nan,51.340527323181206,51.340527323181206,51.340527323181206,1.6772369001789156,nan,nan,nan,nan,0.0,0.0,0.0,nan,nan,nan,nan,nan,Still,U4
28,,,10.003218843682369,9.857697688270001,10.1319225329,0.06029595464283401,9.79509441231,9.79509441231,9.79509441231,0.006373337726217316,0.2867855865623333,0.185256746201,0.436063883264,0.13204568503375133,202.28710976500003,200.515551743,204.05866778700002,2.5053613812432647,nan,nan,nan,nan,nan,nan,nan,nan,nan,nan,nan,nan,nan,nan,nan,nan,nan,nan,nan,nan,45.10124597780391,44.2835364441,46.4782013421,0.44110500771267175,nan,nan,nan,nan,nan,nan,nan,nan,51.340527323181206,51.340527323181206,51.340527323181206,1.6772369001789156,nan,nan,nan,nan,0.0,0.0,0.0,nan,nan,nan,nan,nan,Still,U4
29,,,10.0223468420525,9.95179465055,10.1215069726,0.030822743725557822,9.79509441231,9.79509441231,9.79509441231,0.006373337726217316,0.2867855865623333,0.185256746201,0.436063883264,0.13204568503375133,202.28710976500003,200.515551743,204.05866778700002,2.5053613812432647,nan,nan,nan,nan,nan,nan,nan,nan,nan,nan,nan,nan,nan,nan,nan,nan,nan,nan,nan,nan,45.122781642498175,43.9408966681,45.9314402126,0.4136806176878216,nan,nan,nan,nan,nan,nan,nan,nan,63.61971161573461,63.61971161573461,63.61971161573461,1.6772369001789156,nan,nan,nan,nan,0.0,0.0,0.0,nan,nan,nan,nan,nan,Still,U4
30,,,10.02901730472261,9.906205058580001,10.1278297976,0.041993097628541975,9.79509441231,9.79509441231,9.79509441231,0.006373337726217316,0.2867855865623333,0.185256746201,0.436063883264,0.13204568503375133,202.28710976500003,200.515551743,204.05866778700002,2.5053613812432647,nan,nan,nan,nan,nan,nan,nan,nan,nan,nan,nan,nan,nan,nan,nan,nan,nan,nan,nan,nan,45.20568237191666,44.3854424959,46.2614000865,0.48065817601470306,nan,nan,nan,nan,nan,nan,nan,nan,62.40388522169449,50.37027879755775,71.24347726729296,10.79693935691828,nan,nan,nan,nan,0.0,0.0,0.0,nan,nan,nan,nan,nan,Still,U4
31,,,10.142351808928408,9.52618418852,11.2670392453,0.3563147309896141,9.79509441231,9.79509441231,9.79509441231,0.006373337726217316,0.2867855865623333,0.185256746201,0.436063883264,0.13204568503375133,202.28710976500003,200.515551743,204.05866778700002,2.5053613812432647,nan,nan,nan,nan,nan,nan,nan,nan,nan,nan,nan,nan,nan,nan,nan,nan,nan,nan,nan,nan,45.105403045878845,44.2085994992,45.949344404499996,0.384976482993626,nan,nan,nan,nan,nan,nan,nan,nan,62.40388522169449,50.37027879755775,71.24347726729296,10.79693935691828,nan,nan,nan,nan,0.0,0.0,0.0,nan,nan,nan,nan,nan,Still,U4
32,,,9.881689689443848,5.09771374192,13.767930708699998,1.778800937020836,9.79509441231,9.79509441231,9.79509441231,0.006373337726217316,0.2867855865623333,0.185256746201,0.436063883264,0.13204568503375133,202.28710976500003,200.515551743,204.05866778700002,2.5053613812432647,nan,nan,nan,nan,nan,nan,nan,nan,nan,nan,nan,nan,nan,nan,nan,nan,nan,nan,nan,nan,44.68420922369667,43.119172356199996,46.2784010095,0.8107896730277634,nan,nan,nan,nan,nan,nan,nan,nan,62.40388522169449,50.37027879755775,71.24347726729296,10.79693935691828,nan,nan,nan,nan,0.0,0.0,0.0,nan,nan,nan,nan,nan,Still,U4
