time,activityrecognition#0,activityrecognition#1,android.sensor.accelerometer#mean,android.sensor.accelerometer#min,android.sensor.accelerometer#max,android.sensor.accelerometer#std,android.sensor.gravity#mean,android.sensor.gravity#min,android.sensor.gravity#max,android.sensor.gravity#std,android.sensor.linear_acceleration#mean,android.sensor.linear_acceleration#min,android.sensor.linear_acceleration#max,android.sensor.linear_acceleration#std,android.sensor.orientation#mean,android.sensor.orientation#min,android.sensor.orientation#max,android.sensor.orientation#std,android.sensor.gyroscope_uncalibrated#mean,android.sensor.gyroscope_uncalibrated#min,android.sensor.gyroscope_uncalibrated#max,android.sensor.gyroscope_uncalibrated#std,android.sensor.magnetic_field_uncalibrated#mean,android.sensor.magnetic_field_uncalibrated#min,android.sensor.magnetic_field_uncalibrated#max,android.sensor.magnetic_field_uncalibrated#std,android.sensor.rotation_vector#mean,android.sensor.rotation_vector#min,android.sensor.rotation_vector#max,android.sensor.rotation_vector#std,android.sensor.gyroscope#mean,android.sensor.gyroscope#min,android.sensor.gyroscope#max,android.sensor.gyroscope#std,android.sensor.game_rotation_vector#mean,android.sensor.game_rotation_vector#min,android.sensor.game_rotation_vector#max,android.sensor.game_rotation_vector#std,android.sensor.magnetic_field#mean,android.sensor.magnetic_field#min,android.sensor.magnetic_field#max,android.sensor.magnetic_field#std,android.sensor.pressure#mean,android.sensor.pressure#min,android.sensor.pressure#max,android.sensor.pressure#std,android.sensor.light#mean,android.sensor.light#min,android.sensor.light#max,android.sensor.light#std,sound#mean,sound#min,sound#max,sound#std,speed#mean,speed#min,speed#max,speed#std,android.sensor.proximity#mean,android.sensor.proximity#min,android.sensor.proximity#max,android.sensor.proximity#std,android.sensor.step_counter#mean,android.sensor.step_counter#min,android.sensor.step_counter#max,android.sensor.step_counter#std,target,user
1,,,9.672398383816564,9.11374357792,10.1605868283,0.2233589113090935,9.806650043580001,9.806650043580001,9.806650043580001,5.511615426304359e-07,0.173989730735,0.173989730735,0.173989730735,nan,91.88437388488227,6.559340542849999,355.804523384,127.31486821828221,0.019093052250372725,0.011070552905399999,0.0270753259603,0.004850280806178077,75.26021525350001,75.26021525350001,75.26021525350001,11.011985548460348,0.442186509385,0.177032533663,0.707340485107,0.37498434858319873,0.020500345360601538,0.00553527652005,0.046041120475500005,0.012279470352838993,0.99639156935575,0.996329669938,0.996492678147,7.18887792173093e-05,42.888664186075005,35.697899097800004,50.224595568299996,6.307933463346329,nan,nan,nan,nan,nan,nan,nan,nan,nan,nan,nan,nan,29.928888,29.928888,29.928888,nan,nan,nan,nan,nan,nan,nan,nan,nan,Train,U12
2,,,9.769991067085,9.162177911599999,10.111599157799999,0.2276315149479626,9.80665041784,9.806650360610002,9.80665047507,8.093544133479695e-08,0.452991010402,0.452991010402,0.452991010402,nan,71.79200267327398,8.67029466345,360.025289953,121.1674295052993,0.01883086917971818,0.0128716392655,0.0271590203628,0.004023982373945069,77.38979260859999,77.38979260859999,77.38979260859999,11.011985548460348,0.442186509385,0.177032533663,0.707340485107,0.37498434858319873,0.016250746722171427,0.0113239169359,0.027655873379000002,0.005636300975103022,0.9963291761916667,0.996320127218,0.996343146028,1.2273042430137767e-05,17.7296362061,17.7296362061,17.7296362061,6.307933463346329,nan,nan,nan,nan,nan,nan,nan,nan,nan,nan,nan,nan,29.928888,29.928888,29.928888,nan,nan,nan,nan,nan,nan,nan,nan,nan,Train,U12
3,,,9.876177069004706,9.092531647889999,10.5288910055,0.2785154722162194,9.80664990289,9.80664990289,9.80664990289,8.093544133479695e-08,0.2455906381875,0.17997818162,0.31120309475499996,0.09279002593837413,65.42202543166874,20.632163353,357.85179619699994,76.93682048391368,0.025304420156688892,0.0168433099253,0.0345349475958,0.005145845266525473,77.38979260859999,77.38979260859999,77.38979260859999,11.011985548460348,0.32379233253333334,0.182606925948,0.455139784682,0.13653251914124725,0.020025865262723333,0.00782806292201,0.0414496028313,0.01049428430226731,0.996336797345,0.996336797345,0.996336797345,1.2273042430137767e-05,19.925015935375,17.2829395648,21.6124963852,2.053854946290403,nan,nan,nan,nan,192.0,192.0,192.0,nan,nan,nan,nan,nan,29.928888,29.928888,29.928888,nan,nan,nan,nan,nan,nan,nan,nan,nan,Train,U12
4,,,9.748649648397691,9.18663682471,10.4046958481,0.37285650647549473,9.806649751450001,9.80664951974,9.806649983160002,3.276874252728956e-07,0.2455906381875,0.17997818162,0.31120309475499996,0.09279002593837413,64.03658751684722,49.863423658,351.197697981,49.380532124797995,0.021152299915591668,0.0124230119552,0.0306899711849,0.005513691952868418,80.87653963529999,79.2639262212,82.4891530494,2.2805797610850056,0.501034962006,0.49410541627899995,0.507964507733,0.009799857548207924,0.020368842499231,0.00782806292201,0.04099538588,0.009593310535020688,0.99630607013725,0.9962667697040001,0.996351288247,3.5504758282898296e-05,20.0481919384,20.0481919384,20.0481919384,2.053854946290403,nan,nan,nan,nan,192.0,192.0,192.0,nan,nan,nan,nan,nan,29.928888,29.928888,29.928888,nan,nan,nan,nan,nan,nan,nan,nan,nan,Train,U12
5,,,9.742417203834583,9.15162016057,10.3734997916,0.28185830091345415,9.806649751450001,9.80664951974,9.806649983160002,3.276874252728956e-07,0.31891303355675,0.24245010419799998,0.415396838328,0.07218285914953103,59.836645333758334,47.5396816429,71.01169568520001,7.957064414097715,0.02003077296149692,0.009163751689559999,0.0339216073998,0.0060771103410852435,80.5685422482,80.5685422482,80.5685422482,2.2805797610850056,0.362117479264,0.173380013194,0.550854945334,0.26691508424412586,0.012115041300431001,0.00583469378102,0.0198436774368,0.004664969239965115,0.996264201592,0.996251156053,0.996277247131,1.8449178182268e-05,21.8846551845,19.8891931164,23.8801172526,2.8220095199080846,nan,nan,nan,nan,188.0,188.0,188.0,nan,nan,nan,nan,nan,29.928888,29.928888,29.928888,nan,nan,nan,nan,nan,nan,nan,nan,nan,Train,U12
6,,,9.771989397176858,9.11777587353,10.6860958582,0.390607546460467,9.806649751450001,9.80664951974,9.806649983160002,3.276874252728956e-07,1.3770470644400001,1.3770470644400001,1.3770470644400001,0.07218285914953103,73.83731878352857,61.083668677700004,131.880698843,12.12229967868241,0.02892270205362941,0.01152259733,0.10587464053300001,0.02176187047748478,78.075925575,78.075925575,78.075925575,2.2805797610850056,0.6029453360874999,0.581339640038,0.6245510321369999,0.030555068377713657,0.02450340301357875,0.00987885616003,0.0657191316525,0.017574318328482382,0.996262782665,0.996262782665,0.996262782665,1.8449178182268e-05,21.8846551845,19.8891931164,23.8801172526,2.8220095199080846,nan,nan,nan,nan,188.0,188.0,188.0,nan,nan,nan,nan,nan,36.019863,36.019863,36.019863,nan,nan,nan,nan,nan,nan,nan,nan,nan,Train,U12
7,,,9.746842806263428,8.96317892391,10.271441587,0.27182455139820527,9.806649751450001,9.80664951974,9.806649983160002,3.276874252728956e-07,0.531344570207,0.19951611614700002,0.8631730242669999,0.4692763001129494,61.1560877094436,18.9016650532,76.8824559766,10.110556907870542,0.0240846879508,0.010161975161100002,0.07608255805150001,0.0213494633713288,73.84151948600001,73.84151948600001,73.84151948600001,2.2805797610850056,0.494049400727,0.473904956952,0.514193844502,0.02848854559306726,0.01707052723036,0.009347657731559999,0.022268869548800002,0.0049567866008100704,0.996193450641,0.996193450641,0.996193450641,1.8449178182268e-05,19.1921859099,19.1921859099,19.1921859099,2.8220095199080846,nan,nan,nan,nan,188.0,188.0,188.0,nan,nan,nan,nan,nan,36.019863,36.019863,36.019863,nan,nan,nan,nan,nan,nan,nan,nan,nan,Train,U12
8,,,9.816228966549412,9.4115603713,10.2114666911,0.22457696413540204,9.806649751450001,9.80664951974,9.806649983160002,3.276874252728956e-07,0.531344570207,0.19951611614700002,0.8631730242669999,0.4692763001129494,171.3382849646,61.0312680446,323.743905917,106.57164338190557,0.018734002325754544,0.0151402525275,0.024959943931299997,0.002877468394283106,94.90258031585,67.6985242557,122.106636376,38.47234503182212,0.547241125442,0.547241125442,0.547241125442,0.02848854559306726,0.015482218880713333,0.00630218955236,0.0287621404074,0.005519072523190966,0.9961680294419999,0.9961615325059999,0.996174526378,9.188055005101422e-06,45.2209544678,17.6391617091,72.8027472265,39.00654539391756,nan,nan,nan,nan,188.0,188.0,188.0,nan,nan,nan,nan,nan,36.019863,36.019863,36.019863,nan,nan,nan,nan,nan,nan,nan,nan,nan,Train,U12
9,,,9.851794393070572,9.36286864403,10.2573907074,0.22912334420352673,9.806650771605,9.80665053944,9.80665100377,3.283308918689791e-07,0.263377340112,0.263377340112,0.263377340112,0.4692763001129494,291.2273462777105,283.94037579999997,294.406628404,2.124868534338066,0.024145651537066666,0.013176594077299998,0.042423748444,0.009469261775681552,68.67903610270001,68.67903610270001,68.67903610270001,38.47234503182212,0.5595849483959999,0.5595849483959999,0.5595849483959999,0.02848854559306726,0.017525654476919998,0.010049684716700001,0.023748469731799997,0.005099666558702451,0.9962224237820001,0.996191000158,0.9962538474060001,4.443971523978159e-05,16.6376085661,16.6376085661,16.6376085661,39.00654539391756,nan,nan,nan,nan,188.0,188.0,188.0,nan,nan,nan,nan,nan,36.019863,36.019863,36.019863,nan,nan,nan,nan,nan,nan,nan,nan,nan,Train,U12
10,,,9.857291243775453,9.38581831481,10.3901364709,0.26390211338153224,9.80665006665,9.80665006665,9.80665006665,3.283308918689791e-07,0.197793451039,0.197793451039,0.197793451039,0.4692763001129494,289.59846120816667,285.605751479,293.10394667400004,2.0354700710890783,0.020178662698044445,0.0118143541049,0.0341715858993,0.006055552902324994,66.46850941473333,66.1785463727,66.9344469343,0.40751892878018015,0.5774726718563333,0.5661124874229999,0.5885840924660001,0.011237867719550784,0.01715475893725,0.0143712034714,0.022797655946,0.003824887567424979,0.996158851932,0.996158192666,0.9961595111980001,9.323429184309183e-07,16.2052466664,16.2052466664,16.2052466664,39.00654539391756,nan,nan,nan,nan,188.0,188.0,188.0,nan,nan,nan,nan,nan,39.68397,39.68397,39.68397,nan,nan,nan,nan,nan,nan,nan,nan,nan,Train,U12
11,,,9.792694492914634,9.14409838035,10.3803483023,0.2852986258593412,9.80664996107,9.80664996107,9.80664996107,3.283308918689791e-07,0.197793451039,0.197793451039,0.197793451039,0.4692763001129494,283.953684272353,273.859326324,295.819907278,6.829115510309792,0.01931424768618,0.015437148755299999,0.0283848501833,0.0037861377979784864,68.15416486470001,68.15416486470001,68.15416486470001,0.40751892878018015,0.575467001117,0.575467001117,0.575467001117,0.011237867719550784,0.02839013010425,0.011766230637299998,0.0627421755021,0.018643132343307233,0.996144642572,0.996144642572,0.996144642572,9.323429184309183e-07,24.4305137072,24.4305137072,24.4305137072,39.00654539391756,nan,nan,nan,nan,188.0,188.0,188.0,nan,nan,nan,nan,nan,39.68397,39.68397,39.68397,nan,nan,nan,nan,nan,nan,nan,nan,nan,Train,U12
12,,,9.822958580853227,9.02211129978,10.4729996108,0.3444520647876199,9.80664996107,9.80664996107,9.80664996107,3.283308918689791e-07,0.197793451039,0.197793451039,0.197793451039,0.4692763001129494,292.8689444078889,272.949098181,309.754410501,10.819035535522548,0.02206516418874,0.019145147852400003,0.024616599631599997,0.0024286983909343218,69.3818422471,69.3818422471,69.3818422471,0.40751892878018015,0.4845772188793333,0.465222078543,0.506867461398,0.020977263808715254,0.013930288645379998,0.0018450922375000001,0.0205184418373,0.007418360736192052,0.996144642572,0.996144642572,0.996144642572,9.323429184309183e-07,24.4305137072,24.4305137072,24.4305137072,39.00654539391756,nan,nan,nan,nan,188.0,188.0,188.0,nan,nan,nan,nan,nan,39.68397,39.68397,39.68397,nan,nan,nan,nan,nan,nan,nan,nan,nan,Train,U12
13,,,9.796168638151629,8.87467653137,10.4739362934,0.301549430017696,9.806650241765,9.8066496276,9.80665085593,8.685604721756345e-07,0.6052865142670001,0.6052865142670001,0.6052865142670001,0.4692763001129494,311.62654649806063,301.070924772,327.707025405,6.217983509080937,0.02079084235811111,0.014489163291100001,0.0297130509483,0.0051469384021555166,70.2547821745,69.3324612891,71.17710305989999,1.3043587049926382,0.37162481794299995,0.37162481794299995,0.37162481794299995,0.020977263808715254,0.017218009291257504,0.009705020977530001,0.0235565597574,0.006421485573254874,0.996144642572,0.996144642572,0.996144642572,9.323429184309183e-07,14.877164541700001,14.877164541700001,14.877164541700001,39.00654539391756,nan,nan,nan,nan,188.0,188.0,188.0,nan,nan,nan,nan,nan,39.68397,39.68397,39.68397,nan,nan,nan,nan,nan,nan,nan,nan,nan,Train,U12
14,,,9.757104906875883,8.84515401273,10.3642959417,0.36212057165575734,9.8066505048,9.8066505048,9.8066505048,8.685604721756345e-07,0.6052865142670001,0.6052865142670001,0.6052865142670001,0.4692763001129494,327.2677502058182,308.631932542,338.840820317,7.972481724009368,0.02126153052595,0.008387900705300001,0.0369172163269,0.007993469304181537,70.2547821745,69.3324612891,71.17710305989999,1.3043587049926382,0.3468187984305,0.344726961219,0.348910635642,0.0029583045547800124,0.01736376243651111,0.002130529,0.029713050632799998,0.008570276952179913,0.996144642572,0.996144642572,0.996144642572,9.323429184309183e-07,13.787977883749999,13.747000610999999,13.828955156500001,0.05795061487211297,nan,nan,nan,nan,188.0,188.0,188.0,nan,nan,nan,nan,nan,39.68397,39.68397,39.68397,nan,nan,nan,nan,nan,nan,nan,nan,nan,Train,U12
15,,,9.858892570693428,9.147193796789999,10.783161894000001,0.3981384352472168,9.806650143039999,9.806650143039999,9.806650143039999,8.685604721756345e-07,0.6052865142670001,0.6052865142670001,0.6052865142670001,0.4692763001129494,321.7673136888333,311.99595067,333.575849639,5.7264829558157615,0.018249344785075002,0.0100496850876,0.0238200373763,0.006683118398220558,70.2547821745,69.3324612891,71.17710305989999,1.3043587049926382,0.283497416692,0.283497416692,0.283497416692,0.0029583045547800124,0.02564584238821727,0.00903906902049,0.0776255533086,0.019770736646709478,0.9961718386087499,0.996132303484,0.9962421198970001,4.9543310008355476e-05,15.4036394162,14.2944044997,16.317475317,1.0255922505826174,nan,nan,nan,nan,188.0,188.0,188.0,nan,nan,nan,nan,nan,39.68397,39.68397,39.68397,nan,nan,nan,nan,nan,nan,nan,nan,nan,Train,U12
16,,,9.787912561684324,8.271372845630001,10.941288891900001,0.5853755171312344,9.806650143039999,9.806650143039999,9.806650143039999,8.685604721756345e-07,0.2996860917877333,0.0972579221334,0.638650479925,0.19135555316160968,297.80614403837933,273.619223679,320.335467805,14.456624379281273,0.032533517835869226,0.0195846481302,0.0609439289484,0.012936696457925721,69.40900708045001,69.3395282822,69.4784858787,0.09825785878252845,0.283497416692,0.283497416692,0.283497416692,0.0029583045547800124,0.0246599054961,0.0104916381249,0.06650014975639999,0.019961685743966534,0.998145641357,0.998145641357,0.998145641357,4.9543310008355476e-05,24.8088699219,24.8088699219,24.8088699219,1.0255922505826174,nan,nan,nan,nan,188.0,188.0,188.0,nan,nan,nan,nan,nan,39.68397,39.68397,39.68397,nan,nan,nan,nan,nan,nan,nan,nan,nan,Train,U12
17,,,9.837532121487095,9.077791901980001,11.059008585399999,0.46939251997166087,9.806650143039999,9.806650143039999,9.806650143039999,8.685604721756345e-07,0.2996860917877333,0.0972579221334,0.638650479925,0.19135555316160968,274.19238868636586,272.75651627900004,275.334809225,0.6999098579991093,0.03268596710912,0.0191747601111,0.0481376950439,0.012955513226015448,64.3171050609,64.3171050609,64.3171050609,0.09825785878252845,0.6801364328526667,0.676847788554,0.686075869784,0.005153580986355,0.02056651298381429,0.013176593875200001,0.033143248253900005,0.007170016870483802,0.998145641357,0.998145641357,0.998145641357,4.9543310008355476e-05,33.053375153975,31.424036351199998,34.0932544648,1.1427515333438465,nan,nan,nan,nan,188.0,188.0,188.0,nan,nan,nan,nan,nan,39.68397,39.68397,39.68397,nan,nan,nan,nan,nan,nan,nan,nan,nan,Train,U12
18,,,9.978950614785312,9.0516025412,12.0114177823,0.5295389061165422,9.806649714239999,9.806649714239999,9.806649714239999,8.685604721756345e-07,0.43578929504049996,0.239931428604,0.631647161477,0.2769848510119565,270.510597464875,268.720994206,273.02812764,1.103082425273343,0.019511982986182726,0.00301302300683,0.034038492402,0.01025943638377562,64.24498790315,64.162996925,64.32697888130001,0.11595275329197034,0.6801364328526667,0.676847788554,0.686075869784,0.005153580986355,0.019910335974500003,0.014252266964399999,0.026202042623099997,0.004304915991275264,0.9980977627550001,0.9979883233769999,0.9982072021330001,0.00015477065262536714,41.67642168778,38.5762881136,44.3289992517,2.618184287834239,1019.51685,1019.4873,1019.5464,0.04179001076808534,188.0,188.0,188.0,nan,nan,nan,nan,nan,39.68397,39.68397,39.68397,nan,nan,nan,nan,nan,nan,nan,nan,nan,Train,U12
19,,,9.808953651103794,9.43689229848,10.3269410705,0.2023834573135926,9.806650214680001,9.806650214680001,9.806650214680001,8.685604721756345e-07,0.378075645182,0.20549135703,0.550659933334,0.24407104095706464,268.8385654377027,267.621963315,270.32015411599997,0.7175215327234558,0.030541077892624998,0.011473249791399999,0.047089026877,0.012667276272908267,63.9056335545,63.9056335545,63.9056335545,0.11595275329197034,0.70752032038,0.70752032038,0.70752032038,0.005153580986355,0.026954220830615716,0.00782806292201,0.0633272631843,0.017635208644468343,0.9967870364085,0.996723197009,0.9968508758079999,9.028254458657371e-05,45.4899193854,44.95542236479999,46.497956944399995,0.5992018904266229,1019.51685,1019.4873,1019.5464,0.04179001076808534,188.0,188.0,188.0,nan,nan,nan,nan,nan,39.68397,39.68397,39.68397,nan,nan,nan,nan,nan,nan,nan,nan,nan,Train,U12
20,,,9.81239673076875,9.06392601046,10.7249591569,0.38361046620703926,9.806650214680001,9.806650214680001,9.806650214680001,8.685604721756345e-07,0.218982877803,0.218982877803,0.218982877803,0.24407104095706464,267.9382282357187,266.64222235799997,269.240947301,0.6803897528097257,0.021425560674075,0.0097050209446,0.0335008307596,0.005442505224753851,63.9056335545,63.9056335545,63.9056335545,0.11595275329197034,0.7229019677074999,0.722632909696,0.7231710257189999,0.0003805054889283744,0.009581500941463334,0.00621150595189,0.0116693879272,0.002946178815725546,0.9967870364085,0.996723197009,0.9968508758079999,9.028254458657371e-05,44.992888326899994,44.992888326899994,44.992888326899994,0.5992018904266229,1019.4177,1019.4177,1019.4177,0.04179001076808534,188.0,188.0,188.0,nan,nan,nan,nan,nan,39.68397,39.68397,39.68397,nan,nan,nan,nan,nan,nan,nan,nan,nan,Train,U12
21,,,9.868019319256561,9.3820311553,10.434744925599999,0.21963602502636742,9.806650214680001,9.806650214680001,9.806650214680001,8.685604721756345e-07,0.59679956973,0.59679956973,0.59679956973,0.24407104095706464,267.7498344611613,265.565421066,269.242721929,0.8082423820694788,0.019374795614500003,0.0119100189296,0.026716696644200004,0.004242660381242583,65.37538209216667,65.08002901350001,65.58460185130001,0.2630829692544901,0.7243016520675001,0.720845291851,0.727758012284,0.004888031494621152,0.019498850370729095,0.00804257047232,0.0626426218007,0.015108382932483325,0.9967870364085,0.996723197009,0.9968508758079999,9.028254458657371e-05,44.992888326899994,44.992888326899994,44.992888326899994,0.5992018904266229,1019.4177,1019.4177,1019.4177,0.04179001076808534,188.0,188.0,188.0,nan,nan,nan,nan,nan,39.68397,39.68397,39.68397,nan,nan,nan,nan,nan,nan,nan,nan,nan,Train,U12
22,,,9.802925100764242,9.38507506006,10.3775397006,0.24824778575759623,9.80665052412,9.80665029975,9.80665074849,3.1730709686620493e-07,0.59679956973,0.59679956973,0.59679956973,0.24407104095706464,267.80180780415157,266.356928661,269.485115232,0.6556294951054855,0.023528206459742858,0.012423011800899999,0.0341051036185,0.007201839529423236,65.283003052275,64.9138660072,65.6156231396,0.2876722143690591,0.722555532755,0.719813022789,0.7252980427210001,0.003878494788860663,0.02248158466453667,0.00621150583184,0.0392416568989,0.010605756809658279,0.997269863545,0.997208298752,0.997331428338,8.706576522531049e-05,44.992888326899994,44.992888326899994,44.992888326899994,0.5992018904266229,1019.4177,1019.4177,1019.4177,0.04179001076808534,188.0,188.0,188.0,nan,nan,nan,nan,nan,31.232034999999996,31.232034999999996,31.232034999999996,nan,nan,nan,nan,nan,nan,nan,nan,nan,Train,U12
23,,,9.74439820442088,9.263921054310002,10.228380023,0.21237138011902582,9.80665052412,9.80665029975,9.80665074849,3.1730709686620493e-07,0.114185117444,0.114185117444,0.114185117444,0.24407104095706464,267.10688277847225,257.19802670900003,270.95160334900004,2.5039045800447175,0.01709345799808333,0.0130032099305,0.024524230238099996,0.004395161401797423,65.44350750095,65.08655907640001,65.8004559255,0.5048013030663164,0.7141016721979999,0.7141016721979999,0.7141016721979999,0.003878494788860663,0.013102673118917501,0.00150651150341,0.0262885167037,0.008046045899332235,0.997269863545,0.997208298752,0.997331428338,8.706576522531049e-05,52.32700391834,47.4284724612,55.6767455945,4.3561367514256,1019.4177,1019.4177,1019.4177,0.04179001076808534,188.0,188.0,188.0,nan,nan,nan,nan,nan,31.232034999999996,31.232034999999996,31.232034999999996,nan,nan,nan,nan,nan,nan,nan,nan,nan,Train,U12
24,,,9.852872979936551,9.26813845961,10.6691192713,0.27016571496029645,9.80665052412,9.80665029975,9.80665074849,3.1730709686620493e-07,0.4003449074415,0.257023114388,0.543666700495,0.20268762351988973,268.2177195710526,265.916547067,270.862223075,1.1591648657676101,0.021792799043359,0.009163751282690001,0.034237936579,0.007472464757357572,65.5241953205,65.5241953205,65.5241953205,0.5048013030663164,0.717770270769,0.717770270769,0.717770270769,0.003878494788860663,0.015185619597736,0.0031957935,0.0299791994001,0.008135132331595265,0.9975020165170001,0.9975020165170001,0.9975020165170001,8.706576522531049e-05,50.092757167550005,48.859594764200004,51.3259195709,1.7439549954261668,1019.4177,1019.4177,1019.4177,0.04179001076808534,188.0,188.0,188.0,nan,nan,nan,nan,nan,31.232034999999996,31.232034999999996,31.232034999999996,nan,nan,nan,nan,nan,nan,nan,nan,nan,Train,U12
25,,,9.851610596260324,9.165511382250001,10.3322347131,0.24483190427803053,9.8066504184,9.8066504184,9.8066504184,3.1730709686620493e-07,0.226188541358,0.226188541358,0.226188541358,0.20268762351988973,267.4663440480303,261.89754452299997,269.509622321,1.4819316326815382,0.017901207223475,0.014292023016099999,0.0221667174387,0.002555756840777079,65.24814173600001,65.24814173600001,65.24814173600001,0.5048013030663164,0.723038013687,0.7127846009219999,0.7286624553740001,0.006405687533917316,0.011551319432036,0.005736624839979999,0.0169775209466,0.004059198838750441,0.997632415859,0.997570163166,0.9976859345100001,5.837776665940038e-05,51.086892471800006,50.1446906498,51.6155984175,0.8180015556573734,1019.4177,1019.4177,1019.4177,0.04179001076808534,188.0,188.0,188.0,nan,nan,nan,nan,nan,31.232034999999996,31.232034999999996,31.232034999999996,nan,nan,nan,nan,nan,nan,nan,nan,nan,Train,U12
26,,,9.84560356404,9.45475176457,10.386112757000001,0.24262923237796405,9.80665032588,9.80665032588,9.80665032588,3.1730709686620493e-07,0.226188541358,0.226188541358,0.226188541358,0.20268762351988973,267.61660858323336,266.339408096,269.043997996,0.64040481820199,0.021792981321316667,0.013683570260299998,0.030092542260599996,0.005928600459554563,65.29056060876667,63.7389206059,66.1250344,1.3450391410401246,0.713841793222,0.713841793222,0.713841793222,0.006405687533917316,0.01961596654714286,0.0101059862862,0.0363753119831,0.009532252733231893,0.9977450446259999,0.9977450446259999,0.9977450446259999,5.837776665940038e-05,50.86576975250001,48.953549449700006,52.901701295900004,1.8160468115145565,1019.4177,1019.4177,1019.4177,0.04179001076808534,188.0,188.0,188.0,nan,nan,nan,nan,nan,31.232034999999996,31.232034999999996,31.232034999999996,nan,nan,nan,nan,nan,nan,nan,nan,nan,Train,U12
27,,,9.819250817326513,8.87631881115,10.2817870673,0.2580122432405924,9.806649632945,9.80664926365,9.80665000224,5.222619973941717e-07,0.226188541358,0.226188541358,0.226188541358,0.20268762351988973,269.11196015552946,265.68184344,271.610484245,1.573231981350506,0.02103880997144286,0.0120990784348,0.027054361569699998,0.0051568180494565,60.579948451599996,60.579948451599996,60.579948451599996,1.3450391410401246,0.713841793222,0.713841793222,0.713841793222,0.006405687533917316,0.024626910677614283,0.012649314623,0.04896741515,0.013983450496180041,0.9977450446259999,0.9977450446259999,0.9977450446259999,5.837776665940038e-05,45.416957185600005,45.416957185600005,45.416957185600005,1.8160468115145565,1019.4177,1019.4177,1019.4177,0.04179001076808534,188.0,188.0,188.0,nan,nan,nan,nan,nan,31.232034999999996,31.232034999999996,31.232034999999996,nan,nan,nan,nan,nan,nan,nan,nan,nan,Train,U12
28,,,9.76413238927286,9.36075182465,10.192804506,0.20817142902340224,9.806649887279999,9.806649574389999,9.806650200169999,4.4249328171683094e-07,0.0955294218301,0.0955294218301,0.0955294218301,0.20268762351988973,268.6346300330244,267.178304834,269.842634835,0.6919032922190566,0.018579690997582856,0.009225460667879999,0.028919527099,0.007284750286450373,60.579948451599996,60.579948451599996,60.579948451599996,1.3450391410401246,0.717875021446,0.717875021446,0.717875021446,0.006405687533917316,0.01169845967105,0.010437417864399999,0.012959501477700001,0.001783382425683902,0.997929453857,0.997929453857,0.997929453857,5.837776665940038e-05,45.416957185600005,45.416957185600005,45.416957185600005,1.8160468115145565,1019.4177,1019.4177,1019.4177,0.04179001076808534,188.0,188.0,188.0,nan,nan,nan,nan,nan,18.331303,18.331303,18.331303,nan,nan,nan,nan,nan,nan,nan,nan,nan,Train,U12
29,,,9.799453709756389,9.35542998615,10.108501351000001,0.17250186111796842,9.806649857635,9.80664984823,9.806649867039999,1.3300677770511087e-08,0.0955294218301,0.0955294218301,0.0955294218301,0.20268762351988973,268.67239898587883,265.82045023,270.477964682,1.3621123723008224,0.01956433609295714,0.0105455803926,0.026801511496299998,0.005685383197009689,60.44976698133333,60.085605597299995,60.6954693532,0.32172636410891386,0.711405271611,0.711405271611,0.711405271611,0.006405687533917316,0.012501832850621111,0.0054318044138,0.0314749143916,0.007648594392149295,0.9980399950284999,0.998014789269,0.9980652007879999,3.564632693472331e-05,45.416957185600005,45.416957185600005,45.416957185600005,1.8160468115145565,1019.14844,1019.14844,1019.14844,0.04179001076808534,188.0,188.0,188.0,nan,nan,nan,nan,nan,18.331303,18.331303,18.331303,nan,nan,nan,nan,nan,nan,nan,nan,nan,Train,U12
30,,,9.806101750320293,9.467418215319999,10.1347729353,0.14505701402686008,9.806650156629999,9.806650156629999,9.806650156629999,1.3300677770511087e-08,0.0622904554254,0.0622904554254,0.0622904554254,0.20268762351988973,269.3881569508387,268.192545801,270.938267302,0.7289500762328274,0.019745335836853332,0.013003209996100001,0.0320642840135,0.004918564816143739,60.888762012650005,60.7950658656,60.9824581597,0.13250636190021411,0.711405271611,0.711405271611,0.711405271611,0.006405687533917316,0.011745294428099998,0.005431804276520001,0.019322148326599998,0.004616598329470395,0.9981454584,0.9981454584,0.9981454584,3.564632693472331e-05,45.416957185600005,45.416957185600005,45.416957185600005,1.8160468115145565,1019.14844,1019.14844,1019.14844,0.04179001076808534,205.0,205.0,205.0,nan,nan,nan,nan,nan,18.331303,18.331303,18.331303,nan,nan,nan,nan,nan,nan,nan,nan,nan,Train,U12
31,,,9.825968017991212,9.529461769800001,10.0672467398,0.1177770644312815,9.806650156629999,9.806650156629999,9.806650156629999,1.3300677770511087e-08,0.179533850352,0.179533850352,0.179533850352,0.20268762351988973,268.42212956783334,266.252014525,271.404151344,1.4218387516983144,0.018954169326708334,0.0118143541049,0.0282043724052,0.005335439362770314,63.99567987782499,62.8803639334,65.6641481998,1.245333328471264,0.696430753646,0.696430753646,0.696430753646,0.006405687533917316,0.013649111829575,0.0054318044138,0.0210911601387,0.006912459197589563,0.9981926051126666,0.998177338051,0.998203302577,1.3572032546498648e-05,39.6795499655,38.0691476133,41.2899523177,2.2774528473587754,1019.14844,1019.14844,1019.14844,0.04179001076808534,205.0,205.0,205.0,nan,nan,nan,nan,nan,18.331303,18.331303,18.331303,nan,nan,nan,nan,nan,nan,nan,nan,nan,Train,U12
32,,,9.821251121570858,9.49810880078,10.0299403411,0.13447509594034662,9.80665000162,9.80664990977,9.80665009347,1.2989551514690625e-07,0.0557424217151,0.0557424217151,0.0557424217151,0.20268762351988973,271.6901315512424,268.755164041,277.33573338599996,2.491685922270659,0.0180956089711625,0.011522597006500001,0.0252761907359,0.003788689118674315,60.8331338696,60.8331338696,60.8331338696,1.245333328471264,0.7017731110485,0.697037164558,0.7065090575390001,0.006697639757538391,0.013390508640858001,0.00903906902049,0.0189963861598,0.004124363019228195,0.9982204885889999,0.9982204885889999,0.9982204885889999,1.3572032546498648e-05,30.728842029716663,26.1229784006,38.4058609121,4.621034877949062,1019.14844,1019.14844,1019.14844,0.04179001076808534,205.0,205.0,205.0,nan,nan,nan,nan,nan,18.331303,18.331303,18.331303,nan,nan,nan,nan,nan,nan,nan,nan,nan,Train,U12
33,,,9.794237640758823,9.52731366882,10.1011663375,0.11621157625020431,9.80665080013,9.80665080013,9.80665080013,1.2989551514690625e-07,0.09592172399460001,0.09592172399460001,0.09592172399460001,0.20268762351988973,275.222550956,271.618651704,281.811767585,2.6633240327623344,0.019509432422738462,0.0142124004239,0.0283848501833,0.00469085618446877,63.51180950293334,61.536493237799995,65.585135511,2.026099823890207,0.7017731110485,0.697037164558,0.7065090575390001,0.006697639757538391,0.021788515983575,0.0136420414099,0.0402128521762,0.010570109454249497,0.9982204885889999,0.9982204885889999,0.9982204885889999,1.3572032546498648e-05,27.71111279315,26.6114637019,28.8107618844,1.5551386586970002,1019.14844,1019.14844,1019.14844,0.04179001076808534,205.0,205.0,205.0,nan,nan,nan,nan,nan,18.331303,18.331303,18.331303,nan,nan,nan,nan,nan,nan,nan,nan,nan,Train,U12
34,,,9.824169943286298,9.65710736442,9.9921562274,0.08509386343900756,9.80665080013,9.80665080013,9.80665080013,1.2989551514690625e-07,0.09592172399460001,0.09592172399460001,0.09592172399460001,0.20268762351988973,270.6917334353889,269.57966753200003,272.091989483,0.7545175705345187,0.018680086453806248,0.0138893493593,0.0263316475537,0.0031960928150193933,64.42625164366666,64.0488095127,64.6323448437,0.3273357797893686,0.704381095939,0.704381095939,0.704381095939,0.006697639757538391,0.017477319467555555,0.010161975161100002,0.03541102784,0.00774997752599024,0.9982204885889999,0.9982204885889999,0.9982204885889999,1.3572032546498648e-05,40.3629800733,40.3629800733,40.3629800733,1.5551386586970002,1019.14844,1019.14844,1019.14844,0.04179001076808534,205.0,205.0,205.0,nan,nan,nan,nan,nan,18.331303,18.331303,18.331303,nan,nan,nan,nan,nan,nan,nan,nan,nan,Train,U12
35,,,9.824169943286298,9.65710736442,9.9921562274,0.08509386343900756,9.80665080013,9.80665080013,9.80665080013,1.2989551514690625e-07,0.09592172399460001,0.09592172399460001,0.09592172399460001,0.20268762351988973,270.6917334353889,269.57966753200003,272.091989483,0.7545175705345187,0.018680086453806248,0.0138893493593,0.0263316475537,0.0031960928150193933,64.42625164366666,64.0488095127,64.6323448437,0.3273357797893686,0.704381095939,0.704381095939,0.704381095939,0.006697639757538391,0.017477319467555555,0.010161975161100002,0.03541102784,0.00774997752599024,0.9982204885889999,0.9982204885889999,0.9982204885889999,1.3572032546498648e-05,40.3629800733,40.3629800733,40.3629800733,1.5551386586970002,1019.14844,1019.14844,1019.14844,0.04179001076808534,205.0,205.0,205.0,nan,nan,nan,nan,nan,18.331303,18.331303,18.331303,nan,nan,nan,nan,nan,nan,nan,nan,nan,Train,U12
