time,activityrecognition#0,activityrecognition#1,android.sensor.accelerometer#mean,android.sensor.accelerometer#min,android.sensor.accelerometer#max,android.sensor.accelerometer#std,android.sensor.gravity#mean,android.sensor.gravity#min,android.sensor.gravity#max,android.sensor.gravity#std,android.sensor.linear_acceleration#mean,android.sensor.linear_acceleration#min,android.sensor.linear_acceleration#max,android.sensor.linear_acceleration#std,android.sensor.orientation#mean,android.sensor.orientation#min,android.sensor.orientation#max,android.sensor.orientation#std,android.sensor.gyroscope_uncalibrated#mean,android.sensor.gyroscope_uncalibrated#min,android.sensor.gyroscope_uncalibrated#max,android.sensor.gyroscope_uncalibrated#std,android.sensor.magnetic_field_uncalibrated#mean,android.sensor.magnetic_field_uncalibrated#min,android.sensor.magnetic_field_uncalibrated#max,android.sensor.magnetic_field_uncalibrated#std,android.sensor.rotation_vector#mean,android.sensor.rotation_vector#min,android.sensor.rotation_vector#max,android.sensor.rotation_vector#std,android.sensor.gyroscope#mean,android.sensor.gyroscope#min,android.sensor.gyroscope#max,android.sensor.gyroscope#std,android.sensor.game_rotation_vector#mean,android.sensor.game_rotation_vector#min,android.sensor.game_rotation_vector#max,android.sensor.game_rotation_vector#std,android.sensor.magnetic_field#mean,android.sensor.magnetic_field#min,android.sensor.magnetic_field#max,android.sensor.magnetic_field#std,android.sensor.pressure#mean,android.sensor.pressure#min,android.sensor.pressure#max,android.sensor.pressure#std,android.sensor.light#mean,android.sensor.light#min,android.sensor.light#max,android.sensor.light#std,sound#mean,sound#min,sound#max,sound#std,speed#mean,speed#min,speed#max,speed#std,android.sensor.proximity#mean,android.sensor.proximity#min,android.sensor.proximity#max,android.sensor.proximity#std,android.sensor.step_counter#mean,android.sensor.step_counter#min,android.sensor.step_counter#max,android.sensor.step_counter#std,target,user
1,,,12.53098755120768,1.7389717801700002,48.077002729300006,7.197541963824192,9.806631848171124,9.8066038518,9.806649653300001,7.542583703562681e-06,8.222419433516638,0.280798590573,40.2792535078,5.627243472492138,139.09982807888096,48.723890824399994,383.739862545,64.25336891281972,2.179687513267923,0.38930425376999994,4.86446772525,0.8469998683037478,98.29500077453517,91.5004371574,103.80111125100001,2.910772955025101,0.8357445960481179,0.403922971804,0.9999396191169999,0.12186853273439556,2.177878426897908,0.38399938667800004,4.85923500708,0.8458089473240161,0.864713135808055,0.5041810135220001,0.999995336531,0.11452634445344062,42.472716401061525,39.127611741799996,45.510549902200005,1.49358685052016,1011.3948248148148,1011.355,1011.43115,0.019840727997331425,4.7407407407407405,2.0,9.0,2.011363727818528,nan,nan,nan,nan,nan,nan,nan,nan,5.333333333333333,0.0,8.0,4.618802153517007,2725.0,2721.0,2729.0,2.7386127875258306,Walking,U12
2,,,12.228679103800395,2.40379462936,50.4554605983,7.54405248392022,9.806631789144921,9.80660983411,9.80664792975,7.803562438736496e-06,8.504154156960624,0.617243275505,44.4780317518,6.105280450442807,151.90756459302824,47.083325995500005,391.78670415,71.87675857309529,2.1360015966053716,0.274211981357,4.84812900761,0.8165367733623073,98.629808819292,90.54645618129999,106.97766122,4.335647254344554,0.8509381612758902,0.38488628801799996,0.9999997269390001,0.12566027469463792,2.137504384059142,0.269433996804,4.85701236725,0.8175495481992797,0.884691177530892,0.476683484479,0.999995135908,0.10734547142048861,44.297662031632356,36.600683053699996,49.679875201899996,4.4604584577925435,1011.3946546428571,1010.0686,1011.49854,0.26152955251866494,3.4642857142857144,2.0,8.0,1.1379690439434391,nan,nan,nan,nan,nan,nan,nan,nan,5.333333333333333,0.0,8.0,4.618802153517007,2734.5,2730.0,2739.0,3.0276503540974917,Walking,U12
3,,,12.41988244270819,2.3007598864,48.61828059770001,7.89832979994239,9.806631890964697,9.80661032067,9.806648520780001,7.57805531077447e-06,8.604146562819164,0.9974837175299999,42.213277509499996,6.166813687570638,149.51597869348274,43.0371716606,381.65693813,69.9919648936869,2.2325905424332824,0.347806818464,4.7669310531599995,0.8507161390053837,96.06994648220984,88.0186950994,103.90173358700001,3.346693838495486,0.8472482716405552,0.361061515861,0.9999902538400001,0.1318410557348868,2.2297042546243153,0.34102773682899995,4.76145564195,0.8506336821748087,0.884427205179036,0.456777456141,0.999618660792,0.11193407309183491,40.20979741749943,32.3559886265,45.62017097729999,3.209135990054277,1011.4353222222222,1011.3894,1011.4917,0.025644287313070536,3.642857142857143,2.0,7.0,1.2827714704898319,nan,nan,nan,nan,nan,nan,nan,nan,5.333333333333333,0.0,8.0,4.618802153517007,2744.0,2740.0,2748.0,2.9277002188455996,Walking,U12
4,,,12.551395240194156,1.70428238118,48.8003007043,7.958612776866853,9.806631264769944,9.80660778153,9.80664904519,7.681712692492351e-06,8.897203534342095,0.9567144779200001,41.577976533400005,6.136313471906777,141.12288610181992,48.460581026899995,391.84008625300004,67.91302569872187,2.1809836447969064,0.304706597634,4.42269379869,0.8109468588337265,95.64414504564175,78.8442142988,104.033936771,5.664857998655851,0.8292385712288403,0.39598263274499995,0.999998871997,0.12882555787815037,2.1804079231537714,0.30231935605,4.41837307739,0.8085951940834238,0.874957215789888,0.466900229064,0.9999999151279999,0.11093829759822586,38.54068725139791,32.002969121599996,42.4977650306,2.949726524410152,1011.4563518518518,1011.4209,1011.4917,0.019509145397251126,4.071428571428571,2.0,7.0,1.488936270271907,nan,nan,nan,nan,nan,nan,nan,nan,5.333333333333333,0.0,8.0,4.618802153517007,2753.5,2749.0,2758.0,3.0276503540974917,Walking,U12
5,,,12.454494304218406,2.69985761276,48.4857660976,7.960623187816015,9.806631515530421,9.806608187030001,9.80665029787,7.88193523629583e-06,8.475008912251305,0.715503992362,44.042066436499994,6.01758317001761,147.1708281867427,34.0727114221,402.87040409900004,66.59721287449676,2.2116461270091903,0.145411524116,4.66804834732,0.8519559494248973,96.60405694980861,81.68977904239999,102.43764164,3.5906353331409275,0.8528582766470382,0.282972577498,0.999875630046,0.12906302493334298,2.2122195958734148,0.149600458332,4.662612440299999,0.8511226550114924,0.8367592189066775,0.450665294593,0.999999993272,0.12133516866546937,43.13397958744233,40.6472631836,51.3162742217,2.089071431604009,1011.47909,1011.4353,1011.5051,0.018860153976041814,4.36,2.0,8.0,1.4966629547095764,nan,nan,nan,nan,1.9441845333333332,1.1699101,2.8404937,0.8419511555025287,5.333333333333333,0.0,8.0,4.618802153517007,2763.5,2759.0,2768.0,3.0276503540974917,Walking,U12
6,,,12.697949707084177,1.32941703189,48.914964724700006,7.916594315303823,9.806631185552337,9.806608249149999,9.80664942538,7.344870637107005e-06,8.558848115649523,0.8581896686,44.4591487724,6.487497747598386,141.2576071507406,44.572691536099995,392.746657596,68.27478779661679,2.2255578169245314,0.286199511135,4.85206549477,0.8741299395921726,99.72519617435684,93.92662531149999,105.105851407,2.4330286091528803,0.8339109356064087,0.366078432776,0.999998882487,0.12982311643960606,2.2264244314783324,0.277611272601,4.84641196184,0.8731337351332452,0.8409867958410249,0.436706587063,0.999998635447,0.1212496749676735,42.58352492033531,38.9467589694,45.4616324476,1.613621872116036,1011.5041171428572,1011.48364,1011.5342,0.014133462488185092,6.321428571428571,2.0,11.0,2.07370792308477,nan,nan,nan,nan,1.2161692249999998,1.1114540000000002,1.3075751,0.08936519156533573,5.333333333333333,0.0,8.0,4.618802153517007,2773.0,2769.0,2777.0,2.7386127875258306,Walking,U12
7,,,12.774337203422089,2.1782616252099998,50.4186323891,8.300604863434582,9.80663243128977,9.80661076799,9.80664905969,8.02810526442667e-06,8.992694833838376,1.25263012496,45.021473503,6.692927563225795,143.72482161064923,42.3525832774,390.802887801,71.78581370551782,2.1958203561648544,0.281864627161,4.8194174717400005,0.8725327365427429,95.5875740843836,91.1305119836,104.256654464,2.6697119211087577,0.828238855030249,0.35473997346600006,0.9999978117659999,0.13763283906561835,2.1973712581742277,0.281830395332,4.81399559745,0.8711623977102743,0.8672218525364904,0.44370884458099996,0.9999999995799999,0.10911388839547094,38.96416199840306,31.911439955,45.4532727095,3.04071627937004,1011.5175510714287,1011.4712,1011.5425,0.016672549703777576,3.4642857142857144,2.0,7.0,1.3466595945123117,nan,nan,nan,nan,0.5434099400000001,0.0,1.3806391000000002,0.7442589941994575,5.333333333333333,0.0,8.0,4.618802153517007,2782.5,2778.0,2787.0,3.0276503540974917,Walking,U12
8,,,12.452886199436728,2.02080202398,48.5157329307,8.152633250877933,9.806633646150095,9.806604453110001,9.80664852952,8.031448072811129e-06,8.86837449335926,0.9931544077879999,40.0252391555,6.2121745681572875,270.3404355177261,39.8905521069,402.23400900400003,115.32104404675327,2.197901486190251,0.32284717876999997,4.78293165413,0.8277654622736742,97.97678935663886,91.10839697850001,104.000865381,2.659577893204984,0.7351505266623559,0.337822047682,0.9954369100630001,0.11701231094451281,2.1981912243488826,0.310438241109,4.77757652005,0.8269935629815691,0.8816811224119433,0.535647000025,0.9999975843950001,0.10505945200945754,31.98934811489509,28.319251408899998,35.2257008447,1.7247898165298305,1011.5107864285714,1011.4822,1011.53,0.012663094880694784,2.642857142857143,1.0,4.0,0.7800420555749596,nan,nan,nan,nan,0.0,0.0,0.0,0.0,5.333333333333333,0.0,8.0,4.618802153517007,2792.0,2788.0,2796.0,2.7386127875258306,Walking,U12
9,,,12.54036292016112,2.3353624903599997,48.2496019912,8.287205724126235,9.806633386080494,9.80660536471,9.80664828398,7.92119343633242e-06,8.931553228967857,0.541489168534,40.8232930944,6.407483255079865,297.24498109765585,44.807932825600005,398.286314007,99.17696285429228,2.202017794479274,0.27893659417800004,4.83255634991,0.8606216081097124,95.85605677843019,88.33193104760001,103.781742132,3.4222013123789523,0.7323975718633068,0.322536580485,0.959348241972,0.11308276943372837,2.202228419225985,0.268271143795,4.827623775159999,0.859429186778669,0.883699227815983,0.351994681772,0.999999999959,0.11660333432850804,30.57627446439677,27.114940531,34.8050291854,1.9223477402786346,1011.5181882142858,1011.48315,1011.5469,0.017468887062767648,2.357142857142857,0.0,5.0,1.161553420728616,nan,nan,nan,nan,0.0,0.0,0.0,0.0,5.333333333333333,0.0,8.0,4.618802153517007,2801.4444444444443,2797.0,2806.0,3.2058973436118907,Walking,U12
10,,,12.617620040888822,2.06655672413,49.3351746777,8.114753887909806,9.806633130408159,9.80660566169,9.8066495373,7.810568420317371e-06,8.620391998293933,0.570922737662,41.3249790141,6.029303612893996,239.96403466901853,47.682772069799995,399.22225328400003,125.1054384000021,2.241995021033831,0.48816318209,4.59686996669,0.830878048279145,94.59890912095166,86.15729800780001,98.745126462,2.8304258811293384,0.7324553342067017,0.331867530385,0.985235253919,0.1216296766505672,2.2417966250899535,0.484051056721,4.59383989426,0.8310894954026956,0.8567658561548557,0.38623837820600004,0.999993645367,0.12130095342817981,27.19038343656725,20.5165786621,31.9670151344,2.484065887717605,1011.5513048148148,1011.5176,1011.5913,0.016353894236391067,1.7407407407407407,1.0,4.0,0.859006250205281,nan,nan,nan,nan,0.0,0.0,0.0,0.0,5.333333333333333,0.0,8.0,4.618802153517007,2811.5,2807.0,2816.0,3.0276503540974917,Walking,U12
11,,,12.518045366764794,1.82638712902,49.2787098397,7.713566722281961,9.806632447045905,9.80660309769,9.80664924407,7.845461891567693e-06,8.476680633028213,0.954658505811,41.1974817737,6.416834342150683,148.6165449860466,45.478087906300004,399.59868061099996,100.55093141196579,2.1940104282389874,0.24217609872600002,4.671438312099999,0.856911878667992,89.4754814477512,84.8977031491,93.1835822449,1.9928274057977609,0.7545817292256957,0.37438092148900004,0.9999999079790001,0.11840551504141911,2.192229210066522,0.242276832792,4.66721102936,0.8559715472574767,0.8530650118184991,0.420964744451,0.99999956755,0.1170506796222378,20.01301724940075,15.801582333399999,23.996041424,1.9885895579344108,1011.5816760714287,1011.5532,1011.6301,0.01906893913017697,2.2857142857142856,0.0,4.0,0.8967902788460658,nan,nan,nan,nan,0.0,0.0,0.0,0.0,5.333333333333333,0.0,8.0,4.618802153517007,2821.0,2817.0,2825.0,2.7386127875258306,Walking,U12
12,,,12.368322806159718,1.00480485577,48.800060118100006,7.916978120944287,9.806633226226936,9.80660951474,9.806648502969999,7.535924790618726e-06,8.312258139452162,0.849223891103,42.133404072800005,6.075710021018945,204.2284289230898,56.114305787,400.423436154,72.51305995963446,2.180801037808618,0.405384577038,5.483802668049999,0.8784999212785557,79.983976429962,66.21404684810001,94.72222649620001,8.906244522557047,0.9056428282319698,0.45746427621799995,0.9999991432590001,0.12114348631965295,2.1805298525850887,0.418858948046,5.490751185240001,0.8785322006555387,0.885503825319117,0.47620738666199997,0.999946706092,0.1031311840699126,27.73797190221151,18.8164821367,34.6187816452,3.621317460410746,1011.6087328571429,1011.5752,1011.64087,0.017759650242040178,1.4642857142857142,0.0,4.0,1.0357370915204893,nan,nan,nan,nan,0.0,0.0,0.0,0.0,5.333333333333333,0.0,8.0,4.618802153517007,2830.5,2826.0,2835.0,3.0276503540974917,Walking,U12
13,,,12.29734418838353,1.0927773697299998,50.2754213459,7.679453922647377,9.806633069111966,9.806607872699999,9.80664775254,7.624630311384471e-06,8.312456149598079,0.623303624733,42.983173306800005,6.175093756833742,227.56001898523238,108.15708390100001,352.105977101,47.41486855148219,2.2370734664875735,0.39901941439000005,4.9252946800699995,0.8217487819200099,75.38577001951322,64.1755405119,87.1986241726,6.20216554387839,0.9603315415265449,0.701875138468,0.999999410302,0.048538305486442355,2.237777954579017,0.399208483851,4.9201087372400005,0.8220521346068553,0.8445557126526788,0.35906124464199995,0.999996834867,0.1282252934292438,32.79186735055209,28.9183332853,39.4626405604,2.1425791481832723,1011.5893107142857,1011.5622599999999,1011.6089,0.012804633689233225,0.7857142857142857,0.0,3.0,0.8758971213537394,nan,nan,nan,nan,0.0,0.0,0.0,0.0,5.333333333333333,0.0,8.0,4.618802153517007,2840.0,2836.0,2844.0,2.7386127875258306,Walking,U12
14,,,12.462855156999504,2.33760543917,52.9397150208,7.650235527159926,9.80663352299555,9.806606841889998,9.806648766910001,7.48060841205981e-06,8.397441290085865,0.635553233975,44.48104278939999,6.262797086043011,225.16080371007544,112.727009973,369.46318279,50.33665661216682,2.261610985207126,0.35132900945100004,4.9743179715300005,0.8609339088592912,75.71787992589088,67.4724406732,86.7795493881,5.819583410139736,0.9580086447715834,0.711512933875,0.9999960378799999,0.048823346121811634,2.25889968643701,0.34232965307700003,4.96923906212,0.8586738473189709,0.8607690589300718,0.378867320574,0.999999871982,0.112856418188877,30.32128750391315,26.553531772600003,36.2917357149,1.9789167435859512,1011.6125948148149,1011.5918,1011.6379400000001,0.013151921289989444,0.5925925925925926,0.0,2.0,0.6360490582953524,nan,nan,nan,nan,0.0,0.0,0.0,0.0,5.333333333333333,0.0,8.0,4.618802153517007,2849.5,2845.0,2854.0,3.0276503540974917,Walking,U12
15,,,12.3842475708854,2.42839840332,51.7913569491,7.771520637672976,9.80663280960885,9.80660730494,9.80664798483,7.5903693725212756e-06,8.244344646199647,0.8612069262809999,41.7379693331,5.71348172064703,229.75245673457812,87.76638882399999,364.132838677,53.31611438895717,2.251191377590659,0.468581989861,5.1399554509500005,0.8512037406561572,77.43606862245896,67.17000841,90.7271734377,6.520907249966569,0.9475415635829962,0.642709473946,0.999990921898,0.062484733346736744,2.2522398721992225,0.458477241219,5.1342237405,0.8521203909086515,0.8759970224969944,0.41332626351499996,0.999999970475,0.1125481326327892,32.53778400583826,28.2434063654,37.4165738677,2.080131529833685,1011.5957370370371,1011.5581,1011.6239999999999,0.019824458245529013,0.2962962962962963,0.0,1.0,0.4653216269680752,nan,nan,nan,nan,0.0,0.0,0.0,0.0,5.333333333333333,0.0,8.0,4.618802153517007,2859.5,2855.0,2864.0,3.0276503540974917,Walking,U12
16,,,12.774993466579676,1.41891600665,51.3523224921,7.984915623149535,9.806633097254503,9.80660468584,9.80664888203,7.279218664748938e-06,8.984869382298761,0.495709424591,42.4724631857,6.123225447760763,222.41756698388528,101.320129686,357.309735666,49.98228186723872,2.201881445642542,0.18043579929900003,4.65055529368,0.8565248532121686,77.20745679883427,66.295248878,89.65177615639999,6.544943261076324,0.9600601032731573,0.750291633001,0.9999999497550001,0.04574764873244158,2.2011974275659605,0.169965607449,4.64606863609,0.8566885884545915,0.8714863437197939,0.444455361537,0.99999973355,0.11580571069826227,32.712926544372706,29.6013513935,37.3529122506,1.544091304387443,1011.6097300000001,1011.5703,1011.6460000000001,0.02002826632167685,0.32142857142857145,0.0,1.0,0.47559486560567094,nan,nan,nan,nan,0.0,0.0,0.0,0.0,5.333333333333333,0.0,8.0,4.618802153517007,2869.0,2865.0,2873.0,2.7386127875258306,Walking,U12
17,,,12.44021282062614,2.0251114386099998,50.5007688663,7.836053659790417,9.80663280529644,9.80660718753,9.80665031272,7.728237007212722e-06,8.749665909010108,0.801910393407,45.0274938444,6.768740309026143,235.2395842473601,97.0458523775,378.306234249,50.812345032584055,2.2095431570110096,0.556162944532,4.94923300167,0.8214926182760766,77.83799837723751,68.0138956391,90.45496148139999,6.296916378042662,0.9401305747355276,0.531058751717,0.999899812969,0.07550567083593877,2.2098242656668816,0.56217912905,4.94402593198,0.8199555309760246,0.8652134000340634,0.379231075726,0.999996814707,0.12196332180138876,33.39757682622243,30.674256629899997,37.2616430475,1.5095446401116177,1011.5789903571429,1011.55005,1011.6221,0.02056318473716059,0.8214285714285714,0.0,2.0,0.722832465019919,nan,nan,nan,nan,0.0,0.0,0.0,0.0,5.333333333333333,0.0,8.0,4.618802153517007,2878.5,2874.0,2883.0,3.0276503540974917,Walking,U12
18,,,12.34243127632971,2.09537827359,51.0484136196,7.731544434952565,9.806632563579061,9.80660960322,9.806649147060002,7.518760195536067e-06,8.32065784843077,0.837661179964,44.2372095293,6.014762321350733,234.298257581621,85.9809252933,360.29555925,51.010107799765706,2.23843035341874,0.274079509141,4.52946219522,0.8211302893595123,78.19034570072802,66.3923941427,91.9322576684,6.903687518640851,0.9453153576626766,0.683204602203,0.999997008538,0.059611828285526657,2.238640286811233,0.273513779368,4.5244579074,0.8210473951090118,0.8597217313055956,0.32926372311,0.999675892595,0.12089532645686357,35.82897343124501,31.4036633914,40.8918084706,1.8682244290926355,1011.5855521428572,1011.54565,1011.62134,0.019104532205568407,0.5357142857142857,0.0,2.0,0.6372477195601849,nan,nan,nan,nan,0.0,0.0,0.0,0.0,5.333333333333333,0.0,8.0,4.618802153517007,2888.0,2884.0,2892.0,2.7386127875258306,Walking,U12
19,,,12.545907648094044,2.60393806789,48.0214810417,8.011682502893452,9.8066331843105,9.806609102789999,9.80665108836,7.416009237412419e-06,8.562041148087284,1.0900998001,40.0974427744,6.3069715887588735,224.2030819367025,119.927438569,348.92805241800005,46.99794228852843,2.2383245797440643,0.520256041299,4.842463405719999,0.8336568869218656,75.18246637914055,64.9316563781,87.5569536382,6.352722001241476,0.9639284488023449,0.743497242684,0.9999991795190001,0.04390210136950166,2.2378584544802043,0.518351603469,4.83827356366,0.8325383834879865,0.8566204779959269,0.45856862269299997,0.9999145577580001,0.1192650595548156,31.44737396862827,28.4290344542,35.8570774046,1.57837561499762,1011.5696266666666,1011.5408,1011.6013,0.01537936804743061,0.4444444444444444,0.0,2.0,0.6405126152203485,nan,nan,nan,nan,0.0,0.0,0.0,0.0,5.333333333333333,0.0,8.0,4.618802153517007,2897.5,2893.0,2902.0,3.0276503540974917,Walking,U12
20,,,12.145540836338448,2.25857399616,49.2398118862,7.259267704591345,9.806632611922115,9.80660745849,9.80664935247,7.2453331588302745e-06,7.699602265979012,0.381728090503,42.8866407905,5.611403917618134,224.12761839693692,110.323479035,363.711478662,48.840495786442894,2.21336993405761,0.440057377547,4.47267232895,0.864669587518124,75.95661264975384,65.73051041939999,87.1267514464,5.777238603115667,0.9596131363576814,0.662822000443,0.999998775387,0.05271826472299475,2.214149317336848,0.446347062117,4.46818095766,0.8637046101917186,0.8610957270722653,0.32144573852499997,0.999999138015,0.10563400450648029,30.060690233773894,27.198161702600004,35.0075717981,1.8137373153106282,1011.5859442857143,1011.53955,1011.6325699999999,0.025912405498719746,0.39285714285714285,0.0,2.0,0.6288900106557948,nan,nan,nan,nan,0.0,0.0,0.0,0.0,5.333333333333333,0.0,8.0,4.618802153517007,2907.0,2903.0,2911.0,2.7386127875258306,Walking,U12
21,,,12.434233625573944,2.63460403791,51.3907781564,7.840098222112134,9.80663272998558,9.806611600030001,9.806648864349999,7.2574850112007116e-06,8.408901332781882,1.0633318030399999,46.231707211999996,6.043715899623872,232.1556194203966,101.792402114,370.121907961,50.31620413510985,2.2462018307487712,0.340106418089,4.6253352554600005,0.8458631336934032,76.22085226049371,65.6422120285,87.680898718,6.49614550268489,0.9488172805957472,0.643326425336,0.9999939343369999,0.057238228225486965,2.245254100033379,0.32860602413,4.62063953898,0.844367686622291,0.8855314870962138,0.405434720546,0.999999982515,0.1102377789444816,31.110992097356657,25.5745977016,36.731594678200004,2.5011338752529135,1011.5668960714286,1011.53345,1011.60474,0.018785258274489923,0.7142857142857143,0.0,2.0,0.7126966450997984,nan,nan,nan,nan,0.0,0.0,0.0,0.0,5.333333333333333,0.0,8.0,4.618802153517007,2916.5,2912.0,2921.0,3.0276503540974917,Walking,U12
22,,,12.307372137831704,1.61541246595,49.47532108520001,7.872544868490255,9.806632868336514,9.80660973395,9.80664836721,7.916018805901064e-06,8.290011731911317,0.787750672876,44.236265686,6.1138241867116,234.655865026941,91.26654927290001,362.63243842699995,47.85846600167945,2.2282440765334965,0.5335380008780001,4.58223784276,0.8160257055520506,76.24485717000977,65.88072762350001,88.5062709643,6.351295814020811,0.9515311806483517,0.645202033363,0.9999988659810001,0.05587648831289799,2.227541807787627,0.531286176827,4.577571561469999,0.8156914378024621,0.8405800285833716,0.294718881214,0.999276940372,0.12241506750443178,32.65850885944672,28.1435605423,37.670280721,1.8594482405697845,1011.5606562962964,1011.5381,1011.5962,0.013730005644053338,14.11111111111111,1.0,108.0,26.653522401556167,nan,nan,nan,nan,0.0,0.0,0.0,0.0,5.333333333333333,0.0,8.0,4.618802153517007,2926.0,2922.0,2930.0,2.7386127875258306,Walking,U12
23,,,12.694747171427254,2.25416290912,52.6113154859,8.17487470363655,9.80663301185055,9.80660831386,9.806649105650001,7.603198996591088e-06,8.961200523903983,0.30620700526,45.849381325500005,6.822388797788058,235.7728271122183,80.5721142271,382.566098196,55.95898636672845,2.2586372571009585,0.271703002328,4.8108665639599995,0.8664539804606188,77.2333419461701,63.3477702844,90.7013824426,7.187295013716585,0.9365709949854761,0.658883494994,0.9999956811299999,0.07007829502968321,2.257697414864324,0.279125725965,4.805956806959999,0.8654133468821095,0.8350640821912343,0.409243960707,0.9986685559299999,0.1173127320286442,32.571415336979506,27.886914494099997,36.2597578398,1.7383075584011796,1011.5806684615384,1011.5437,1011.6128,0.014633136285109668,41.92307692307692,4.0,185.0,51.05285345750859,nan,nan,nan,nan,0.0,0.0,0.0,0.0,5.333333333333333,0.0,8.0,4.618802153517007,2935.5,2931.0,2940.0,3.0276503540974917,Walking,U12
24,,,12.305785660267103,1.92938488375,48.935820204399995,7.2143774311385185,9.806633591693721,9.80661330951,9.80664896755,7.239298315434957e-06,7.927912463998667,2.22683254104,43.6448978242,5.388900518207235,220.36995316830001,110.28697078799999,351.73901039,46.31607386872994,2.2842192104386574,0.527810328239,4.53162729264,0.9150413654960281,77.45222066499338,66.6479557076,89.4645184115,6.858562655240744,0.9680196454587666,0.7174043659970001,0.999992592572,0.04461671212010759,2.2847969770163585,0.530934682496,4.5276917536,0.9143921349689677,0.9510870717138509,0.8964815823200001,0.999339738583,0.02299392005222779,34.94542082499116,30.6674094113,39.716747097399995,2.3394837984591708,1011.5712200000002,1011.5574,1011.5845,0.008568882981785358,69.9,9.0,143.0,42.15698175997792,nan,nan,nan,nan,0.0,0.0,0.0,0.0,5.333333333333333,0.0,8.0,4.618802153517007,2942.0,2941.0,2943.0,1.0,Walking,U12
