time,activityrecognition#0,activityrecognition#1,android.sensor.accelerometer#mean,android.sensor.accelerometer#min,android.sensor.accelerometer#max,android.sensor.accelerometer#std,android.sensor.gravity#mean,android.sensor.gravity#min,android.sensor.gravity#max,android.sensor.gravity#std,android.sensor.linear_acceleration#mean,android.sensor.linear_acceleration#min,android.sensor.linear_acceleration#max,android.sensor.linear_acceleration#std,android.sensor.orientation#mean,android.sensor.orientation#min,android.sensor.orientation#max,android.sensor.orientation#std,android.sensor.gyroscope_uncalibrated#mean,android.sensor.gyroscope_uncalibrated#min,android.sensor.gyroscope_uncalibrated#max,android.sensor.gyroscope_uncalibrated#std,android.sensor.magnetic_field_uncalibrated#mean,android.sensor.magnetic_field_uncalibrated#min,android.sensor.magnetic_field_uncalibrated#max,android.sensor.magnetic_field_uncalibrated#std,android.sensor.rotation_vector#mean,android.sensor.rotation_vector#min,android.sensor.rotation_vector#max,android.sensor.rotation_vector#std,android.sensor.gyroscope#mean,android.sensor.gyroscope#min,android.sensor.gyroscope#max,android.sensor.gyroscope#std,android.sensor.game_rotation_vector#mean,android.sensor.game_rotation_vector#min,android.sensor.game_rotation_vector#max,android.sensor.game_rotation_vector#std,android.sensor.magnetic_field#mean,android.sensor.magnetic_field#min,android.sensor.magnetic_field#max,android.sensor.magnetic_field#std,android.sensor.pressure#mean,android.sensor.pressure#min,android.sensor.pressure#max,android.sensor.pressure#std,android.sensor.light#mean,android.sensor.light#min,android.sensor.light#max,android.sensor.light#std,sound#mean,sound#min,sound#max,sound#std,speed#mean,speed#min,speed#max,speed#std,android.sensor.proximity#mean,android.sensor.proximity#min,android.sensor.proximity#max,android.sensor.proximity#std,android.sensor.step_counter#mean,android.sensor.step_counter#min,android.sensor.step_counter#max,android.sensor.step_counter#std,target,user
1,,,9.896215849603871,8.85975963597,12.5829355514,0.776578007053481,9.80664869011,9.80664723275,9.80665014747,2.061018276963411e-06,nan,nan,nan,nan,45.788695156900005,42.9542625655,48.6231277483,4.008493012390196,0.30908529420209996,0.07840045425739998,0.850291060948,0.3651541948454713,189.79780932185713,169.696376368,201.696529585,13.526900479946988,0.48209485781800004,0.430228545775,0.5339611698610001,0.07335004192148561,0.5511702209392499,0.318820165173,0.942385946491,0.28326818382963964,0.2052603647746667,0.17867031012200002,0.25353200009300003,0.041876441604437806,113.16097352331111,110.072749761,117.26708970000001,1.7971235723034518,nan,nan,nan,nan,nan,nan,nan,nan,nan,nan,nan,nan,nan,nan,nan,nan,nan,nan,nan,nan,nan,nan,nan,nan,Train,U7
2,,,9.745388220982647,9.180850275489998,10.2312681748,0.19447348822589092,9.80664973496,9.80664973496,9.80664973496,2.061018276963411e-06,nan,nan,nan,nan,24.62390242655,24.3135177922,24.9342870609,0.4389501594499854,0.054445881679999995,0.054445881679999995,0.054445881679999995,0.3651541948454713,172.9639341451111,169.943441439,175.646415955,2.3779748819839632,0.215915738787,0.215915738787,0.215915738787,0.07335004192148561,0.5511702209392499,0.318820165173,0.942385946491,0.28326818382963964,0.2052603647746667,0.17867031012200002,0.25353200009300003,0.041876441604437806,113.45176231110871,110.681796155,115.46450170700001,1.44025680075902,1038.5222,1038.5222,1038.5222,nan,nan,nan,nan,nan,76.50305657701968,75.18428862468488,77.82182452935447,1.8650195238148628,nan,nan,nan,nan,nan,nan,nan,nan,nan,nan,nan,nan,Train,U7
3,,,9.76594824228375,9.16796471518,10.2224001422,0.20423168198722413,9.80664973496,9.80664973496,9.80664973496,2.061018276963411e-06,0.49928236485,0.49928236485,0.49928236485,nan,24.60200039,24.60200039,24.60200039,0.4389501594499854,0.08540383631816666,0.035848992705099995,0.126854224915,0.04604073973913829,175.01879709488887,171.36513647799998,179.457126335,3.897115850605119,0.215915738787,0.215915738787,0.215915738787,0.07335004192148561,0.0707847109428,0.0316001002016,0.109969321684,0.0554154079465155,0.23393599230599998,0.23393599230599998,0.23393599230599998,0.041876441604437806,112.16056444646807,107.09925303200001,114.69289496,2.4157885059955846,1038.5222,1038.5222,1038.5222,nan,nan,nan,nan,nan,75.56447253532194,75.56447253532194,75.56447253532194,1.8650195238148628,nan,nan,nan,nan,nan,nan,nan,nan,nan,nan,nan,nan,Train,U7
4,,,9.807619443255,9.077887970439999,10.7356633573,0.3109885448224706,9.80665068723,9.80665068723,9.80665068723,2.061018276963411e-06,0.49928236485,0.49928236485,0.49928236485,nan,24.1574562237,24.1574562237,24.1574562237,0.4389501594499854,0.05607050967265,0.0254225645089,0.0939621192183,0.02925660809270394,171.02406665685717,170.037202266,171.866954357,0.714607349060096,0.208403171375,0.208314003744,0.208492339006,0.00012610207308488437,0.058541162590300004,0.058541162590300004,0.058541162590300004,0.0554154079465155,0.232982198116,0.232982198116,0.232982198116,0.041876441604437806,114.73190196606667,113.69912469799999,115.53726738299999,0.40674967536652323,1038.5222,1038.5222,1038.5222,nan,nan,nan,nan,nan,76.95392041468331,76.95392041468331,76.95392041468331,1.8650195238148628,nan,nan,nan,nan,nan,nan,nan,nan,nan,nan,nan,nan,Train,U7
5,,,9.762948537846265,9.06233757539,10.279055812000001,0.26987468946805326,9.80664849893,9.80664849893,9.80664849893,2.061018276963411e-06,0.49928236485,0.49928236485,0.49928236485,nan,24.1574562237,24.1574562237,24.1574562237,0.4389501594499854,0.037704638099700004,0.027016546300300003,0.0449556974446,0.009450565063236943,173.82779788599998,173.82779788599998,173.82779788599998,0.714607349060096,0.204772396091,0.203696899446,0.20584789273600002,0.0015209819416457718,0.043041871844400004,0.018966357295,0.06711738639380001,0.03404791919687226,0.23692476699599999,0.23692476699599999,0.23692476699599999,0.041876441604437806,115.125994789,114.775824981,115.47688080299999,0.28942207915450324,1038.5222,1038.5222,1038.5222,nan,nan,nan,nan,nan,76.95392041468331,76.95392041468331,76.95392041468331,1.8650195238148628,nan,nan,nan,nan,nan,nan,nan,nan,nan,nan,nan,nan,Train,U7
6,,,9.787069110370435,9.33883008107,10.2455435142,0.2494539367701185,9.80664849893,9.80664849893,9.80664849893,2.061018276963411e-06,0.49928236485,0.49928236485,0.49928236485,nan,23.701481605599998,23.701481605599998,23.701481605599998,0.4389501594499854,0.037704638099700004,0.027016546300300003,0.0449556974446,0.009450565063236943,173.82779788599998,173.82779788599998,173.82779788599998,0.714607349060096,0.204772396091,0.203696899446,0.20584789273600002,0.0015209819416457718,0.043041871844400004,0.018966357295,0.06711738639380001,0.03404791919687226,0.23692476699599999,0.23692476699599999,0.23692476699599999,0.041876441604437806,112.587481396,112.587481396,112.587481396,0.28942207915450324,1038.5222,1038.5222,1038.5222,nan,nan,nan,nan,nan,76.95392041468331,76.95392041468331,76.95392041468331,1.8650195238148628,nan,nan,nan,nan,nan,nan,nan,nan,nan,nan,nan,nan,Train,U7
