time,activityrecognition#0,activityrecognition#1,android.sensor.accelerometer#mean,android.sensor.accelerometer#min,android.sensor.accelerometer#max,android.sensor.accelerometer#std,android.sensor.gravity#mean,android.sensor.gravity#min,android.sensor.gravity#max,android.sensor.gravity#std,android.sensor.linear_acceleration#mean,android.sensor.linear_acceleration#min,android.sensor.linear_acceleration#max,android.sensor.linear_acceleration#std,android.sensor.orientation#mean,android.sensor.orientation#min,android.sensor.orientation#max,android.sensor.orientation#std,android.sensor.gyroscope_uncalibrated#mean,android.sensor.gyroscope_uncalibrated#min,android.sensor.gyroscope_uncalibrated#max,android.sensor.gyroscope_uncalibrated#std,android.sensor.magnetic_field_uncalibrated#mean,android.sensor.magnetic_field_uncalibrated#min,android.sensor.magnetic_field_uncalibrated#max,android.sensor.magnetic_field_uncalibrated#std,android.sensor.rotation_vector#mean,android.sensor.rotation_vector#min,android.sensor.rotation_vector#max,android.sensor.rotation_vector#std,android.sensor.gyroscope#mean,android.sensor.gyroscope#min,android.sensor.gyroscope#max,android.sensor.gyroscope#std,android.sensor.game_rotation_vector#mean,android.sensor.game_rotation_vector#min,android.sensor.game_rotation_vector#max,android.sensor.game_rotation_vector#std,android.sensor.magnetic_field#mean,android.sensor.magnetic_field#min,android.sensor.magnetic_field#max,android.sensor.magnetic_field#std,android.sensor.pressure#mean,android.sensor.pressure#min,android.sensor.pressure#max,android.sensor.pressure#std,android.sensor.light#mean,android.sensor.light#min,android.sensor.light#max,android.sensor.light#std,sound#mean,sound#min,sound#max,sound#std,speed#mean,speed#min,speed#max,speed#std,android.sensor.proximity#mean,android.sensor.proximity#min,android.sensor.proximity#max,android.sensor.proximity#std,android.sensor.step_counter#mean,android.sensor.step_counter#min,android.sensor.step_counter#max,android.sensor.step_counter#std,target,user
1,,,9.386446966906819,5.93930376426,14.592281590399999,2.4210720671255292,9.806598170085,9.80655767637,9.8066386638,5.726676094360484e-05,2.4148785785299998,2.4148785785299998,2.4148785785299998,1.8386222879777883,306.2115574404118,301.886445207,309.461343951,2.961015295311779,0.09393439649225001,0.08681166322450001,0.10105712976,0.010073065988418077,329.4585621623333,328.340815931,330.642615315,1.1523313572528586,0.45914988644,0.44434650777900003,0.473953265101,0.020935138871330645,nan,nan,nan,nan,0.6068088007244167,0.597671622983,0.615662439897,0.0059316936088996,52.96594086465,52.6326820402,53.2991996891,0.47129914931770267,nan,nan,nan,nan,571.0,571.0,571.0,nan,84.3801575651378,84.3801575651378,84.3801575651378,nan,13.79785,13.79785,13.79785,nan,nan,nan,nan,nan,nan,nan,nan,nan,Car,U10
2,,,9.595982245617556,7.11817683499,13.5109745022,1.6997141145138304,9.8066180466625,9.80658055505,9.80664370771,3.0584626383714277e-05,1.221677433107,0.770246901974,1.67310796424,0.6384191795975783,299.70635940253845,289.017858618,301.81067539,3.3281749943693684,0.061633849806699996,0.061633849806699996,0.061633849806699996,0.010073065988418077,329.4585621623333,328.340815931,330.642615315,1.1523313572528586,0.518480967261,0.4943674969,0.56283686924,0.0384620691788084,0.05651483914975,0.0164820450889,0.0965476332106,0.05661492030054316,0.6022144447728182,0.540045223573,0.618958108618,0.028332139357787833,62.7399456586,62.7399456586,62.7399456586,0.47129914931770267,nan,nan,nan,nan,571.0,571.0,571.0,nan,84.3801575651378,84.3801575651378,84.3801575651378,nan,13.79785,13.79785,13.79785,nan,nan,nan,nan,nan,nan,nan,nan,nan,Car,U10
3,,,10.33060789601225,8.28502816563,13.2825064356,1.1591664593780966,9.80658010042,9.806567273230002,9.80659292761,1.814038606381435e-05,1.221677433107,0.770246901974,1.67310796424,0.6384191795975783,226.8204191224815,161.764345431,288.15637195799997,46.981090228523335,0.19093173181703335,0.0905482813731,0.364643059639,0.1510454238589642,261.3736658125,260.290507774,264.461968556,2.0593990120760477,0.518480967261,0.4943674969,0.56283686924,0.0384620691788084,0.38082144429,0.38082144429,0.38082144429,0.05661492030054316,0.3117809174929091,0.239505530155,0.475019998921,0.07615233717794276,31.0856930516,31.0856930516,31.0856930516,0.47129914931770267,nan,nan,nan,nan,571.0,571.0,571.0,nan,84.3801575651378,84.3801575651378,84.3801575651378,nan,13.79785,13.79785,13.79785,nan,nan,nan,nan,nan,nan,nan,nan,nan,Car,U10
4,,,9.879862389635582,6.9453640154,13.7690099628,1.4134901707710505,9.80658010042,9.806567273230002,9.80659292761,1.814038606381435e-05,4.77891122824,4.77891122824,4.77891122824,0.6384191795975783,158.39297897290476,155.038503273,161.44623687200001,2.2954327257040497,0.0547517721528,0.0399077856475,0.0695957586581,0.020992567035478464,260.8028608023333,259.689936812,261.751746054,1.0406468509714049,0.518480967261,0.4943674969,0.56283686924,0.0384620691788084,0.03165150167275,0.0235638845321,0.039739118813400004,0.011437617847588346,0.3459101362620833,0.334183587173,0.353969411039,0.0063943979440562165,31.301024027399997,30.8051461813,31.796901873499998,0.701277175234977,nan,nan,nan,nan,571.0,571.0,571.0,nan,86.16616485996452,86.16616485996452,86.16616485996452,nan,13.79785,13.79785,13.79785,nan,nan,nan,nan,nan,nan,nan,nan,nan,Car,U10
5,,,10.308246592784666,6.24291755587,14.382135561400002,2.154394034739871,9.80654620552,9.80654620552,9.80654620552,1.814038606381435e-05,1.7263547509454997,0.535732293221,2.9169772086699997,1.6837944273799748,144.60582686489286,116.530663629,158.56408791,14.09297027884092,0.3115605508653,0.0602747892582,0.506433454861,0.2232346081968425,259.87877435633334,257.775254885,262.357304965,2.313929719924556,0.9801543046233333,0.976870230947,0.98184654385,0.002844534270051989,0.356125515179,0.356125515179,0.356125515179,0.011437617847588346,0.466783681849125,0.31176573692299997,0.7304099854870001,0.1549027108685214,31.301024027399997,30.8051461813,31.796901873499998,0.701277175234977,nan,nan,nan,nan,571.0,571.0,571.0,nan,86.16616485996452,86.16616485996452,86.16616485996452,nan,13.79785,13.79785,13.79785,nan,nan,nan,nan,nan,nan,nan,nan,nan,Car,U10
6,,,9.788112834907443,6.43251361989,13.6628551114,2.0451096116544187,9.80654620552,9.80654620552,9.80654620552,1.814038606381435e-05,2.3129610906915,0.735838837154,4.25309880363,1.750367153266923,119.17337362064706,111.283595693,123.111769969,4.251595489783849,0.09235876737318,0.0416285730352,0.121468523064,0.03519618534338715,259.87877435633334,257.775254885,262.357304965,2.313929719924556,0.8411407591794999,0.835552244374,0.846729273985,0.007903353431460924,0.09410204489134999,0.0187287734474,0.145514205165,0.054438931978329115,0.714088468049,0.7002028026680001,0.752187619812,0.021078488005757935,30.002625172400002,29.8674807483,30.1377695965,0.19112307744132126,nan,nan,nan,nan,571.0,571.0,571.0,nan,84.35388920410756,84.35388920410756,84.35388920410756,nan,13.79785,13.79785,13.79785,nan,nan,nan,nan,nan,nan,nan,nan,nan,Car,U10
7,,,9.890774856592248,5.41740083248,16.5806885623,2.5159720681221005,9.80654620552,9.80654620552,9.80654620552,1.814038606381435e-05,3.5859218142577993,0.803535559489,8.6671974238,3.014362388511179,123.40098582413042,121.930218005,124.265244435,0.7620280740618034,0.06803457649143334,0.06311748660699999,0.0718747271808,0.00447684756712303,257.38707520866666,256.745139012,258.591905205,1.0441615848034764,0.877686858696,0.874848852765,0.879889690993,0.0023372445907291705,0.0724126600936,0.0724126600936,0.0724126600936,0.054438931978329115,0.6880581961898,0.684446595456,0.692247675619,0.0022591667115907637,30.002625172400002,29.8674807483,30.1377695965,0.19112307744132126,nan,nan,nan,nan,571.0,571.0,571.0,nan,84.35388920410756,84.35388920410756,84.35388920410756,nan,13.79785,13.79785,13.79785,nan,nan,nan,nan,nan,nan,nan,nan,nan,Car,U10
8,,,9.991749170333172,6.45759453008,14.337052732,2.075920189022013,9.80654620552,9.80654620552,9.80654620552,1.814038606381435e-05,1.1093347166299998,1.1093347166299998,1.1093347166299998,3.014362388511179,119.33406886404546,111.87620843,122.44661734799999,3.6724661253372832,0.08973043926895999,0.0321619246006,0.12431070421599999,0.03423513410180232,257.39097540899996,256.12610572,258.591905205,1.088551154592086,0.8590582996046666,0.8313487992409999,0.8746039753829999,0.024056631875138564,0.09315682771365,0.0773944806493,0.108919174778,0.022291324993235512,0.7120414894698001,0.6905946781119999,0.761759424228,0.022908315567819887,30.002625172400002,29.8674807483,30.1377695965,0.19112307744132126,nan,nan,nan,nan,926.0,926.0,926.0,nan,84.35388920410756,84.35388920410756,84.35388920410756,nan,13.79785,13.79785,13.79785,nan,nan,nan,nan,nan,nan,nan,nan,nan,Car,U10
9,,,9.90106418354878,7.740293800599999,11.990640188299999,0.9322490724047119,9.80658857942,9.80658857942,9.80658857942,1.814038606381435e-05,0.960432754048,0.8746773743459999,1.04618813375,0.12127642102102296,110.50258900160607,110.27401053700001,111.18599777,0.218336066522514,0.0747954508483,0.0747954508483,0.0747954508483,0.03423513410180232,260.410823268,260.410823268,260.410823268,1.088551154592086,0.8202131702369999,0.820211775336,0.820214565138,1.9726879123462094e-06,0.09315682771365,0.0773944806493,0.108919174778,0.022291324993235512,0.7595387479360909,0.7548173790889999,0.762925002101,0.0033284994977413455,29.0019530592,29.0019530592,29.0019530592,0.19112307744132126,nan,nan,nan,nan,926.0,926.0,926.0,nan,84.35388920410756,84.35388920410756,84.35388920410756,nan,13.79785,13.79785,13.79785,nan,nan,nan,nan,nan,nan,nan,nan,nan,Car,U10
10,,,10.154324887563076,7.947370755110001,14.8889076575,1.5927555493558312,9.80658857942,9.80658857942,9.80658857942,1.814038606381435e-05,1.0769355923200001,1.0769355923200001,1.0769355923200001,0.12127642102102296,110.45210504522728,108.547918451,112.30257076299999,1.3124816365086225,0.0663006924029,0.0663006924029,0.0663006924029,0.03423513410180232,260.410823268,260.410823268,260.410823268,1.088551154592086,0.8212388831030001,0.814161846905,0.829454018843,0.005592992088905569,0.0525486151671,0.0525486151671,0.0525486151671,0.022291324993235512,0.7595795689263335,0.7542215693019999,0.766375386838,0.004992892618612873,30.9964715734,30.9964715734,30.9964715734,0.19112307744132126,nan,nan,nan,nan,926.0,926.0,926.0,nan,85.71834393456618,85.71834393456618,85.71834393456618,nan,11.361616999999999,11.361616999999999,11.361616999999999,nan,nan,nan,nan,nan,nan,nan,nan,nan,Car,U10
11,,,9.50330932888762,5.02986606001,13.3304679042,2.18932420182525,9.80663261506,9.80663261506,9.80663261506,1.814038606381435e-05,1.3726245996270001,0.439996199364,2.3052529998900004,1.3189357323062583,108.06914495051998,107.494249614,108.326766775,0.25615302558783615,0.0571180569348,0.0516172101951,0.0626189036745,0.007779372063819562,258.9303844082,257.349842445,259.424129383,0.8908818622268475,0.8097529526875,0.809131221506,0.8103746838689999,0.0008792606690274642,0.03014734223306666,0.0202232381474,0.0355983003186,0.008608420908967445,0.7612961693836667,0.757875678986,0.766635966594,0.003310369742900517,30.0307784823,30.0307784823,30.0307784823,0.19112307744132126,nan,nan,nan,nan,926.0,926.0,926.0,nan,85.71834393456618,85.71834393456618,85.71834393456618,nan,11.361616999999999,11.361616999999999,11.361616999999999,nan,nan,nan,nan,nan,nan,nan,nan,nan,Car,U10
12,,,9.845286163949773,6.3194444476100005,14.581792251600001,2.1941244094475287,9.806626439375,9.80661165711,9.80664122164,2.0905279645061824e-05,0.429954992831,0.429954992831,0.429954992831,1.3189357323062583,69.22270709848847,26.127629054299998,107.42895664299999,31.345359280146013,0.208445043546,0.100990635628,0.315899451464,0.15196348101440652,258.9303844082,257.349842445,259.424129383,0.8908818622268475,0.44557665379274997,0.254419329384,0.745688254551,0.21351194245214647,0.3418379911226,0.08577383573780001,0.505678363419,0.2246305249006579,0.933018239889,0.8323835414040001,0.999864475632,0.06023037587426125,30.0307784823,30.0307784823,30.0307784823,0.19112307744132126,nan,nan,nan,nan,1060.0,1060.0,1060.0,nan,85.71834393456618,85.71834393456618,85.71834393456618,nan,11.361616999999999,11.361616999999999,11.361616999999999,nan,nan,nan,nan,nan,nan,nan,nan,nan,Car,U10
13,,,9.822982556609999,6.98800506243,12.9800219417,1.571473290825637,9.806605299794999,9.80659004242,9.80662055717,2.1577186651007486e-05,1.95495316937975,0.555968605229,2.56228223855,0.941065332388531,24.291850597970587,23.694372749699998,25.7486709389,0.4865788603657691,0.0678768085434,0.0568597115034,0.0788939055834,0.015580528051948475,276.71837785619994,274.92020149,278.510757759,1.6495668297438482,0.210043693397,0.210043693397,0.210043693397,0.21351194245214647,0.03808412424521667,0.0203703180018,0.0715938256198,0.019878829584876873,0.9998654493577779,0.999736361487,0.999999989048,0.0001178127806558497,19.8772953048,19.618529984400002,20.1360606252,0.3659494255814971,nan,nan,nan,nan,1060.0,1060.0,1060.0,nan,85.71834393456618,85.71834393456618,85.71834393456618,nan,7.765045,7.765045,7.765045,nan,nan,nan,nan,nan,nan,nan,nan,nan,Car,U10
14,,,9.870374386800407,6.4662451323,13.9739951004,2.1604437635465223,9.806605299794999,9.80659004242,9.80662055717,2.1577186651007486e-05,4.08363682047,4.08363682047,4.08363682047,0.941065332388531,33.84875268470385,21.7574837544,68.8786019022,13.86684092275818,0.0678768085434,0.0568597115034,0.0788939055834,0.015580528051948475,274.564380358,273.83774992,275.29101079599997,1.0276106202526634,0.21703629575875,0.19613451269699997,0.251435717678,0.024363891032174078,0.44837243285850004,0.440882215251,0.455862650466,0.010592767325652239,0.9789962361382001,0.917982452098,0.9998649362659999,0.028281876469379272,16.1989582998,16.1989582998,16.1989582998,0.3659494255814971,nan,nan,nan,nan,1060.0,1060.0,1060.0,nan,85.71834393456618,85.71834393456618,85.71834393456618,nan,7.765045,7.765045,7.765045,nan,nan,nan,nan,nan,nan,nan,nan,nan,Car,U10
15,,,10.003463017102293,7.19601271608,14.355250252100001,1.3044287627450453,9.80656815631,9.80656815631,9.80656815631,2.1577186651007486e-05,1.64447055294,1.64447055294,1.64447055294,0.941065332388531,93.11841541692917,71.2739646094,99.01164638649999,9.118052438547108,0.0678768085434,0.0568597115034,0.0788939055834,0.015580528051948475,259.783097627,259.783097627,259.783097627,1.0276106202526634,0.7482321363722501,0.7321904055640001,0.754388680201,0.010710003646246889,0.074361569590725,0.03884641797030001,0.158118550548,0.056223640737595136,0.81702865942725,0.804737392854,0.8452133718529999,0.014249084478753133,16.1989582998,16.1989582998,16.1989582998,0.3659494255814971,nan,nan,nan,nan,1060.0,1060.0,1060.0,nan,82.13197626425074,82.13197626425074,82.13197626425074,nan,7.765045,7.765045,7.765045,nan,nan,nan,nan,nan,nan,nan,nan,nan,Car,U10
16,,,10.373291661735896,6.923640658689999,16.5531576074,2.009844185984697,9.80656815631,9.80656815631,9.80656815631,2.1577186651007486e-05,1.5092789835799998,1.5092789835799998,1.5092789835799998,0.941065332388531,97.92084048403845,97.1422798378,98.6721196691,0.5314546889966145,0.05436484806776667,0.04457223670800001,0.065803541749,0.010710941540909541,259.783097627,259.783097627,259.783097627,1.0276106202526634,0.7543113422588,0.74901503469,0.7570913752770001,0.003207012739453425,0.0703883175691,0.028364151786199998,0.112412483352,0.05943114519759254,0.819389615751,0.8099383648,0.822983000823,0.004279742874144689,28.82857581165,26.7810129803,30.876138643,2.895691125906224,nan,nan,nan,nan,1060.0,1060.0,1060.0,nan,82.13197626425074,82.13197626425074,82.13197626425074,nan,11.536548,11.536548,11.536548,nan,nan,nan,nan,nan,nan,nan,nan,nan,Car,U10
17,,,9.544809323799166,4.60329703514,15.6634197808,3.399859951697882,9.80656815631,9.80656815631,9.80656815631,2.1577186651007486e-05,5.3227007688,4.13618041555,6.034642517999999,1.034387851425302,96.91437397165714,96.5653865126,97.3056473181,0.2374129878870083,0.05039156799136666,0.0196998123799,0.0692625304452,0.02681257389102671,261.48815512150003,260.313160263,262.369506255,0.9617723004669694,0.7493795826424,0.744751404857,0.758157906349,0.005329375980098508,0.063259221207,0.063259221207,0.063259221207,0.05943114519759254,0.8226523341742222,0.8219809394230001,0.824163462,0.0006345548414083973,28.82857581165,26.7810129803,30.876138643,2.895691125906224,nan,nan,nan,nan,1060.0,1060.0,1060.0,nan,82.13197626425074,82.13197626425074,82.13197626425074,nan,11.536548,11.536548,11.536548,nan,nan,nan,nan,nan,nan,nan,nan,nan,Car,U10
18,,,9.845636046982273,4.3557310329800005,16.583713694700002,3.7529753431682478,9.806603850295,9.8065740144,9.806633686189999,4.219432735320025e-05,3.9005795850199996,3.9005795850199996,3.9005795850199996,1.034387851425302,99.83716538626958,97.1804368301,103.127452213,2.051275832122868,0.072549015044975,0.0426732118061,0.13308453141899998,0.04102679626576743,261.48815512150003,260.313160263,262.369506255,0.9617723004669694,0.7622222631373333,0.748053878378,0.7752365753489999,0.013628047044175511,0.02279610937655,0.0121560651411,0.033436153612,0.01504729486202306,0.8078333465993334,0.794720161707,0.81951201587,0.009069782492582083,28.82857581165,26.7810129803,30.876138643,2.895691125906224,nan,nan,nan,nan,1060.0,1060.0,1060.0,nan,82.13197626425074,82.13197626425074,82.13197626425074,nan,11.536548,11.536548,11.536548,nan,nan,nan,nan,nan,nan,nan,nan,nan,Car,U10
19,,,10.669651092015947,3.85970256943,20.0064528718,3.5784136372736053,9.80661966965,9.80656648239,9.80663988785,3.560850707042016e-05,4.01519130309,3.5127053591199995,4.51767724706,0.7106224368642214,104.76836520364516,103.172171636,106.383191811,0.9756480245705905,0.072549015044975,0.0426732118061,0.13308453141899998,0.04102679626576743,260.3544981525,258.431635363,262.27736094200003,2.7193386354934845,0.7902597628818,0.7821437734819999,0.800247393685,0.008962844924940028,0.055378658725649996,0.0278865183078,0.0828707991435,0.038879757837589,0.79076685696825,0.783314980946,0.7934955905509999,0.0032818159503537675,26.51852396045,26.4536002984,26.5834476225,0.09181592339003616,nan,nan,nan,nan,1060.0,1060.0,1060.0,nan,82.13197626425074,82.13197626425074,82.13197626425074,nan,11.536548,11.536548,11.536548,nan,nan,nan,nan,nan,nan,nan,nan,nan,Car,U10
20,,,10.006458262626667,5.00060656256,15.1440360028,3.1570820599299396,9.80659314208,9.806553404510002,9.8066273285,3.7273321880977086e-05,3.9121540792800005,3.9121540792800005,3.9121540792800005,0.7106224368642214,103.90256565845,99.2441912189,106.336944192,2.2690059147706454,0.072549015044975,0.0426732118061,0.13308453141899998,0.04102679626576743,260.5992237146666,258.74502561599996,261.53525097,1.605807477466315,0.78401281572275,0.7785287041069999,0.792073291132,0.005910550544390198,0.06516580104585,0.0423924640013,0.0879391380904,0.03220636210889622,0.7995257916643,0.78704467801,0.818867915891,0.010809247941641571,26.51852396045,26.4536002984,26.5834476225,0.09181592339003616,nan,nan,nan,nan,1060.0,1060.0,1060.0,nan,84.99374855610603,84.99374855610603,84.99374855610603,nan,11.536548,11.536548,11.536548,nan,nan,nan,nan,nan,nan,nan,nan,nan,Car,U10
21,,,8.230923980349525,4.69629834999,15.7573516716,2.5589505779884183,9.806646359550001,9.806646359550001,9.806646359550001,3.7273321880977086e-05,3.9121540792800005,3.9121540792800005,3.9121540792800005,0.7106224368642214,96.79800556055834,95.34809529629999,98.3667469219,0.9390039172271206,0.05297444671082,0.0208053202791,0.0959350211964,0.030552281459778702,260.7229327665,260.48579165900003,260.960073874,0.3353681704226476,0.7508537987705,0.749939872232,0.751767725309,0.0012924873057594416,0.0741354295487,0.0429521246562,0.108987676421,0.03103150479826776,0.824038141305,0.8150348055490001,0.831369521693,0.006716425520106665,26.51852396045,26.4536002984,26.5834476225,0.09181592339003616,nan,nan,nan,nan,1060.0,1060.0,1060.0,nan,84.99374855610603,84.99374855610603,84.99374855610603,nan,11.536548,11.536548,11.536548,nan,nan,nan,nan,nan,nan,nan,nan,nan,Car,U10
22,,,9.989941152465116,4.21411053178,16.3679526528,2.5309769706450536,9.806578929905001,9.8065664919,9.80659136791,1.7589995360105418e-05,3.9121540792800005,3.9121540792800005,3.9121540792800005,0.7106224368642214,103.74245474470001,98.1877017649,121.993206773,7.703786468867626,0.11464754113299999,0.11464754113299999,0.11464754113299999,0.030552281459778702,259.4184906375,259.008845469,259.828135806,0.5793257530533005,0.7767207068299999,0.758139844314,0.7953015693459999,0.026277307770716987,0.15223259742215,0.0615005110393,0.242964683805,0.12831454710503368,0.7900443912513,0.7185764255079999,0.814684816837,0.03318149430766134,26.51852396045,26.4536002984,26.5834476225,0.09181592339003616,nan,nan,nan,nan,1060.0,1060.0,1060.0,nan,84.99374855610603,84.99374855610603,84.99374855610603,nan,11.536548,11.536548,11.536548,nan,nan,nan,nan,nan,nan,nan,nan,nan,Car,U10
23,,,9.983395725748863,3.28636605937,15.4660925845,2.2170401328581897,9.806578929905001,9.8065664919,9.80659136791,1.7589995360105418e-05,1.30392872194,1.30392872194,1.30392872194,0.7106224368642214,136.5289363652963,123.25440113799999,139.33940899799998,3.6885139695923166,0.0189663574239,0.0189663574239,0.0189663574239,0.030552281459778702,258.234215696,258.234215696,258.234215696,0.5793257530533005,0.8942304844065001,0.8910113644840001,0.897449604329,0.004552523053304867,0.26942966883,0.26942966883,0.26942966883,0.12831454710503368,0.597971513394111,0.593384701049,0.612010030555,0.006874864982615224,30.5318737142,30.5318737142,30.5318737142,0.09181592339003616,nan,nan,nan,nan,1060.0,1060.0,1060.0,nan,84.99374855610603,84.99374855610603,84.99374855610603,nan,11.536548,11.536548,11.536548,nan,nan,nan,nan,nan,nan,nan,nan,nan,Car,U10
24,,,10.427743687955553,6.73271298722,14.729368590899998,1.815019411787328,9.806570379426667,9.80654235192,9.80661486021,3.895376444622503e-05,1.884899554015,0.80328892685,2.96651018118,1.529628418143612,137.36671008927271,135.875603657,138.606252023,0.7466624023003818,0.04513418440495,0.026316880369599997,0.0639514884403,0.026611686574089945,257.283088689,256.015182045,258.550995333,1.7930907717677456,0.9298693176459999,0.9298693176459999,0.9298693176459999,0.004552523053304867,0.03690757133005,0.012278239119799998,0.0615369035403,0.03483113564392807,0.5934303744964545,0.591671716376,0.595702717784,0.0011922765942153912,30.040027023599997,28.4562438228,30.8783525508,1.088588449776536,nan,nan,nan,nan,1060.0,1060.0,1060.0,nan,84.99374855610603,84.99374855610603,84.99374855610603,nan,11.536548,11.536548,11.536548,nan,nan,nan,nan,nan,nan,nan,nan,nan,Car,U10
25,,,10.860312150122,4.301745415919999,18.8259784229,2.987285821882231,9.80655388482,9.80655388482,9.80655388482,3.895376444622503e-05,2.225133935766667,1.33221789134,3.4043585810500003,1.0653268140253185,137.102363222,136.187387678,137.730303855,0.42530198552176174,0.05668088771920545,0.00984990618996,0.13152767400499998,0.04135089144202667,257.56627806,256.970800262,258.161755858,0.8421327780236527,0.9298693176459999,0.9298693176459999,0.9298693176459999,0.004552523053304867,0.0936973456777,0.0693917121644,0.118002979191,0.03437335655657888,0.5942780690644445,0.59030128283,0.597252865369,0.0021902372644934413,28.510209246,28.510209246,28.510209246,1.088588449776536,nan,nan,nan,nan,1060.0,1060.0,1060.0,nan,84.99374855610603,84.99374855610603,84.99374855610603,nan,11.536548,11.536548,11.536548,nan,nan,nan,nan,nan,nan,nan,nan,nan,Car,U10
26,,,10.211174979926584,6.97265869597,18.2639622813,2.6323510210412406,9.80660812944,9.80659102432,9.80662523456,2.4190292690607235e-05,3.58173422725,2.13625954166,5.027208912840001,2.044209904428364,139.4535491999524,137.16474828,142.52105725200002,1.694346115416058,0.01695754552775,0.012578484952,0.0213366061035,0.006192926856678984,258.823683651,258.823683651,258.823683651,0.8421327780236527,0.938038416187,0.935849098519,0.944439258716,0.004267599929285291,0.07695771873125,0.0525486152485,0.10136682221400001,0.0345196851906734,0.56917777634975,0.544987760288,0.585860384611,0.0159639483022597,29.6849610568,28.9474200059,30.226359564099997,0.5417000926951009,nan,nan,nan,nan,1060.0,1060.0,1060.0,nan,84.99374855610603,84.99374855610603,84.99374855610603,nan,11.536548,11.536548,11.536548,nan,nan,nan,nan,nan,nan,nan,nan,nan,Car,U10
27,,,9.689015595045833,3.26591573728,14.4748263896,1.833560301773895,9.80658885287,9.80658885287,9.80658885287,2.4190292690607235e-05,2.1376195707625,1.20464551483,4.02984402388,1.3190841769487236,163.78623534105003,142.371721209,190.912087088,16.62515878141837,0.12913407921199999,0.12913407921199999,0.12913407921199999,0.006192926856678984,262.11355313966664,260.394127358,265.50255266,2.935065521953899,0.9915920967122,0.9643952839859999,0.999987738773,0.015238862475514425,0.2389430576765,0.157356802173,0.31435770318000006,0.06779481627836022,0.398288097320375,0.259504122195,0.506203607854,0.07516298106173154,29.6849610568,28.9474200059,30.226359564099997,0.5417000926951009,nan,nan,nan,nan,1060.0,1060.0,1060.0,nan,84.99374855610603,84.99374855610603,84.99374855610603,nan,11.536548,11.536548,11.536548,nan,nan,nan,nan,nan,nan,nan,nan,nan,Car,U10
28,,,10.072083749498045,4.45391513804,16.327298696,2.4301034420720016,9.80658885287,9.80658885287,9.80658885287,2.4190292690607235e-05,1.8960897967800001,1.0322570056799998,2.67609502114,0.8251188708162176,169.31087269204545,152.95189209999998,191.00837128,13.030713821935336,0.18713226915999998,0.18713226915999998,0.18713226915999998,0.006192926856678984,262.006127215,256.651857155,267.360397275,7.5720813354602114,0.9803196200979999,0.972278458943,0.9926318922130001,0.010828081690380829,0.10609432721033334,0.06683881978730001,0.178569191184,0.06283759392544967,0.35537019455063634,0.24301711774300003,0.443624005923,0.07929853247157932,29.6849610568,28.9474200059,30.226359564099997,0.5417000926951009,nan,nan,nan,nan,1060.0,1060.0,1060.0,nan,84.99374855610603,84.99374855610603,84.99374855610603,nan,11.536548,11.536548,11.536548,nan,nan,nan,nan,nan,nan,nan,nan,nan,Car,U10
29,,,10.35619381790683,6.2598995726,14.7793091968,1.8779586110144841,9.80661920304,9.8066181862,9.806620219880001,1.4380289196755514e-06,1.2558260787200002,1.2558260787200002,1.2558260787200002,0.8251188708162176,171.664304454,167.950310807,175.98791199299998,2.8508719194260546,0.18713226915999998,0.18713226915999998,0.18713226915999998,0.006192926856678984,267.27839392,260.822684321,280.73260743099996,9.078175167000639,0.9964445578783333,0.994382108823,0.999099484515,0.0024138518219134516,0.07607173677146666,0.060976469344899996,0.0942001008306,0.016818209734132367,0.2758605282229167,0.23302393473400002,0.319462259428,0.0276056418239927,22.063634122700005,15.3526259969,27.2440503826,6.091676868906836,nan,nan,nan,nan,1060.0,1060.0,1060.0,nan,84.99374855610603,84.99374855610603,84.99374855610603,nan,11.536548,11.536548,11.536548,nan,nan,nan,nan,nan,nan,nan,nan,nan,Car,U10
30,,,10.463759934162272,5.15503604833,16.2952371865,1.9674028615103734,9.80656240711,9.80654227238,9.80658254184,2.8474808240341864e-05,1.2558260787200002,1.2558260787200002,1.2558260787200002,0.8251188708162176,148.12614754052,130.25982417,167.519685033,11.78183796290514,0.172146981409,0.172146981409,0.172146981409,0.006192926856678984,259.48348263950004,258.977685151,259.989280128,0.7153056680509606,0.9760031859840002,0.972600938021,0.9795275820010001,0.003464937130272333,0.09577931173800001,0.09577931173800001,0.09577931173800001,0.016818209734132367,0.3699237665229231,0.302141776044,0.46796122168300003,0.058985151547093495,22.063634122700005,15.3526259969,27.2440503826,6.091676868906836,nan,nan,nan,nan,1060.0,1060.0,1060.0,nan,84.99374855610603,84.99374855610603,84.99374855610603,nan,11.536548,11.536548,11.536548,nan,nan,nan,nan,nan,nan,nan,nan,nan,Car,U10
31,,,10.089808111486592,3.93281567675,16.2356706809,2.1971602569875786,9.806554513330001,9.806554513330001,9.806554513330001,2.8474808240341864e-05,1.3426882094200001,1.3426882094200001,1.3426882094200001,0.8251188708162176,124.17842858891304,120.529244911,127.40753847100001,1.817999607782311,0.172146981409,0.172146981409,0.172146981409,0.006192926856678984,258.0267995963334,256.998730846,258.758378488,0.916525849727208,0.8877522662464286,0.87702704948,0.901881269206,0.00873688728990458,0.046151666545799996,0.046151666545799996,0.046151666545799996,0.016818209734132367,0.5713661276023333,0.5053815322940001,0.621758524123,0.05254672619283871,29.01218629065,28.2441227293,29.780249851999997,1.0862059052257484,nan,nan,nan,nan,1060.0,1060.0,1060.0,nan,84.99374855610603,84.99374855610603,84.99374855610603,nan,11.068035,11.068035,11.068035,nan,nan,nan,nan,nan,nan,nan,nan,nan,Car,U10
32,,,10.431990414511,5.06313368685,17.1457068142,2.841574635234061,9.8065871842,9.80653930905,9.806635059349999,6.770568642929393e-05,2.08832796137,2.08832796137,2.08832796137,0.8251188708162176,130.30997392373914,124.514520283,146.177942933,6.617281213164114,0.1504142680971,0.05206349633230001,0.217687553716,0.0870757699071403,258.349493782,258.349493782,258.349493782,0.916525849727208,0.9105544642713334,0.891468336572,0.948347962604,0.03273067752727889,0.196781892309,0.04425296085,0.28717424916900003,0.09081005969206936,0.5827957889917,0.514803839473,0.622153892497,0.04110185016451111,29.01218629065,28.2441227293,29.780249851999997,1.0862059052257484,nan,nan,nan,nan,1060.0,1060.0,1060.0,nan,89.8014180714598,89.8014180714598,89.8014180714598,nan,11.068035,11.068035,11.068035,nan,nan,nan,nan,nan,nan,nan,nan,nan,Car,U10
33,,,9.854388711159473,5.62289879969,16.3875059085,2.078136031701395,9.8065871842,9.80653930905,9.806635059349999,6.770568642929393e-05,0.669242150803,0.669242150803,0.669242150803,0.8251188708162176,131.83479519293044,99.57492103940001,150.364979916,17.32427636433699,0.2651440093942,0.178915752839,0.30396791205699997,0.05374013418257702,258.349493782,258.349493782,258.349493782,0.916525849727208,0.8488289026335715,0.762066299609,0.964935800872,0.08820758214092998,0.298767429068,0.298767429068,0.298767429068,0.09081005969206936,0.6209298057960834,0.47853587888099997,0.806258044241,0.11366630862991842,19.5704067155,12.381469268599998,26.759344162399998,10.166692836457791,nan,nan,nan,nan,1060.0,1060.0,1060.0,nan,88.86025022433572,88.86025022433572,88.86025022433572,nan,11.068035,11.068035,11.068035,nan,nan,nan,nan,nan,nan,nan,nan,nan,Car,U10
34,,,10.333133085686,3.58331294773,15.4297603714,2.376753331623549,9.80658853323,9.80658853323,9.80658853323,6.770568642929393e-05,0.669242150803,0.669242150803,0.669242150803,0.8251188708162176,95.71531751846666,77.01023503409999,99.6292336616,6.732672069543855,0.0752239989884,0.0515303869576,0.09315644914719999,0.021402698496676805,258.349493782,258.349493782,258.349493782,0.916525849727208,0.755728547016,0.755728547016,0.755728547016,0.08820758214092998,0.0430496730246,0.0395131119637,0.0465862340855,0.005001452616485363,0.8157091029086364,0.8139406743100001,0.818597916752,0.0020566177379739547,19.5704067155,12.381469268599998,26.759344162399998,10.166692836457791,nan,nan,nan,nan,1060.0,1060.0,1060.0,nan,86.66934853810743,86.66934853810743,86.66934853810743,nan,11.068035,11.068035,11.068035,nan,nan,nan,nan,nan,nan,nan,nan,nan,Car,U10
35,,,10.384188025290513,6.409782029990001,20.7812933698,2.90509967206846,9.80662532577,9.80662532577,9.80662532577,6.770568642929393e-05,0.771712892941,0.771712892941,0.771712892941,0.8251188708162176,115.881045976396,97.3333793074,174.976628725,24.257395374456852,0.0912085101751,0.08552985922289999,0.0968871611273,0.00803082519258414,269.940323857,263.571540632,276.309107082,9.00681961260928,0.759309203882,0.759309203882,0.759309203882,0.08820758214092998,0.4095238030655666,0.0709235356097,0.601594079396,0.29411916842502206,0.7082801773398334,0.385992305618,0.817988199655,0.14094685858838196,28.221501999974997,25.396619484699997,32.176818616,3.155053127224977,nan,nan,nan,nan,1060.0,1060.0,1060.0,nan,86.66934853810743,86.66934853810743,86.66934853810743,nan,11.068035,11.068035,11.068035,nan,nan,nan,nan,nan,nan,nan,nan,nan,Car,U10
36,,,9.610219292117893,3.7313432252900003,13.9898532218,1.829338461609636,9.806577447373334,9.80654147825,9.80659992913,3.1473133588124844e-05,0.771712892941,0.771712892941,0.771712892941,0.8251188708162176,185.88074029766668,182.817346158,187.28211225200002,1.1434582566717273,0.07088143039589999,0.07088143039589999,0.07088143039589999,0.00803082519258414,279.995010899,278.74386904700003,281.246152751,1.7693817755509764,0.9989457297003334,0.998718594168,0.999372833871,0.0003701323945334023,0.07910256662586666,0.0543498468325,0.0915809058749,0.02143672672459581,0.27379229218963635,0.246176561384,0.323040913469,0.024481683929660124,24.6199892246,24.3686690496,24.8713093996,0.3554203999829797,nan,nan,nan,nan,1060.0,1060.0,1060.0,nan,86.66934853810743,86.66934853810743,86.66934853810743,nan,11.068035,11.068035,11.068035,nan,nan,nan,nan,nan,nan,nan,nan,nan,Car,U10
37,,,9.74605450018925,6.17275535569,14.2851352352,2.123669337474542,9.80662865664,9.80662865664,9.80662865664,3.1473133588124844e-05,1.3508572615999999,1.33926506785,1.36244945535,0.016393837618906597,190.7420403764445,187.529020687,195.471117815,2.3565280919918195,0.1581398280448,0.08389117205119999,0.306656796312,0.10098317176120204,282.11096896066664,281.65828004599996,282.54658769599996,0.4443997789479492,0.9954633921523334,0.992271217085,0.997821077907,0.0018621393681591168,0.207125663973,0.207125663973,0.207125663973,0.02143672672459581,0.210251869797625,0.18602506007300001,0.23764530733000003,0.019419840049966754,25.559137920700003,25.559137920700003,25.559137920700003,0.3554203999829797,nan,nan,nan,nan,1060.0,1060.0,1060.0,nan,86.66934853810743,86.66934853810743,86.66934853810743,nan,11.068035,11.068035,11.068035,nan,nan,nan,nan,nan,nan,nan,nan,nan,Car,U10
38,,,10.061015475902682,6.412550187999999,15.8495601069,2.2274560828635925,9.806563714680001,9.806563714680001,9.806563714680001,3.1473133588124844e-05,1.3508572615999999,1.33926506785,1.36244945535,0.016393837618906597,212.19483047065216,196.129085043,234.128027642,16.57737491601638,0.16605742794605,0.0311720905691,0.300942765323,0.19075667348375328,285.031632017,285.031632017,285.031632017,0.4443997789479492,0.9678068565136002,0.895832930361,0.9908303323250001,0.040349736651465795,0.482120903564,0.482120903564,0.482120903564,0.02143672672459581,0.17033545867521424,0.16133928163699998,0.17753215701699998,0.004713129300871567,25.559137920700003,25.559137920700003,25.559137920700003,0.3554203999829797,nan,nan,nan,nan,1060.0,1060.0,1060.0,nan,86.66934853810743,86.66934853810743,86.66934853810743,nan,11.068035,11.068035,11.068035,nan,nan,nan,nan,nan,nan,nan,nan,nan,Car,U10
39,,,9.912716292003541,6.8145964265900005,12.744653638399999,1.267641875101076,9.806563714680001,9.806563714680001,9.806563714680001,3.1473133588124844e-05,0.907576827051,0.907576827051,0.907576827051,0.016393837618906597,235.45421845890002,235.037991397,237.25016051900002,0.5622348527706714,0.17807533847800003,0.17807533847800003,0.17807533847800003,0.19075667348375328,283.418890616,282.690008003,284.147773229,1.0307956766825346,0.8889282566300001,0.8883153343510001,0.889541178909,0.0008668029996423554,0.07192099569803333,0.029142817902,0.142586996567,0.06164976419301646,0.17861958468516667,0.171615538644,0.19182574894699997,0.004929789040155814,25.559137920700003,25.559137920700003,25.559137920700003,0.3554203999829797,nan,nan,nan,nan,1060.0,1060.0,1060.0,nan,85.5896885805842,85.5896885805842,85.5896885805842,nan,11.068035,11.068035,11.068035,nan,nan,nan,nan,nan,nan,nan,nan,nan,Car,U10
40,,,9.725946042611817,4.903231423,22.785340143600003,3.219669818405997,9.806590217222501,9.80655174858,9.806623134410001,3.608331763814865e-05,3.16678651275,3.1479614689499997,3.1856115565499996,0.026622632254227462,242.96698924868423,231.301914821,255.193939464,6.488733920485283,0.318974908534975,0.036854971430300004,1.11319290498,0.5300130450130079,283.418890616,282.690008003,284.147773229,1.0307956766825346,0.8086805862,0.8086805862,0.8086805862,0.0008668029996423554,0.7964146684346667,0.484620604125,1.3581055072200001,0.48742206290208806,0.20259673576653847,0.164794042417,0.31848470421,0.04734535814951962,36.6524975894,28.7937167625,44.5112784163,11.113994429119627,nan,nan,nan,nan,1060.0,1060.0,1060.0,nan,85.5896885805842,85.5896885805842,85.5896885805842,nan,11.068035,11.068035,11.068035,nan,nan,nan,nan,nan,nan,nan,nan,nan,Car,U10
41,,,9.941657533253334,9.530053476789998,10.886875002,0.5143141603278544,9.806570475160001,9.806570475160001,9.806570475160001,3.608331763814865e-05,3.16678651275,3.1479614689499997,3.1856115565499996,0.026622632254227462,239.491197214,237.503307135,241.479087293,2.8113011102287175,2.30426565522,2.30426565522,2.30426565522,0.5300130450130079,280.217514565,280.217514565,280.217514565,1.0307956766825346,0.8086805862,0.8086805862,0.8086805862,0.0008668029996423554,0.7964146684346667,0.484620604125,1.3581055072200001,0.48742206290208806,0.486727243006,0.486727243006,0.486727243006,0.04734535814951962,36.6524975894,28.7937167625,44.5112784163,11.113994429119627,nan,nan,nan,nan,1060.0,1060.0,1060.0,nan,85.5896885805842,85.5896885805842,85.5896885805842,nan,11.068035,11.068035,11.068035,nan,nan,nan,nan,nan,nan,nan,nan,nan,Car,U10
