time,activityrecognition#0,activityrecognition#1,android.sensor.accelerometer#mean,android.sensor.accelerometer#min,android.sensor.accelerometer#max,android.sensor.accelerometer#std,android.sensor.gravity#mean,android.sensor.gravity#min,android.sensor.gravity#max,android.sensor.gravity#std,android.sensor.linear_acceleration#mean,android.sensor.linear_acceleration#min,android.sensor.linear_acceleration#max,android.sensor.linear_acceleration#std,android.sensor.orientation#mean,android.sensor.orientation#min,android.sensor.orientation#max,android.sensor.orientation#std,android.sensor.gyroscope_uncalibrated#mean,android.sensor.gyroscope_uncalibrated#min,android.sensor.gyroscope_uncalibrated#max,android.sensor.gyroscope_uncalibrated#std,android.sensor.magnetic_field_uncalibrated#mean,android.sensor.magnetic_field_uncalibrated#min,android.sensor.magnetic_field_uncalibrated#max,android.sensor.magnetic_field_uncalibrated#std,android.sensor.rotation_vector#mean,android.sensor.rotation_vector#min,android.sensor.rotation_vector#max,android.sensor.rotation_vector#std,android.sensor.gyroscope#mean,android.sensor.gyroscope#min,android.sensor.gyroscope#max,android.sensor.gyroscope#std,android.sensor.game_rotation_vector#mean,android.sensor.game_rotation_vector#min,android.sensor.game_rotation_vector#max,android.sensor.game_rotation_vector#std,android.sensor.magnetic_field#mean,android.sensor.magnetic_field#min,android.sensor.magnetic_field#max,android.sensor.magnetic_field#std,android.sensor.pressure#mean,android.sensor.pressure#min,android.sensor.pressure#max,android.sensor.pressure#std,android.sensor.light#mean,android.sensor.light#min,android.sensor.light#max,android.sensor.light#std,sound#mean,sound#min,sound#max,sound#std,speed#mean,speed#min,speed#max,speed#std,android.sensor.proximity#mean,android.sensor.proximity#min,android.sensor.proximity#max,android.sensor.proximity#std,android.sensor.step_counter#mean,android.sensor.step_counter#min,android.sensor.step_counter#max,android.sensor.step_counter#std,target,user
1,,,10.57478201146579,8.84213672835,12.6429081296,1.040417966649332,nan,nan,nan,nan,3.48494619486,3.48494619486,3.48494619486,nan,nan,nan,nan,nan,nan,nan,nan,nan,nan,nan,nan,nan,nan,nan,nan,nan,nan,nan,nan,nan,nan,nan,nan,nan,59.7494371892,56.128773369799994,62.4672618257,1.6154387193722732,nan,nan,nan,nan,5.0,2.0,8.0,3.0,65.37123667411623,64.38120664897723,66.36126669925522,1.400113888708149,nan,nan,nan,nan,nan,nan,nan,nan,nan,nan,nan,nan,Walking,U4
2,,,9.744464705382,9.09626244142,10.688334458,0.5336157988307105,nan,nan,nan,nan,3.48494619486,3.48494619486,3.48494619486,nan,246.1879007385,222.29337907099998,270.082422406,33.79195660859629,nan,nan,nan,nan,nan,nan,nan,nan,nan,nan,nan,nan,nan,nan,nan,nan,nan,nan,nan,nan,49.61653582616585,35.5156923064,63.5055714091,10.144174060940161,nan,nan,nan,nan,8.0,8.0,8.0,3.0,72.524753702938,72.524753702938,72.524753702938,1.400113888708149,nan,nan,nan,nan,nan,nan,nan,nan,nan,nan,nan,nan,Walking,U4
3,,,10.310360669989048,4.750511288219999,20.0572034883,2.623069392314617,9.79928909379,9.79928909379,9.79928909379,nan,3.48494619486,3.48494619486,3.48494619486,nan,293.5853212475,259.70875035299997,327.461892142,47.90870600569558,nan,nan,nan,nan,nan,nan,nan,nan,nan,nan,nan,nan,nan,nan,nan,nan,nan,nan,nan,nan,51.407837737339136,34.130719300900004,64.8872190805,7.805145869310508,nan,nan,nan,nan,6.333333333333333,0.0,17.0,9.29157324317757,66.79697566075275,66.79697566075275,66.79697566075275,1.400113888708149,nan,nan,nan,nan,nan,nan,nan,nan,nan,nan,nan,nan,Walking,U4
4,,,9.588895941554705,7.10055488575,10.7185223253,0.808275396204104,9.79807652483,9.79807652483,9.79807652483,nan,0.100088706933,0.100088706933,0.100088706933,nan,233.666691701,233.666691701,233.666691701,47.90870600569558,nan,nan,nan,nan,nan,nan,nan,nan,nan,nan,nan,nan,nan,nan,nan,nan,nan,nan,nan,nan,52.062593883048685,51.1893188316,53.540645723000004,0.5442923996342348,nan,nan,nan,nan,6.333333333333333,0.0,17.0,9.29157324317757,70.52161383604059,70.52161383604059,70.52161383604059,1.400113888708149,nan,nan,nan,nan,nan,nan,nan,nan,nan,nan,nan,nan,Walking,U4
5,,,9.904641276485455,9.88785266349,9.92030051404,0.012829460916653003,9.79878651467,9.79878651467,9.79878651467,nan,0.100088706933,0.100088706933,0.100088706933,nan,233.666691701,233.666691701,233.666691701,47.90870600569558,nan,nan,nan,nan,nan,nan,nan,nan,nan,nan,nan,nan,nan,nan,nan,nan,nan,nan,nan,nan,51.8996132823012,50.54105221100001,52.973612298999996,0.4840488714971587,nan,nan,nan,nan,6.333333333333333,0.0,17.0,9.29157324317757,65.09096154217947,65.09096154217947,65.09096154217947,1.400113888708149,nan,nan,nan,nan,nan,nan,nan,nan,nan,nan,nan,nan,Walking,U4
6,,,9.785046148728949,6.82232370268,12.155714446400001,1.111204220817811,9.79878651467,9.79878651467,9.79878651467,nan,0.394990085931,0.394990085931,0.394990085931,nan,233.666691701,233.666691701,233.666691701,47.90870600569558,nan,nan,nan,nan,nan,nan,nan,nan,nan,nan,nan,nan,nan,nan,nan,nan,nan,nan,nan,nan,50.311477113637835,46.3988189505,52.631355263900005,1.7838195466735436,nan,nan,nan,nan,6.333333333333333,0.0,17.0,9.29157324317757,72.61262488041,72.61262488041,72.61262488041,1.400113888708149,nan,nan,nan,nan,nan,nan,nan,nan,nan,nan,nan,nan,Walking,U4
7,,,9.91761219398,6.50869257869,12.0535479636,1.1509718697026388,9.79878651467,9.79878651467,9.79878651467,nan,0.394990085931,0.394990085931,0.394990085931,nan,233.666691701,233.666691701,233.666691701,47.90870600569558,nan,nan,nan,nan,nan,nan,nan,nan,nan,nan,nan,nan,nan,nan,nan,nan,nan,nan,nan,nan,38.857663272096104,20.606221461500002,49.730517793400004,8.780739635823094,nan,nan,nan,nan,6.333333333333333,0.0,17.0,9.29157324317757,53.44195715871435,53.44195715871435,53.44195715871435,1.400113888708149,nan,nan,nan,nan,nan,nan,nan,nan,nan,nan,nan,nan,Walking,U4
8,,,9.739125720522381,8.21914331031,11.0758658935,0.6934525107587074,9.794593112689999,9.794593112689999,9.794593112689999,nan,3.357513789515,2.85003933224,3.8649882467900003,0.7176772600362309,233.666691701,233.666691701,233.666691701,47.90870600569558,nan,nan,nan,nan,nan,nan,nan,nan,nan,nan,nan,nan,nan,nan,nan,nan,nan,nan,nan,nan,40.73074739924445,25.9134714,49.0755223312,5.241642688092939,nan,nan,nan,nan,6.333333333333333,0.0,17.0,9.29157324317757,53.44195715871435,53.44195715871435,53.44195715871435,1.400113888708149,nan,nan,nan,nan,nan,nan,nan,nan,nan,nan,nan,nan,Walking,U4
9,,,9.993498834617144,9.597340687380001,10.4988620085,0.2468681962139629,9.794593112689999,9.794593112689999,9.794593112689999,nan,0.52821664906,0.52821664906,0.52821664906,0.7176772600362309,80.3463039875,80.3463039875,80.3463039875,47.90870600569558,nan,nan,nan,nan,nan,nan,nan,nan,nan,nan,nan,nan,nan,nan,nan,nan,nan,nan,nan,nan,42.1226217361975,39.2780085493,45.2074799749,1.3778164441308558,nan,nan,nan,nan,6.333333333333333,0.0,17.0,9.29157324317757,53.44195715871435,53.44195715871435,53.44195715871435,1.400113888708149,nan,nan,nan,nan,nan,nan,nan,nan,nan,nan,nan,nan,Walking,U4
10,,,10.0181284528775,8.9384039088,11.664947545699999,0.486528576774506,9.80158784708,9.80158784708,9.80158784708,nan,0.52821664906,0.52821664906,0.52821664906,0.7176772600362309,80.3463039875,80.3463039875,80.3463039875,47.90870600569558,nan,nan,nan,nan,nan,nan,nan,nan,nan,nan,nan,nan,nan,nan,nan,nan,nan,nan,nan,nan,47.20409602651622,42.8486545439,57.487075501899994,2.8838468184956927,nan,nan,nan,nan,6.333333333333333,0.0,17.0,9.29157324317757,71.53833911930414,71.53833911930414,71.53833911930414,1.400113888708149,nan,nan,nan,nan,nan,nan,nan,nan,nan,nan,nan,nan,Walking,U4
11,,,9.885201919952353,8.27596830735,10.8832346184,0.5466900947304608,9.80577066089,9.80577066089,9.80577066089,nan,0.52821664906,0.52821664906,0.52821664906,0.7176772600362309,186.42967515700002,186.42967515700002,186.42967515700002,47.90870600569558,nan,nan,nan,nan,nan,nan,nan,nan,nan,nan,nan,nan,nan,nan,nan,nan,nan,nan,nan,nan,48.010561077262345,32.8714039858,74.7259214712,12.759701408793925,nan,nan,nan,nan,6.333333333333333,0.0,17.0,9.29157324317757,71.53833911930414,71.53833911930414,71.53833911930414,1.400113888708149,nan,nan,nan,nan,nan,nan,nan,nan,nan,nan,nan,nan,Walking,U4
12,,,10.076072157753334,9.279277859,12.6346831641,0.6732993208619635,9.80135631804,9.799260111839999,9.803452524239999,0.0029644832375706554,0.52821664906,0.52821664906,0.52821664906,0.7176772600362309,186.42967515700002,186.42967515700002,186.42967515700002,47.90870600569558,nan,nan,nan,nan,nan,nan,nan,nan,nan,nan,nan,nan,nan,nan,nan,nan,nan,nan,nan,nan,37.84703792900405,29.9523214867,55.122007878299996,7.801775497686959,nan,nan,nan,nan,6.333333333333333,0.0,17.0,9.29157324317757,71.53833911930414,71.53833911930414,71.53833911930414,1.400113888708149,nan,nan,nan,nan,nan,nan,nan,nan,nan,nan,nan,nan,Walking,U4
13,,,9.943738533047199,8.9681979589,10.803932085,0.40883708342017877,9.80135631804,9.799260111839999,9.803452524239999,0.0029644832375706554,0.7053709669830001,0.7053709669830001,0.7053709669830001,0.7176772600362309,253.32651040949997,246.228370421,260.424650398,10.038285839359498,nan,nan,nan,nan,nan,nan,nan,nan,nan,nan,nan,nan,nan,nan,nan,nan,nan,nan,nan,nan,36.15791836584545,30.27670302,42.9207632803,3.8388240384050847,nan,nan,nan,nan,6.333333333333333,0.0,17.0,9.29157324317757,65.70664455287768,65.70664455287768,65.70664455287768,1.400113888708149,nan,nan,nan,nan,nan,nan,nan,nan,nan,nan,nan,nan,Walking,U4
14,,,9.880512181145,9.43877803983,10.4075217317,0.18098591458743235,9.80135631804,9.799260111839999,9.803452524239999,0.0029644832375706554,0.7053709669830001,0.7053709669830001,0.7053709669830001,0.7176772600362309,253.32651040949997,246.228370421,260.424650398,10.038285839359498,nan,nan,nan,nan,nan,nan,nan,nan,nan,nan,nan,nan,nan,nan,nan,nan,nan,nan,nan,nan,34.927892136543036,34.0167717622,36.0603987349,0.4184308834089029,nan,nan,nan,nan,6.333333333333333,0.0,17.0,9.29157324317757,66.04228753912402,66.04228753912402,66.04228753912402,1.400113888708149,nan,nan,nan,nan,nan,nan,nan,nan,nan,nan,nan,nan,Walking,U4
15,,,9.7757323981625,8.61930744252,11.1539998552,0.7564952523053521,9.80135631804,9.799260111839999,9.803452524239999,0.0029644832375706554,2.93628262829,2.93628262829,2.93628262829,0.7176772600362309,239.199737924,239.199737924,239.199737924,10.038285839359498,nan,nan,nan,nan,nan,nan,nan,nan,nan,nan,nan,nan,nan,nan,nan,nan,nan,nan,nan,nan,33.839935605151354,31.5790431236,37.081796073,1.2639061603009398,nan,nan,nan,nan,6.333333333333333,0.0,17.0,9.29157324317757,66.04228753912402,66.04228753912402,66.04228753912402,1.400113888708149,nan,nan,nan,nan,nan,nan,nan,nan,nan,nan,nan,nan,Walking,U4
16,,,10.020159474455264,8.929184851110001,11.7544757425,0.6692404473598286,9.80135631804,9.799260111839999,9.803452524239999,0.0029644832375706554,1.65166017616,1.65166017616,1.65166017616,0.7176772600362309,239.199737924,239.199737924,239.199737924,10.038285839359498,nan,nan,nan,nan,nan,nan,nan,nan,nan,nan,nan,nan,nan,nan,nan,nan,nan,nan,nan,nan,37.1332313064974,31.831738878000003,44.5646541555,4.283674246786879,nan,nan,nan,nan,6.333333333333333,0.0,17.0,9.29157324317757,66.04228753912402,66.04228753912402,66.04228753912402,1.400113888708149,nan,nan,nan,nan,nan,nan,nan,nan,nan,nan,nan,nan,Walking,U4
17,,,9.945738481080001,9.56265090492,10.4335042353,0.2157635732658882,9.80291355357,9.80291355357,9.80291355357,0.0029644832375706554,1.22651210889,1.22651210889,1.22651210889,0.7176772600362309,239.199737924,239.199737924,239.199737924,10.038285839359498,nan,nan,nan,nan,nan,nan,nan,nan,nan,nan,nan,nan,nan,nan,nan,nan,nan,nan,nan,nan,42.24642370124683,38.6778541287,44.995519424899996,1.663939495384832,nan,nan,nan,nan,6.333333333333333,0.0,17.0,9.29157324317757,69.96345321273088,69.96345321273088,69.96345321273088,1.400113888708149,nan,nan,nan,nan,nan,nan,nan,nan,nan,nan,nan,nan,Walking,U4
18,,,9.914802365403846,9.84734121087,10.0151467676,0.052894486289964605,9.80332986537,9.80332986537,9.80332986537,0.0029644832375706554,1.22651210889,1.22651210889,1.22651210889,0.7176772600362309,90.5598620971,90.5598620971,90.5598620971,10.038285839359498,nan,nan,nan,nan,nan,nan,nan,nan,nan,nan,nan,nan,nan,nan,nan,nan,nan,nan,nan,nan,37.58769133002469,36.1328050392,39.6018635925,0.7658777238784613,nan,nan,nan,nan,6.333333333333333,0.0,17.0,9.29157324317757,69.96345321273088,69.96345321273088,69.96345321273088,1.400113888708149,nan,nan,nan,nan,nan,nan,nan,nan,nan,nan,nan,nan,Walking,U4
19,,,9.886160477501667,9.85364113998,9.90547380207,0.017479565629815234,9.805533554830001,9.805533554830001,9.805533554830001,0.0029644832375706554,0.0872127744665,0.0872127744665,0.0872127744665,0.7176772600362309,90.8104823309,90.8104823309,90.8104823309,10.038285839359498,nan,nan,nan,nan,nan,nan,nan,nan,nan,nan,nan,nan,nan,nan,nan,nan,nan,nan,nan,nan,37.46032615467901,35.9646826762,38.424130754800004,0.47477449790194587,nan,nan,nan,nan,6.333333333333333,0.0,17.0,9.29157324317757,69.96345321273088,69.96345321273088,69.96345321273088,1.400113888708149,nan,nan,nan,nan,nan,nan,nan,nan,nan,nan,nan,nan,Walking,U4
20,,,9.908195402829332,9.8781919087,9.93514683858,0.014570723965747896,9.805533554830001,9.805533554830001,9.805533554830001,0.0029644832375706554,0.0872127744665,0.0872127744665,0.0872127744665,0.7176772600362309,91.78799558120001,91.78799558120001,91.78799558120001,10.038285839359498,nan,nan,nan,nan,nan,nan,nan,nan,nan,nan,nan,nan,nan,nan,nan,nan,nan,nan,nan,nan,36.866313029282715,34.6976416651,38.0201665488,0.5342100978780508,nan,nan,nan,nan,6.333333333333333,0.0,17.0,9.29157324317757,69.96345321273088,69.96345321273088,69.96345321273088,1.400113888708149,nan,nan,nan,nan,nan,nan,nan,nan,nan,nan,nan,nan,Walking,U4
21,,,9.8910418193875,9.80429806075,9.988852319580001,0.04041863707264155,9.80178682199,9.80178682199,9.80178682199,0.0029644832375706554,0.08710870912065,0.0828493444368,0.09136807380449999,0.006023651302993649,91.54119411260001,91.37638133790001,91.70600688729999,0.23308046123306578,nan,nan,nan,nan,nan,nan,nan,nan,nan,nan,nan,nan,nan,nan,nan,nan,nan,nan,nan,nan,36.33982484940541,34.143585049,37.5273020613,0.6609281306465973,nan,nan,nan,nan,6.333333333333333,0.0,17.0,9.29157324317757,67.57885397226875,67.57885397226875,67.57885397226875,1.400113888708149,nan,nan,nan,nan,nan,nan,nan,nan,nan,nan,nan,nan,Walking,U4
22,,,9.9511986908335,8.953131719149999,11.4337647169,0.48410261093280726,9.79809656752,9.79809656752,9.79809656752,0.0029644832375706554,0.08710870912065,0.0828493444368,0.09136807380449999,0.006023651302993649,95.8802837323,95.8802837323,95.8802837323,0.23308046123306578,nan,nan,nan,nan,nan,nan,nan,nan,nan,nan,nan,nan,nan,nan,nan,nan,nan,nan,nan,nan,29.922615547163893,25.917915565700003,34.7453881832,2.6856528360635625,nan,nan,nan,nan,6.333333333333333,0.0,17.0,9.29157324317757,75.1129243891336,75.1129243891336,75.1129243891336,1.400113888708149,nan,nan,nan,nan,nan,nan,nan,nan,nan,nan,nan,nan,Walking,U4
23,,,9.93549436328412,9.90761296915,9.9597871231,0.017075612956877935,9.79208274248,9.79208274248,9.79208274248,0.0029644832375706554,0.08710870912065,0.0828493444368,0.09136807380449999,0.006023651302993649,107.847415089,107.847415089,107.847415089,0.23308046123306578,nan,nan,nan,nan,nan,nan,nan,nan,nan,nan,nan,nan,nan,nan,nan,nan,nan,nan,nan,nan,29.767108156043587,28.3632508715,31.2367283818,0.7870923487115135,nan,nan,nan,nan,6.333333333333333,0.0,17.0,9.29157324317757,75.1129243891336,75.1129243891336,75.1129243891336,1.400113888708149,nan,nan,nan,nan,nan,nan,nan,nan,nan,nan,nan,nan,Walking,U4
24,,,9.934631892427221,9.905076215469999,9.98201496645,0.02027700433499572,9.79208274248,9.79208274248,9.79208274248,0.0029644832375706554,0.1363906165305,0.12992982762,0.142851405441,0.009136935300858798,108.51133450799999,108.51133450799999,108.51133450799999,0.23308046123306578,nan,nan,nan,nan,nan,nan,nan,nan,nan,nan,nan,nan,nan,nan,nan,nan,nan,nan,nan,nan,30.394316278665332,29.413466303699998,31.265066457,0.4018240505427577,nan,nan,nan,nan,6.333333333333333,0.0,17.0,9.29157324317757,75.1129243891336,75.1129243891336,75.1129243891336,1.400113888708149,nan,nan,nan,nan,nan,nan,nan,nan,nan,nan,nan,nan,Walking,U4
25,,,9.933702489941538,9.90822391486,9.97328231368,0.018044831104750737,9.79208274248,9.79208274248,9.79208274248,0.0029644832375706554,0.1363906165305,0.12992982762,0.142851405441,0.009136935300858798,108.19467412175,107.996574065,108.560994385,0.26087416541331854,nan,nan,nan,nan,nan,nan,nan,nan,nan,nan,nan,nan,nan,nan,nan,nan,nan,nan,nan,nan,30.314107882960762,29.0435314981,31.2922863134,0.4755059330577208,nan,nan,nan,nan,6.333333333333333,0.0,17.0,9.29157324317757,75.1129243891336,75.1129243891336,75.1129243891336,1.400113888708149,nan,nan,nan,nan,nan,nan,nan,nan,nan,nan,nan,nan,Walking,U4
26,,,9.97044972406154,9.215232348539999,10.2708648313,0.27370909542567423,9.79753779957,9.79753779957,9.79753779957,0.0029644832375706554,0.1363906165305,0.12992982762,0.142851405441,0.009136935300858798,108.19467412175,107.996574065,108.560994385,0.26087416541331854,nan,nan,nan,nan,nan,nan,nan,nan,nan,nan,nan,nan,nan,nan,nan,nan,nan,nan,nan,nan,32.714274117240244,29.595147391399998,36.0122978995,1.495950294131729,nan,nan,nan,nan,6.333333333333333,0.0,17.0,9.29157324317757,75.1129243891336,75.1129243891336,75.1129243891336,1.400113888708149,nan,nan,nan,nan,nan,nan,nan,nan,nan,nan,nan,nan,Walking,U4
27,,,10.080300834840587,7.938109973160001,13.7436922323,1.1585359863231888,9.80325377876,9.80325377876,9.80325377876,0.0029644832375706554,0.1363906165305,0.12992982762,0.142851405441,0.009136935300858798,108.19467412175,107.996574065,108.560994385,0.26087416541331854,nan,nan,nan,nan,nan,nan,nan,nan,nan,nan,nan,nan,nan,nan,nan,nan,nan,nan,nan,nan,35.43036489024211,27.741420295300003,39.0304491811,3.1125160690031346,nan,nan,nan,nan,6.333333333333333,0.0,17.0,9.29157324317757,68.03490164474125,68.03490164474125,68.03490164474125,1.400113888708149,nan,nan,nan,nan,nan,nan,nan,nan,nan,nan,nan,nan,Walking,U4
28,,,10.42139289225643,5.4267717667,19.3833451417,3.1003890538643133,9.80325377876,9.80325377876,9.80325377876,0.0029644832375706554,2.87611943835,2.87611943835,2.87611943835,0.009136935300858798,281.6288575495,279.707122653,283.550592446,2.717743553915954,nan,nan,nan,nan,nan,nan,nan,nan,nan,nan,nan,nan,nan,nan,nan,nan,nan,nan,nan,nan,40.32213081489367,21.9245606442,50.8985681897,6.0149207741751525,nan,nan,nan,nan,6.333333333333333,0.0,17.0,9.29157324317757,68.03490164474125,68.03490164474125,68.03490164474125,1.400113888708149,nan,nan,nan,nan,nan,nan,nan,nan,nan,nan,nan,nan,Walking,U4
29,,,11.694582084041334,2.22604627416,22.1691192079,4.613710703356985,9.80325377876,9.80325377876,9.80325377876,0.0029644832375706554,5.73756211186,5.73756211186,5.73756211186,0.009136935300858798,350.734460966,350.734460966,350.734460966,2.717743553915954,nan,nan,nan,nan,nan,nan,nan,nan,nan,nan,nan,nan,nan,nan,nan,nan,nan,nan,nan,nan,39.7023238628475,25.693103243499998,55.34462542359999,6.912030231015162,nan,nan,nan,nan,6.333333333333333,0.0,17.0,9.29157324317757,68.03490164474125,68.03490164474125,68.03490164474125,1.400113888708149,nan,nan,nan,nan,nan,nan,nan,nan,nan,nan,nan,nan,Walking,U4
30,,,11.598408112211581,5.6675119265600005,16.5628731355,3.174283376360116,9.80325377876,9.80325377876,9.80325377876,0.0029644832375706554,5.33229215489,5.33229215489,5.33229215489,0.009136935300858798,341.343751788,341.343751788,341.343751788,2.717743553915954,nan,nan,nan,nan,nan,nan,nan,nan,nan,nan,nan,nan,nan,nan,nan,nan,nan,nan,nan,nan,42.09366656184667,36.059050881,47.5998571426,2.890460398678663,nan,nan,nan,nan,6.333333333333333,0.0,17.0,9.29157324317757,68.03490164474125,68.03490164474125,68.03490164474125,1.400113888708149,nan,nan,nan,nan,nan,nan,nan,nan,nan,nan,nan,nan,Walking,U4
31,,,9.930977231792939,9.54056647797,10.0864870401,0.12719050241330063,9.80325377876,9.80325377876,9.80325377876,0.0029644832375706554,0.5615487294125,0.20475871176399998,0.918338747061,0.5045772818778447,341.343751788,341.343751788,341.343751788,2.717743553915954,nan,nan,nan,nan,nan,nan,nan,nan,nan,nan,nan,nan,nan,nan,nan,nan,nan,nan,nan,nan,48.91446956142933,45.16246664729999,50.471948644799994,1.1023985494314754,nan,nan,nan,nan,6.333333333333333,0.0,17.0,9.29157324317757,65.99014597400975,65.99014597400975,65.99014597400975,1.400113888708149,nan,nan,nan,nan,nan,nan,nan,nan,nan,nan,nan,nan,Walking,U4
32,,,9.914509890757271,9.81808190442,10.1252440699,0.08988800191180754,9.805335257260001,9.805335257260001,9.805335257260001,0.0029644832375706554,0.5615487294125,0.20475871176399998,0.918338747061,0.5045772818778447,250.0762283725,246.64783159799998,253.504625147,4.848485215694096,nan,nan,nan,nan,nan,nan,nan,nan,nan,nan,nan,nan,nan,nan,nan,nan,nan,nan,nan,nan,48.997309764292766,47.6441179026,50.656667873,0.6636371996070088,nan,nan,nan,nan,6.333333333333333,0.0,17.0,9.29157324317757,65.99014597400975,65.99014597400975,65.99014597400975,1.400113888708149,nan,nan,nan,nan,nan,nan,nan,nan,nan,nan,nan,nan,Walking,U4
33,,,10.09984812144889,8.99992593617,13.7182841628,1.100576756977812,9.805335257260001,9.805335257260001,9.805335257260001,0.0029644832375706554,0.5615487294125,0.20475871176399998,0.918338747061,0.5045772818778447,220.31157710099998,220.31157710099998,220.31157710099998,4.848485215694096,nan,nan,nan,nan,nan,nan,nan,nan,nan,nan,nan,nan,nan,nan,nan,nan,nan,nan,nan,nan,47.41116054120405,44.2437656625,52.415724889399996,1.6368511822417238,nan,nan,nan,nan,6.333333333333333,0.0,17.0,9.29157324317757,43.22736004469949,43.22736004469949,43.22736004469949,1.400113888708149,nan,nan,nan,nan,nan,nan,nan,nan,nan,nan,nan,nan,Walking,U4
34,,,11.125383243456,4.05046844798,21.918251636,6.295404285159187,9.8003018663,9.8003018663,9.8003018663,0.0029644832375706554,0.5615487294125,0.20475871176399998,0.918338747061,0.5045772818778447,149.466215775,149.466215775,149.466215775,4.848485215694096,nan,nan,nan,nan,nan,nan,nan,nan,nan,nan,nan,nan,nan,nan,nan,nan,nan,nan,nan,nan,34.973051592886904,21.3773524623,55.0476048525,10.061180190859313,nan,nan,nan,nan,6.333333333333333,0.0,17.0,9.29157324317757,80.51921819712759,80.51921819712759,80.51921819712759,1.400113888708149,nan,nan,nan,nan,nan,nan,nan,nan,nan,nan,nan,nan,Walking,U4
35,,,10.109346718917,5.32980929394,17.0773130347,3.1613381259208295,9.8003018663,9.8003018663,9.8003018663,0.0029644832375706554,0.5615487294125,0.20475871176399998,0.918338747061,0.5045772818778447,180.524989884,180.524989884,180.524989884,4.848485215694096,nan,nan,nan,nan,nan,nan,nan,nan,nan,nan,nan,nan,nan,nan,nan,nan,nan,nan,nan,nan,38.157076351416215,32.0894562123,42.0316153694,3.146510750454985,nan,nan,nan,nan,6.333333333333333,0.0,17.0,9.29157324317757,72.77577334314796,72.77577334314796,72.77577334314796,1.400113888708149,nan,nan,nan,nan,nan,nan,nan,nan,nan,nan,nan,nan,Walking,U4
36,,,10.122976428818,9.704656211889999,11.6378373475,0.558250616576005,9.8003018663,9.8003018663,9.8003018663,0.0029644832375706554,0.5615487294125,0.20475871176399998,0.918338747061,0.5045772818778447,180.524989884,180.524989884,180.524989884,4.848485215694096,nan,nan,nan,nan,nan,nan,nan,nan,nan,nan,nan,nan,nan,nan,nan,nan,nan,nan,nan,nan,39.567183011435,38.397608433,41.4715014626,0.6716390958799315,nan,nan,nan,nan,6.333333333333333,0.0,17.0,9.29157324317757,56.15070056137706,56.15070056137706,56.15070056137706,1.400113888708149,nan,nan,nan,nan,nan,nan,nan,nan,nan,nan,nan,nan,Walking,U4
37,,,9.88364367115909,9.85306810842,9.91660235743,0.019017992845779066,9.8003018663,9.8003018663,9.8003018663,0.0029644832375706554,0.5615487294125,0.20475871176399998,0.918338747061,0.5045772818778447,180.524989884,180.524989884,180.524989884,4.848485215694096,nan,nan,nan,nan,nan,nan,nan,nan,nan,nan,nan,nan,nan,nan,nan,nan,nan,nan,nan,nan,39.18834757601647,38.0629426083,40.3459262167,0.48012524889288116,nan,nan,nan,nan,6.333333333333333,0.0,17.0,9.29157324317757,56.15070056137706,56.15070056137706,56.15070056137706,1.400113888708149,nan,nan,nan,nan,nan,nan,nan,nan,nan,nan,nan,nan,Walking,U4
38,,,9.898490626498182,9.85865209278,9.930903913069999,0.023009348252000218,9.8003018663,9.8003018663,9.8003018663,0.0029644832375706554,0.5615487294125,0.20475871176399998,0.918338747061,0.5045772818778447,180.524989884,180.524989884,180.524989884,4.848485215694096,nan,nan,nan,nan,nan,nan,nan,nan,nan,nan,nan,nan,nan,nan,nan,nan,nan,nan,nan,nan,39.23066110304353,38.3515928126,40.3664464044,0.42651796513631496,nan,nan,nan,nan,6.333333333333333,0.0,17.0,9.29157324317757,56.15070056137706,56.15070056137706,56.15070056137706,1.400113888708149,nan,nan,nan,nan,nan,nan,nan,nan,nan,nan,nan,nan,Walking,U4
39,,,9.911612404607142,9.66108128995,10.2398508608,0.15074662711710718,9.8003018663,9.8003018663,9.8003018663,0.0029644832375706554,0.5615487294125,0.20475871176399998,0.918338747061,0.5045772818778447,180.524989884,180.524989884,180.524989884,4.848485215694096,nan,nan,nan,nan,nan,nan,nan,nan,nan,nan,nan,nan,nan,nan,nan,nan,nan,nan,nan,nan,38.33589866576296,35.925573064299996,40.3819607053,1.0461731209677343,nan,nan,nan,nan,6.333333333333333,0.0,17.0,9.29157324317757,58.44412554878033,58.44412554878033,58.44412554878033,1.400113888708149,nan,nan,nan,nan,nan,nan,nan,nan,nan,nan,nan,nan,Walking,U4
40,,,10.069263879182,9.437237121639999,11.3629402937,0.45136484754109935,9.8003018663,9.8003018663,9.8003018663,0.0029644832375706554,0.5615487294125,0.20475871176399998,0.918338747061,0.5045772818778447,239.90450790900002,239.90450790900002,239.90450790900002,4.848485215694096,nan,nan,nan,nan,nan,nan,nan,nan,nan,nan,nan,nan,nan,nan,nan,nan,nan,nan,nan,nan,38.02304271421481,36.3774699252,40.0340754858,0.8976018044236318,nan,nan,nan,nan,6.333333333333333,0.0,17.0,9.29157324317757,58.44412554878033,58.44412554878033,58.44412554878033,1.400113888708149,nan,nan,nan,nan,nan,nan,nan,nan,nan,nan,nan,nan,Walking,U4
41,,,9.881316446828572,9.6785991919,10.0062418381,0.12517567398803567,9.8052216979,9.8052216979,9.8052216979,0.0029644832375706554,0.619182283417,0.225867899854,1.01249666698,0.556230535511208,239.90450790900002,239.90450790900002,239.90450790900002,4.848485215694096,nan,nan,nan,nan,nan,nan,nan,nan,nan,nan,nan,nan,nan,nan,nan,nan,nan,nan,nan,nan,36.51178298583604,33.9136426495,39.0541917156,0.9853305109684583,nan,nan,nan,nan,6.333333333333333,0.0,17.0,9.29157324317757,58.44412554878033,58.44412554878033,58.44412554878033,1.400113888708149,nan,nan,nan,nan,nan,nan,nan,nan,nan,nan,nan,nan,Walking,U4
42,,,9.890667533177142,8.45659213967,11.081854679300001,0.6521357023480054,9.801692529630001,9.801692529630001,9.801692529630001,0.0029644832375706554,0.619182283417,0.225867899854,1.01249666698,0.556230535511208,239.90450790900002,239.90450790900002,239.90450790900002,4.848485215694096,nan,nan,nan,nan,nan,nan,nan,nan,nan,nan,nan,nan,nan,nan,nan,nan,nan,nan,nan,nan,35.40334555864513,33.0731185642,37.1552621501,0.884371993018059,nan,nan,nan,nan,6.333333333333333,0.0,17.0,9.29157324317757,58.44412554878033,58.44412554878033,58.44412554878033,1.400113888708149,nan,nan,nan,nan,nan,nan,nan,nan,nan,nan,nan,nan,Walking,U4
43,,,9.605870527253334,7.0365745555,11.3534450191,1.2054306270378623,9.801692529630001,9.801692529630001,9.801692529630001,0.0029644832375706554,0.619182283417,0.225867899854,1.01249666698,0.556230535511208,239.90450790900002,239.90450790900002,239.90450790900002,4.848485215694096,nan,nan,nan,nan,nan,nan,nan,nan,nan,nan,nan,nan,nan,nan,nan,nan,nan,nan,nan,nan,35.72810752956506,33.8781699624,37.1564736292,0.7764546281897959,nan,nan,nan,nan,6.333333333333333,0.0,17.0,9.29157324317757,79.83603597689287,79.83603597689287,79.83603597689287,1.400113888708149,nan,nan,nan,nan,nan,nan,nan,nan,nan,nan,nan,nan,Walking,U4
44,,,9.888299669967141,9.73120935165,9.96368191871,0.05528144147923607,9.801692529630001,9.801692529630001,9.801692529630001,0.0029644832375706554,0.619182283417,0.225867899854,1.01249666698,0.556230535511208,239.90450790900002,239.90450790900002,239.90450790900002,4.848485215694096,nan,nan,nan,nan,nan,nan,nan,nan,nan,nan,nan,nan,nan,nan,nan,nan,nan,nan,nan,nan,35.74829021363049,33.348396141900004,38.4909236054,1.1422588292353686,nan,nan,nan,nan,6.333333333333333,0.0,17.0,9.29157324317757,79.83603597689287,79.83603597689287,79.83603597689287,1.400113888708149,nan,nan,nan,nan,nan,nan,nan,nan,nan,nan,nan,nan,Walking,U4
45,,,9.979838932293124,9.68685823787,10.2944438274,0.17844442659879342,9.801692529630001,9.801692529630001,9.801692529630001,0.0029644832375706554,0.619182283417,0.225867899854,1.01249666698,0.556230535511208,239.90450790900002,239.90450790900002,239.90450790900002,4.848485215694096,nan,nan,nan,nan,nan,nan,nan,nan,nan,nan,nan,nan,nan,nan,nan,nan,nan,nan,nan,nan,36.900712378676545,33.830903032600006,39.5212854042,1.533672945300461,nan,nan,nan,nan,6.333333333333333,0.0,17.0,9.29157324317757,79.83603597689287,79.83603597689287,79.83603597689287,1.400113888708149,nan,nan,nan,nan,nan,nan,nan,nan,nan,nan,nan,nan,Walking,U4
46,,,9.885381712250526,7.5586673733100005,11.799955770699999,0.8410370371879294,9.801692529630001,9.801692529630001,9.801692529630001,0.0029644832375706554,0.619182283417,0.225867899854,1.01249666698,0.556230535511208,165.138519649,165.138519649,165.138519649,4.848485215694096,nan,nan,nan,nan,nan,nan,nan,nan,nan,nan,nan,nan,nan,nan,nan,nan,nan,nan,nan,nan,37.89155031621579,36.1895509781,40.6920329195,1.1221058761136922,nan,nan,nan,nan,6.333333333333333,0.0,17.0,9.29157324317757,79.83603597689287,79.83603597689287,79.83603597689287,1.400113888708149,nan,nan,nan,nan,nan,nan,nan,nan,nan,nan,nan,nan,Walking,U4
47,,,9.987063049776427,8.883364488989999,10.800409126199998,0.4382705212490549,9.801692529630001,9.801692529630001,9.801692529630001,0.0029644832375706554,0.619182283417,0.225867899854,1.01249666698,0.556230535511208,199.260458178,198.21797466099997,199.945300137,0.9175205381985635,nan,nan,nan,nan,nan,nan,nan,nan,nan,nan,nan,nan,nan,nan,nan,nan,nan,nan,nan,nan,37.75934549320506,36.317301661900004,39.0145813413,0.5101723194245857,nan,nan,nan,nan,6.333333333333333,0.0,17.0,9.29157324317757,79.83603597689287,79.83603597689287,79.83603597689287,1.400113888708149,nan,nan,nan,nan,nan,nan,nan,nan,nan,nan,nan,nan,Walking,U4
48,,,9.942099913871905,9.50116191633,10.7307340452,0.27890460238917575,9.799264137809999,9.796627738989999,9.80190053663,0.0037284309670696752,0.306382133474,0.306382133474,0.306382133474,0.556230535511208,182.025396902,182.025396902,182.025396902,0.9175205381985635,nan,nan,nan,nan,nan,nan,nan,nan,nan,nan,nan,nan,nan,nan,nan,nan,nan,nan,nan,nan,31.315032219501408,26.834023179499997,38.8034888736,3.566899041020751,nan,nan,nan,nan,6.333333333333333,0.0,17.0,9.29157324317757,64.17957034552506,64.17957034552506,64.17957034552506,1.400113888708149,nan,nan,nan,nan,nan,nan,nan,nan,nan,nan,nan,nan,Walking,U4
49,,,9.978536506406428,9.94242786957,10.0155680235,0.023319352499386103,9.799264137809999,9.796627738989999,9.80190053663,0.0037284309670696752,0.306382133474,0.306382133474,0.306382133474,0.556230535511208,182.095639095,182.095639095,182.095639095,0.9175205381985635,nan,nan,nan,nan,nan,nan,nan,nan,nan,nan,nan,nan,nan,nan,nan,nan,nan,nan,nan,nan,27.920343894903755,27.0688454858,29.346318338099998,0.48669049177234325,nan,nan,nan,nan,6.333333333333333,0.0,17.0,9.29157324317757,64.17957034552506,64.17957034552506,64.17957034552506,1.400113888708149,nan,nan,nan,nan,nan,nan,nan,nan,nan,nan,nan,nan,Walking,U4
50,,,9.970585017719232,9.946435159850001,10.0084596573,0.01626532571202791,9.798787028689999,9.798787028689999,9.798787028689999,0.0,0.19646700811733334,0.18724883146899998,0.204305216,0.008611521274606244,181.9753683,181.9753683,181.9753683,0.9175205381985635,nan,nan,nan,nan,nan,nan,nan,nan,nan,nan,nan,nan,nan,nan,nan,nan,nan,nan,nan,nan,28.066191005826916,26.8975388453,29.815955460100003,0.5629433813879469,nan,nan,nan,nan,6.333333333333333,0.0,17.0,9.29157324317757,64.17957034552506,64.17957034552506,64.17957034552506,1.400113888708149,nan,nan,nan,nan,nan,nan,nan,nan,nan,nan,nan,nan,Walking,U4
51,,,9.973464488856667,9.95437561321,10.0168732303,0.015396280473740137,9.803437722815001,9.799496967060001,9.80737847857,0.005573070234719526,0.173358731564,0.173358731564,0.173358731564,0.008611521274606244,181.29015266649998,181.049302122,181.53100321099998,0.34061410653683305,nan,nan,nan,nan,nan,nan,nan,nan,nan,nan,nan,nan,nan,nan,nan,nan,nan,nan,nan,nan,27.92994191926364,26.4877405605,28.985712352100002,0.4931762045397736,nan,nan,nan,nan,6.333333333333333,0.0,17.0,9.29157324317757,66.97626828042704,66.31940690913835,67.63312965171572,0.9289422598754465,nan,nan,nan,nan,nan,nan,nan,nan,nan,nan,nan,nan,Walking,U4
52,,,9.961692633180666,9.92734756012,9.97537909571,0.01592281384213989,9.803437722815001,9.799496967060001,9.80737847857,0.005573070234719526,0.155892010162,0.155892010162,0.155892010162,0.008611521274606244,181.29015266649998,181.049302122,181.53100321099998,0.34061410653683305,nan,nan,nan,nan,nan,nan,nan,nan,nan,nan,nan,nan,nan,nan,nan,nan,nan,nan,nan,nan,28.193475963481006,27.317664614699996,29.6247524061,0.49051982180197207,nan,nan,nan,nan,6.333333333333333,0.0,17.0,9.29157324317757,58.91921407155137,58.91921407155137,58.91921407155137,0.9289422598754465,nan,nan,nan,nan,nan,nan,nan,nan,nan,nan,nan,nan,Walking,U4
53,,,9.969930107773683,9.94933006929,9.98470186072,0.010844171899563796,9.803437722815001,9.799496967060001,9.80737847857,0.005573070234719526,0.17644514900700004,0.17066247495200002,0.18222782306200003,0.00817793607536403,181.29015266649998,181.049302122,181.53100321099998,0.34061410653683305,nan,nan,nan,nan,nan,nan,nan,nan,nan,nan,nan,nan,nan,nan,nan,nan,nan,nan,nan,nan,28.014835003028,26.9807250933,29.7983221004,0.5324335826265203,nan,nan,nan,nan,6.333333333333333,0.0,17.0,9.29157324317757,64.5680071740601,64.5680071740601,64.5680071740601,0.9289422598754465,nan,nan,nan,nan,nan,nan,nan,nan,nan,nan,nan,nan,Walking,U4
54,,,10.082432140298888,9.88456819508,10.6729720416,0.24884007707306308,9.803437722815001,9.799496967060001,9.80737847857,0.005573070234719526,0.31118842342799996,0.31118842342799996,0.31118842342799996,0.00817793607536403,192.87023611400002,192.87023611400002,192.87023611400002,0.34061410653683305,nan,nan,nan,nan,nan,nan,nan,nan,nan,nan,nan,nan,nan,nan,nan,nan,nan,nan,nan,nan,31.046193941210586,27.1893360434,34.646454364,2.681311355478997,nan,nan,nan,nan,6.333333333333333,0.0,17.0,9.29157324317757,64.5680071740601,64.5680071740601,64.5680071740601,0.9289422598754465,nan,nan,nan,nan,nan,nan,nan,nan,nan,nan,nan,nan,Walking,U4
55,,,9.901213479114,8.50927716428,10.962060747999999,0.5186722740363864,9.79974321225,9.79974321225,9.79974321225,0.005573070234719526,0.31118842342799996,0.31118842342799996,0.31118842342799996,0.00817793607536403,264.930181295,264.930181295,264.930181295,0.34061410653683305,nan,nan,nan,nan,nan,nan,nan,nan,nan,nan,nan,nan,nan,nan,nan,nan,nan,nan,nan,nan,32.41243789385946,28.9814906449,40.0005199966,3.010060506366123,nan,nan,nan,nan,6.333333333333333,0.0,17.0,9.29157324317757,64.5680071740601,64.5680071740601,64.5680071740601,0.9289422598754465,nan,nan,nan,nan,nan,nan,nan,nan,nan,nan,nan,nan,Walking,U4
56,,,9.902771131873333,9.35164257982,10.4839316686,0.28703237222804656,9.797894796575001,9.790595608130001,9.805193985019999,0.010322611293234403,0.31118842342799996,0.31118842342799996,0.31118842342799996,0.00817793607536403,265.063529752,265.063529752,265.063529752,0.34061410653683305,nan,nan,nan,nan,nan,nan,nan,nan,nan,nan,nan,nan,nan,nan,nan,nan,nan,nan,nan,nan,30.981608645157692,28.3223508279,34.038671572199995,1.2691892137264913,nan,nan,nan,nan,6.333333333333333,0.0,17.0,9.29157324317757,66.23507722111509,66.23507722111509,66.23507722111509,0.9289422598754465,nan,nan,nan,nan,nan,nan,nan,nan,nan,nan,nan,nan,Walking,U4
57,,,10.08859267002625,9.820420943430001,11.238953094100001,0.32742599379313714,9.797894796575001,9.790595608130001,9.805193985019999,0.010322611293234403,0.31118842342799996,0.31118842342799996,0.31118842342799996,0.00817793607536403,269.059415361,269.059415361,269.059415361,0.34061410653683305,nan,nan,nan,nan,nan,nan,nan,nan,nan,nan,nan,nan,nan,nan,nan,nan,nan,nan,nan,nan,31.50175090966026,29.8509497329,34.1043912944,1.0748249125812661,nan,nan,nan,nan,6.333333333333333,0.0,17.0,9.29157324317757,67.16250570553298,67.16250570553298,67.16250570553298,0.9289422598754465,nan,nan,nan,nan,nan,nan,nan,nan,nan,nan,nan,nan,Walking,U4
58,,,9.945034222697501,9.917036193180001,9.9907251647,0.023473420551881567,9.797894796575001,9.790595608130001,9.805193985019999,0.010322611293234403,0.31118842342799996,0.31118842342799996,0.31118842342799996,0.00817793607536403,268.45062403599997,268.45062403599997,268.45062403599997,0.34061410653683305,nan,nan,nan,nan,nan,nan,nan,nan,nan,nan,nan,nan,nan,nan,nan,nan,nan,nan,nan,nan,30.33424099998987,29.1037729513,32.0814338832,0.4987199354402385,nan,nan,nan,nan,6.333333333333333,0.0,17.0,9.29157324317757,67.16250570553298,67.16250570553298,67.16250570553298,0.9289422598754465,nan,nan,nan,nan,nan,nan,nan,nan,nan,nan,nan,nan,Walking,U4
59,,,9.965520387549091,9.90764459269,10.0946137632,0.059323013414979656,9.797894796575001,9.790595608130001,9.805193985019999,0.010322611293234403,0.547869903104,0.547869903104,0.547869903104,0.00817793607536403,268.207661045,267.585863905,268.829458185,0.8793539484328197,nan,nan,nan,nan,nan,nan,nan,nan,nan,nan,nan,nan,nan,nan,nan,nan,nan,nan,nan,nan,30.04236199874878,28.7155637242,31.582178518200003,0.45970401523553067,nan,nan,nan,nan,6.333333333333333,0.0,17.0,9.29157324317757,52.80962873940844,52.80962873940844,52.80962873940844,0.9289422598754465,nan,nan,nan,nan,nan,nan,nan,nan,nan,nan,nan,nan,Walking,U4
60,,,9.946012737320666,9.915431226719999,9.96787344138,0.01753965636194875,9.79063317015,9.79063317015,9.79063317015,0.010322611293234403,0.1911090270475,0.152280121815,0.22993793228,0.05491236439190114,268.207661045,267.585863905,268.829458185,0.8793539484328197,nan,nan,nan,nan,nan,nan,nan,nan,nan,nan,nan,nan,nan,nan,nan,nan,nan,nan,nan,nan,29.701858344785716,28.218504566999997,31.448300431,0.6898424675734565,nan,nan,nan,nan,6.333333333333333,0.0,17.0,9.29157324317757,37.84189205380961,37.84189205380961,37.84189205380961,0.9289422598754465,nan,nan,nan,nan,nan,nan,nan,nan,nan,nan,nan,nan,Walking,U4
61,,,9.95207372492143,9.928866814310002,9.96967208995,0.013663309734275497,9.798985961655,9.79681828166,9.80115364165,0.003065562447813693,0.16129604588733334,0.126309899266,0.184755393518,0.030880726526728065,265.8033933595,265.65214659099996,265.954640128,0.21389523127782653,nan,nan,nan,nan,nan,nan,nan,nan,nan,nan,nan,nan,nan,nan,nan,nan,nan,nan,nan,nan,28.97223351851507,28.0477371387,29.6389068624,0.3679954261528793,nan,nan,nan,nan,6.333333333333333,0.0,17.0,9.29157324317757,64.56414167297449,61.3414171209074,67.78686622504156,4.557620769326024,nan,nan,nan,nan,nan,nan,nan,nan,nan,nan,nan,nan,Walking,U4
62,,,9.95866553860692,9.921451169780001,9.9866208464,0.017367206640236405,9.798985961655,9.79681828166,9.80115364165,0.003065562447813693,0.16129604588733334,0.126309899266,0.184755393518,0.030880726526728065,264.65771103366666,263.781392437,265.314221229,0.7897010993841674,nan,nan,nan,nan,nan,nan,nan,nan,nan,nan,nan,nan,nan,nan,nan,nan,nan,nan,nan,nan,29.023387835582717,27.986896934,30.117549700399998,0.40272364743898476,nan,nan,nan,nan,6.333333333333333,0.0,17.0,9.29157324317757,64.56414167297449,61.3414171209074,67.78686622504156,4.557620769326024,nan,nan,nan,nan,nan,nan,nan,nan,nan,nan,nan,nan,Walking,U4
63,,,9.937225939034615,9.14467202962,10.2519126041,0.2655301735301651,9.797587101523332,9.792518853189998,9.80277089474,0.005126997362081468,0.13989540609599999,0.138900838311,0.140889973881,0.0014065312502463648,265.247487181,265.247487181,265.247487181,0.7897010993841674,nan,nan,nan,nan,nan,nan,nan,nan,nan,nan,nan,nan,nan,nan,nan,nan,nan,nan,nan,nan,28.78395270799467,25.2982364329,33.921869039499995,1.974069227006724,nan,nan,nan,nan,6.333333333333333,0.0,17.0,9.29157324317757,61.393361938231905,61.393361938231905,61.393361938231905,4.557620769326024,nan,nan,nan,nan,nan,nan,nan,nan,nan,nan,nan,nan,Walking,U4
64,,,10.000614811254119,9.82347920104,10.740438680899999,0.22566725534958632,9.80195749424,9.80195749424,9.80195749424,0.005126997362081468,0.13989540609599999,0.138900838311,0.140889973881,0.0014065312502463648,258.373737425,258.373737425,258.373737425,0.7897010993841674,nan,nan,nan,nan,nan,nan,nan,nan,nan,nan,nan,nan,nan,nan,nan,nan,nan,nan,nan,nan,27.233620552118182,26.0643894999,28.4329730142,0.6107440862115245,nan,nan,nan,nan,6.333333333333333,0.0,17.0,9.29157324317757,61.393361938231905,61.393361938231905,61.393361938231905,4.557620769326024,nan,nan,nan,nan,nan,nan,nan,nan,nan,nan,nan,nan,Walking,U4
65,,,10.207910439417859,9.16340277065,11.924055262000001,0.7258970311231628,9.80195749424,9.80195749424,9.80195749424,0.005126997362081468,0.459098518367,0.37151353366400003,0.5466835030699999,0.12386387322722259,258.373737425,258.373737425,258.373737425,0.7897010993841674,nan,nan,nan,nan,nan,nan,nan,nan,nan,nan,nan,nan,nan,nan,nan,nan,nan,nan,nan,nan,29.841294101576548,27.447622823000003,32.458447282600005,1.4272677822741906,nan,nan,nan,nan,6.333333333333333,0.0,17.0,9.29157324317757,61.393361938231905,61.393361938231905,61.393361938231905,4.557620769326024,nan,nan,nan,nan,nan,nan,nan,nan,nan,nan,nan,nan,Walking,U4
66,,,10.152450650123335,9.2266412312,13.048785111900001,0.9444035094774799,9.803292666399999,9.803292666399999,9.803292666399999,0.005126997362081468,0.459098518367,0.37151353366400003,0.5466835030699999,0.12386387322722259,263.968147304,263.968147304,263.968147304,0.7897010993841674,nan,nan,nan,nan,nan,nan,nan,nan,nan,nan,nan,nan,nan,nan,nan,nan,nan,nan,nan,nan,29.65801343012561,27.7055806441,31.6650532922,0.8345659691492797,nan,nan,nan,nan,6.333333333333333,0.0,17.0,9.29157324317757,61.393361938231905,61.393361938231905,61.393361938231905,4.557620769326024,nan,nan,nan,nan,nan,nan,nan,nan,nan,nan,nan,nan,Walking,U4
67,,,9.859992240385386,9.333416887410001,10.3034550402,0.2708752154403411,9.80329131238,9.80329131238,9.80329131238,0.005126997362081468,0.459098518367,0.37151353366400003,0.5466835030699999,0.12386387322722259,263.968147304,263.968147304,263.968147304,0.7897010993841674,nan,nan,nan,nan,nan,nan,nan,nan,nan,nan,nan,nan,nan,nan,nan,nan,nan,nan,nan,nan,30.77721084551393,27.9316594566,34.6630235265,2.0266434397256075,nan,nan,nan,nan,6.333333333333333,0.0,17.0,9.29157324317757,72.98280128288438,72.98280128288438,72.98280128288438,4.557620769326024,nan,nan,nan,nan,nan,nan,nan,nan,nan,nan,nan,nan,Walking,U4
68,,,9.748619098159999,8.96314454518,10.2910575519,0.3339565014002137,9.80230724711,9.80230724711,9.80230724711,0.005126997362081468,0.459098518367,0.37151353366400003,0.5466835030699999,0.12386387322722259,263.968147304,263.968147304,263.968147304,0.7897010993841674,nan,nan,nan,nan,nan,nan,nan,nan,nan,nan,nan,nan,nan,nan,nan,nan,nan,nan,nan,nan,32.47660519069999,29.649350751700002,39.7985475486,1.9272618013218008,nan,nan,nan,nan,6.333333333333333,0.0,17.0,9.29157324317757,68.47787162440056,67.86799390586204,69.0877493429391,0.8624973409463565,nan,nan,nan,nan,nan,nan,nan,nan,nan,nan,nan,nan,Walking,U4
69,,,9.924804364497223,9.82643406693,10.022932346900001,0.06458519987357997,9.80230724711,9.80230724711,9.80230724711,0.005126997362081468,0.459098518367,0.37151353366400003,0.5466835030699999,0.12386387322722259,200.02130346299998,200.02130346299998,200.02130346299998,0.7897010993841674,nan,nan,nan,nan,nan,nan,nan,nan,nan,nan,nan,nan,nan,nan,nan,nan,nan,nan,nan,nan,34.665767897993504,33.5220166458,39.4180361855,1.0377598857252432,nan,nan,nan,nan,6.333333333333333,0.0,17.0,9.29157324317757,68.47787162440056,67.86799390586204,69.0877493429391,0.8624973409463565,nan,nan,nan,nan,nan,nan,nan,nan,nan,nan,nan,nan,Walking,U4
70,,,9.933483595126843,9.34840077842,10.4099585843,0.2765790873570889,9.803670958260001,9.803670958260001,9.803670958260001,0.005126997362081468,0.972401239762,0.972401239762,0.972401239762,0.12386387322722259,200.02130346299998,200.02130346299998,200.02130346299998,0.7897010993841674,nan,nan,nan,nan,nan,nan,nan,nan,nan,nan,nan,nan,nan,nan,nan,nan,nan,nan,nan,nan,33.40306014851333,31.472387898,34.8605679816,0.8112725896250436,nan,nan,nan,nan,6.333333333333333,0.0,17.0,9.29157324317757,68.47787162440056,67.86799390586204,69.0877493429391,0.8624973409463565,nan,nan,nan,nan,nan,nan,nan,nan,nan,nan,nan,nan,Walking,U4
71,,,9.955162868114375,9.76348287047,10.1035305664,0.07720198064895642,9.803670958260001,9.803670958260001,9.803670958260001,0.005126997362081468,1.7104250592299999,1.7104250592299999,1.7104250592299999,0.12386387322722259,191.842824817,191.842824817,191.842824817,0.7897010993841674,nan,nan,nan,nan,nan,nan,nan,nan,nan,nan,nan,nan,nan,nan,nan,nan,nan,nan,nan,nan,33.74301703734026,32.8550261214,34.8145311265,0.4543830744431078,nan,nan,nan,nan,6.333333333333333,0.0,17.0,9.29157324317757,64.17420039812802,64.17420039812802,64.17420039812802,0.8624973409463565,nan,nan,nan,nan,nan,nan,nan,nan,nan,nan,nan,nan,Walking,U4
72,,,9.910518530408948,9.41559855234,10.1319585828,0.16008509000351984,9.803670958260001,9.803670958260001,9.803670958260001,0.005126997362081468,0.14478627566500002,0.14478627566500002,0.14478627566500002,0.12386387322722259,191.842824817,191.842824817,191.842824817,0.7897010993841674,nan,nan,nan,nan,nan,nan,nan,nan,nan,nan,nan,nan,nan,nan,nan,nan,nan,nan,nan,nan,33.61407834402369,32.6398897057,34.3351535951,0.3492195605308184,nan,nan,nan,nan,6.333333333333333,0.0,17.0,9.29157324317757,64.17420039812802,64.17420039812802,64.17420039812802,0.8624973409463565,nan,nan,nan,nan,nan,nan,nan,nan,nan,nan,nan,nan,Walking,U4
73,,,9.961019112618125,9.812091345810002,10.1903026832,0.07640809814403444,9.803670958260001,9.803670958260001,9.803670958260001,0.005126997362081468,0.164575279474,0.164575279474,0.164575279474,0.12386387322722259,188.57581276,188.57581276,188.57581276,0.7897010993841674,nan,nan,nan,nan,nan,nan,nan,nan,nan,nan,nan,nan,nan,nan,nan,nan,nan,nan,nan,nan,33.30578041696316,32.3749343561,34.1005920412,0.43533818232959337,nan,nan,nan,nan,6.333333333333333,0.0,17.0,9.29157324317757,66.29840111984839,66.29840111984839,66.29840111984839,0.8624973409463565,nan,nan,nan,nan,nan,nan,nan,nan,nan,nan,nan,nan,Walking,U4
74,,,9.954013423849998,8.93754698268,11.162313769,0.413680636943355,9.803670958260001,9.803670958260001,9.803670958260001,0.005126997362081468,0.164575279474,0.164575279474,0.164575279474,0.12386387322722259,188.57581276,188.57581276,188.57581276,0.7897010993841674,nan,nan,nan,nan,nan,nan,nan,nan,nan,nan,nan,nan,nan,nan,nan,nan,nan,nan,nan,nan,33.297836240083114,31.884340495,34.8967445433,0.6127883816571335,nan,nan,nan,nan,6.333333333333333,0.0,17.0,9.29157324317757,75.27592036989715,71.83464477903671,78.71719596075759,4.866698612458324,nan,nan,nan,nan,nan,nan,nan,nan,nan,nan,nan,nan,Walking,U4
75,,,9.942482679607647,9.5537420806,10.3963642374,0.19361053296085695,9.803670958260001,9.803670958260001,9.803670958260001,0.005126997362081468,0.5930709799449999,0.19690707299899998,0.9892348868909999,0.5602603701257459,208.018275135,208.018275135,208.018275135,0.7897010993841674,nan,nan,nan,nan,nan,nan,nan,nan,nan,nan,nan,nan,nan,nan,nan,nan,nan,nan,nan,nan,32.84520259815263,32.06571945,33.9674718017,0.4678863924091213,nan,nan,nan,nan,6.333333333333333,0.0,17.0,9.29157324317757,75.27592036989715,71.83464477903671,78.71719596075759,4.866698612458324,nan,nan,nan,nan,nan,nan,nan,nan,nan,nan,nan,nan,Walking,U4
76,,,10.008741558157999,8.87230525239,12.8176178019,0.9099117385798102,9.803670958260001,9.803670958260001,9.803670958260001,0.005126997362081468,0.5930709799449999,0.19690707299899998,0.9892348868909999,0.5602603701257459,208.018275135,208.018275135,208.018275135,0.7897010993841674,nan,nan,nan,nan,nan,nan,nan,nan,nan,nan,nan,nan,nan,nan,nan,nan,nan,nan,nan,nan,31.58453592815679,28.176117546599997,34.631592513200005,1.673411826736019,nan,nan,nan,nan,6.333333333333333,0.0,17.0,9.29157324317757,64.8756383218759,64.8756383218759,64.8756383218759,4.866698612458324,nan,nan,nan,nan,nan,nan,nan,nan,nan,nan,nan,nan,Walking,U4
77,,,9.925768117370625,9.77122504048,10.2254194856,0.12818970986622705,9.803670958260001,9.803670958260001,9.803670958260001,0.005126997362081468,0.5930709799449999,0.19690707299899998,0.9892348868909999,0.5602603701257459,184.13324897099997,179.942480095,192.077006451,6.882977195039216,nan,nan,nan,nan,nan,nan,nan,nan,nan,nan,nan,nan,nan,nan,nan,nan,nan,nan,nan,nan,34.907612251284206,33.4641354205,36.2197785902,0.6410253330095246,nan,nan,nan,nan,6.333333333333333,0.0,17.0,9.29157324317757,64.74584675134918,64.74584675134918,64.74584675134918,4.866698612458324,nan,nan,nan,nan,nan,nan,nan,nan,nan,nan,nan,nan,Walking,U4
78,,,9.885668280568234,9.854231939369999,9.90877425625,0.014280394497110774,9.80430369011,9.80430369011,9.80430369011,0.005126997362081468,0.5930709799449999,0.19690707299899998,0.9892348868909999,0.5602603701257459,184.13324897099997,179.942480095,192.077006451,6.882977195039216,nan,nan,nan,nan,nan,nan,nan,nan,nan,nan,nan,nan,nan,nan,nan,nan,nan,nan,nan,nan,34.539851627625644,33.6578608946,35.740010881399996,0.46201851844465064,nan,nan,nan,nan,6.333333333333333,0.0,17.0,9.29157324317757,64.74584675134918,64.74584675134918,64.74584675134918,4.866698612458324,nan,nan,nan,nan,nan,nan,nan,nan,nan,nan,nan,nan,Walking,U4
79,,,9.941592190254665,9.67705381495,10.1990341528,0.16295797568242099,9.80430369011,9.80430369011,9.80430369011,0.005126997362081468,0.5930709799449999,0.19690707299899998,0.9892348868909999,0.5602603701257459,184.13324897099997,179.942480095,192.077006451,6.882977195039216,nan,nan,nan,nan,nan,nan,nan,nan,nan,nan,nan,nan,nan,nan,nan,nan,nan,nan,nan,nan,31.98815166974625,29.160554358899997,34.493789935900004,1.3109536949831047,nan,nan,nan,nan,6.333333333333333,0.0,17.0,9.29157324317757,74.45172293634374,72.55346063533231,76.34998523735517,2.6845482910319203,nan,nan,nan,nan,nan,nan,nan,nan,nan,nan,nan,nan,Walking,U4
80,,,9.857444219363332,9.83572097157,9.87683139214,0.013406765114812744,9.80430369011,9.80430369011,9.80430369011,0.005126997362081468,0.16344417,0.16344417,0.16344417,0.5602603701257459,178.38496160233333,178.291359403,178.52747855599998,0.12542947618870917,nan,nan,nan,nan,nan,nan,nan,nan,nan,nan,nan,nan,nan,nan,nan,nan,nan,nan,nan,nan,32.08459559603124,31.0386790956,33.2294929242,0.43040209298260834,nan,nan,nan,nan,6.333333333333333,0.0,17.0,9.29157324317757,72.8433526880989,72.8433526880989,72.8433526880989,2.6845482910319203,nan,nan,nan,nan,nan,nan,nan,nan,nan,nan,nan,nan,Walking,U4
81,,,9.885349800720869,9.8634512465,9.91753096138,0.01530965002950791,9.799468005960001,9.799468005960001,9.799468005960001,0.005126997362081468,0.059279640607,0.049108862549,0.069450418665,0.014383652269510288,178.52406571900002,178.52406571900002,178.52406571900002,0.12542947618870917,nan,nan,nan,nan,nan,nan,nan,nan,nan,nan,nan,nan,nan,nan,nan,nan,nan,nan,nan,nan,31.988901951134327,31.0524776403,33.0874283606,0.44700985128120324,nan,nan,nan,nan,6.333333333333333,0.0,17.0,9.29157324317757,62.88017704144718,58.53713417899385,67.22321990390051,6.1419901180491685,nan,nan,nan,nan,nan,nan,nan,nan,nan,nan,nan,nan,Walking,U4
82,,,9.899225784894444,9.87934290587,9.92397919829,0.01632204652754278,9.80502268362,9.80502268362,9.80502268362,0.005126997362081468,0.059279640607,0.049108862549,0.069450418665,0.014383652269510288,178.65597190900002,178.65597190900002,178.65597190900002,0.12542947618870917,nan,nan,nan,nan,nan,nan,nan,nan,nan,nan,nan,nan,nan,nan,nan,nan,nan,nan,nan,nan,31.873294522091662,30.7362254338,33.1213586678,0.5453873208144575,nan,nan,nan,nan,6.333333333333333,0.0,17.0,9.29157324317757,60.60389570713502,60.60389570713502,60.60389570713502,6.1419901180491685,nan,nan,nan,nan,nan,nan,nan,nan,nan,nan,nan,nan,Walking,U4
83,,,9.899982769252778,9.87666888763,9.916846601889999,0.011323838058006578,9.80309262878,9.80309262878,9.80309262878,0.005126997362081468,0.10724672625600001,0.10724672625600001,0.10724672625600001,0.014383652269510288,178.65597190900002,178.65597190900002,178.65597190900002,0.12542947618870917,nan,nan,nan,nan,nan,nan,nan,nan,nan,nan,nan,nan,nan,nan,nan,nan,nan,nan,nan,nan,32.0231541146039,30.8320021127,33.7950220524,0.5554487360379217,nan,nan,nan,nan,6.333333333333333,0.0,17.0,9.29157324317757,60.60389570713502,60.60389570713502,60.60389570713502,6.1419901180491685,nan,nan,nan,nan,nan,nan,nan,nan,nan,nan,nan,nan,Walking,U4
84,,,9.987669465210626,9.1177683299,10.7732090705,0.33114489802236596,9.80309262878,9.80309262878,9.80309262878,0.005126997362081468,0.10724672625600001,0.10724672625600001,0.10724672625600001,0.014383652269510288,178.65597190900002,178.65597190900002,178.65597190900002,0.12542947618870917,nan,nan,nan,nan,nan,nan,nan,nan,nan,nan,nan,nan,nan,nan,nan,nan,nan,nan,nan,nan,32.154871513741774,29.3618323188,36.6348522578,1.5117917982716154,nan,nan,nan,nan,6.333333333333333,0.0,17.0,9.29157324317757,49.91088675092897,49.91088675092897,49.91088675092897,6.1419901180491685,nan,nan,nan,nan,nan,nan,nan,nan,nan,nan,nan,nan,Walking,U4
85,,,9.780202276999999,8.43939513414,11.709251625599999,0.9057303037924481,9.800392109933334,9.79576664392,9.8034241371,0.004069838567926832,0.10724672625600001,0.10724672625600001,0.10724672625600001,0.014383652269510288,178.65597190900002,178.65597190900002,178.65597190900002,0.12542947618870917,nan,nan,nan,nan,nan,nan,nan,nan,nan,nan,nan,nan,nan,nan,nan,nan,nan,nan,nan,nan,33.49516511908414,31.0827218885,37.7865214064,2.1030900763139715,nan,nan,nan,nan,6.333333333333333,0.0,17.0,9.29157324317757,70.65763438814795,70.65763438814795,70.65763438814795,6.1419901180491685,nan,nan,nan,nan,nan,nan,nan,nan,nan,nan,nan,nan,Walking,U4
86,,,9.920514204227498,9.889377954219999,10.0134253259,0.028751031581789727,9.80375528589,9.80375528589,9.80375528589,0.004069838567926832,0.11673610871685,0.0972687394337,0.13620347800000002,0.027531017663956138,172.34428901200002,172.34428901200002,172.34428901200002,0.12542947618870917,nan,nan,nan,nan,nan,nan,nan,nan,nan,nan,nan,nan,nan,nan,nan,nan,nan,nan,nan,nan,31.94872047328056,30.773098641500003,33.0502520783,0.4108942850283686,nan,nan,nan,nan,6.333333333333333,0.0,17.0,9.29157324317757,70.65763438814795,70.65763438814795,70.65763438814795,6.1419901180491685,nan,nan,nan,nan,nan,nan,nan,nan,nan,nan,nan,nan,Walking,U4
87,,,9.908803582696667,9.88865454635,9.937209228119999,0.013268709576712683,9.79463063299,9.79463063299,9.79463063299,0.004069838567926832,0.0972687394337,0.0972687394337,0.0972687394337,0.027531017663956138,172.34428901200002,172.34428901200002,172.34428901200002,0.12542947618870917,nan,nan,nan,nan,nan,nan,nan,nan,nan,nan,nan,nan,nan,nan,nan,nan,nan,nan,nan,nan,32.18387727765059,31.4781061285,33.6752371929,0.3830353191954596,nan,nan,nan,nan,6.333333333333333,0.0,17.0,9.29157324317757,70.65763438814795,70.65763438814795,70.65763438814795,6.1419901180491685,nan,nan,nan,nan,nan,nan,nan,nan,nan,nan,nan,nan,Walking,U4
88,,,9.91459678625,9.856209131449999,10.000447161,0.03028460436122648,9.79463063299,9.79463063299,9.79463063299,0.004069838567926832,0.0972687394337,0.0972687394337,0.0972687394337,0.027531017663956138,172.34428901200002,172.34428901200002,172.34428901200002,0.12542947618870917,nan,nan,nan,nan,nan,nan,nan,nan,nan,nan,nan,nan,nan,nan,nan,nan,nan,nan,nan,nan,32.08605974171875,31.094706945100004,33.8453713343,0.4523988510329575,nan,nan,nan,nan,6.333333333333333,0.0,17.0,9.29157324317757,70.65763438814795,70.65763438814795,70.65763438814795,6.1419901180491685,nan,nan,nan,nan,nan,nan,nan,nan,nan,nan,nan,nan,Walking,U4
89,,,9.745217673484165,8.87900690658,10.1921746536,0.3793453815871724,9.79463063299,9.79463063299,9.79463063299,0.004069838567926832,0.0972687394337,0.0972687394337,0.0972687394337,0.027531017663956138,173.325259229,173.325259229,173.325259229,0.12542947618870917,nan,nan,nan,nan,nan,nan,nan,nan,nan,nan,nan,nan,nan,nan,nan,nan,nan,nan,nan,nan,32.11805842610244,31.0709633813,33.0461126422,0.4354565494266886,nan,nan,nan,nan,6.333333333333333,0.0,17.0,9.29157324317757,75.74419527108608,73.77551310545691,77.71287743671527,2.784137018634826,nan,nan,nan,nan,nan,nan,nan,nan,nan,nan,nan,nan,Walking,U4
90,,,9.925282001812501,9.4933072063,10.277792210800001,0.24603513860383308,9.798464118875,9.7953496474,9.80157859035,0.0044045277995684974,0.0861426459894,0.0861426459894,0.0861426459894,0.027531017663956138,173.976174297,173.976174297,173.976174297,0.12542947618870917,nan,nan,nan,nan,nan,nan,nan,nan,nan,nan,nan,nan,nan,nan,nan,nan,nan,nan,nan,nan,32.31128815670119,31.171140498899998,33.4499320717,0.4916522930845574,nan,nan,nan,nan,6.333333333333333,0.0,17.0,9.29157324317757,75.74419527108608,73.77551310545691,77.71287743671527,2.784137018634826,nan,nan,nan,nan,nan,nan,nan,nan,nan,nan,nan,nan,Walking,U4
91,,,9.90632016135,9.82814199089,10.0287867,0.062452615903266895,9.798464118875,9.7953496474,9.80157859035,0.0044045277995684974,0.7249673052935,0.602074832047,0.84785977854,0.1737962023787731,156.832534404,156.832534404,156.832534404,0.12542947618870917,nan,nan,nan,nan,nan,nan,nan,nan,nan,nan,nan,nan,nan,nan,nan,nan,nan,nan,nan,nan,32.262493977927164,30.944995877800004,33.2731771756,0.45073498456274713,nan,nan,nan,nan,6.333333333333333,0.0,17.0,9.29157324317757,72.67138885108183,72.67138885108183,72.67138885108183,2.784137018634826,nan,nan,nan,nan,nan,nan,nan,nan,nan,nan,nan,nan,Walking,U4
92,,,9.904882966381905,9.74417827105,10.0989731396,0.06954214005399131,9.798464118875,9.7953496474,9.80157859035,0.0044045277995684974,0.7249673052935,0.602074832047,0.84785977854,0.1737962023787731,163.7028483215,162.891620201,164.514076442,1.1472498101895419,nan,nan,nan,nan,nan,nan,nan,nan,nan,nan,nan,nan,nan,nan,nan,nan,nan,nan,nan,nan,32.05768351063713,30.4318315236,33.0007090833,0.4429620204169924,nan,nan,nan,nan,6.333333333333333,0.0,17.0,9.29157324317757,68.99881977546676,68.99881977546676,68.99881977546676,2.784137018634826,nan,nan,nan,nan,nan,nan,nan,nan,nan,nan,nan,nan,Walking,U4
93,,,9.915517853428124,9.878921140510002,10.1065167428,0.05471206745793257,9.80163110317,9.79931729666,9.80394490968,0.003272216547149338,0.117955669491,0.117955669491,0.117955669491,0.1737962023787731,162.033786805,162.033786805,162.033786805,1.1472498101895419,nan,nan,nan,nan,nan,nan,nan,nan,nan,nan,nan,nan,nan,nan,nan,nan,nan,nan,nan,nan,32.27848634592133,31.26794462,33.6951148602,0.4658161679386191,nan,nan,nan,nan,6.333333333333333,0.0,17.0,9.29157324317757,67.2264823427524,66.51851911542933,67.93444557007547,1.0012111977417122,nan,nan,nan,nan,nan,nan,nan,nan,nan,nan,nan,nan,Walking,U4
94,,,9.89990465411909,9.78525642246,10.0225114778,0.06945475679107936,9.80163110317,9.79931729666,9.80394490968,0.003272216547149338,0.117955669491,0.117955669491,0.117955669491,0.1737962023787731,162.033786805,162.033786805,162.033786805,1.1472498101895419,nan,nan,nan,nan,nan,nan,nan,nan,nan,nan,nan,nan,nan,nan,nan,nan,nan,nan,nan,nan,32.40027749982857,31.2618995066,33.3786632039,0.4028636329901358,nan,nan,nan,nan,6.333333333333333,0.0,17.0,9.29157324317757,71.9319419125292,71.9319419125292,71.9319419125292,1.0012111977417122,nan,nan,nan,nan,nan,nan,nan,nan,nan,nan,nan,nan,Walking,U4
95,,,9.97019701405923,9.83778193237,10.699457774299999,0.2244290650911735,9.79943053017,9.79943053017,9.79943053017,0.003272216547149338,0.117955669491,0.117955669491,0.117955669491,0.1737962023787731,162.033786805,162.033786805,162.033786805,1.1472498101895419,nan,nan,nan,nan,nan,nan,nan,nan,nan,nan,nan,nan,nan,nan,nan,nan,nan,nan,nan,nan,32.50783140159506,31.094474940100003,34.4401045295,0.5804263361525093,nan,nan,nan,nan,6.333333333333333,0.0,17.0,9.29157324317757,65.12954412483353,65.12954412483353,65.12954412483353,1.0012111977417122,nan,nan,nan,nan,nan,nan,nan,nan,nan,nan,nan,nan,Walking,U4
96,,,9.92987756987381,9.34844015535,10.5237075702,0.2280994436326285,9.79943053017,9.79943053017,9.79943053017,0.003272216547149338,0.183748526749,0.183748526749,0.183748526749,0.1737962023787731,162.033786805,162.033786805,162.033786805,1.1472498101895419,nan,nan,nan,nan,nan,nan,nan,nan,nan,nan,nan,nan,nan,nan,nan,nan,nan,nan,nan,nan,32.48264859822162,31.4524777739,33.374996206700004,0.42952815579894266,nan,nan,nan,nan,6.333333333333333,0.0,17.0,9.29157324317757,69.77101433000888,69.77101433000888,69.77101433000888,1.0012111977417122,nan,nan,nan,nan,nan,nan,nan,nan,nan,nan,nan,nan,Walking,U4
97,,,9.91117720508842,9.79609999777,10.3137756156,0.10256235442553749,9.79943053017,9.79943053017,9.79943053017,0.003272216547149338,0.183748526749,0.183748526749,0.183748526749,0.1737962023787731,162.033786805,162.033786805,162.033786805,1.1472498101895419,nan,nan,nan,nan,nan,nan,nan,nan,nan,nan,nan,nan,nan,nan,nan,nan,nan,nan,nan,nan,32.53942961825333,31.7533231319,33.5981244834,0.3936562650940516,nan,nan,nan,nan,6.333333333333333,0.0,17.0,9.29157324317757,66.41424530678496,65.57507201905658,67.25341859451335,1.1867702446867026,nan,nan,nan,nan,nan,nan,nan,nan,nan,nan,nan,nan,Walking,U4
98,,,9.9004919669625,9.84015367768,9.96533355579,0.03292260036710851,9.79943053017,9.79943053017,9.79943053017,0.003272216547149338,0.13929447844873336,0.0972687320122,0.19068487571400003,0.047406924493020114,162.033786805,162.033786805,162.033786805,1.1472498101895419,nan,nan,nan,nan,nan,nan,nan,nan,nan,nan,nan,nan,nan,nan,nan,nan,nan,nan,nan,nan,33.1559402198974,32.0243213474,34.2842116952,0.4790913254165968,nan,nan,nan,nan,6.333333333333333,0.0,17.0,9.29157324317757,66.41424530678496,65.57507201905658,67.25341859451335,1.1867702446867026,nan,nan,nan,nan,nan,nan,nan,nan,nan,nan,nan,nan,Walking,U4
99,,,9.871660997928235,9.82941548549,9.945591054480001,0.03589985407319063,9.80320617141,9.80320617141,9.80320617141,0.003272216547149338,0.09685844723925,0.05615813249149999,0.13755876198699998,0.05755893710912174,162.033786805,162.033786805,162.033786805,1.1472498101895419,nan,nan,nan,nan,nan,nan,nan,nan,nan,nan,nan,nan,nan,nan,nan,nan,nan,nan,nan,nan,33.46228694027013,32.1162008407,34.819184367199995,0.4645206099759296,nan,nan,nan,nan,6.333333333333333,0.0,17.0,9.29157324317757,66.41424530678496,65.57507201905658,67.25341859451335,1.1867702446867026,nan,nan,nan,nan,nan,nan,nan,nan,nan,nan,nan,nan,Walking,U4
100,,,9.841007635631764,9.44168743153,9.97244488797,0.11268986246495964,9.79964211895,9.794507170589998,9.80477706731,0.0072619136127991335,0.09685844723925,0.05615813249149999,0.13755876198699998,0.05755893710912174,161.109545479,161.109545479,161.109545479,1.1472498101895419,nan,nan,nan,nan,nan,nan,nan,nan,nan,nan,nan,nan,nan,nan,nan,nan,nan,nan,nan,nan,33.528815433240005,32.5745299275,34.7862379461,0.471423046900198,nan,nan,nan,nan,6.333333333333333,0.0,17.0,9.29157324317757,68.64976511541013,68.64976511541013,68.64976511541013,1.1867702446867026,nan,nan,nan,nan,nan,nan,nan,nan,nan,nan,nan,nan,Walking,U4
101,,,9.912802880446,8.962228243139998,10.5169655102,0.32552794330609947,9.79964211895,9.794507170589998,9.80477706731,0.0072619136127991335,0.09685844723925,0.05615813249149999,0.13755876198699998,0.05755893710912174,161.109545479,161.109545479,161.109545479,1.1472498101895419,nan,nan,nan,nan,nan,nan,nan,nan,nan,nan,nan,nan,nan,nan,nan,nan,nan,nan,nan,nan,32.99577158581184,30.340606454099998,35.0764536406,1.1108375882707446,nan,nan,nan,nan,6.333333333333333,0.0,17.0,9.29157324317757,68.64976511541013,68.64976511541013,68.64976511541013,1.1867702446867026,nan,nan,nan,nan,nan,nan,nan,nan,nan,nan,nan,nan,Walking,U4
102,,,10.033179592036,9.63975875258,10.766639695999999,0.3305320532458104,9.79964211895,9.794507170589998,9.80477706731,0.0072619136127991335,0.707734044508,0.707734044508,0.707734044508,0.05755893710912174,167.31859852633332,157.260395622,175.73470986599997,9.3459841764566,nan,nan,nan,nan,nan,nan,nan,nan,nan,nan,nan,nan,nan,nan,nan,nan,nan,nan,nan,nan,32.299467652,29.7550399092,34.9662576265,1.1437236564499471,nan,nan,nan,nan,6.333333333333333,0.0,17.0,9.29157324317757,68.64976511541013,68.64976511541013,68.64976511541013,1.1867702446867026,nan,nan,nan,nan,nan,nan,nan,nan,nan,nan,nan,nan,Walking,U4
103,,,9.858230407083749,9.26121285435,10.2034169146,0.23581293529263594,9.79964211895,9.794507170589998,9.80477706731,0.0072619136127991335,0.707734044508,0.707734044508,0.707734044508,0.05755893710912174,175.92218676,175.19588367400002,176.648489846,1.0271476746146144,nan,nan,nan,nan,nan,nan,nan,nan,nan,nan,nan,nan,nan,nan,nan,nan,nan,nan,nan,nan,32.54622564998961,31.0629103595,34.0552194502,0.7255469633380534,nan,nan,nan,nan,6.333333333333333,0.0,17.0,9.29157324317757,47.95880017344075,47.95880017344075,47.95880017344075,1.1867702446867026,nan,nan,nan,nan,nan,nan,nan,nan,nan,nan,nan,nan,Walking,U4
104,,,9.901939517253998,9.74505905143,10.1619125206,0.12302117688796188,9.79940209445,9.79940209445,9.79940209445,0.0072619136127991335,0.707734044508,0.707734044508,0.707734044508,0.05755893710912174,166.058069574,166.058069574,166.058069574,1.0271476746146144,nan,nan,nan,nan,nan,nan,nan,nan,nan,nan,nan,nan,nan,nan,nan,nan,nan,nan,nan,nan,33.536796153621424,31.5447664965,36.0022484578,0.9918144846933501,nan,nan,nan,nan,6.333333333333333,0.0,17.0,9.29157324317757,47.95880017344075,47.95880017344075,47.95880017344075,1.1867702446867026,nan,nan,nan,nan,nan,nan,nan,nan,nan,nan,nan,nan,Walking,U4
105,,,10.027743937527779,8.30021891748,11.279445581300001,0.6992648967768683,9.79940209445,9.79940209445,9.79940209445,0.0072619136127991335,0.707734044508,0.707734044508,0.707734044508,0.05755893710912174,166.058069574,166.058069574,166.058069574,1.0271476746146144,nan,nan,nan,nan,nan,nan,nan,nan,nan,nan,nan,nan,nan,nan,nan,nan,nan,nan,nan,nan,37.549529027043036,35.2145310916,40.8880080219,1.6601952947682732,nan,nan,nan,nan,6.333333333333333,0.0,17.0,9.29157324317757,47.95880017344075,47.95880017344075,47.95880017344075,1.1867702446867026,nan,nan,nan,nan,nan,nan,nan,nan,nan,nan,nan,nan,Walking,U4
106,,,9.94342274265357,9.64963024281,10.3339422952,0.16666742623127415,9.79940209445,9.79940209445,9.79940209445,0.0072619136127991335,0.16173265987500002,0.16173265987500002,0.16173265987500002,0.05755893710912174,223.695476925,223.695476925,223.695476925,1.0271476746146144,nan,nan,nan,nan,nan,nan,nan,nan,nan,nan,nan,nan,nan,nan,nan,nan,nan,nan,nan,nan,39.80071847353418,36.1475468014,43.4240020135,1.726877027944905,nan,nan,nan,nan,6.333333333333333,0.0,17.0,9.29157324317757,71.41786072436784,71.41786072436784,71.41786072436784,1.1867702446867026,nan,nan,nan,nan,nan,nan,nan,nan,nan,nan,nan,nan,Walking,U4
107,,,9.934850923583571,9.80715574169,10.142910402,0.07443250958024812,9.79940209445,9.79940209445,9.79940209445,0.0072619136127991335,0.16173265987500002,0.16173265987500002,0.16173265987500002,0.05755893710912174,223.695476925,223.695476925,223.695476925,1.0271476746146144,nan,nan,nan,nan,nan,nan,nan,nan,nan,nan,nan,nan,nan,nan,nan,nan,nan,nan,nan,nan,40.78445029826049,39.6099064548,42.155241667,0.48549942271177565,nan,nan,nan,nan,6.333333333333333,0.0,17.0,9.29157324317757,58.35011019105093,58.35011019105093,58.35011019105093,1.1867702446867026,nan,nan,nan,nan,nan,nan,nan,nan,nan,nan,nan,nan,Walking,U4
108,,,9.911412077663888,9.73362145298,10.1568253478,0.09110300633521748,9.79940209445,9.79940209445,9.79940209445,0.0072619136127991335,0.16173265987500002,0.16173265987500002,0.16173265987500002,0.05755893710912174,218.11820221099998,218.11820221099998,218.11820221099998,1.0271476746146144,nan,nan,nan,nan,nan,nan,nan,nan,nan,nan,nan,nan,nan,nan,nan,nan,nan,nan,nan,nan,40.61566854872632,39.3078770727,42.0262632172,0.776688168872786,nan,nan,nan,nan,6.333333333333333,0.0,17.0,9.29157324317757,66.12850055101374,66.12850055101374,66.12850055101374,1.1867702446867026,nan,nan,nan,nan,nan,nan,nan,nan,nan,nan,nan,nan,Walking,U4
109,,,10.116484124469284,8.94711051642,13.7626212265,1.209954766227302,9.79940209445,9.79940209445,9.79940209445,0.0072619136127991335,0.16173265987500002,0.16173265987500002,0.16173265987500002,0.05755893710912174,218.11820221099998,218.11820221099998,218.11820221099998,1.0271476746146144,nan,nan,nan,nan,nan,nan,nan,nan,nan,nan,nan,nan,nan,nan,nan,nan,nan,nan,nan,nan,38.16692818581482,36.2059111196,40.4252191207,1.0477243738491682,nan,nan,nan,nan,6.333333333333333,0.0,17.0,9.29157324317757,62.74517610214593,58.29743635080101,67.19291585349086,6.290053878257932,nan,nan,nan,nan,nan,nan,nan,nan,nan,nan,nan,nan,Walking,U4
110,,,9.806193111339999,3.9496055662400003,14.037590265499999,2.3114726662837954,9.79940209445,9.79940209445,9.79940209445,0.0072619136127991335,0.16173265987500002,0.16173265987500002,0.16173265987500002,0.05755893710912174,352.464996115,352.464996115,352.464996115,1.0271476746146144,nan,nan,nan,nan,nan,nan,nan,nan,nan,nan,nan,nan,nan,nan,nan,nan,nan,nan,nan,nan,37.630668667808,31.9336437006,40.4776820811,2.1230354197848245,nan,nan,nan,nan,6.333333333333333,0.0,17.0,9.29157324317757,62.74517610214593,58.29743635080101,67.19291585349086,6.290053878257932,nan,nan,nan,nan,nan,nan,nan,nan,nan,nan,nan,nan,Walking,U4
111,,,11.342068905264446,4.89775716676,17.4919475519,3.5342585937253177,9.79940209445,9.79940209445,9.79940209445,0.0072619136127991335,1.70499338049,1.70499338049,1.70499338049,0.05755893710912174,352.464996115,352.464996115,352.464996115,1.0271476746146144,nan,nan,nan,nan,nan,nan,nan,nan,nan,nan,nan,nan,nan,nan,nan,nan,nan,nan,nan,nan,32.21069988728974,25.211283188299998,40.7365094234,5.464819962200298,nan,nan,nan,nan,6.333333333333333,0.0,17.0,9.29157324317757,62.74517610214593,58.29743635080101,67.19291585349086,6.290053878257932,nan,nan,nan,nan,nan,nan,nan,nan,nan,nan,nan,nan,Walking,U4
112,,,10.412361269149443,5.86770743561,15.8760357235,3.204055261943457,9.79940209445,9.79940209445,9.79940209445,0.0072619136127991335,1.70499338049,1.70499338049,1.70499338049,0.05755893710912174,133.528322794,133.528322794,133.528322794,1.0271476746146144,nan,nan,nan,nan,nan,nan,nan,nan,nan,nan,nan,nan,nan,nan,nan,nan,nan,nan,nan,nan,39.91273360416883,34.828591702800004,45.0003582602,2.825608512427867,nan,nan,nan,nan,6.333333333333333,0.0,17.0,9.29157324317757,62.74517610214593,58.29743635080101,67.19291585349086,6.290053878257932,nan,nan,nan,nan,nan,nan,nan,nan,nan,nan,nan,nan,Walking,U4
113,,,10.182616578640001,8.69250188167,12.6410768984,0.9227825869072922,9.79940209445,9.79940209445,9.79940209445,0.0072619136127991335,1.363271497626,0.327171985948,2.54120786132,1.1138119158102597,261.809124084,261.809124084,261.809124084,1.0271476746146144,nan,nan,nan,nan,nan,nan,nan,nan,nan,nan,nan,nan,nan,nan,nan,nan,nan,nan,nan,nan,37.07533033934286,35.1276813923,41.3916495173,1.3018728360858551,nan,nan,nan,nan,6.333333333333333,0.0,17.0,9.29157324317757,62.74517610214593,58.29743635080101,67.19291585349086,6.290053878257932,nan,nan,nan,nan,nan,nan,nan,nan,nan,nan,nan,nan,Walking,U4
114,,,9.922319543132499,9.672138433410002,10.5743308301,0.19416516389764318,9.796552521305,9.79401501028,9.79909003233,0.003588582506225461,1.363271497626,0.327171985948,2.54120786132,1.1138119158102597,248.06415849450002,247.08273745900001,249.04557953,1.3879389388023347,nan,nan,nan,nan,nan,nan,nan,nan,nan,nan,nan,nan,nan,nan,nan,nan,nan,nan,nan,nan,36.734973546852,35.6356057897,38.6854853742,0.6105330366389217,nan,nan,nan,nan,6.333333333333333,0.0,17.0,9.29157324317757,71.0994691666648,71.0994691666648,71.0994691666648,6.290053878257932,nan,nan,nan,nan,nan,nan,nan,nan,nan,nan,nan,nan,Walking,U4
115,,,9.90943704197,9.00799851688,10.4076142135,0.36004133604819033,9.79518904754,9.79518904754,9.79518904754,0.003588582506225461,1.363271497626,0.327171985948,2.54120786132,1.1138119158102597,248.06415849450002,247.08273745900001,249.04557953,1.3879389388023347,nan,nan,nan,nan,nan,nan,nan,nan,nan,nan,nan,nan,nan,nan,nan,nan,nan,nan,nan,nan,37.98780102609013,34.8706865272,40.9035010726,1.5201315657740029,nan,nan,nan,nan,6.333333333333333,0.0,17.0,9.29157324317757,71.0994691666648,71.0994691666648,71.0994691666648,6.290053878257932,nan,nan,nan,nan,nan,nan,nan,nan,nan,nan,nan,nan,Walking,U4
116,,,11.163093942081,7.87809774886,18.1709873484,3.4411540420709152,9.79518904754,9.79518904754,9.79518904754,0.003588582506225461,1.363271497626,0.327171985948,2.54120786132,1.1138119158102597,248.06415849450002,247.08273745900001,249.04557953,1.3879389388023347,nan,nan,nan,nan,nan,nan,nan,nan,nan,nan,nan,nan,nan,nan,nan,nan,nan,nan,nan,nan,41.67553407068706,37.5495512623,48.4848617587,2.663670945860097,nan,nan,nan,nan,6.333333333333333,0.0,17.0,9.29157324317757,62.245395368345406,62.245395368345406,62.245395368345406,6.290053878257932,nan,nan,nan,nan,nan,nan,nan,nan,nan,nan,nan,nan,Walking,U4
117,,,11.730349650682857,3.32476624366,21.2372417317,4.90156810978142,9.79518904754,9.79518904754,9.79518904754,0.003588582506225461,2.5422297126199997,2.5422297126199997,2.5422297126199997,1.1138119158102597,164.680117986,164.680117986,164.680117986,1.3879389388023347,nan,nan,nan,nan,nan,nan,nan,nan,nan,nan,nan,nan,nan,nan,nan,nan,nan,nan,nan,nan,33.42329662724794,17.9063563329,52.5058625297,10.0510920479074,nan,nan,nan,nan,6.333333333333333,0.0,17.0,9.29157324317757,62.245395368345406,62.245395368345406,62.245395368345406,6.290053878257932,nan,nan,nan,nan,nan,nan,nan,nan,nan,nan,nan,nan,Walking,U4
118,,,10.51845539198846,7.508362880589999,18.7005146797,2.849085938726044,9.79518904754,9.79518904754,9.79518904754,0.003588582506225461,2.60793189619,2.60793189619,2.60793189619,1.1138119158102597,164.680117986,164.680117986,164.680117986,1.3879389388023347,nan,nan,nan,nan,nan,nan,nan,nan,nan,nan,nan,nan,nan,nan,nan,nan,nan,nan,nan,nan,31.809150495053085,29.2734828679,36.2116272493,1.4724933610565871,nan,nan,nan,nan,6.333333333333333,0.0,17.0,9.29157324317757,57.086120836021614,57.086120836021614,57.086120836021614,6.290053878257932,nan,nan,nan,nan,nan,nan,nan,nan,nan,nan,nan,nan,Walking,U4
119,,,9.758014361881052,6.69755744588,10.6068400876,0.8044020277560321,9.79518904754,9.79518904754,9.79518904754,0.003588582506225461,2.60793189619,2.60793189619,2.60793189619,1.1138119158102597,164.680117986,164.680117986,164.680117986,1.3879389388023347,nan,nan,nan,nan,nan,nan,nan,nan,nan,nan,nan,nan,nan,nan,nan,nan,nan,nan,nan,nan,29.142676195837662,27.8879327904,30.4775182671,0.6449668949609988,nan,nan,nan,nan,6.333333333333333,0.0,17.0,9.29157324317757,77.24143438759988,77.24143438759988,77.24143438759988,6.290053878257932,nan,nan,nan,nan,nan,nan,nan,nan,nan,nan,nan,nan,Walking,U4
120,,,8.675358058483571,1.6144235451499998,13.4686434178,3.0163149460670478,9.80505558956,9.80295073523,9.80716044389,0.0029767135403053653,3.05496838664,3.05496838664,3.05496838664,1.1138119158102597,241.71779222799998,241.71779222799998,241.71779222799998,1.3879389388023347,nan,nan,nan,nan,nan,nan,nan,nan,nan,nan,nan,nan,nan,nan,nan,nan,nan,nan,nan,nan,35.2772729014641,25.106397591100002,49.1823623324,7.489711093249402,nan,nan,nan,nan,6.333333333333333,0.0,17.0,9.29157324317757,77.24143438759988,77.24143438759988,77.24143438759988,6.290053878257932,nan,nan,nan,nan,nan,nan,nan,nan,nan,nan,nan,nan,Walking,U4
121,,,9.982879834622631,7.31924337347,13.6043112494,1.6784759800611224,9.798664035189999,9.798664035189999,9.798664035189999,0.0029767135403053653,2.1495134606099997,2.1495134606099997,2.1495134606099997,1.1138119158102597,221.36716919,221.36716919,221.36716919,1.3879389388023347,nan,nan,nan,nan,nan,nan,nan,nan,nan,nan,nan,nan,nan,nan,nan,nan,nan,nan,nan,nan,28.67236408476667,23.2257353356,37.808094371399996,5.04059467261958,nan,nan,nan,nan,6.333333333333333,0.0,17.0,9.29157324317757,77.24143438759988,77.24143438759988,77.24143438759988,6.290053878257932,nan,nan,nan,nan,nan,nan,nan,nan,nan,nan,nan,nan,Walking,U4
122,,,9.03092797015,7.722885482050001,9.55552716565,0.7505219105700105,9.798664035189999,9.798664035189999,9.798664035189999,0.0029767135403053653,1.2325491934880002,0.671277296624,1.73940958283,0.5361409369951399,221.36716919,221.36716919,221.36716919,1.3879389388023347,nan,nan,nan,nan,nan,nan,nan,nan,nan,nan,nan,nan,nan,nan,nan,nan,nan,nan,nan,nan,34.609254962420586,32.4447459223,38.1159171098,1.7421954080132078,nan,nan,nan,nan,6.333333333333333,0.0,17.0,9.29157324317757,77.24143438759988,77.24143438759988,77.24143438759988,6.290053878257932,nan,nan,nan,nan,4.5,0.0,9.0,6.363961030678928,nan,nan,nan,nan,Walking,U4
