time,activityrecognition#0,activityrecognition#1,android.sensor.accelerometer#mean,android.sensor.accelerometer#min,android.sensor.accelerometer#max,android.sensor.accelerometer#std,android.sensor.gravity#mean,android.sensor.gravity#min,android.sensor.gravity#max,android.sensor.gravity#std,android.sensor.linear_acceleration#mean,android.sensor.linear_acceleration#min,android.sensor.linear_acceleration#max,android.sensor.linear_acceleration#std,android.sensor.orientation#mean,android.sensor.orientation#min,android.sensor.orientation#max,android.sensor.orientation#std,android.sensor.gyroscope_uncalibrated#mean,android.sensor.gyroscope_uncalibrated#min,android.sensor.gyroscope_uncalibrated#max,android.sensor.gyroscope_uncalibrated#std,android.sensor.magnetic_field_uncalibrated#mean,android.sensor.magnetic_field_uncalibrated#min,android.sensor.magnetic_field_uncalibrated#max,android.sensor.magnetic_field_uncalibrated#std,android.sensor.rotation_vector#mean,android.sensor.rotation_vector#min,android.sensor.rotation_vector#max,android.sensor.rotation_vector#std,android.sensor.gyroscope#mean,android.sensor.gyroscope#min,android.sensor.gyroscope#max,android.sensor.gyroscope#std,android.sensor.game_rotation_vector#mean,android.sensor.game_rotation_vector#min,android.sensor.game_rotation_vector#max,android.sensor.game_rotation_vector#std,android.sensor.magnetic_field#mean,android.sensor.magnetic_field#min,android.sensor.magnetic_field#max,android.sensor.magnetic_field#std,android.sensor.pressure#mean,android.sensor.pressure#min,android.sensor.pressure#max,android.sensor.pressure#std,android.sensor.light#mean,android.sensor.light#min,android.sensor.light#max,android.sensor.light#std,sound#mean,sound#min,sound#max,sound#std,speed#mean,speed#min,speed#max,speed#std,android.sensor.proximity#mean,android.sensor.proximity#min,android.sensor.proximity#max,android.sensor.proximity#std,android.sensor.step_counter#mean,android.sensor.step_counter#min,android.sensor.step_counter#max,android.sensor.step_counter#std,target,user
1,,,9.803928808693298,9.350073121900001,10.1037808153,0.09042496235748392,nan,nan,nan,nan,nan,nan,nan,nan,nan,nan,nan,nan,nan,nan,nan,nan,nan,nan,nan,nan,nan,nan,nan,nan,nan,nan,nan,nan,nan,nan,nan,nan,nan,nan,nan,nan,nan,nan,nan,nan,nan,nan,nan,nan,nan,nan,nan,nan,nan,nan,nan,nan,nan,nan,nan,nan,nan,nan,nan,nan,Still,U6
2,,,9.825772302292396,9.7424935219,9.89154360156,0.02917656318868834,nan,nan,nan,nan,nan,nan,nan,nan,nan,nan,nan,nan,nan,nan,nan,nan,nan,nan,nan,nan,nan,nan,nan,nan,nan,nan,nan,nan,nan,nan,nan,nan,nan,nan,nan,nan,nan,nan,nan,nan,nan,nan,nan,nan,nan,nan,nan,nan,nan,nan,nan,nan,nan,nan,nan,nan,nan,nan,nan,nan,Still,U6
3,,,9.833906613076978,9.75988962481,9.90453897604,0.029292540416882482,nan,nan,nan,nan,nan,nan,nan,nan,nan,nan,nan,nan,nan,nan,nan,nan,nan,nan,nan,nan,nan,nan,nan,nan,nan,nan,nan,nan,nan,nan,nan,nan,nan,nan,nan,nan,nan,nan,nan,nan,nan,nan,nan,nan,nan,nan,nan,nan,nan,nan,nan,nan,nan,nan,nan,nan,nan,nan,nan,nan,Still,U6
4,,,9.838657083828865,9.76722097362,9.95286030267,0.031244857448668208,nan,nan,nan,nan,nan,nan,nan,nan,nan,nan,nan,nan,nan,nan,nan,nan,nan,nan,nan,nan,nan,nan,nan,nan,nan,nan,nan,nan,nan,nan,nan,nan,nan,nan,nan,nan,nan,nan,nan,nan,nan,nan,nan,nan,nan,nan,nan,nan,nan,nan,nan,nan,nan,nan,nan,nan,nan,nan,nan,nan,Still,U6
5,,,9.8454440540675,9.780972501499999,9.95264374902,0.030794913773477338,nan,nan,nan,nan,nan,nan,nan,nan,nan,nan,nan,nan,nan,nan,nan,nan,nan,nan,nan,nan,nan,nan,nan,nan,nan,nan,nan,nan,nan,nan,nan,nan,nan,nan,nan,nan,nan,nan,nan,nan,nan,nan,nan,nan,nan,nan,nan,nan,nan,nan,nan,nan,nan,nan,nan,nan,nan,nan,nan,nan,Still,U6
6,,,9.77576193479677,9.12309307384,10.5424638993,0.20903270155999193,nan,nan,nan,nan,nan,nan,nan,nan,nan,nan,nan,nan,nan,nan,nan,nan,nan,nan,nan,nan,nan,nan,nan,nan,nan,nan,nan,nan,nan,nan,nan,nan,nan,nan,nan,nan,nan,nan,nan,nan,41.0,41.0,41.0,nan,nan,nan,nan,nan,nan,nan,nan,nan,nan,nan,nan,nan,nan,nan,nan,nan,Still,U6
7,,,9.576443482874105,9.47124869634,9.938234762230001,0.05512394727915163,nan,nan,nan,nan,nan,nan,nan,nan,nan,nan,nan,nan,nan,nan,nan,nan,nan,nan,nan,nan,nan,nan,nan,nan,nan,nan,nan,nan,nan,nan,nan,nan,nan,nan,nan,nan,nan,nan,nan,nan,41.0,41.0,41.0,nan,43.28705711568875,43.28705711568875,43.28705711568875,nan,nan,nan,nan,nan,nan,nan,nan,nan,nan,nan,nan,nan,Still,U6
8,,,9.56323520416,9.47146131116,9.65321665443,0.03516313455777222,nan,nan,nan,nan,nan,nan,nan,nan,nan,nan,nan,nan,nan,nan,nan,nan,nan,nan,nan,nan,nan,nan,nan,nan,nan,nan,nan,nan,nan,nan,nan,nan,nan,nan,nan,nan,nan,nan,nan,nan,41.0,41.0,41.0,nan,43.28705711568875,43.28705711568875,43.28705711568875,nan,nan,nan,nan,nan,nan,nan,nan,nan,nan,nan,nan,nan,Still,U6
9,,,9.572239569948453,9.460731698130001,9.71559798957,0.03520050668159851,nan,nan,nan,nan,nan,nan,nan,nan,nan,nan,nan,nan,nan,nan,nan,nan,nan,nan,nan,nan,nan,nan,nan,nan,nan,nan,nan,nan,nan,nan,nan,nan,nan,nan,nan,nan,nan,nan,nan,nan,41.0,41.0,41.0,nan,43.28705711568875,43.28705711568875,43.28705711568875,nan,nan,nan,nan,nan,nan,nan,nan,nan,nan,nan,nan,nan,Still,U6
10,,,9.569446495115155,9.48188931579,9.640685859860001,0.03395284972977635,nan,nan,nan,nan,nan,nan,nan,nan,nan,nan,nan,nan,nan,nan,nan,nan,nan,nan,nan,nan,nan,nan,nan,nan,nan,nan,nan,nan,nan,nan,nan,nan,nan,nan,nan,nan,nan,nan,nan,nan,41.0,41.0,41.0,nan,43.28705711568875,43.28705711568875,43.28705711568875,nan,nan,nan,nan,nan,nan,nan,nan,nan,nan,nan,nan,nan,Still,U6
11,,,9.561579191483895,9.43328088595,9.66580717413,0.03850486141135977,nan,nan,nan,nan,nan,nan,nan,nan,nan,nan,nan,nan,nan,nan,nan,nan,nan,nan,nan,nan,nan,nan,nan,nan,nan,nan,nan,nan,nan,nan,nan,nan,nan,nan,nan,nan,nan,nan,nan,nan,41.0,41.0,41.0,nan,43.28705711568875,43.28705711568875,43.28705711568875,nan,nan,nan,nan,nan,nan,nan,nan,nan,nan,nan,nan,nan,Still,U6
12,,,9.564738801175842,9.46751029632,9.784666023089999,0.04311634547600792,nan,nan,nan,nan,nan,nan,nan,nan,nan,nan,nan,nan,nan,nan,nan,nan,nan,nan,nan,nan,nan,nan,nan,nan,nan,nan,nan,nan,nan,nan,nan,nan,nan,nan,nan,nan,nan,nan,nan,nan,41.0,41.0,41.0,nan,42.60667536990013,42.60667536990013,42.60667536990013,nan,nan,nan,nan,nan,nan,nan,nan,nan,nan,nan,nan,nan,Still,U6
13,,,9.571954285342967,9.4455472015,9.708661582080001,0.046562449127657224,nan,nan,nan,nan,nan,nan,nan,nan,nan,nan,nan,nan,nan,nan,nan,nan,nan,nan,nan,nan,nan,nan,nan,nan,nan,nan,nan,nan,nan,nan,nan,nan,nan,nan,nan,nan,nan,nan,nan,nan,41.0,41.0,41.0,nan,42.60667536990013,42.60667536990013,42.60667536990013,nan,nan,nan,nan,nan,nan,nan,nan,nan,nan,nan,nan,nan,Still,U6
14,,,9.572301539515713,9.375033754450001,9.85156523057,0.06779790392063867,nan,nan,nan,nan,nan,nan,nan,nan,nan,nan,nan,nan,nan,nan,nan,nan,nan,nan,nan,nan,nan,nan,nan,nan,nan,nan,nan,nan,nan,nan,nan,nan,nan,nan,nan,nan,nan,nan,nan,nan,41.0,41.0,41.0,nan,42.60667536990013,42.60667536990013,42.60667536990013,nan,nan,nan,nan,nan,nan,nan,nan,nan,nan,nan,nan,nan,Still,U6
15,,,9.568358196529354,9.45015341345,9.70121495585,0.04569399695804718,nan,nan,nan,nan,nan,nan,nan,nan,nan,nan,nan,nan,nan,nan,nan,nan,nan,nan,nan,nan,nan,nan,nan,nan,nan,nan,nan,nan,nan,nan,nan,nan,nan,nan,nan,nan,nan,nan,nan,nan,41.0,41.0,41.0,nan,42.60667536990013,42.60667536990013,42.60667536990013,nan,nan,nan,nan,nan,nan,nan,nan,nan,nan,nan,nan,nan,Still,U6
16,,,9.569386839292696,9.495735611719999,9.66869086959,0.035727507256328006,nan,nan,nan,nan,nan,nan,nan,nan,nan,nan,nan,nan,nan,nan,nan,nan,nan,nan,nan,nan,nan,nan,nan,nan,nan,nan,nan,nan,nan,nan,nan,nan,nan,nan,nan,nan,nan,nan,nan,nan,41.0,41.0,41.0,nan,43.22736004469949,43.22736004469949,43.22736004469949,nan,nan,nan,nan,nan,nan,nan,nan,nan,nan,nan,nan,nan,Still,U6
17,,,9.576698774113442,9.45039125174,9.68569307412,0.04004494474467491,nan,nan,nan,nan,nan,nan,nan,nan,nan,nan,nan,nan,nan,nan,nan,nan,nan,nan,nan,nan,nan,nan,nan,nan,nan,nan,nan,nan,nan,nan,nan,nan,nan,nan,nan,nan,nan,nan,nan,nan,41.0,41.0,41.0,nan,43.22736004469949,43.22736004469949,43.22736004469949,nan,nan,nan,nan,nan,nan,nan,nan,nan,nan,nan,nan,nan,Still,U6
18,,,9.56084168043427,9.48761929857,9.643321075160001,0.029293176886288973,nan,nan,nan,nan,nan,nan,nan,nan,nan,nan,nan,nan,nan,nan,nan,nan,nan,nan,nan,nan,nan,nan,nan,nan,nan,nan,nan,nan,nan,nan,nan,nan,nan,nan,nan,nan,nan,nan,nan,nan,41.0,41.0,41.0,nan,43.22736004469949,43.22736004469949,43.22736004469949,nan,nan,nan,nan,nan,nan,nan,nan,nan,nan,nan,nan,nan,Still,U6
19,,,9.56352766234302,9.45845794656,9.66383254375,0.03615442082314427,nan,nan,nan,nan,nan,nan,nan,nan,nan,nan,nan,nan,nan,nan,nan,nan,nan,nan,nan,nan,nan,nan,nan,nan,nan,nan,nan,nan,nan,nan,nan,nan,nan,nan,nan,nan,nan,nan,nan,nan,41.0,41.0,41.0,nan,55.40230589574203,55.40230589574203,55.40230589574203,nan,nan,nan,nan,nan,nan,nan,nan,nan,nan,nan,nan,nan,Still,U6
20,,,9.577942214952916,9.51456553306,9.67620530532,0.02911001000130605,nan,nan,nan,nan,nan,nan,nan,nan,nan,nan,nan,nan,nan,nan,nan,nan,nan,nan,nan,nan,nan,nan,nan,nan,nan,nan,nan,nan,nan,nan,nan,nan,nan,nan,nan,nan,nan,nan,nan,nan,41.0,41.0,41.0,nan,55.40230589574203,55.40230589574203,55.40230589574203,nan,nan,nan,nan,nan,nan,nan,nan,nan,nan,nan,nan,nan,Still,U6
21,,,9.580980021412083,9.511128232139999,9.649643867510001,0.029104860781698574,nan,nan,nan,nan,nan,nan,nan,nan,nan,nan,nan,nan,nan,nan,nan,nan,nan,nan,nan,nan,nan,nan,nan,nan,nan,nan,nan,nan,nan,nan,nan,nan,nan,nan,nan,nan,nan,nan,nan,nan,41.0,41.0,41.0,nan,56.675687493129566,56.675687493129566,56.675687493129566,nan,nan,nan,nan,nan,nan,nan,nan,nan,nan,nan,nan,nan,Still,U6
22,,,9.588932946426459,9.4776426661,9.660477401860001,0.03586457679623368,nan,nan,nan,nan,nan,nan,nan,nan,nan,nan,nan,nan,nan,nan,nan,nan,nan,nan,nan,nan,nan,nan,nan,nan,nan,nan,nan,nan,nan,nan,nan,nan,nan,nan,nan,nan,nan,nan,nan,nan,41.0,41.0,41.0,nan,56.675687493129566,56.675687493129566,56.675687493129566,nan,nan,nan,nan,nan,nan,nan,nan,nan,nan,nan,nan,nan,Still,U6
23,,,9.599922791520834,9.52894196369,9.69143497254,0.0359300679305077,nan,nan,nan,nan,nan,nan,nan,nan,nan,nan,nan,nan,nan,nan,nan,nan,nan,nan,nan,nan,nan,nan,nan,nan,nan,nan,nan,nan,nan,nan,nan,nan,nan,nan,nan,nan,nan,nan,nan,nan,41.0,41.0,41.0,nan,56.675687493129566,56.675687493129566,56.675687493129566,nan,nan,nan,nan,nan,nan,nan,nan,nan,nan,nan,nan,nan,Still,U6
24,,,9.595720432556842,9.514353467000001,9.6787265617,0.030930430192610655,nan,nan,nan,nan,nan,nan,nan,nan,nan,nan,nan,nan,nan,nan,nan,nan,nan,nan,nan,nan,nan,nan,nan,nan,nan,nan,nan,nan,nan,nan,nan,nan,nan,nan,nan,nan,nan,nan,nan,nan,38.0,38.0,38.0,nan,48.02801081563089,48.02801081563089,48.02801081563089,nan,nan,nan,nan,nan,nan,nan,nan,nan,nan,nan,nan,nan,Still,U6
25,,,9.59241394893052,9.5032855135,9.67595858125,0.03524148098219343,nan,nan,nan,nan,nan,nan,nan,nan,nan,nan,nan,nan,nan,nan,nan,nan,nan,nan,nan,nan,nan,nan,nan,nan,nan,nan,nan,nan,nan,nan,nan,nan,nan,nan,nan,nan,nan,nan,nan,nan,38.0,38.0,38.0,nan,48.02801081563089,48.02801081563089,48.02801081563089,nan,nan,nan,nan,nan,nan,nan,nan,nan,nan,nan,nan,nan,Still,U6
26,,,9.601000168879063,9.51178954417,9.707405271419999,0.04219189870137253,nan,nan,nan,nan,nan,nan,nan,nan,nan,nan,nan,nan,nan,nan,nan,nan,nan,nan,nan,nan,nan,nan,nan,nan,nan,nan,nan,nan,nan,nan,nan,nan,nan,nan,nan,nan,nan,nan,nan,nan,38.0,38.0,38.0,nan,39.3696589710787,39.3696589710787,39.3696589710787,nan,nan,nan,nan,nan,nan,nan,nan,nan,nan,nan,nan,nan,Still,U6
27,,,9.579281304904123,9.49433018575,9.669649049470001,0.03233356183878803,nan,nan,nan,nan,nan,nan,nan,nan,nan,nan,nan,nan,nan,nan,nan,nan,nan,nan,nan,nan,nan,nan,nan,nan,nan,nan,nan,nan,nan,nan,nan,nan,nan,nan,nan,nan,nan,nan,nan,nan,38.0,38.0,38.0,nan,39.3696589710787,39.3696589710787,39.3696589710787,nan,nan,nan,nan,nan,nan,nan,nan,nan,nan,nan,nan,nan,Still,U6
28,,,9.594940831975052,9.31380263241,9.86410129282,0.07148827111240885,nan,nan,nan,nan,nan,nan,nan,nan,nan,nan,nan,nan,nan,nan,nan,nan,nan,nan,nan,nan,nan,nan,nan,nan,nan,nan,nan,nan,nan,nan,nan,nan,nan,nan,nan,nan,nan,nan,nan,nan,36.0,36.0,36.0,nan,39.3696589710787,39.3696589710787,39.3696589710787,nan,nan,nan,nan,nan,nan,nan,nan,nan,nan,nan,nan,nan,Still,U6
29,,,9.69122678822063,8.60780212841,11.021291041500001,0.3523150545533634,nan,nan,nan,nan,nan,nan,nan,nan,nan,nan,nan,nan,nan,nan,nan,nan,nan,nan,nan,nan,nan,nan,nan,nan,nan,nan,nan,nan,nan,nan,nan,nan,nan,nan,nan,nan,nan,nan,nan,nan,36.0,36.0,36.0,nan,50.552598017426774,50.552598017426774,50.552598017426774,nan,nan,nan,nan,nan,nan,nan,nan,nan,nan,nan,nan,nan,Still,U6
30,,,9.708655187758211,9.465495260379999,9.87312625116,0.06888612827484414,nan,nan,nan,nan,nan,nan,nan,nan,nan,nan,nan,nan,nan,nan,nan,nan,nan,nan,nan,nan,nan,nan,nan,nan,nan,nan,nan,nan,nan,nan,nan,nan,nan,nan,nan,nan,nan,nan,nan,nan,36.0,36.0,36.0,nan,29.54242509439325,29.54242509439325,29.54242509439325,nan,nan,nan,nan,nan,nan,nan,nan,nan,nan,nan,nan,nan,Still,U6
31,,,9.706693863736598,9.54179290065,9.86830352153,0.057140891628379056,nan,nan,nan,nan,nan,nan,nan,nan,nan,nan,nan,nan,nan,nan,nan,nan,nan,nan,nan,nan,nan,nan,nan,nan,nan,nan,nan,nan,nan,nan,nan,nan,nan,nan,nan,nan,nan,nan,nan,nan,36.0,36.0,36.0,nan,29.54242509439325,29.54242509439325,29.54242509439325,nan,nan,nan,nan,nan,nan,nan,nan,nan,nan,nan,nan,nan,Still,U6
32,,,9.719714514774148,9.573330445149999,9.82969501548,0.04028689997515012,nan,nan,nan,nan,nan,nan,nan,nan,nan,nan,nan,nan,nan,nan,nan,nan,nan,nan,nan,nan,nan,nan,nan,nan,nan,nan,nan,nan,nan,nan,nan,nan,nan,nan,nan,nan,nan,nan,nan,nan,36.0,36.0,36.0,nan,28.53089529851865,27.234556720351854,29.827233876685447,1.8332995986709384,nan,nan,nan,nan,nan,nan,nan,nan,nan,nan,nan,nan,Still,U6
33,,,9.752848290860625,9.53071833402,9.982147837889999,0.0619273841362726,nan,nan,nan,nan,nan,nan,nan,nan,nan,nan,nan,nan,nan,nan,nan,nan,nan,nan,nan,nan,nan,nan,nan,nan,nan,nan,nan,nan,nan,nan,nan,nan,nan,nan,nan,nan,nan,nan,nan,nan,36.0,36.0,36.0,nan,38.790385052372365,38.790385052372365,38.790385052372365,1.8332995986709384,nan,nan,nan,nan,nan,nan,nan,nan,nan,nan,nan,nan,Still,U6
34,,,9.751464021019896,9.59075507479,10.146905561799999,0.06773827683800883,nan,nan,nan,nan,nan,nan,nan,nan,nan,nan,nan,nan,nan,nan,nan,nan,nan,nan,nan,nan,nan,nan,nan,nan,nan,nan,nan,nan,nan,nan,nan,nan,nan,nan,nan,nan,nan,nan,nan,nan,36.0,36.0,36.0,nan,38.790385052372365,38.790385052372365,38.790385052372365,1.8332995986709384,nan,nan,nan,nan,nan,nan,nan,nan,nan,nan,nan,nan,Still,U6
35,,,9.743341769256391,9.65496559882,9.87040330758,0.04169532520598986,nan,nan,nan,nan,nan,nan,nan,nan,nan,nan,nan,nan,nan,nan,nan,nan,nan,nan,nan,nan,nan,nan,nan,nan,nan,nan,nan,nan,nan,nan,nan,nan,nan,nan,nan,nan,nan,nan,nan,nan,36.0,36.0,36.0,nan,38.790385052372365,38.790385052372365,38.790385052372365,1.8332995986709384,nan,nan,nan,nan,nan,nan,nan,nan,nan,nan,nan,nan,Still,U6
36,,,9.754936072229583,9.330793544339999,10.0946716279,0.09335557466415463,nan,nan,nan,nan,nan,nan,nan,nan,nan,nan,nan,nan,nan,nan,nan,nan,nan,nan,nan,nan,nan,nan,nan,nan,nan,nan,nan,nan,nan,nan,nan,nan,nan,nan,nan,nan,nan,nan,nan,nan,36.0,36.0,36.0,nan,38.790385052372365,38.790385052372365,38.790385052372365,1.8332995986709384,nan,nan,nan,nan,nan,nan,nan,nan,nan,nan,nan,nan,Still,U6
37,,,9.744068866646082,9.63459588493,9.845870379389998,0.04119631902753209,nan,nan,nan,nan,nan,nan,nan,nan,nan,nan,nan,nan,nan,nan,nan,nan,nan,nan,nan,nan,nan,nan,nan,nan,nan,nan,nan,nan,nan,nan,nan,nan,nan,nan,nan,nan,nan,nan,nan,nan,36.0,36.0,36.0,nan,38.790385052372365,38.790385052372365,38.790385052372365,1.8332995986709384,nan,nan,nan,nan,nan,nan,nan,nan,nan,nan,nan,nan,Still,U6
38,,,9.754775573143299,9.63593820696,9.889118506139999,0.040890574713561695,nan,nan,nan,nan,nan,nan,nan,nan,nan,nan,nan,nan,nan,nan,nan,nan,nan,nan,nan,nan,nan,nan,nan,nan,nan,nan,nan,nan,nan,nan,nan,nan,nan,nan,nan,nan,nan,nan,nan,nan,19.0,19.0,19.0,nan,54.32006687269598,54.32006687269598,54.32006687269598,1.8332995986709384,nan,nan,nan,nan,nan,nan,nan,nan,nan,nan,nan,nan,Still,U6
39,,,9.754088075154328,9.6659640566,9.85150012644,0.04028984962736836,nan,nan,nan,nan,nan,nan,nan,nan,nan,nan,nan,nan,nan,nan,nan,nan,nan,nan,nan,nan,nan,nan,nan,nan,nan,nan,nan,nan,nan,nan,nan,nan,nan,nan,nan,nan,nan,nan,nan,nan,19.0,19.0,19.0,nan,54.32006687269598,54.32006687269598,54.32006687269598,1.8332995986709384,nan,nan,nan,nan,nan,nan,nan,nan,nan,nan,nan,nan,Still,U6
40,,,9.757631893241959,9.657377728330001,9.86835422356,0.040866800041526194,nan,nan,nan,nan,nan,nan,nan,nan,nan,nan,nan,nan,nan,nan,nan,nan,nan,nan,nan,nan,nan,nan,nan,nan,nan,nan,nan,nan,nan,nan,nan,nan,nan,nan,nan,nan,nan,nan,nan,nan,19.0,19.0,19.0,nan,54.32006687269598,54.32006687269598,54.32006687269598,1.8332995986709384,nan,nan,nan,nan,nan,nan,nan,nan,nan,nan,nan,nan,Still,U6
41,,,9.7584045975875,9.66476387779,9.868372996729999,0.03840743975205843,nan,nan,nan,nan,nan,nan,nan,nan,nan,nan,nan,nan,nan,nan,nan,nan,nan,nan,nan,nan,nan,nan,nan,nan,nan,nan,nan,nan,nan,nan,nan,nan,nan,nan,nan,nan,nan,nan,nan,nan,19.0,19.0,19.0,nan,54.32006687269598,54.32006687269598,54.32006687269598,1.8332995986709384,nan,nan,nan,nan,nan,nan,nan,nan,nan,nan,nan,nan,Still,U6
42,,,9.764645034844946,9.692248713180001,9.86882355159,0.040503990984104975,nan,nan,nan,nan,nan,nan,nan,nan,nan,nan,nan,nan,nan,nan,nan,nan,nan,nan,nan,nan,nan,nan,nan,nan,nan,nan,nan,nan,nan,nan,nan,nan,nan,nan,nan,nan,nan,nan,nan,nan,19.0,19.0,19.0,nan,42.797581728024724,42.797581728024724,42.797581728024724,1.8332995986709384,nan,nan,nan,nan,nan,nan,nan,nan,nan,nan,nan,nan,Still,U6
43,,,9.76452423495495,9.68255442293,9.952145937760001,0.042159865558159045,nan,nan,nan,nan,nan,nan,nan,nan,nan,nan,nan,nan,nan,nan,nan,nan,nan,nan,nan,nan,nan,nan,nan,nan,nan,nan,nan,nan,nan,nan,nan,nan,nan,nan,nan,nan,nan,nan,nan,nan,19.0,19.0,19.0,nan,42.797581728024724,42.797581728024724,42.797581728024724,1.8332995986709384,nan,nan,nan,nan,nan,nan,nan,nan,nan,nan,nan,nan,Still,U6
44,,,9.760211800977917,9.67515421006,9.86515660326,0.036703815497679475,nan,nan,nan,nan,nan,nan,nan,nan,nan,nan,nan,nan,nan,nan,nan,nan,nan,nan,nan,nan,nan,nan,nan,nan,nan,nan,nan,nan,nan,nan,nan,nan,nan,nan,nan,nan,nan,nan,nan,nan,19.0,19.0,19.0,nan,42.797581728024724,42.797581728024724,42.797581728024724,1.8332995986709384,nan,nan,nan,nan,nan,nan,nan,nan,nan,nan,nan,nan,Still,U6
45,,,9.761739600068248,9.66362979887,9.8575168673,0.03834693459541956,nan,nan,nan,nan,nan,nan,nan,nan,nan,nan,nan,nan,nan,nan,nan,nan,nan,nan,nan,nan,nan,nan,nan,nan,nan,nan,nan,nan,nan,nan,nan,nan,nan,nan,nan,nan,nan,nan,nan,nan,19.0,19.0,19.0,nan,42.797581728024724,42.797581728024724,42.797581728024724,1.8332995986709384,nan,nan,nan,nan,nan,nan,nan,nan,nan,nan,nan,nan,Still,U6
46,,,9.749112112056842,8.99578219926,10.2199783691,0.1372136209785196,nan,nan,nan,nan,nan,nan,nan,nan,nan,nan,nan,nan,nan,nan,nan,nan,nan,nan,nan,nan,nan,nan,nan,nan,nan,nan,nan,nan,nan,nan,nan,nan,nan,nan,nan,nan,nan,nan,nan,nan,19.0,19.0,19.0,nan,36.25826713285711,36.25826713285711,36.25826713285711,1.8332995986709384,nan,nan,nan,nan,nan,nan,nan,nan,nan,nan,nan,nan,Still,U6
47,,,9.76154276623625,9.681773329510001,9.86110698086,0.04013496169590273,nan,nan,nan,nan,nan,nan,nan,nan,nan,nan,nan,nan,nan,nan,nan,nan,nan,nan,nan,nan,nan,nan,nan,nan,nan,nan,nan,nan,nan,nan,nan,nan,nan,nan,nan,nan,nan,nan,nan,nan,19.0,19.0,19.0,nan,36.25826713285711,36.25826713285711,36.25826713285711,1.8332995986709384,nan,nan,nan,nan,nan,nan,nan,nan,nan,nan,nan,nan,Still,U6
48,,,9.787698897558645,9.637850955189998,9.90233028237,0.038101916259471465,nan,nan,nan,nan,nan,nan,nan,nan,nan,nan,nan,nan,nan,nan,nan,nan,nan,nan,nan,nan,nan,nan,nan,nan,nan,nan,nan,nan,nan,nan,nan,nan,nan,nan,nan,nan,nan,nan,nan,nan,19.0,19.0,19.0,nan,36.25826713285711,36.25826713285711,36.25826713285711,1.8332995986709384,nan,nan,nan,nan,nan,nan,nan,nan,nan,nan,nan,nan,Still,U6
49,,,9.780642757741065,9.69741419999,9.87158814455,0.03600339678852989,nan,nan,nan,nan,nan,nan,nan,nan,nan,nan,nan,nan,nan,nan,nan,nan,nan,nan,nan,nan,nan,nan,nan,nan,nan,nan,nan,nan,nan,nan,nan,nan,nan,nan,nan,nan,nan,nan,nan,nan,19.0,19.0,19.0,nan,37.07825568332231,35.98681098907163,38.169700377572994,1.5435358891894715,nan,nan,nan,nan,nan,nan,nan,nan,nan,nan,nan,nan,Still,U6
50,,,9.775387969461356,9.692741358220001,9.864264061839998,0.038998545272423274,nan,nan,nan,nan,nan,nan,nan,nan,nan,nan,nan,nan,nan,nan,nan,nan,nan,nan,nan,nan,nan,nan,nan,nan,nan,nan,nan,nan,nan,nan,nan,nan,nan,nan,nan,nan,nan,nan,nan,nan,19.0,19.0,19.0,nan,37.07825568332231,35.98681098907163,38.169700377572994,1.5435358891894715,nan,nan,nan,nan,nan,nan,nan,nan,nan,nan,nan,nan,Still,U6
51,,,9.764609732936496,9.68333584837,9.86876333088,0.034903966601741464,nan,nan,nan,nan,nan,nan,nan,nan,nan,nan,nan,nan,nan,nan,nan,nan,nan,nan,nan,nan,nan,nan,nan,nan,nan,nan,nan,nan,nan,nan,nan,nan,nan,nan,nan,nan,nan,nan,nan,nan,19.0,19.0,19.0,nan,37.07825568332231,35.98681098907163,38.169700377572994,1.5435358891894715,nan,nan,nan,nan,nan,nan,nan,nan,nan,nan,nan,nan,Still,U6
52,,,9.78445485041464,9.603823410739999,9.93210904974,0.04410272687880555,nan,nan,nan,nan,nan,nan,nan,nan,nan,nan,nan,nan,nan,nan,nan,nan,nan,nan,nan,nan,nan,nan,nan,nan,nan,nan,nan,nan,nan,nan,nan,nan,nan,nan,nan,nan,nan,nan,nan,nan,19.0,19.0,19.0,nan,37.07825568332231,35.98681098907163,38.169700377572994,1.5435358891894715,nan,nan,nan,nan,nan,nan,nan,nan,nan,nan,nan,nan,Still,U6
53,,,9.771425710075418,9.67782643896,9.85269556354,0.037665016060616584,nan,nan,nan,nan,nan,nan,nan,nan,nan,nan,nan,nan,nan,nan,nan,nan,nan,nan,nan,nan,nan,nan,nan,nan,nan,nan,nan,nan,nan,nan,nan,nan,nan,nan,nan,nan,nan,nan,nan,nan,19.0,19.0,19.0,nan,37.07825568332231,35.98681098907163,38.169700377572994,1.5435358891894715,nan,nan,nan,nan,nan,nan,nan,nan,nan,nan,nan,nan,Still,U6
54,,,10.360881435419584,8.23641556982,13.538478010499999,0.7227459825048641,nan,nan,nan,nan,nan,nan,nan,nan,nan,nan,nan,nan,nan,nan,nan,nan,nan,nan,nan,nan,nan,nan,nan,nan,nan,nan,nan,nan,nan,nan,nan,nan,nan,nan,nan,nan,nan,nan,nan,nan,19.0,19.0,19.0,nan,34.32006687269598,34.32006687269598,34.32006687269598,1.5435358891894715,nan,nan,nan,nan,nan,nan,nan,nan,nan,nan,nan,nan,Still,U6
55,,,9.666922759783684,7.6990079280699995,12.4172047053,0.5742222043666254,nan,nan,nan,nan,nan,nan,nan,nan,nan,nan,nan,nan,nan,nan,nan,nan,nan,nan,nan,nan,nan,nan,nan,nan,nan,nan,nan,nan,nan,nan,nan,nan,nan,nan,nan,nan,nan,nan,nan,nan,19.0,19.0,19.0,nan,54.40318606811915,54.40318606811915,54.40318606811915,1.5435358891894715,nan,nan,nan,nan,nan,nan,nan,nan,nan,nan,nan,nan,Still,U6
56,,,9.516576159020207,9.40688601215,9.670688233889999,0.04926088140312669,nan,nan,nan,nan,nan,nan,nan,nan,nan,nan,nan,nan,nan,nan,nan,nan,nan,nan,nan,nan,nan,nan,nan,nan,nan,nan,nan,nan,nan,nan,nan,nan,nan,nan,nan,nan,nan,nan,nan,nan,19.0,19.0,19.0,nan,54.40318606811915,54.40318606811915,54.40318606811915,1.5435358891894715,nan,nan,nan,nan,nan,nan,nan,nan,nan,nan,nan,nan,Still,U6
57,,,9.521640990038968,9.42704648085,9.661921491460001,0.03468837931594032,nan,nan,nan,nan,nan,nan,nan,nan,nan,nan,nan,nan,nan,nan,nan,nan,nan,nan,nan,nan,nan,nan,nan,nan,nan,nan,nan,nan,nan,nan,nan,nan,nan,nan,nan,nan,nan,nan,nan,nan,19.0,19.0,19.0,nan,54.40318606811915,54.40318606811915,54.40318606811915,1.5435358891894715,nan,nan,nan,nan,nan,nan,nan,nan,nan,nan,nan,nan,Still,U6
58,,,9.529108644050833,9.352339224249999,9.68559943216,0.04573918574073707,nan,nan,nan,nan,nan,nan,nan,nan,nan,nan,nan,nan,nan,nan,nan,nan,nan,nan,nan,nan,nan,nan,nan,nan,nan,nan,nan,nan,nan,nan,nan,nan,nan,nan,nan,nan,nan,nan,nan,nan,19.0,19.0,19.0,nan,54.40318606811915,54.40318606811915,54.40318606811915,1.5435358891894715,nan,nan,nan,nan,nan,nan,nan,nan,nan,nan,nan,nan,Still,U6
59,,,9.525320866794226,9.321352182839998,9.70433511148,0.053374517748940815,nan,nan,nan,nan,nan,nan,nan,nan,nan,nan,nan,nan,nan,nan,nan,nan,nan,nan,nan,nan,nan,nan,nan,nan,nan,nan,nan,nan,nan,nan,nan,nan,nan,nan,nan,nan,nan,nan,nan,nan,19.0,19.0,19.0,nan,54.40318606811915,54.40318606811915,54.40318606811915,1.5435358891894715,nan,nan,nan,nan,nan,nan,nan,nan,nan,nan,nan,nan,Still,U6
60,,,9.521001362345418,9.431272482339999,9.59814813619,0.030845570957491294,nan,nan,nan,nan,nan,nan,nan,nan,nan,nan,nan,nan,nan,nan,nan,nan,nan,nan,nan,nan,nan,nan,nan,nan,nan,nan,nan,nan,nan,nan,nan,nan,nan,nan,nan,nan,nan,nan,nan,nan,19.0,19.0,19.0,nan,54.40318606811915,54.40318606811915,54.40318606811915,1.5435358891894715,nan,nan,nan,nan,nan,nan,nan,nan,nan,nan,nan,nan,Still,U6
61,,,9.5175578444333,9.4260106712,9.60439115677,0.035550547686128114,nan,nan,nan,nan,nan,nan,nan,nan,nan,nan,nan,nan,nan,nan,nan,nan,nan,nan,nan,nan,nan,nan,nan,nan,nan,nan,nan,nan,nan,nan,nan,nan,nan,nan,nan,nan,nan,nan,nan,nan,19.0,19.0,19.0,nan,54.40318606811915,54.40318606811915,54.40318606811915,1.5435358891894715,nan,nan,nan,nan,nan,nan,nan,nan,nan,nan,nan,nan,Still,U6
62,,,9.514020016530207,9.41522788893,9.635191497789998,0.040770805694980414,nan,nan,nan,nan,nan,nan,nan,nan,nan,nan,nan,nan,nan,nan,nan,nan,nan,nan,nan,nan,nan,nan,nan,nan,nan,nan,nan,nan,nan,nan,nan,nan,nan,nan,nan,nan,nan,nan,nan,nan,19.0,19.0,19.0,nan,54.40318606811915,54.40318606811915,54.40318606811915,1.5435358891894715,nan,nan,nan,nan,nan,nan,nan,nan,nan,nan,nan,nan,Still,U6
63,,,9.495039821637812,9.38883703974,9.657269077839999,0.041603698218033315,nan,nan,nan,nan,nan,nan,nan,nan,nan,nan,nan,nan,nan,nan,nan,nan,nan,nan,nan,nan,nan,nan,nan,nan,nan,nan,nan,nan,nan,nan,nan,nan,nan,nan,nan,nan,nan,nan,nan,nan,19.0,19.0,19.0,nan,54.40318606811915,54.40318606811915,54.40318606811915,1.5435358891894715,nan,nan,nan,nan,nan,nan,nan,nan,nan,nan,nan,nan,Still,U6
64,,,9.505146616529792,9.41085387098,9.628054365510001,0.035749013007721084,nan,nan,nan,nan,nan,nan,nan,nan,nan,nan,nan,nan,nan,nan,nan,nan,nan,nan,nan,nan,nan,nan,nan,nan,nan,nan,nan,nan,nan,nan,nan,nan,nan,nan,nan,nan,nan,nan,nan,nan,19.0,19.0,19.0,nan,54.40318606811915,54.40318606811915,54.40318606811915,1.5435358891894715,nan,nan,nan,nan,nan,nan,nan,nan,nan,nan,nan,nan,Still,U6
65,,,9.521048041753541,9.43333387076,9.589563765660001,0.030151459295385128,nan,nan,nan,nan,nan,nan,nan,nan,nan,nan,nan,nan,nan,nan,nan,nan,nan,nan,nan,nan,nan,nan,nan,nan,nan,nan,nan,nan,nan,nan,nan,nan,nan,nan,nan,nan,nan,nan,nan,nan,19.0,19.0,19.0,nan,48.49763273262135,48.49763273262135,48.49763273262135,1.5435358891894715,nan,nan,nan,nan,nan,nan,nan,nan,nan,nan,nan,nan,Still,U6
66,,,9.517384152933646,9.42473529823,9.65042818038,0.03859463864701853,nan,nan,nan,nan,nan,nan,nan,nan,nan,nan,nan,nan,nan,nan,nan,nan,nan,nan,nan,nan,nan,nan,nan,nan,nan,nan,nan,nan,nan,nan,nan,nan,nan,nan,nan,nan,nan,nan,nan,nan,19.0,19.0,19.0,nan,48.49763273262135,48.49763273262135,48.49763273262135,1.5435358891894715,nan,nan,nan,nan,nan,nan,nan,nan,nan,nan,nan,nan,Still,U6
67,,,9.524409473193126,9.43272697213,9.61565311202,0.031870646133302045,nan,nan,nan,nan,nan,nan,nan,nan,nan,nan,nan,nan,nan,nan,nan,nan,nan,nan,nan,nan,nan,nan,nan,nan,nan,nan,nan,nan,nan,nan,nan,nan,nan,nan,nan,nan,nan,nan,nan,nan,19.0,19.0,19.0,nan,43.04576688766112,43.04576688766112,43.04576688766112,1.5435358891894715,nan,nan,nan,nan,nan,nan,nan,nan,nan,nan,nan,nan,Still,U6
68,,,9.538740219793334,9.434690460739999,9.64825661918,0.034394892079271905,nan,nan,nan,nan,nan,nan,nan,nan,nan,nan,nan,nan,nan,nan,nan,nan,nan,nan,nan,nan,nan,nan,nan,nan,nan,nan,nan,nan,nan,nan,nan,nan,nan,nan,nan,nan,nan,nan,nan,nan,19.0,19.0,19.0,nan,43.04576688766112,43.04576688766112,43.04576688766112,1.5435358891894715,nan,nan,nan,nan,nan,nan,nan,nan,nan,nan,nan,nan,Still,U6
69,,,9.539143131833958,9.46842017217,9.63243950658,0.03562431626066296,nan,nan,nan,nan,nan,nan,nan,nan,nan,nan,nan,nan,nan,nan,nan,nan,nan,nan,nan,nan,nan,nan,nan,nan,nan,nan,nan,nan,nan,nan,nan,nan,nan,nan,nan,nan,nan,nan,nan,nan,19.0,19.0,19.0,nan,38.276277047674334,38.276277047674334,38.276277047674334,1.5435358891894715,nan,nan,nan,nan,nan,nan,nan,nan,nan,nan,nan,nan,Still,U6
70,,,9.525573442457189,9.43620155897,9.63818458467,0.040199787020031054,nan,nan,nan,nan,nan,nan,nan,nan,nan,nan,nan,nan,nan,nan,nan,nan,nan,nan,nan,nan,nan,nan,nan,nan,nan,nan,nan,nan,nan,nan,nan,nan,nan,nan,nan,nan,nan,nan,nan,nan,19.0,19.0,19.0,nan,38.276277047674334,38.276277047674334,38.276277047674334,1.5435358891894715,nan,nan,nan,nan,nan,nan,nan,nan,nan,nan,nan,nan,Still,U6
71,,,9.53351277433031,9.42398130642,9.62215556591,0.03833912564387556,nan,nan,nan,nan,nan,nan,nan,nan,nan,nan,nan,nan,nan,nan,nan,nan,nan,nan,nan,nan,nan,nan,nan,nan,nan,nan,nan,nan,nan,nan,nan,nan,nan,nan,nan,nan,nan,nan,nan,nan,19.0,19.0,19.0,nan,38.276277047674334,38.276277047674334,38.276277047674334,1.5435358891894715,nan,nan,nan,nan,nan,nan,nan,nan,nan,nan,nan,nan,Still,U6
72,,,9.51581190090677,9.44100703555,9.5768922603,0.02766025513048565,nan,nan,nan,nan,nan,nan,nan,nan,nan,nan,nan,nan,nan,nan,nan,nan,nan,nan,nan,nan,nan,nan,nan,nan,nan,nan,nan,nan,nan,nan,nan,nan,nan,nan,nan,nan,nan,nan,nan,nan,19.0,19.0,19.0,nan,38.276277047674334,38.276277047674334,38.276277047674334,1.5435358891894715,nan,nan,nan,nan,nan,nan,nan,nan,nan,nan,nan,nan,Still,U6
73,,,9.539632376487216,9.44428512667,9.653160381960001,0.03612077315728975,nan,nan,nan,nan,nan,nan,nan,nan,nan,nan,nan,nan,nan,nan,nan,nan,nan,nan,nan,nan,nan,nan,nan,nan,nan,nan,nan,nan,nan,nan,nan,nan,nan,nan,nan,nan,nan,nan,nan,nan,19.0,19.0,19.0,nan,38.276277047674334,38.276277047674334,38.276277047674334,1.5435358891894715,nan,nan,nan,nan,nan,nan,nan,nan,nan,nan,nan,nan,Still,U6
74,,,9.530855397358646,9.458137848669999,9.63168302238,0.03375080406909377,nan,nan,nan,nan,nan,nan,nan,nan,nan,nan,nan,nan,nan,nan,nan,nan,nan,nan,nan,nan,nan,nan,nan,nan,nan,nan,nan,nan,nan,nan,nan,nan,nan,nan,nan,nan,nan,nan,nan,nan,19.0,19.0,19.0,nan,38.276277047674334,38.276277047674334,38.276277047674334,1.5435358891894715,nan,nan,nan,nan,nan,nan,nan,nan,nan,nan,nan,nan,Still,U6
75,,,9.536691240410521,9.45820572609,9.617927655599999,0.035999571788902215,nan,nan,nan,nan,nan,nan,nan,nan,nan,nan,nan,nan,nan,nan,nan,nan,nan,nan,nan,nan,nan,nan,nan,nan,nan,nan,nan,nan,nan,nan,nan,nan,nan,nan,nan,nan,nan,nan,nan,nan,19.0,19.0,19.0,nan,46.72919467697059,46.72919467697059,46.72919467697059,1.5435358891894715,nan,nan,nan,nan,nan,nan,nan,nan,nan,nan,nan,nan,Still,U6
76,,,9.53917074899552,9.46278174269,9.644320330760001,0.037164228081953125,nan,nan,nan,nan,nan,nan,nan,nan,nan,nan,nan,nan,nan,nan,nan,nan,nan,nan,nan,nan,nan,nan,nan,nan,nan,nan,nan,nan,nan,nan,nan,nan,nan,nan,nan,nan,nan,nan,nan,nan,19.0,19.0,19.0,nan,26.848453616444125,26.848453616444125,26.848453616444125,1.5435358891894715,nan,nan,nan,nan,nan,nan,nan,nan,nan,nan,nan,nan,Still,U6
77,,,9.516630677754788,9.4316184758,9.610143538300001,0.033718345333234506,nan,nan,nan,nan,nan,nan,nan,nan,nan,nan,nan,nan,nan,nan,nan,nan,nan,nan,nan,nan,nan,nan,nan,nan,nan,nan,nan,nan,nan,nan,nan,nan,nan,nan,nan,nan,nan,nan,nan,nan,20.0,20.0,20.0,nan,54.93268397875158,54.93268397875158,54.93268397875158,1.5435358891894715,nan,nan,nan,nan,nan,nan,nan,nan,nan,nan,nan,nan,Still,U6
78,,,9.530006426665876,9.05324859634,9.76084295923,0.08653377628345457,nan,nan,nan,nan,nan,nan,nan,nan,nan,nan,nan,nan,nan,nan,nan,nan,nan,nan,nan,nan,nan,nan,nan,nan,nan,nan,nan,nan,nan,nan,nan,nan,nan,nan,nan,nan,nan,nan,nan,nan,20.0,20.0,20.0,nan,54.93268397875158,54.93268397875158,54.93268397875158,1.5435358891894715,nan,nan,nan,nan,nan,nan,nan,nan,nan,nan,nan,nan,Still,U6
79,,,9.537975828626875,9.41343549531,9.615285546319999,0.035623493553905816,nan,nan,nan,nan,nan,nan,nan,nan,nan,nan,nan,nan,nan,nan,nan,nan,nan,nan,nan,nan,nan,nan,nan,nan,nan,nan,nan,nan,nan,nan,nan,nan,nan,nan,nan,nan,nan,nan,nan,nan,20.0,20.0,20.0,nan,26.848453616444125,26.848453616444125,26.848453616444125,1.5435358891894715,nan,nan,nan,nan,nan,nan,nan,nan,nan,nan,nan,nan,Still,U6
80,,,9.523350481782083,9.4507018247,9.61174135241,0.03536152764869163,nan,nan,nan,nan,nan,nan,nan,nan,nan,nan,nan,nan,nan,nan,nan,nan,nan,nan,nan,nan,nan,nan,nan,nan,nan,nan,nan,nan,nan,nan,nan,nan,nan,nan,nan,nan,nan,nan,nan,nan,20.0,20.0,20.0,nan,26.848453616444125,26.848453616444125,26.848453616444125,1.5435358891894715,nan,nan,nan,nan,nan,nan,nan,nan,nan,nan,nan,nan,Still,U6
81,,,9.538686243893196,9.47346061733,9.632178338660001,0.03182307203643116,nan,nan,nan,nan,nan,nan,nan,nan,nan,nan,nan,nan,nan,nan,nan,nan,nan,nan,nan,nan,nan,nan,nan,nan,nan,nan,nan,nan,nan,nan,nan,nan,nan,nan,nan,nan,nan,nan,nan,nan,20.0,20.0,20.0,nan,26.848453616444125,26.848453616444125,26.848453616444125,1.5435358891894715,nan,nan,nan,nan,nan,nan,nan,nan,nan,nan,nan,nan,Still,U6
82,,,9.516467089246701,9.40370763035,9.61323417797,0.03775999996366952,nan,nan,nan,nan,nan,nan,nan,nan,nan,nan,nan,nan,nan,nan,nan,nan,nan,nan,nan,nan,nan,nan,nan,nan,nan,nan,nan,nan,nan,nan,nan,nan,nan,nan,nan,nan,nan,nan,nan,nan,20.0,20.0,20.0,nan,26.848453616444125,26.848453616444125,26.848453616444125,1.5435358891894715,nan,nan,nan,nan,nan,nan,nan,nan,nan,nan,nan,nan,Still,U6
83,,,9.536529595408423,9.45514555231,9.644263468550001,0.03446770337721007,nan,nan,nan,nan,nan,nan,nan,nan,nan,nan,nan,nan,nan,nan,nan,nan,nan,nan,nan,nan,nan,nan,nan,nan,nan,nan,nan,nan,nan,nan,nan,nan,nan,nan,nan,nan,nan,nan,nan,nan,20.0,20.0,20.0,nan,40.0,40.0,40.0,1.5435358891894715,nan,nan,nan,nan,nan,nan,nan,nan,nan,nan,nan,nan,Still,U6
84,,,9.528979033543608,9.44763508624,9.61876677509,0.03358997492446799,nan,nan,nan,nan,nan,nan,nan,nan,nan,nan,nan,nan,nan,nan,nan,nan,nan,nan,nan,nan,nan,nan,nan,nan,nan,nan,nan,nan,nan,nan,nan,nan,nan,nan,nan,nan,nan,nan,nan,nan,20.0,20.0,20.0,nan,40.0,40.0,40.0,1.5435358891894715,nan,nan,nan,nan,nan,nan,nan,nan,nan,nan,nan,nan,Still,U6
85,,,9.545928572730832,9.47230892015,9.65922032182,0.03754667646058631,nan,nan,nan,nan,nan,nan,nan,nan,nan,nan,nan,nan,nan,nan,nan,nan,nan,nan,nan,nan,nan,nan,nan,nan,nan,nan,nan,nan,nan,nan,nan,nan,nan,nan,nan,nan,nan,nan,nan,nan,20.0,20.0,20.0,nan,35.70659670021534,35.70659670021534,35.70659670021534,1.5435358891894715,nan,nan,nan,nan,nan,nan,nan,nan,nan,nan,nan,nan,Still,U6
86,,,9.538415736985208,9.4605135231,9.636371755519999,0.03194109322137872,nan,nan,nan,nan,nan,nan,nan,nan,nan,nan,nan,nan,nan,nan,nan,nan,nan,nan,nan,nan,nan,nan,nan,nan,nan,nan,nan,nan,nan,nan,nan,nan,nan,nan,nan,nan,nan,nan,nan,nan,20.0,20.0,20.0,nan,35.70659670021534,35.70659670021534,35.70659670021534,1.5435358891894715,nan,nan,nan,nan,nan,nan,nan,nan,nan,nan,nan,nan,Still,U6
87,,,9.537241507322577,9.45320568485,9.65134093427,0.03306318390368097,nan,nan,nan,nan,nan,nan,nan,nan,nan,nan,nan,nan,nan,nan,nan,nan,nan,nan,nan,nan,nan,nan,nan,nan,nan,nan,nan,nan,nan,nan,nan,nan,nan,nan,nan,nan,nan,nan,nan,nan,20.0,20.0,20.0,nan,35.70659670021534,35.70659670021534,35.70659670021534,1.5435358891894715,nan,nan,nan,nan,nan,nan,nan,nan,nan,nan,nan,nan,Still,U6
88,,,9.532303811097265,9.47027978602,9.59596954595,0.027883962460433863,nan,nan,nan,nan,nan,nan,nan,nan,nan,nan,nan,nan,nan,nan,nan,nan,nan,nan,nan,nan,nan,nan,nan,nan,nan,nan,nan,nan,nan,nan,nan,nan,nan,nan,nan,nan,nan,nan,nan,nan,20.0,20.0,20.0,nan,37.38463439461953,37.38463439461953,37.38463439461953,1.5435358891894715,nan,nan,nan,nan,nan,nan,nan,nan,nan,nan,nan,nan,Still,U6
89,,,9.519907734447708,9.4078997533,9.59007589291,0.031625212882618055,nan,nan,nan,nan,nan,nan,nan,nan,nan,nan,nan,nan,nan,nan,nan,nan,nan,nan,nan,nan,nan,nan,nan,nan,nan,nan,nan,nan,nan,nan,nan,nan,nan,nan,nan,nan,nan,nan,nan,nan,20.0,20.0,20.0,nan,37.38463439461953,37.38463439461953,37.38463439461953,1.5435358891894715,nan,nan,nan,nan,nan,nan,nan,nan,nan,nan,nan,nan,Still,U6
90,,,9.523948367490103,9.44394003787,9.60715036709,0.03661389448813171,nan,nan,nan,nan,nan,nan,nan,nan,nan,nan,nan,nan,nan,nan,nan,nan,nan,nan,nan,nan,nan,nan,nan,nan,nan,nan,nan,nan,nan,nan,nan,nan,nan,nan,nan,nan,nan,nan,nan,nan,20.0,20.0,20.0,nan,35.70659670021534,35.70659670021534,35.70659670021534,1.5435358891894715,nan,nan,nan,nan,nan,nan,nan,nan,nan,nan,nan,nan,Still,U6
91,,,9.51350834205758,9.433976143039999,9.60431443219,0.029857389380008696,nan,nan,nan,nan,nan,nan,nan,nan,nan,nan,nan,nan,nan,nan,nan,nan,nan,nan,nan,nan,nan,nan,nan,nan,nan,nan,nan,nan,nan,nan,nan,nan,nan,nan,nan,nan,nan,nan,nan,nan,20.0,20.0,20.0,nan,30.881360887005513,30.881360887005513,30.881360887005513,1.5435358891894715,nan,nan,nan,nan,nan,nan,nan,nan,nan,nan,nan,nan,Still,U6
92,,,9.537719428025156,9.464569597439999,9.60227523029,0.030168630723203138,nan,nan,nan,nan,nan,nan,nan,nan,nan,nan,nan,nan,nan,nan,nan,nan,nan,nan,nan,nan,nan,nan,nan,nan,nan,nan,nan,nan,nan,nan,nan,nan,nan,nan,nan,nan,nan,nan,nan,nan,20.0,20.0,20.0,nan,30.881360887005513,30.881360887005513,30.881360887005513,1.5435358891894715,nan,nan,nan,nan,nan,nan,nan,nan,nan,nan,nan,nan,Still,U6
93,,,9.540285319945053,9.45549990948,9.62834398707,0.03260141185308125,nan,nan,nan,nan,nan,nan,nan,nan,nan,nan,nan,nan,nan,nan,nan,nan,nan,nan,nan,nan,nan,nan,nan,nan,nan,nan,nan,nan,nan,nan,nan,nan,nan,nan,nan,nan,nan,nan,nan,nan,20.0,20.0,20.0,nan,26.848453616444125,26.848453616444125,26.848453616444125,1.5435358891894715,nan,nan,nan,nan,nan,nan,nan,nan,nan,nan,nan,nan,Still,U6
94,,,9.525269116817812,9.450411091389999,9.61241384907,0.03226696556306057,nan,nan,nan,nan,nan,nan,nan,nan,nan,nan,nan,nan,nan,nan,nan,nan,nan,nan,nan,nan,nan,nan,nan,nan,nan,nan,nan,nan,nan,nan,nan,nan,nan,nan,nan,nan,nan,nan,nan,nan,20.0,20.0,20.0,nan,26.848453616444125,26.848453616444125,26.848453616444125,1.5435358891894715,nan,nan,nan,nan,nan,nan,nan,nan,nan,nan,nan,nan,Still,U6
95,,,9.535825937124638,9.439535415689999,9.60756577504,0.034765439794281386,nan,nan,nan,nan,nan,nan,nan,nan,nan,nan,nan,nan,nan,nan,nan,nan,nan,nan,nan,nan,nan,nan,nan,nan,nan,nan,nan,nan,nan,nan,nan,nan,nan,nan,nan,nan,nan,nan,nan,nan,20.0,20.0,20.0,nan,26.848453616444125,26.848453616444125,26.848453616444125,1.5435358891894715,nan,nan,nan,nan,nan,nan,nan,nan,nan,nan,nan,nan,Still,U6
96,,,9.52299564098464,9.41924525454,9.60801925355,0.03326002820376302,nan,nan,nan,nan,nan,nan,nan,nan,nan,nan,nan,nan,nan,nan,nan,nan,nan,nan,nan,nan,nan,nan,nan,nan,nan,nan,nan,nan,nan,nan,nan,nan,nan,nan,nan,nan,nan,nan,nan,nan,20.0,20.0,20.0,nan,26.848453616444125,26.848453616444125,26.848453616444125,1.5435358891894715,nan,nan,nan,nan,nan,nan,nan,nan,nan,nan,nan,nan,Still,U6
97,,,9.532070822527052,9.475537278780001,9.61714518203,0.02944520519425791,nan,nan,nan,nan,nan,nan,nan,nan,nan,nan,nan,nan,nan,nan,nan,nan,nan,nan,nan,nan,nan,nan,nan,nan,nan,nan,nan,nan,nan,nan,nan,nan,nan,nan,nan,nan,nan,nan,nan,nan,20.0,20.0,20.0,nan,39.18082784642186,39.18082784642186,39.18082784642186,1.5435358891894715,nan,nan,nan,nan,nan,nan,nan,nan,nan,nan,nan,nan,Still,U6
98,,,9.518897764822084,9.416903775660002,9.619329015369999,0.03663754956843677,nan,nan,nan,nan,nan,nan,nan,nan,nan,nan,nan,nan,nan,nan,nan,nan,nan,nan,nan,nan,nan,nan,nan,nan,nan,nan,nan,nan,nan,nan,nan,nan,nan,nan,nan,nan,nan,nan,nan,nan,20.0,20.0,20.0,nan,36.25826713285711,36.25826713285711,36.25826713285711,1.5435358891894715,nan,nan,nan,nan,nan,nan,nan,nan,nan,nan,nan,nan,Still,U6
99,,,9.52325812385375,9.43333408832,9.61161823173,0.04018594969617461,nan,nan,nan,nan,nan,nan,nan,nan,nan,nan,nan,nan,nan,nan,nan,nan,nan,nan,nan,nan,nan,nan,nan,nan,nan,nan,nan,nan,nan,nan,nan,nan,nan,nan,nan,nan,nan,nan,nan,nan,20.0,20.0,20.0,nan,36.25826713285711,36.25826713285711,36.25826713285711,1.5435358891894715,nan,nan,nan,nan,nan,nan,nan,nan,nan,nan,nan,nan,Still,U6
100,,,9.529917149637836,9.4708082091,9.603832484069999,0.03091856865026268,nan,nan,nan,nan,nan,nan,nan,nan,nan,nan,nan,nan,nan,nan,nan,nan,nan,nan,nan,nan,nan,nan,nan,nan,nan,nan,nan,nan,nan,nan,nan,nan,nan,nan,nan,nan,nan,nan,nan,nan,20.0,20.0,20.0,nan,36.25826713285711,36.25826713285711,36.25826713285711,1.5435358891894715,nan,nan,nan,nan,nan,nan,nan,nan,nan,nan,nan,nan,Still,U6
101,,,9.519734880518843,9.4177606173,9.62123155811,0.03496666554041944,nan,nan,nan,nan,nan,nan,nan,nan,nan,nan,nan,nan,nan,nan,nan,nan,nan,nan,nan,nan,nan,nan,nan,nan,nan,nan,nan,nan,nan,nan,nan,nan,nan,nan,nan,nan,nan,nan,nan,nan,20.0,20.0,20.0,nan,36.25826713285711,36.25826713285711,36.25826713285711,1.5435358891894715,nan,nan,nan,nan,nan,nan,nan,nan,nan,nan,nan,nan,Still,U6
102,,,9.536900408851364,9.46179311784,9.638184588160001,0.034197180980807595,nan,nan,nan,nan,nan,nan,nan,nan,nan,nan,nan,nan,nan,nan,nan,nan,nan,nan,nan,nan,nan,nan,nan,nan,nan,nan,nan,nan,nan,nan,nan,nan,nan,nan,nan,nan,nan,nan,nan,nan,20.0,20.0,20.0,nan,36.25826713285711,36.25826713285711,36.25826713285711,1.5435358891894715,nan,nan,nan,nan,nan,nan,nan,nan,nan,nan,nan,nan,Still,U6
103,,,9.536338443966876,9.432181903260002,9.62108796595,0.032066764996127366,nan,nan,nan,nan,nan,nan,nan,nan,nan,nan,nan,nan,nan,nan,nan,nan,nan,nan,nan,nan,nan,nan,nan,nan,nan,nan,nan,nan,nan,nan,nan,nan,nan,nan,nan,nan,nan,nan,nan,nan,20.0,20.0,20.0,nan,26.444385894678394,26.444385894678394,26.444385894678394,1.5435358891894715,nan,nan,nan,nan,nan,nan,nan,nan,nan,nan,nan,nan,Still,U6
104,,,9.531381127368144,9.454661069910001,9.60789072641,0.029326098567053507,nan,nan,nan,nan,nan,nan,nan,nan,nan,nan,nan,nan,nan,nan,nan,nan,nan,nan,nan,nan,nan,nan,nan,nan,nan,nan,nan,nan,nan,nan,nan,nan,nan,nan,nan,nan,nan,nan,nan,nan,20.0,20.0,20.0,nan,26.444385894678394,26.444385894678394,26.444385894678394,1.5435358891894715,nan,nan,nan,nan,nan,nan,nan,nan,nan,nan,nan,nan,Still,U6
105,,,9.538418559710308,9.47027978602,9.62742105339,0.03240773495547408,nan,nan,nan,nan,nan,nan,nan,nan,nan,nan,nan,nan,nan,nan,nan,nan,nan,nan,nan,nan,nan,nan,nan,nan,nan,nan,nan,nan,nan,nan,nan,nan,nan,nan,nan,nan,nan,nan,nan,nan,20.0,20.0,20.0,nan,26.444385894678394,26.444385894678394,26.444385894678394,1.5435358891894715,nan,nan,nan,nan,nan,nan,nan,nan,nan,nan,nan,nan,Still,U6
106,,,9.551284283080207,9.431073537489999,9.65779103485,0.03573516337671293,nan,nan,nan,nan,nan,nan,nan,nan,nan,nan,nan,nan,nan,nan,nan,nan,nan,nan,nan,nan,nan,nan,nan,nan,nan,nan,nan,nan,nan,nan,nan,nan,nan,nan,nan,nan,nan,nan,nan,nan,20.0,20.0,20.0,nan,26.444385894678394,26.444385894678394,26.444385894678394,1.5435358891894715,nan,nan,nan,nan,nan,nan,nan,nan,nan,nan,nan,nan,Still,U6
107,,,9.55034508632732,9.45343878347,9.61234758666,0.03166473267806341,nan,nan,nan,nan,nan,nan,nan,nan,nan,nan,nan,nan,nan,nan,nan,nan,nan,nan,nan,nan,nan,nan,nan,nan,nan,nan,nan,nan,nan,nan,nan,nan,nan,nan,nan,nan,nan,nan,nan,nan,20.0,20.0,20.0,nan,26.444385894678394,26.444385894678394,26.444385894678394,1.5435358891894715,nan,nan,nan,nan,nan,nan,nan,nan,nan,nan,nan,nan,Still,U6
108,,,9.541462543572164,9.45442747492,9.62055919332,0.033879100698659605,nan,nan,nan,nan,nan,nan,nan,nan,nan,nan,nan,nan,nan,nan,nan,nan,nan,nan,nan,nan,nan,nan,nan,nan,nan,nan,nan,nan,nan,nan,nan,nan,nan,nan,nan,nan,nan,nan,nan,nan,20.0,20.0,20.0,nan,26.444385894678394,26.444385894678394,26.444385894678394,1.5435358891894715,nan,nan,nan,nan,nan,nan,nan,nan,nan,nan,nan,nan,Still,U6
109,,,9.543500263209273,9.491722037739999,9.606019563130001,0.027366000412535764,nan,nan,nan,nan,nan,nan,nan,nan,nan,nan,nan,nan,nan,nan,nan,nan,nan,nan,nan,nan,nan,nan,nan,nan,nan,nan,nan,nan,nan,nan,nan,nan,nan,nan,nan,nan,nan,nan,nan,nan,20.0,20.0,20.0,nan,43.106720749301246,43.106720749301246,43.106720749301246,1.5435358891894715,nan,nan,nan,nan,nan,nan,nan,nan,nan,nan,nan,nan,Still,U6
110,,,9.546276409128126,9.448348389580001,9.639897382260001,0.03298946135273706,nan,nan,nan,nan,nan,nan,nan,nan,nan,nan,nan,nan,nan,nan,nan,nan,nan,nan,nan,nan,nan,nan,nan,nan,nan,nan,nan,nan,nan,nan,nan,nan,nan,nan,nan,nan,nan,nan,nan,nan,20.0,20.0,20.0,nan,43.106720749301246,43.106720749301246,43.106720749301246,1.5435358891894715,nan,nan,nan,nan,nan,nan,nan,nan,nan,nan,nan,nan,Still,U6
111,,,9.545011457368867,9.44885796256,9.61668813388,0.037937720222215414,nan,nan,nan,nan,nan,nan,nan,nan,nan,nan,nan,nan,nan,nan,nan,nan,nan,nan,nan,nan,nan,nan,nan,nan,nan,nan,nan,nan,nan,nan,nan,nan,nan,nan,nan,nan,nan,nan,nan,nan,20.0,20.0,20.0,nan,43.106720749301246,43.106720749301246,43.106720749301246,1.5435358891894715,nan,nan,nan,nan,nan,nan,nan,nan,nan,nan,nan,nan,Still,U6
112,,,9.555550023333197,9.47390594926,9.66911361935,0.03392149333936546,nan,nan,nan,nan,nan,nan,nan,nan,nan,nan,nan,nan,nan,nan,nan,nan,nan,nan,nan,nan,nan,nan,nan,nan,nan,nan,nan,nan,nan,nan,nan,nan,nan,nan,nan,nan,nan,nan,nan,nan,20.0,20.0,20.0,nan,43.106720749301246,43.106720749301246,43.106720749301246,1.5435358891894715,nan,nan,nan,nan,nan,nan,nan,nan,nan,nan,nan,nan,Still,U6
113,,,9.548118228249685,8.62159914735,10.805049133499999,0.2097531863386093,nan,nan,nan,nan,nan,nan,nan,nan,nan,nan,nan,nan,nan,nan,nan,nan,nan,nan,nan,nan,nan,nan,nan,nan,nan,nan,nan,nan,nan,nan,nan,nan,nan,nan,nan,nan,nan,nan,nan,nan,20.0,20.0,20.0,nan,41.21395680707224,41.21395680707224,41.21395680707224,1.5435358891894715,nan,nan,nan,nan,nan,nan,nan,nan,nan,nan,nan,nan,Still,U6
114,,,9.539973830439381,8.57021989083,9.89695726355,0.1317372922527818,nan,nan,nan,nan,nan,nan,nan,nan,nan,nan,nan,nan,nan,nan,nan,nan,nan,nan,nan,nan,nan,nan,nan,nan,nan,nan,nan,nan,nan,nan,nan,nan,nan,nan,nan,nan,nan,nan,nan,nan,20.0,20.0,20.0,nan,41.21395680707224,41.21395680707224,41.21395680707224,1.5435358891894715,nan,nan,nan,nan,nan,nan,nan,nan,nan,nan,nan,nan,Still,U6
115,,,9.715572751907395,8.82700094296,10.9224773146,0.34512898506010553,nan,nan,nan,nan,nan,nan,nan,nan,nan,nan,nan,nan,nan,nan,nan,nan,nan,nan,nan,nan,nan,nan,nan,nan,nan,nan,nan,nan,nan,nan,nan,nan,nan,nan,nan,nan,nan,nan,nan,nan,29.0,29.0,29.0,nan,41.21395680707224,41.21395680707224,41.21395680707224,1.5435358891894715,nan,nan,nan,nan,nan,nan,nan,nan,nan,nan,nan,nan,Still,U6
116,,,9.63654927896677,9.46799927383,9.74684713751,0.041385882807741484,nan,nan,nan,nan,nan,nan,nan,nan,nan,nan,nan,nan,nan,nan,nan,nan,nan,nan,nan,nan,nan,nan,nan,nan,nan,nan,nan,nan,nan,nan,nan,nan,nan,nan,nan,nan,nan,nan,nan,nan,29.0,29.0,29.0,nan,41.21395680707224,41.21395680707224,41.21395680707224,1.5435358891894715,nan,nan,nan,nan,nan,nan,nan,nan,nan,nan,nan,nan,Still,U6
117,,,9.655799058715104,9.55846889798,9.74319538028,0.03766410182836491,nan,nan,nan,nan,nan,nan,nan,nan,nan,nan,nan,nan,nan,nan,nan,nan,nan,nan,nan,nan,nan,nan,nan,nan,nan,nan,nan,nan,nan,nan,nan,nan,nan,nan,nan,nan,nan,nan,nan,nan,29.0,29.0,29.0,nan,37.501225267834,37.501225267834,37.501225267834,1.5435358891894715,nan,nan,nan,nan,nan,nan,nan,nan,nan,nan,nan,nan,Still,U6
118,,,9.645877378810857,9.57338657815,9.71923281513,0.03198866728244763,nan,nan,nan,nan,nan,nan,nan,nan,nan,nan,nan,nan,nan,nan,nan,nan,nan,nan,nan,nan,nan,nan,nan,nan,nan,nan,nan,nan,nan,nan,nan,nan,nan,nan,nan,nan,nan,nan,nan,nan,29.0,29.0,29.0,nan,42.797581728024724,42.797581728024724,42.797581728024724,1.5435358891894715,nan,nan,nan,nan,nan,nan,nan,nan,nan,nan,nan,nan,Still,U6
119,,,9.634815264259167,9.5335224496,9.70162631667,0.03273984678368256,nan,nan,nan,nan,nan,nan,nan,nan,nan,nan,nan,nan,nan,nan,nan,nan,nan,nan,nan,nan,nan,nan,nan,nan,nan,nan,nan,nan,nan,nan,nan,nan,nan,nan,nan,nan,nan,nan,nan,nan,29.0,29.0,29.0,nan,42.797581728024724,42.797581728024724,42.797581728024724,1.5435358891894715,nan,nan,nan,nan,nan,nan,nan,nan,nan,nan,nan,nan,Still,U6
120,,,9.628804489061041,9.50419265528,9.71920813232,0.03876609862318787,nan,nan,nan,nan,nan,nan,nan,nan,nan,nan,nan,nan,nan,nan,nan,nan,nan,nan,nan,nan,nan,nan,nan,nan,nan,nan,nan,nan,nan,nan,nan,nan,nan,nan,nan,nan,nan,nan,nan,nan,29.0,29.0,29.0,nan,42.797581728024724,42.797581728024724,42.797581728024724,1.5435358891894715,nan,nan,nan,nan,nan,nan,nan,nan,nan,nan,nan,nan,Still,U6
121,,,9.627738822306458,9.54977111126,9.73761179195,0.034151912878681745,nan,nan,nan,nan,nan,nan,nan,nan,nan,nan,nan,nan,nan,nan,nan,nan,nan,nan,nan,nan,nan,nan,nan,nan,nan,nan,nan,nan,nan,nan,nan,nan,nan,nan,nan,nan,nan,nan,nan,nan,29.0,29.0,29.0,nan,47.60422483423212,47.60422483423212,47.60422483423212,1.5435358891894715,nan,nan,nan,nan,nan,nan,nan,nan,nan,nan,nan,nan,Still,U6
122,,,9.62496190944299,9.547518948919999,9.72454310655,0.03393261741480174,nan,nan,nan,nan,nan,nan,nan,nan,nan,nan,nan,nan,nan,nan,nan,nan,nan,nan,nan,nan,nan,nan,nan,nan,nan,nan,nan,nan,nan,nan,nan,nan,nan,nan,nan,nan,nan,nan,nan,nan,29.0,29.0,29.0,nan,47.60422483423212,47.60422483423212,47.60422483423212,1.5435358891894715,nan,nan,nan,nan,nan,nan,nan,nan,nan,nan,nan,nan,Still,U6
123,,,9.623830108233815,9.496416203119999,9.731854775830001,0.03891116966195393,nan,nan,nan,nan,nan,nan,nan,nan,nan,nan,nan,nan,nan,nan,nan,nan,nan,nan,nan,nan,nan,nan,nan,nan,nan,nan,nan,nan,nan,nan,nan,nan,nan,nan,nan,nan,nan,nan,nan,nan,29.0,29.0,29.0,nan,47.60422483423212,47.60422483423212,47.60422483423212,1.5435358891894715,nan,nan,nan,nan,nan,nan,nan,nan,nan,nan,nan,nan,Still,U6
124,,,9.781246534976082,8.17957420918,12.2156513599,0.5579044664475398,nan,nan,nan,nan,nan,nan,nan,nan,nan,nan,nan,nan,nan,nan,nan,nan,nan,nan,nan,nan,nan,nan,nan,nan,nan,nan,nan,nan,nan,nan,nan,nan,nan,nan,nan,nan,nan,nan,nan,nan,29.0,29.0,29.0,nan,47.60422483423212,47.60422483423212,47.60422483423212,1.5435358891894715,nan,nan,nan,nan,nan,nan,nan,nan,nan,nan,nan,nan,Still,U6
125,,,9.919484490592165,8.36759198895,11.9937453425,0.5047421840536341,nan,nan,nan,nan,nan,nan,nan,nan,nan,nan,nan,nan,nan,nan,nan,nan,nan,nan,nan,nan,nan,nan,nan,nan,nan,nan,nan,nan,nan,nan,nan,nan,nan,nan,nan,nan,nan,nan,nan,nan,29.0,29.0,29.0,nan,47.60422483423212,47.60422483423212,47.60422483423212,1.5435358891894715,nan,nan,nan,nan,nan,nan,nan,nan,nan,nan,nan,nan,Still,U6
126,,,9.618644766577894,9.5294232251,9.7339320251,0.03432530192364587,nan,nan,nan,nan,nan,nan,nan,nan,nan,nan,nan,nan,nan,nan,nan,nan,nan,nan,nan,nan,nan,nan,nan,nan,nan,nan,nan,nan,nan,nan,nan,nan,nan,nan,nan,nan,nan,nan,nan,nan,29.0,29.0,29.0,nan,47.60422483423212,47.60422483423212,47.60422483423212,1.5435358891894715,nan,nan,nan,nan,nan,nan,nan,nan,nan,nan,nan,nan,Still,U6
127,,,9.623760512660619,9.54718797394,9.72383541064,0.03654733856751947,nan,nan,nan,nan,nan,nan,nan,nan,nan,nan,nan,nan,nan,nan,nan,nan,nan,nan,nan,nan,nan,nan,nan,nan,nan,nan,nan,nan,nan,nan,nan,nan,nan,nan,nan,nan,nan,nan,nan,nan,29.0,29.0,29.0,nan,38.58837851428585,38.58837851428585,38.58837851428585,1.5435358891894715,nan,nan,nan,nan,nan,nan,nan,nan,nan,nan,nan,nan,Still,U6
128,,,9.624038801059063,9.54954588868,9.717155421689998,0.03428595703641981,nan,nan,nan,nan,nan,nan,nan,nan,nan,nan,nan,nan,nan,nan,nan,nan,nan,nan,nan,nan,nan,nan,nan,nan,nan,nan,nan,nan,nan,nan,nan,nan,nan,nan,nan,nan,nan,nan,nan,nan,29.0,29.0,29.0,nan,38.58837851428585,38.58837851428585,38.58837851428585,1.5435358891894715,nan,nan,nan,nan,nan,nan,nan,nan,nan,nan,nan,nan,Still,U6
129,,,9.628090412716146,9.554778360910001,9.715083677989998,0.029906282407146347,nan,nan,nan,nan,nan,nan,nan,nan,nan,nan,nan,nan,nan,nan,nan,nan,nan,nan,nan,nan,nan,nan,nan,nan,nan,nan,nan,nan,nan,nan,nan,nan,nan,nan,nan,nan,nan,nan,nan,nan,29.0,29.0,29.0,nan,38.58837851428585,38.58837851428585,38.58837851428585,1.5435358891894715,nan,nan,nan,nan,nan,nan,nan,nan,nan,nan,nan,nan,Still,U6
130,,,9.63844475593802,9.543450150189999,9.75289504228,0.03585111281673218,nan,nan,nan,nan,nan,nan,nan,nan,nan,nan,nan,nan,nan,nan,nan,nan,nan,nan,nan,nan,nan,nan,nan,nan,nan,nan,nan,nan,nan,nan,nan,nan,nan,nan,nan,nan,nan,nan,nan,nan,29.0,29.0,29.0,nan,38.58837851428585,38.58837851428585,38.58837851428585,1.5435358891894715,nan,nan,nan,nan,nan,nan,nan,nan,nan,nan,nan,nan,Still,U6
131,,,9.638635031584792,9.53323854496,9.73420975287,0.0367487060772869,nan,nan,nan,nan,nan,nan,nan,nan,nan,nan,nan,nan,nan,nan,nan,nan,nan,nan,nan,nan,nan,nan,nan,nan,nan,nan,nan,nan,nan,nan,nan,nan,nan,nan,nan,nan,nan,nan,nan,nan,29.0,29.0,29.0,nan,44.19030029085261,44.19030029085261,44.19030029085261,1.5435358891894715,nan,nan,nan,nan,nan,nan,nan,nan,nan,nan,nan,nan,Still,U6
132,,,9.648853766989895,9.570833554419998,9.74676622649,0.03819738090478211,nan,nan,nan,nan,nan,nan,nan,nan,nan,nan,nan,nan,nan,nan,nan,nan,nan,nan,nan,nan,nan,nan,nan,nan,nan,nan,nan,nan,nan,nan,nan,nan,nan,nan,nan,nan,nan,nan,nan,nan,29.0,29.0,29.0,nan,44.19030029085261,44.19030029085261,44.19030029085261,1.5435358891894715,nan,nan,nan,nan,nan,nan,nan,nan,nan,nan,nan,nan,Still,U6
133,,,9.645028284014536,9.56393588072,9.75509972161,0.0399734755163576,nan,nan,nan,nan,nan,nan,nan,nan,nan,nan,nan,nan,nan,nan,nan,nan,nan,nan,nan,nan,nan,nan,nan,nan,nan,nan,nan,nan,nan,nan,nan,nan,nan,nan,nan,nan,nan,nan,nan,nan,29.0,29.0,29.0,nan,44.19030029085261,44.19030029085261,44.19030029085261,1.5435358891894715,nan,nan,nan,nan,nan,nan,nan,nan,nan,nan,nan,nan,Still,U6
134,,,9.63960611898815,9.455801013019999,9.88650274483,0.07366669968738382,nan,nan,nan,nan,nan,nan,nan,nan,nan,nan,nan,nan,nan,nan,nan,nan,nan,nan,nan,nan,nan,nan,nan,nan,nan,nan,nan,nan,nan,nan,nan,nan,nan,nan,nan,nan,nan,nan,nan,nan,29.0,29.0,29.0,nan,44.19030029085261,44.19030029085261,44.19030029085261,1.5435358891894715,nan,nan,nan,nan,nan,nan,nan,nan,nan,nan,nan,nan,Still,U6
