time,activityrecognition#0,activityrecognition#1,android.sensor.accelerometer#mean,android.sensor.accelerometer#min,android.sensor.accelerometer#max,android.sensor.accelerometer#std,android.sensor.gravity#mean,android.sensor.gravity#min,android.sensor.gravity#max,android.sensor.gravity#std,android.sensor.linear_acceleration#mean,android.sensor.linear_acceleration#min,android.sensor.linear_acceleration#max,android.sensor.linear_acceleration#std,android.sensor.orientation#mean,android.sensor.orientation#min,android.sensor.orientation#max,android.sensor.orientation#std,android.sensor.gyroscope_uncalibrated#mean,android.sensor.gyroscope_uncalibrated#min,android.sensor.gyroscope_uncalibrated#max,android.sensor.gyroscope_uncalibrated#std,android.sensor.magnetic_field_uncalibrated#mean,android.sensor.magnetic_field_uncalibrated#min,android.sensor.magnetic_field_uncalibrated#max,android.sensor.magnetic_field_uncalibrated#std,android.sensor.rotation_vector#mean,android.sensor.rotation_vector#min,android.sensor.rotation_vector#max,android.sensor.rotation_vector#std,android.sensor.gyroscope#mean,android.sensor.gyroscope#min,android.sensor.gyroscope#max,android.sensor.gyroscope#std,android.sensor.game_rotation_vector#mean,android.sensor.game_rotation_vector#min,android.sensor.game_rotation_vector#max,android.sensor.game_rotation_vector#std,android.sensor.magnetic_field#mean,android.sensor.magnetic_field#min,android.sensor.magnetic_field#max,android.sensor.magnetic_field#std,android.sensor.pressure#mean,android.sensor.pressure#min,android.sensor.pressure#max,android.sensor.pressure#std,android.sensor.light#mean,android.sensor.light#min,android.sensor.light#max,android.sensor.light#std,sound#mean,sound#min,sound#max,sound#std,speed#mean,speed#min,speed#max,speed#std,android.sensor.proximity#mean,android.sensor.proximity#min,android.sensor.proximity#max,android.sensor.proximity#std,android.sensor.step_counter#mean,android.sensor.step_counter#min,android.sensor.step_counter#max,android.sensor.step_counter#std,target,user
1,,,9.958509824037083,4.49344146009,26.4050360595,2.6833303303431393,nan,nan,nan,nan,nan,nan,nan,nan,nan,nan,nan,nan,nan,nan,nan,nan,nan,nan,nan,nan,nan,nan,nan,nan,nan,nan,nan,nan,nan,nan,nan,nan,nan,nan,nan,nan,nan,nan,nan,nan,2.0,2.0,2.0,nan,81.54808492796195,81.54808492796195,81.54808492796195,nan,nan,nan,nan,nan,nan,nan,nan,nan,nan,nan,nan,nan,Walking,U6
2,,,9.837043115398211,6.479061710669999,21.4717735352,2.074249294769441,nan,nan,nan,nan,nan,nan,nan,nan,nan,nan,nan,nan,nan,nan,nan,nan,nan,nan,nan,nan,nan,nan,nan,nan,nan,nan,nan,nan,nan,nan,nan,nan,nan,nan,nan,nan,nan,nan,nan,nan,2.0,2.0,2.0,nan,81.54808492796195,81.54808492796195,81.54808492796195,nan,nan,nan,nan,nan,nan,nan,nan,nan,nan,nan,nan,nan,Walking,U6
3,,,10.09167364542043,4.63327453559,16.097879636400002,2.5297744160626707,nan,nan,nan,nan,nan,nan,nan,nan,nan,nan,nan,nan,nan,nan,nan,nan,nan,nan,nan,nan,nan,nan,nan,nan,nan,nan,nan,nan,nan,nan,nan,nan,nan,nan,nan,nan,nan,nan,nan,nan,2.0,2.0,2.0,nan,77.45128286181303,77.45128286181303,77.45128286181303,nan,nan,nan,nan,nan,nan,nan,nan,nan,nan,nan,nan,nan,Walking,U6
4,,,10.25737523934602,4.63963402082,23.44552016,3.2381247604922545,nan,nan,nan,nan,nan,nan,nan,nan,nan,nan,nan,nan,nan,nan,nan,nan,nan,nan,nan,nan,nan,nan,nan,nan,nan,nan,nan,nan,nan,nan,nan,nan,nan,nan,nan,nan,nan,nan,nan,nan,2.0,2.0,2.0,nan,77.94924276026127,77.94924276026127,77.94924276026127,nan,nan,nan,nan,nan,nan,nan,nan,nan,nan,nan,nan,nan,Walking,U6
5,,,10.074806105902447,4.49643054773,20.0441334992,3.3727324785656796,nan,nan,nan,nan,nan,nan,nan,nan,nan,nan,nan,nan,nan,nan,nan,nan,nan,nan,nan,nan,nan,nan,nan,nan,nan,nan,nan,nan,nan,nan,nan,nan,nan,nan,nan,nan,nan,nan,nan,nan,2.0,2.0,2.0,nan,77.94924276026127,77.94924276026127,77.94924276026127,nan,nan,nan,nan,nan,nan,nan,nan,nan,nan,nan,nan,nan,Walking,U6
6,,,10.261094056520587,5.31935351988,19.206849001400002,2.8746643281859257,nan,nan,nan,nan,nan,nan,nan,nan,nan,nan,nan,nan,nan,nan,nan,nan,nan,nan,nan,nan,nan,nan,nan,nan,nan,nan,nan,nan,nan,nan,nan,nan,nan,nan,nan,nan,nan,nan,nan,nan,2.0,2.0,2.0,nan,77.98929107739,69.74559632886138,85.31192046175184,7.8239301381308834,2.1360009,2.1360009,2.1360009,nan,nan,nan,nan,nan,nan,nan,nan,nan,Walking,U6
7,,,10.27379044671629,4.96469454419,20.994754222,3.3861381352318936,nan,nan,nan,nan,nan,nan,nan,nan,nan,nan,nan,nan,nan,nan,nan,nan,nan,nan,nan,nan,nan,nan,nan,nan,nan,nan,nan,nan,nan,nan,nan,nan,nan,nan,nan,nan,nan,nan,nan,nan,2.0,2.0,2.0,nan,77.98929107739,69.74559632886138,85.31192046175184,7.8239301381308834,2.1360009,2.1360009,2.1360009,nan,nan,nan,nan,nan,nan,nan,nan,nan,Walking,U6
8,,,10.14288062486824,5.10824569429,22.7826758871,3.4540674963084927,nan,nan,nan,nan,nan,nan,nan,nan,nan,nan,nan,nan,nan,nan,nan,nan,nan,nan,nan,nan,nan,nan,nan,nan,nan,nan,nan,nan,nan,nan,nan,nan,nan,nan,nan,nan,nan,nan,nan,nan,2.0,2.0,2.0,nan,77.98929107739,69.74559632886138,85.31192046175184,7.8239301381308834,2.1360009,2.1360009,2.1360009,nan,nan,nan,nan,nan,nan,nan,nan,nan,Walking,U6
9,,,10.283170300664255,5.282110407749999,18.1361587478,3.1827140914229695,nan,nan,nan,nan,nan,nan,nan,nan,nan,nan,nan,nan,nan,nan,nan,nan,nan,nan,nan,nan,nan,nan,nan,nan,nan,nan,nan,nan,nan,nan,nan,nan,nan,nan,nan,nan,nan,nan,nan,nan,2.0,2.0,2.0,nan,77.122488884846,77.122488884846,77.122488884846,7.8239301381308834,2.1360009,2.1360009,2.1360009,nan,nan,nan,nan,nan,nan,nan,nan,nan,Walking,U6
10,,,10.32810586370021,5.858564236009999,19.2075821241,3.026533628794436,nan,nan,nan,nan,nan,nan,nan,nan,nan,nan,nan,nan,nan,nan,nan,nan,nan,nan,nan,nan,nan,nan,nan,nan,nan,nan,nan,nan,nan,nan,nan,nan,nan,nan,nan,nan,nan,nan,nan,nan,2.0,2.0,2.0,nan,77.122488884846,77.122488884846,77.122488884846,7.8239301381308834,2.1360009,2.1360009,2.1360009,nan,nan,nan,nan,nan,nan,nan,nan,nan,Walking,U6
11,,,10.304337213279473,5.881329110249999,22.8850931461,3.373828687278787,nan,nan,nan,nan,nan,nan,nan,nan,nan,nan,nan,nan,nan,nan,nan,nan,nan,nan,nan,nan,nan,nan,nan,nan,nan,nan,nan,nan,nan,nan,nan,nan,nan,nan,nan,nan,nan,nan,nan,nan,2.0,2.0,2.0,nan,77.122488884846,77.122488884846,77.122488884846,7.8239301381308834,2.1360009,2.1360009,2.1360009,nan,nan,nan,nan,nan,nan,nan,nan,nan,Walking,U6
12,,,10.299340242086778,4.83094614184,26.7462563579,3.9512596155250606,nan,nan,nan,nan,nan,nan,nan,nan,nan,nan,nan,nan,nan,nan,nan,nan,nan,nan,nan,nan,nan,nan,nan,nan,nan,nan,nan,nan,nan,nan,nan,nan,nan,nan,nan,nan,nan,nan,nan,nan,2.0,2.0,2.0,nan,78.29736307970806,73.73451242149083,81.38818141343586,4.033586695835549,2.236068,2.236068,2.236068,nan,nan,nan,nan,nan,nan,nan,nan,nan,Walking,U6
13,,,10.11916616213351,4.521317854069999,19.4176962692,3.476189154688805,nan,nan,nan,nan,nan,nan,nan,nan,nan,nan,nan,nan,nan,nan,nan,nan,nan,nan,nan,nan,nan,nan,nan,nan,nan,nan,nan,nan,nan,nan,nan,nan,nan,nan,nan,nan,nan,nan,nan,nan,2.0,2.0,2.0,nan,73.0352489476022,73.0352489476022,73.0352489476022,4.033586695835549,2.236068,2.236068,2.236068,nan,nan,nan,nan,nan,nan,nan,nan,nan,Walking,U6
14,,,10.097630384426775,4.92386663019,20.0971197864,3.6886953013937847,nan,nan,nan,nan,nan,nan,nan,nan,nan,nan,nan,nan,nan,nan,nan,nan,nan,nan,nan,nan,nan,nan,nan,nan,nan,nan,nan,nan,nan,nan,nan,nan,nan,nan,nan,nan,nan,nan,nan,nan,2.0,2.0,2.0,nan,71.13328524245136,71.13328524245136,71.13328524245136,4.033586695835549,2.236068,2.236068,2.236068,nan,nan,nan,nan,nan,nan,nan,nan,nan,Walking,U6
15,,,10.289453743078,6.1049870866,20.5969248804,2.808062472019742,nan,nan,nan,nan,nan,nan,nan,nan,nan,nan,nan,nan,nan,nan,nan,nan,nan,nan,nan,nan,nan,nan,nan,nan,nan,nan,nan,nan,nan,nan,nan,nan,nan,nan,nan,nan,nan,nan,nan,nan,2.0,2.0,2.0,nan,71.13328524245136,71.13328524245136,71.13328524245136,4.033586695835549,2.236068,2.236068,2.236068,nan,nan,nan,nan,nan,nan,nan,nan,nan,Walking,U6
16,,,10.412201481575163,5.98356564616,19.1423340677,3.221006011382828,nan,nan,nan,nan,nan,nan,nan,nan,nan,nan,nan,nan,nan,nan,nan,nan,nan,nan,nan,nan,nan,nan,nan,nan,nan,nan,nan,nan,nan,nan,nan,nan,nan,nan,nan,nan,nan,nan,nan,nan,2.0,2.0,2.0,nan,71.13328524245136,71.13328524245136,71.13328524245136,4.033586695835549,2.236068,2.236068,2.236068,nan,nan,nan,nan,nan,nan,nan,nan,nan,Walking,U6
17,,,10.182327551241263,4.52498814237,25.2472045504,3.2846575757628265,nan,nan,nan,nan,nan,nan,nan,nan,nan,nan,nan,nan,nan,nan,nan,nan,nan,nan,nan,nan,nan,nan,nan,nan,nan,nan,nan,nan,nan,nan,nan,nan,nan,nan,nan,nan,nan,nan,nan,nan,2.0,2.0,2.0,nan,71.13328524245136,71.13328524245136,71.13328524245136,4.033586695835549,2.236068,2.236068,2.236068,nan,nan,nan,nan,nan,nan,nan,nan,nan,Walking,U6
18,,,10.377806019715713,5.24273119959,23.8836852291,3.445400034864666,nan,nan,nan,nan,nan,nan,nan,nan,nan,nan,nan,nan,nan,nan,nan,nan,nan,nan,nan,nan,nan,nan,nan,nan,nan,nan,nan,nan,nan,nan,nan,nan,nan,nan,nan,nan,nan,nan,nan,nan,2.0,2.0,2.0,nan,82.60924858563159,82.60924858563159,82.60924858563159,4.033586695835549,2.236068,2.236068,2.236068,0.0,nan,nan,nan,nan,nan,nan,nan,nan,Walking,U6
19,,,10.412105053385869,5.05376894561,18.951475066300002,3.3286732169316817,nan,nan,nan,nan,nan,nan,nan,nan,nan,nan,nan,nan,nan,nan,nan,nan,nan,nan,nan,nan,nan,nan,nan,nan,nan,nan,nan,nan,nan,nan,nan,nan,nan,nan,nan,nan,nan,nan,nan,nan,2.0,2.0,2.0,nan,72.39755611669698,67.29852067579952,77.49659155759443,7.211125075538251,2.236068,2.236068,2.236068,0.0,nan,nan,nan,nan,nan,nan,nan,nan,Walking,U6
20,,,10.741474177882022,5.17518968408,25.396676865,4.034806550792474,nan,nan,nan,nan,nan,nan,nan,nan,nan,nan,nan,nan,nan,nan,nan,nan,nan,nan,nan,nan,nan,nan,nan,nan,nan,nan,nan,nan,nan,nan,nan,nan,nan,nan,nan,nan,nan,nan,nan,nan,2.0,2.0,2.0,nan,73.15067775115972,73.15067775115972,73.15067775115972,7.211125075538251,2.236068,2.236068,2.236068,0.0,nan,nan,nan,nan,nan,nan,nan,nan,Walking,U6
21,,,10.37033488036798,5.15596058393,24.5989935731,4.034028533213486,nan,nan,nan,nan,nan,nan,nan,nan,nan,nan,nan,nan,nan,nan,nan,nan,nan,nan,nan,nan,nan,nan,nan,nan,nan,nan,nan,nan,nan,nan,nan,nan,nan,nan,nan,nan,nan,nan,nan,nan,2.0,2.0,2.0,nan,73.15067775115972,73.15067775115972,73.15067775115972,7.211125075538251,2.236068,2.236068,2.236068,0.0,nan,nan,nan,nan,nan,nan,nan,nan,Walking,U6
22,,,10.654019188647826,5.06233648876,23.7403577998,3.9464489197027857,nan,nan,nan,nan,nan,nan,nan,nan,nan,nan,nan,nan,nan,nan,nan,nan,nan,nan,nan,nan,nan,nan,nan,nan,nan,nan,nan,nan,nan,nan,nan,nan,nan,nan,nan,nan,nan,nan,nan,nan,2.0,2.0,2.0,nan,86.20834289865873,86.20834289865873,86.20834289865873,7.211125075538251,2.236068,2.236068,2.236068,0.0,nan,nan,nan,nan,nan,nan,nan,nan,Walking,U6
23,,,10.252824598806063,4.7650363663,23.4992870448,3.646848984665098,nan,nan,nan,nan,nan,nan,nan,nan,nan,nan,nan,nan,nan,nan,nan,nan,nan,nan,nan,nan,nan,nan,nan,nan,nan,nan,nan,nan,nan,nan,nan,nan,nan,nan,nan,nan,nan,nan,nan,nan,2.0,2.0,2.0,nan,83.14611260655931,83.14611260655931,83.14611260655931,7.211125075538251,2.236068,2.236068,2.236068,0.0,nan,nan,nan,nan,nan,nan,nan,nan,Walking,U6
24,,,10.431596349944725,2.8320320842299997,20.1639848292,4.649656137032169,nan,nan,nan,nan,nan,nan,nan,nan,nan,nan,nan,nan,nan,nan,nan,nan,nan,nan,nan,nan,nan,nan,nan,nan,nan,nan,nan,nan,nan,nan,nan,nan,nan,nan,nan,nan,nan,nan,nan,nan,2.0,2.0,2.0,nan,78.0175069820925,73.35466105066534,82.68035291351966,6.594259955480492,2.236068,2.236068,2.236068,0.0,nan,nan,nan,nan,nan,nan,nan,nan,Walking,U6
25,,,10.31821463701239,1.76228857623,25.7300423077,4.204919670467856,nan,nan,nan,nan,nan,nan,nan,nan,nan,nan,nan,nan,nan,nan,nan,nan,nan,nan,nan,nan,nan,nan,nan,nan,nan,nan,nan,nan,nan,nan,nan,nan,nan,nan,nan,nan,nan,nan,nan,nan,2.0,2.0,2.0,nan,85.39492746261533,85.39492746261533,85.39492746261533,6.594259955480492,2.236068,2.236068,2.236068,0.0,nan,nan,nan,nan,nan,nan,nan,nan,Walking,U6
26,,,10.246764050946414,4.5372035757199995,23.1412294768,3.8985447560174773,nan,nan,nan,nan,nan,nan,nan,nan,nan,nan,nan,nan,nan,nan,nan,nan,nan,nan,nan,nan,nan,nan,nan,nan,nan,nan,nan,nan,nan,nan,nan,nan,nan,nan,nan,nan,nan,nan,nan,nan,2.0,2.0,2.0,nan,87.55086016354801,87.55086016354801,87.55086016354801,6.594259955480492,2.3584952,2.3584952,2.3584952,0.0,nan,nan,nan,nan,nan,nan,nan,nan,Walking,U6
27,,,10.318937826998818,4.17404880514,25.0080363395,3.9041557375756937,nan,nan,nan,nan,nan,nan,nan,nan,nan,nan,nan,nan,nan,nan,nan,nan,nan,nan,nan,nan,nan,nan,nan,nan,nan,nan,nan,nan,nan,nan,nan,nan,nan,nan,nan,nan,nan,nan,nan,nan,2.0,2.0,2.0,nan,84.06881733660876,84.06881733660876,84.06881733660876,6.594259955480492,2.3584952,2.3584952,2.3584952,0.0,nan,nan,nan,nan,nan,nan,nan,nan,Walking,U6
28,,,10.490966310708298,4.4392708874,25.511064519,3.8366815424522915,nan,nan,nan,nan,nan,nan,nan,nan,nan,nan,nan,nan,nan,nan,nan,nan,nan,nan,nan,nan,nan,nan,nan,nan,nan,nan,nan,nan,nan,nan,nan,nan,nan,nan,nan,nan,nan,nan,nan,nan,2.0,2.0,2.0,nan,84.06881733660876,84.06881733660876,84.06881733660876,6.594259955480492,2.3584952,2.3584952,2.3584952,0.0,nan,nan,nan,nan,nan,nan,nan,nan,Walking,U6
29,,,10.821855287434575,2.6558163544599998,25.1547592658,4.861819094565474,nan,nan,nan,nan,nan,nan,nan,nan,nan,nan,nan,nan,nan,nan,nan,nan,nan,nan,nan,nan,nan,nan,nan,nan,nan,nan,nan,nan,nan,nan,nan,nan,nan,nan,nan,nan,nan,nan,nan,nan,2.0,2.0,2.0,nan,84.06881733660876,84.06881733660876,84.06881733660876,6.594259955480492,2.3584952,2.3584952,2.3584952,0.0,nan,nan,nan,nan,nan,nan,nan,nan,Walking,U6
30,,,10.504389254683408,4.14191081892,24.0832878336,3.717252433785545,nan,nan,nan,nan,nan,nan,nan,nan,nan,nan,nan,nan,nan,nan,nan,nan,nan,nan,nan,nan,nan,nan,nan,nan,nan,nan,nan,nan,nan,nan,nan,nan,nan,nan,nan,nan,nan,nan,nan,nan,2.0,2.0,2.0,nan,74.64304836130427,74.64304836130427,74.64304836130427,6.594259955480492,2.3584952,2.3584952,2.3584952,0.0,nan,nan,nan,nan,nan,nan,nan,nan,Walking,U6
31,,,10.286983465896277,5.11627396478,19.902468303800003,3.1212571459590905,nan,nan,nan,nan,nan,nan,nan,nan,nan,nan,nan,nan,nan,nan,nan,nan,nan,nan,nan,nan,nan,nan,nan,nan,nan,nan,nan,nan,nan,nan,nan,nan,nan,nan,nan,nan,nan,nan,nan,nan,2.0,2.0,2.0,nan,74.64304836130427,74.64304836130427,74.64304836130427,6.594259955480492,2.3584952,2.3584952,2.3584952,0.0,nan,nan,nan,nan,nan,nan,nan,nan,Walking,U6
32,,,10.016017300726666,6.695975629129999,17.2160226551,2.2919214572214957,nan,nan,nan,nan,nan,nan,nan,nan,nan,nan,nan,nan,nan,nan,nan,nan,nan,nan,nan,nan,nan,nan,nan,nan,nan,nan,nan,nan,nan,nan,nan,nan,nan,nan,nan,nan,nan,nan,nan,nan,2.0,2.0,2.0,nan,77.43029117416765,77.43029117416765,77.43029117416765,6.594259955480492,2.3584952,2.3584952,2.3584952,0.0,nan,nan,nan,nan,nan,nan,nan,nan,Walking,U6
33,,,10.226571413125052,5.725553186030001,18.0183744381,2.9108054025658716,nan,nan,nan,nan,nan,nan,nan,nan,nan,nan,nan,nan,nan,nan,nan,nan,nan,nan,nan,nan,nan,nan,nan,nan,nan,nan,nan,nan,nan,nan,nan,nan,nan,nan,nan,nan,nan,nan,nan,nan,2.0,2.0,2.0,nan,77.43029117416765,77.43029117416765,77.43029117416765,6.594259955480492,2.3584952,2.3584952,2.3584952,0.0,nan,nan,nan,nan,nan,nan,nan,nan,Walking,U6
34,,,10.423291784362446,5.673956899229999,23.365944764,3.2913308228014317,nan,nan,nan,nan,nan,nan,nan,nan,nan,nan,nan,nan,nan,nan,nan,nan,nan,nan,nan,nan,nan,nan,nan,nan,nan,nan,nan,nan,nan,nan,nan,nan,nan,nan,nan,nan,nan,nan,nan,nan,2.0,2.0,2.0,0.0,69.91024392145735,69.38465485013225,70.43583299278247,0.7432951929030472,2.3584952,2.3584952,2.3584952,0.0,nan,nan,nan,nan,nan,nan,nan,nan,Walking,U6
35,,,10.28578280173914,5.25645457092,20.1953448749,3.0243183657184884,nan,nan,nan,nan,nan,nan,nan,nan,nan,nan,nan,nan,nan,nan,nan,nan,nan,nan,nan,nan,nan,nan,nan,nan,nan,nan,nan,nan,nan,nan,nan,nan,nan,nan,nan,nan,nan,nan,nan,nan,2.0,2.0,2.0,0.0,69.91024392145735,69.38465485013225,70.43583299278247,0.7432951929030472,2.3584952,2.3584952,2.3584952,0.0,nan,nan,nan,nan,nan,nan,nan,nan,Walking,U6
36,,,10.380716489127847,5.47640949923,22.0539479356,3.212554544389036,nan,nan,nan,nan,nan,nan,nan,nan,nan,nan,nan,nan,nan,nan,nan,nan,nan,nan,nan,nan,nan,nan,nan,nan,nan,nan,nan,nan,nan,nan,nan,nan,nan,nan,nan,nan,nan,nan,nan,nan,2.0,2.0,2.0,0.0,79.98783123438182,79.98783123438182,79.98783123438182,0.7432951929030472,2.1360009,2.1360009,2.1360009,0.0,nan,nan,nan,nan,nan,nan,nan,nan,Walking,U6
37,,,10.070297059288851,5.100708603919999,19.646519320899998,3.3409928416062207,nan,nan,nan,nan,nan,nan,nan,nan,nan,nan,nan,nan,nan,nan,nan,nan,nan,nan,nan,nan,nan,nan,nan,nan,nan,nan,nan,nan,nan,nan,nan,nan,nan,nan,nan,nan,nan,nan,nan,nan,2.0,2.0,2.0,0.0,78.36270452332718,78.36270452332718,78.36270452332718,0.7432951929030472,2.1360009,2.1360009,2.1360009,0.0,nan,nan,nan,nan,nan,nan,nan,nan,Walking,U6
38,,,10.018807671144117,5.04872152692,21.8326377204,3.5128021880931066,nan,nan,nan,nan,nan,nan,nan,nan,nan,nan,nan,nan,nan,nan,nan,nan,nan,nan,nan,nan,nan,nan,nan,nan,nan,nan,nan,nan,nan,nan,nan,nan,nan,nan,nan,nan,nan,nan,nan,nan,2.0,2.0,2.0,0.0,78.36270452332718,78.36270452332718,78.36270452332718,0.7432951929030472,2.1360009,2.1360009,2.1360009,0.0,nan,nan,nan,nan,nan,nan,nan,nan,Walking,U6
39,,,10.386466578747273,4.6927718823,23.5391969478,3.749997313020789,nan,nan,nan,nan,nan,nan,nan,nan,nan,nan,nan,nan,nan,nan,nan,nan,nan,nan,nan,nan,nan,nan,nan,nan,nan,nan,nan,nan,nan,nan,nan,nan,nan,nan,nan,nan,nan,nan,nan,nan,2.0,2.0,2.0,0.0,78.36270452332718,78.36270452332718,78.36270452332718,0.7432951929030472,2.1360009,2.1360009,2.1360009,0.0,nan,nan,nan,nan,nan,nan,nan,nan,Walking,U6
40,,,10.27179497980179,4.89698953126,17.7488796148,3.1236919387295723,nan,nan,nan,nan,nan,nan,nan,nan,nan,nan,nan,nan,nan,nan,nan,nan,nan,nan,nan,nan,nan,nan,nan,nan,nan,nan,nan,nan,nan,nan,nan,nan,nan,nan,nan,nan,nan,nan,nan,nan,2.0,2.0,2.0,0.0,78.36270452332718,78.36270452332718,78.36270452332718,0.7432951929030472,2.1360009,2.1360009,2.1360009,0.0,nan,nan,nan,nan,nan,nan,nan,nan,Walking,U6
41,,,10.494743864283937,5.47532117611,27.1343986386,3.9406654760202513,nan,nan,nan,nan,nan,nan,nan,nan,nan,nan,nan,nan,nan,nan,nan,nan,nan,nan,nan,nan,nan,nan,nan,nan,nan,nan,nan,nan,nan,nan,nan,nan,nan,nan,nan,nan,nan,nan,nan,nan,2.0,2.0,2.0,0.0,73.88332591866396,73.88332591866396,73.88332591866396,0.7432951929030472,2.1360009,2.1360009,2.1360009,0.0,nan,nan,nan,nan,nan,nan,nan,nan,Walking,U6
42,,,10.48037823015819,5.40968396646,24.5746187684,3.8436848609003142,nan,nan,nan,nan,nan,nan,nan,nan,nan,nan,nan,nan,nan,nan,nan,nan,nan,nan,nan,nan,nan,nan,nan,nan,nan,nan,nan,nan,nan,nan,nan,nan,nan,nan,nan,nan,nan,nan,nan,nan,2.0,2.0,2.0,0.0,73.88332591866396,73.88332591866396,73.88332591866396,0.7432951929030472,2.1360009,2.1360009,2.1360009,0.0,nan,nan,nan,nan,nan,nan,nan,nan,Walking,U6
43,,,10.471614802218191,5.02352588817,26.65798593,4.123403822049902,nan,nan,nan,nan,nan,nan,nan,nan,nan,nan,nan,nan,nan,nan,nan,nan,nan,nan,nan,nan,nan,nan,nan,nan,nan,nan,nan,nan,nan,nan,nan,nan,nan,nan,nan,nan,nan,nan,nan,nan,2.0,2.0,2.0,0.0,73.88332591866396,73.88332591866396,73.88332591866396,0.7432951929030472,2.1360009,2.1360009,2.1360009,0.0,nan,nan,nan,nan,nan,nan,nan,nan,Walking,U6
44,,,10.3833501010175,4.7578999378199995,19.3883297902,3.7294725566894846,nan,nan,nan,nan,nan,nan,nan,nan,nan,nan,nan,nan,nan,nan,nan,nan,nan,nan,nan,nan,nan,nan,nan,nan,nan,nan,nan,nan,nan,nan,nan,nan,nan,nan,nan,nan,nan,nan,nan,nan,2.0,2.0,2.0,0.0,71.95807970636301,71.0728067246271,72.8433526880989,1.2519650571733818,2.1360009,2.1360009,2.1360009,0.0,nan,nan,nan,nan,nan,nan,nan,nan,Walking,U6
45,,,10.720293086200217,4.75794824431,24.800642176100002,4.254999418386852,nan,nan,nan,nan,nan,nan,nan,nan,nan,nan,nan,nan,nan,nan,nan,nan,nan,nan,nan,nan,nan,nan,nan,nan,nan,nan,nan,nan,nan,nan,nan,nan,nan,nan,nan,nan,nan,nan,nan,nan,2.0,2.0,2.0,0.0,83.55476900803437,83.55476900803437,83.55476900803437,1.2519650571733818,2.236068,2.236068,2.236068,0.0,nan,nan,nan,nan,nan,nan,nan,nan,Walking,U6
46,,,10.379547898820745,5.42883337421,18.095401373399998,2.8125998325352457,nan,nan,nan,nan,nan,nan,nan,nan,nan,nan,nan,nan,nan,nan,nan,nan,nan,nan,nan,nan,nan,nan,nan,nan,nan,nan,nan,nan,nan,nan,nan,nan,nan,nan,nan,nan,nan,nan,nan,nan,2.0,2.0,2.0,0.0,83.55476900803437,83.55476900803437,83.55476900803437,1.2519650571733818,2.236068,2.236068,2.236068,0.0,nan,nan,nan,nan,nan,nan,nan,nan,Walking,U6
47,,,9.874005553070216,3.88413609811,18.0818284633,2.6280827594078318,nan,nan,nan,nan,nan,nan,nan,nan,nan,nan,nan,nan,nan,nan,nan,nan,nan,nan,nan,nan,nan,nan,nan,nan,nan,nan,nan,nan,nan,nan,nan,nan,nan,nan,nan,nan,nan,nan,nan,nan,2.0,2.0,2.0,0.0,66.23083916802389,66.23083916802389,66.23083916802389,1.2519650571733818,2.0,2.0,2.0,0.0,nan,nan,nan,nan,nan,nan,nan,nan,Walking,U6
48,,,9.730548676126839,7.604213605369999,13.265153693699999,1.424442334614298,nan,nan,nan,nan,nan,nan,nan,nan,nan,nan,nan,nan,nan,nan,nan,nan,nan,nan,nan,nan,nan,nan,nan,nan,nan,nan,nan,nan,nan,nan,nan,nan,nan,nan,nan,nan,nan,nan,nan,nan,2.0,2.0,2.0,0.0,66.23083916802389,66.23083916802389,66.23083916802389,1.2519650571733818,2.0,2.0,2.0,0.0,nan,nan,nan,nan,nan,nan,nan,nan,Walking,U6
49,,,9.941048397686451,5.658563815880001,17.7298490859,2.427062877089733,nan,nan,nan,nan,nan,nan,nan,nan,nan,nan,nan,nan,nan,nan,nan,nan,nan,nan,nan,nan,nan,nan,nan,nan,nan,nan,nan,nan,nan,nan,nan,nan,nan,nan,nan,nan,nan,nan,nan,nan,2.0,2.0,2.0,0.0,65.24427410952833,65.24427410952833,65.24427410952833,1.2519650571733818,2.0,2.0,2.0,0.0,nan,nan,nan,nan,nan,nan,nan,nan,Walking,U6
50,,,10.421380825722316,4.78881532599,20.2811493944,3.4271430819553665,nan,nan,nan,nan,nan,nan,nan,nan,nan,nan,nan,nan,nan,nan,nan,nan,nan,nan,nan,nan,nan,nan,nan,nan,nan,nan,nan,nan,nan,nan,nan,nan,nan,nan,nan,nan,nan,nan,nan,nan,2.0,2.0,2.0,0.0,65.24427410952833,65.24427410952833,65.24427410952833,1.2519650571733818,2.0,2.0,2.0,0.0,nan,nan,nan,nan,nan,nan,nan,nan,Walking,U6
51,,,10.813527553765958,3.0204768075599997,23.0822072014,4.645163251040511,nan,nan,nan,nan,nan,nan,nan,nan,nan,nan,nan,nan,nan,nan,nan,nan,nan,nan,nan,nan,nan,nan,nan,nan,nan,nan,nan,nan,nan,nan,nan,nan,nan,nan,nan,nan,nan,nan,nan,nan,2.0,2.0,2.0,0.0,65.24427410952833,65.24427410952833,65.24427410952833,1.2519650571733818,2.0,2.0,2.0,0.0,nan,nan,nan,nan,nan,nan,nan,nan,Walking,U6
52,,,10.349048384008388,4.218689384519999,22.5871666154,4.261153064406329,nan,nan,nan,nan,nan,nan,nan,nan,nan,nan,nan,nan,nan,nan,nan,nan,nan,nan,nan,nan,nan,nan,nan,nan,nan,nan,nan,nan,nan,nan,nan,nan,nan,nan,nan,nan,nan,nan,nan,nan,2.0,2.0,2.0,0.0,72.09963259214862,72.09963259214862,72.09963259214862,1.2519650571733818,2.0,2.0,2.0,0.0,nan,nan,nan,nan,nan,nan,nan,nan,Walking,U6
53,,,10.159210869328444,3.3285018433999998,20.1430213615,3.2631348960364885,nan,nan,nan,nan,nan,nan,nan,nan,nan,nan,nan,nan,nan,nan,nan,nan,nan,nan,nan,nan,nan,nan,nan,nan,nan,nan,nan,nan,nan,nan,nan,nan,nan,nan,nan,nan,nan,nan,nan,nan,2.0,2.0,2.0,0.0,72.09963259214862,72.09963259214862,72.09963259214862,1.2519650571733818,2.0,2.0,2.0,0.0,nan,nan,nan,nan,nan,nan,nan,nan,Walking,U6
54,,,10.043162153792274,8.048108436849999,12.7827128547,1.127264214737142,nan,nan,nan,nan,nan,nan,nan,nan,nan,nan,nan,nan,nan,nan,nan,nan,nan,nan,nan,nan,nan,nan,nan,nan,nan,nan,nan,nan,nan,nan,nan,nan,nan,nan,nan,nan,nan,nan,nan,nan,2.0,2.0,2.0,0.0,72.09963259214862,72.09963259214862,72.09963259214862,1.2519650571733818,2.0,2.0,2.0,0.0,nan,nan,nan,nan,nan,nan,nan,nan,Walking,U6
55,,,10.016127334037282,3.85871637226,21.518328105100004,3.2647306248650203,nan,nan,nan,nan,nan,nan,nan,nan,nan,nan,nan,nan,nan,nan,nan,nan,nan,nan,nan,nan,nan,nan,nan,nan,nan,nan,nan,nan,nan,nan,nan,nan,nan,nan,nan,nan,nan,nan,nan,nan,5.0,5.0,5.0,0.0,66.03447514814604,59.64542466079137,72.42352563550071,9.035481849903407,2.236068,2.236068,2.236068,0.0,nan,nan,nan,nan,nan,nan,nan,nan,Walking,U6
56,,,10.481946367348666,5.09991690905,18.697093353299998,3.0690596748682584,nan,nan,nan,nan,nan,nan,nan,nan,nan,nan,nan,nan,nan,nan,nan,nan,nan,nan,nan,nan,nan,nan,nan,nan,nan,nan,nan,nan,nan,nan,nan,nan,nan,nan,nan,nan,nan,nan,nan,nan,5.0,5.0,5.0,0.0,70.60887528963522,70.44627590313334,70.77147467613712,0.22995025762451538,2.236068,2.236068,2.236068,0.0,nan,nan,nan,nan,nan,nan,nan,nan,Walking,U6
57,,,10.236786033759529,6.071461165830001,17.4417550923,2.690258207049231,nan,nan,nan,nan,nan,nan,nan,nan,nan,nan,nan,nan,nan,nan,nan,nan,nan,nan,nan,nan,nan,nan,nan,nan,nan,nan,nan,nan,nan,nan,nan,nan,nan,nan,nan,nan,nan,nan,nan,nan,5.0,5.0,5.0,0.0,70.60887528963522,70.44627590313334,70.77147467613712,0.22995025762451538,2.236068,2.236068,2.236068,0.0,nan,nan,nan,nan,nan,nan,nan,nan,Walking,U6
58,,,10.61755958923265,5.98268417686,21.0134744932,3.0715303037221826,nan,nan,nan,nan,nan,nan,nan,nan,nan,nan,nan,nan,nan,nan,nan,nan,nan,nan,nan,nan,nan,nan,nan,nan,nan,nan,nan,nan,nan,nan,nan,nan,nan,nan,nan,nan,nan,nan,nan,nan,5.0,5.0,5.0,0.0,74.96065788260287,74.96065788260287,74.96065788260287,0.22995025762451538,2.236068,2.236068,2.236068,0.0,nan,nan,nan,nan,nan,nan,nan,nan,Walking,U6
59,,,10.427907004939055,3.6579516161300005,18.4891867329,2.728891503682604,nan,nan,nan,nan,nan,nan,nan,nan,nan,nan,nan,nan,nan,nan,nan,nan,nan,nan,nan,nan,nan,nan,nan,nan,nan,nan,nan,nan,nan,nan,nan,nan,nan,nan,nan,nan,nan,nan,nan,nan,5.0,5.0,5.0,0.0,74.96065788260287,74.96065788260287,74.96065788260287,0.22995025762451538,2.236068,2.236068,2.236068,0.0,nan,nan,nan,nan,nan,nan,nan,nan,Walking,U6
60,,,10.308458821177448,4.98720905972,19.1917774956,3.168729563241239,nan,nan,nan,nan,nan,nan,nan,nan,nan,nan,nan,nan,nan,nan,nan,nan,nan,nan,nan,nan,nan,nan,nan,nan,nan,nan,nan,nan,nan,nan,nan,nan,nan,nan,nan,nan,nan,nan,nan,nan,5.0,5.0,5.0,0.0,74.96065788260287,74.96065788260287,74.96065788260287,0.22995025762451538,2.236068,2.236068,2.236068,0.0,nan,nan,nan,nan,nan,nan,nan,nan,Walking,U6
61,,,10.196316526999894,5.29335849694,20.7041488158,2.826826283101772,nan,nan,nan,nan,nan,nan,nan,nan,nan,nan,nan,nan,nan,nan,nan,nan,nan,nan,nan,nan,nan,nan,nan,nan,nan,nan,nan,nan,nan,nan,nan,nan,nan,nan,nan,nan,nan,nan,nan,nan,5.0,5.0,5.0,0.0,81.43322246883577,81.43322246883577,81.43322246883577,0.22995025762451538,2.236068,2.236068,2.236068,0.0,nan,nan,nan,nan,nan,nan,nan,nan,Walking,U6
62,,,10.411008149230746,5.85275316199,20.806246871400003,3.2886906916418535,nan,nan,nan,nan,nan,nan,nan,nan,nan,nan,nan,nan,nan,nan,nan,nan,nan,nan,nan,nan,nan,nan,nan,nan,nan,nan,nan,nan,nan,nan,nan,nan,nan,nan,nan,nan,nan,nan,nan,nan,5.0,5.0,5.0,0.0,81.43322246883577,81.43322246883577,81.43322246883577,0.22995025762451538,2.236068,2.236068,2.236068,0.0,nan,nan,nan,nan,nan,nan,nan,nan,Walking,U6
63,,,10.410490033085269,4.91929161102,23.6985811879,3.395149191378726,nan,nan,nan,nan,nan,nan,nan,nan,nan,nan,nan,nan,nan,nan,nan,nan,nan,nan,nan,nan,nan,nan,nan,nan,nan,nan,nan,nan,nan,nan,nan,nan,nan,nan,nan,nan,nan,nan,nan,nan,5.0,5.0,5.0,0.0,81.43322246883577,81.43322246883577,81.43322246883577,0.22995025762451538,2.236068,2.236068,2.236068,0.0,nan,nan,nan,nan,nan,nan,nan,nan,Walking,U6
64,,,10.077281511550959,5.52688790441,16.9883109319,2.5421268635019683,nan,nan,nan,nan,nan,nan,nan,nan,nan,nan,nan,nan,nan,nan,nan,nan,nan,nan,nan,nan,nan,nan,nan,nan,nan,nan,nan,nan,nan,nan,nan,nan,nan,nan,nan,nan,nan,nan,nan,nan,5.0,5.0,5.0,0.0,72.69961600102457,72.69961600102457,72.69961600102457,0.22995025762451538,2.236068,2.236068,2.236068,0.0,nan,nan,nan,nan,nan,nan,nan,nan,Walking,U6
65,,,10.09961122194516,5.43302994606,16.5922623254,2.4005290402640713,nan,nan,nan,nan,nan,nan,nan,nan,nan,nan,nan,nan,nan,nan,nan,nan,nan,nan,nan,nan,nan,nan,nan,nan,nan,nan,nan,nan,nan,nan,nan,nan,nan,nan,nan,nan,nan,nan,nan,nan,5.0,5.0,5.0,0.0,74.27346255441901,69.29575039291875,79.25117471591929,7.039548048383177,2.236068,2.236068,2.236068,0.0,nan,nan,nan,nan,nan,nan,nan,nan,Walking,U6
66,,,10.001963149139565,7.48769757114,16.5670368313,1.7254346415397195,nan,nan,nan,nan,nan,nan,nan,nan,nan,nan,nan,nan,nan,nan,nan,nan,nan,nan,nan,nan,nan,nan,nan,nan,nan,nan,nan,nan,nan,nan,nan,nan,nan,nan,nan,nan,nan,nan,nan,nan,5.0,5.0,5.0,0.0,69.10907937557256,69.10907937557256,69.10907937557256,7.039548048383177,2.1360009,2.1360009,2.1360009,0.0,nan,nan,nan,nan,nan,nan,nan,nan,Walking,U6
67,,,10.004193844173118,5.61623195286,14.9241718983,1.9900054580038036,nan,nan,nan,nan,nan,nan,nan,nan,nan,nan,nan,nan,nan,nan,nan,nan,nan,nan,nan,nan,nan,nan,nan,nan,nan,nan,nan,nan,nan,nan,nan,nan,nan,nan,nan,nan,nan,nan,nan,nan,5.0,5.0,5.0,0.0,69.10907937557256,69.10907937557256,69.10907937557256,7.039548048383177,2.0615528000000003,2.0615528000000003,2.0615528000000003,0.0,nan,nan,nan,nan,nan,nan,nan,nan,Walking,U6
68,,,9.871229481190548,6.450482410909999,15.274223366500001,1.522115740616041,nan,nan,nan,nan,nan,nan,nan,nan,nan,nan,nan,nan,nan,nan,nan,nan,nan,nan,nan,nan,nan,nan,nan,nan,nan,nan,nan,nan,nan,nan,nan,nan,nan,nan,nan,nan,nan,nan,nan,nan,5.0,5.0,5.0,0.0,69.29575039291875,69.29575039291875,69.29575039291875,7.039548048383177,2.0615528000000003,2.0615528000000003,2.0615528000000003,0.0,nan,nan,nan,nan,nan,nan,nan,nan,Walking,U6
69,,,10.155041606630665,8.50036913518,12.1101814955,0.7709911336313007,nan,nan,nan,nan,nan,nan,nan,nan,nan,nan,nan,nan,nan,nan,nan,nan,nan,nan,nan,nan,nan,nan,nan,nan,nan,nan,nan,nan,nan,nan,nan,nan,nan,nan,nan,nan,nan,nan,nan,nan,5.0,5.0,5.0,0.0,69.29575039291875,69.29575039291875,69.29575039291875,7.039548048383177,2.0615528000000003,2.0615528000000003,2.0615528000000003,0.0,nan,nan,nan,nan,nan,nan,nan,nan,Walking,U6
