time,activityrecognition#0,activityrecognition#1,android.sensor.accelerometer#mean,android.sensor.accelerometer#min,android.sensor.accelerometer#max,android.sensor.accelerometer#std,android.sensor.gravity#mean,android.sensor.gravity#min,android.sensor.gravity#max,android.sensor.gravity#std,android.sensor.linear_acceleration#mean,android.sensor.linear_acceleration#min,android.sensor.linear_acceleration#max,android.sensor.linear_acceleration#std,android.sensor.orientation#mean,android.sensor.orientation#min,android.sensor.orientation#max,android.sensor.orientation#std,android.sensor.gyroscope_uncalibrated#mean,android.sensor.gyroscope_uncalibrated#min,android.sensor.gyroscope_uncalibrated#max,android.sensor.gyroscope_uncalibrated#std,android.sensor.magnetic_field_uncalibrated#mean,android.sensor.magnetic_field_uncalibrated#min,android.sensor.magnetic_field_uncalibrated#max,android.sensor.magnetic_field_uncalibrated#std,android.sensor.rotation_vector#mean,android.sensor.rotation_vector#min,android.sensor.rotation_vector#max,android.sensor.rotation_vector#std,android.sensor.gyroscope#mean,android.sensor.gyroscope#min,android.sensor.gyroscope#max,android.sensor.gyroscope#std,android.sensor.game_rotation_vector#mean,android.sensor.game_rotation_vector#min,android.sensor.game_rotation_vector#max,android.sensor.game_rotation_vector#std,android.sensor.magnetic_field#mean,android.sensor.magnetic_field#min,android.sensor.magnetic_field#max,android.sensor.magnetic_field#std,android.sensor.pressure#mean,android.sensor.pressure#min,android.sensor.pressure#max,android.sensor.pressure#std,android.sensor.light#mean,android.sensor.light#min,android.sensor.light#max,android.sensor.light#std,sound#mean,sound#min,sound#max,sound#std,speed#mean,speed#min,speed#max,speed#std,android.sensor.proximity#mean,android.sensor.proximity#min,android.sensor.proximity#max,android.sensor.proximity#std,android.sensor.step_counter#mean,android.sensor.step_counter#min,android.sensor.step_counter#max,android.sensor.step_counter#std,target,user
1,,,10.225481999706666,7.86343120921,12.9593187984,2.5682068077421794,9.80665011853,9.80664980882,9.80665055515,2.7476999028550827e-07,2.9271104488585715,1.23763239719,5.2736786993900004,1.2324347849104005,85.18081017913333,83.260975584,89.7137855484,2.558628261196545,0.46917561982075,0.314875279668,0.581770705688,0.11174375558775744,378.141569049,377.782308196,378.35495594900004,0.3129549007075729,0.6823469979687999,0.660912464424,0.7086055787369999,0.021445535217155948,0.43172392386825004,0.391908129972,0.479878274102,0.041126341607086184,0.971276031844,0.68634685494,0.999994123337,0.08793171935540582,38.7989190223,38.7989190223,38.7989190223,nan,nan,nan,nan,nan,nan,nan,nan,nan,nan,nan,nan,nan,nan,nan,nan,nan,nan,nan,nan,nan,nan,nan,nan,nan,Walking,U15
2,,,13.538352283944999,6.474798819659999,28.1162679939,9.843273563055313,9.806650216637001,9.80664983634,9.80665074814,2.779080726478926e-07,6.1470683984085,0.787461359117,11.5066754377,7.57962896395635,200.40993934982498,85.6715959647,333.082314523,132.67935649912377,1.978967532952,0.819040854424,3.0890728536500003,0.9044770411657272,429.078092868,428.925464621,429.230721115,0.21584893690862436,0.6303230005804,0.5567154513979999,0.7054208019850001,0.05897587227301594,2.18371674094125,0.23544489999499998,3.0838180635100003,1.3368862714863936,0.8573358860925416,0.621864699312,0.999937357281,0.136255214773604,38.7989190223,38.7989190223,38.7989190223,nan,nan,nan,nan,nan,nan,nan,nan,nan,nan,nan,nan,nan,nan,nan,nan,nan,nan,nan,nan,nan,nan,nan,nan,nan,Walking,U15
3,,,8.002075208293332,2.85284250068,12.7863516425,4.976800757392197,9.806650098645001,9.80664967983,9.80665098667,4.6112623925296466e-07,5.5276898207350005,1.9298957271700001,9.1254839143,5.08804920174544,274.5730989312,267.338260067,286.50552071,7.754309002875284,2.27305320321,2.27305320321,2.27305320321,0.9044770411657272,410.151742486,410.151742486,410.151742486,0.21584893690862436,0.9271682598828183,0.8691150485889999,0.966962647827,0.033801226999381685,2.457966978035,0.89421296403,3.67262652372,1.0304327242867624,0.7222987122619434,0.57982983982,0.953817377779,0.10008836705076901,38.7989190223,38.7989190223,38.7989190223,nan,1007.38952,1007.3582,1007.42084,0.044293168773516564,nan,nan,nan,nan,89.82555257404356,89.82555257404356,89.82555257404356,nan,nan,nan,nan,nan,nan,nan,nan,nan,nan,nan,nan,nan,Walking,U15
4,,,14.3651559283425,8.28731361637,22.584434313499997,6.057027606472179,9.806650085285,9.80664945497,9.806651247160001,5.896462504828434e-07,7.365846063953334,2.0357846595200004,14.4286965541,6.375577214525839,260.95268496200003,260.95268496200003,260.95268496200003,7.754309002875284,2.5766395797453336,0.902884423378,3.65055822996,1.0339388038271844,412.03175966699996,412.03175966699996,412.03175966699996,0.21584893690862436,0.9188480279378,0.8467428140790001,0.982509025377,0.060786064573165245,1.9716814657525001,1.3591129912399997,2.79927598032,0.6011799805403703,0.7551105455437818,0.5963502342270001,0.924654669179,0.09051957194752507,38.7989190223,38.7989190223,38.7989190223,nan,1007.38952,1007.3582,1007.42084,0.044293168773516564,nan,nan,nan,nan,89.85157626375866,89.85157626375866,89.85157626375866,nan,nan,nan,nan,nan,nan,nan,nan,nan,nan,nan,nan,nan,Walking,U15
5,,,12.62222548555,10.7732823417,14.471168629400001,2.614800470089419,9.806650035832858,9.80664940431,9.80665104537,5.362479571994795e-07,3.150022444865,2.9766882127499996,3.32335667698,0.2451316218805594,284.42145668,283.76863032299997,285.074283037,0.923235887944033,2.2514099035240003,1.06631418811,3.4715510781199996,0.9929467868404318,412.03175966699996,412.03175966699996,412.03175966699996,0.21584893690862436,0.9091039399573333,0.809138629113,0.9591469320229999,0.06162556549542835,3.33356771897,2.75195138597,3.7858597773800002,0.5289472719049374,0.7137531510888704,0.5806512460800001,0.941132066647,0.10098942351664203,34.52084064626667,32.3366803725,36.226524078800004,1.9885738810911484,1007.38952,1007.3582,1007.42084,0.044293168773516564,nan,nan,nan,nan,89.85157626375866,89.85157626375866,89.85157626375866,nan,nan,nan,nan,nan,nan,nan,nan,nan,nan,nan,nan,nan,Walking,U15
6,,,17.2618357048775,7.26250818291,30.8256125605,9.917435342876926,9.806650359075,9.80664959792,9.80665074735,5.16683545054389e-07,6.607355412458333,2.34073776151,9.88269141191,2.864706212692348,276.5146534462,268.780349252,286.149715459,6.866333948284442,3.03044824865,2.26732538384,3.7935711134599996,1.0792187051713118,414.45026886,409.215912369,419.68462535099997,7.4024979398678035,0.90376488813175,0.8564503526620001,0.945885545106,0.044557320278115715,2.3323140002742853,0.80870587989,3.6533739599199997,0.9455555471471254,0.7101392842869999,0.605934813735,0.8947494829989999,0.06995001785554389,36.862483043800005,36.862483043800005,36.862483043800005,1.9885738810911484,1007.4063,1007.4063,1007.4063,0.044293168773516564,nan,nan,nan,nan,89.85157626375866,89.85157626375866,89.85157626375866,nan,nan,nan,nan,nan,nan,nan,nan,nan,nan,nan,nan,nan,Walking,U15
7,,,8.2717521749,1.3009244342,15.242579915599999,9.85823913186454,9.8066503912375,9.80665009011,9.80665053704,2.0604293051375092e-07,7.07252037173875,2.77160495199,9.566567210239999,2.350764790813167,267.199156473,259.72080845,279.144771813,8.26389288325036,2.1038923788500004,0.4620991389,3.53190623625,1.2989075356260662,415.062786265,415.062786265,415.062786265,7.4024979398678035,0.9382369983591428,0.862825931083,0.972874564469,0.04413330430845436,2.077944925286,0.665923303904,2.95515821703,0.9941680789933537,0.7199874704399576,0.628574846338,0.9435794759,0.07024527330079533,42.6213050089,42.6213050089,42.6213050089,1.9885738810911484,1007.4463,1007.4463,1007.4463,0.044293168773516564,nan,nan,nan,nan,89.85157626375866,89.85157626375866,89.85157626375866,nan,nan,nan,nan,nan,nan,nan,nan,nan,nan,nan,nan,nan,Walking,U15
8,,,18.116365101649997,14.0820239424,25.813704152199996,5.325601245236749,9.806650325324286,9.80664999458,9.806650754989999,3.2955474839845653e-07,4.383464504516668,1.86673481961,7.878990095510002,3.123353077219395,278.81603294325,268.560849007,290.365035599,9.643724874362077,2.3737918162725,0.81892947456,3.2393702793799997,0.7787881301996987,415.062786265,415.062786265,415.062786265,7.4024979398678035,0.9242345806054167,0.861827558064,0.983438859261,0.04274565003482112,2.077944925286,0.665923303904,2.95515821703,0.9941680789933537,0.7340532998304081,0.611906833087,0.9229976436640001,0.07733898588121363,35.8299229559,35.5171594824,36.1426864294,0.44231434603862124,1007.4463,1007.4463,1007.4463,0.044293168773516564,nan,nan,nan,nan,89.85157626375866,89.85157626375866,89.85157626375866,nan,nan,nan,nan,nan,nan,nan,nan,nan,82.0,82.0,82.0,nan,Walking,U15
9,,,11.9545105472,10.590887939,13.3181331554,1.9284535864750132,9.806650263688887,9.806649376769998,9.80665091347,5.24516796361255e-07,7.507557708109999,1.48258535132,12.4030068822,4.0172389375580915,278.81603294325,268.560849007,290.365035599,9.643724874362077,2.482935427818,1.6733777626800002,4.2952180996,1.0841707000736744,415.606154886,415.606154886,415.606154886,7.4024979398678035,0.9036408249952,0.831454934016,0.977185407415,0.05592065131888548,2.1392924729100002,2.13534404958,2.14324089624,0.005583913823276347,0.7610120881051525,0.6222613037529999,0.9411389986650001,0.08185734553007051,33.797024626500004,31.1454001353,36.4486491177,3.7499633177756975,1007.4463,1007.4463,1007.4463,0.044293168773516564,nan,nan,nan,nan,89.85157626375866,89.85157626375866,89.85157626375866,nan,nan,nan,nan,nan,nan,nan,nan,nan,82.0,82.0,82.0,nan,Walking,U15
10,,,7.57848918209,2.80454213408,10.514201951,4.170616569741392,9.806649999128,9.80664973286,9.80665045603,2.8435220796886804e-07,6.6465699486666665,5.43015033205,7.73720018283,1.158657404088671,277.68055708149996,266.425596108,289.631593743,12.696492509683903,2.2171176761675,1.7110628287600003,2.86405837193,0.47780937908005977,422.9298764135,422.119819857,423.73993297,1.145592968491549,0.9243532931412,0.853411633662,0.955855345394,0.04077807014890055,2.780724672293333,2.38863774525,3.2427706409400003,0.43134261498429405,0.7367022850641297,0.604690558831,0.917005125024,0.08314057733167741,42.5359071039,42.328129744499996,42.7436844633,0.2938415596175509,1007.4063249999999,1007.38635,1007.4263,0.028248915908385724,nan,nan,nan,nan,89.85157626375866,89.85157626375866,89.85157626375866,nan,nan,nan,nan,nan,nan,nan,nan,nan,82.0,82.0,82.0,nan,Walking,U15
11,,,12.4765883693525,8.11930605631,16.4605365745,3.6832379697022106,9.806650152610999,9.80664957017,9.8066508276,3.661684812691511e-07,6.768991258526667,2.83631683621,12.761296283,3.655830003951522,272.79826669666664,270.207940146,275.785690398,2.8099980567114566,0.490740996918,0.490740996918,0.490740996918,0.47780937908005977,421.788978653,421.788978653,421.788978653,1.145592968491549,0.9224744011893999,0.831240855019,0.9722595384110001,0.057496057564462515,2.079054499255,1.69184197754,2.46626702097,0.5476011997300397,0.7424225239193509,0.625004995716,0.919346161707,0.06865900867040567,42.5359071039,42.328129744499996,42.7436844633,0.2938415596175509,1007.4640750000001,1007.4627,1007.46545,0.0019445436482572176,nan,nan,nan,nan,89.85157626375866,89.85157626375866,89.85157626375866,nan,nan,nan,nan,nan,nan,nan,nan,nan,82.0,82.0,82.0,nan,Walking,U15
12,,,12.423439920820002,7.9086177373,18.582403446,3.7436332123253977,9.8066495565,9.806649548760001,9.806649564239999,1.0946011366296995e-08,9.831381070039999,9.50870747748,10.1540546626,0.45632937081800246,272.3842145814286,263.607732603,283.725886112,6.767035301582886,2.967375091525,2.41934121063,3.74035183334,0.5629849925289843,404.787348492,402.00931488599997,407.56538209800004,3.928732802333487,0.9194079556520001,0.891171108496,0.956795083238,0.027135637004792216,2.35326879424,1.53051630049,3.1760212879900003,1.1635477351375354,0.7505516283383149,0.6488423076950001,0.923441179719,0.07324363384162809,42.5359071039,42.328129744499996,42.7436844633,0.2938415596175509,1007.421875,1007.38745,1007.4563,0.04868430188477252,nan,nan,nan,nan,89.85157626375866,89.85157626375866,89.85157626375866,nan,nan,nan,nan,nan,nan,nan,nan,nan,82.0,82.0,82.0,nan,Walking,U15
13,,,9.968833132101667,3.73561393805,19.844419239100002,5.816330725540925,9.806650048032,9.806649445349999,9.80665060897,4.620434536285859e-07,8.734130601267141,1.6576911588299998,20.848306152,7.633132688041347,271.2252529185,267.851285947,274.59921989,4.771509850094152,2.2651391422742857,1.6108754702399999,2.94801582527,0.5324039443445705,404.787348492,402.00931488599997,407.56538209800004,3.928732802333487,0.8974630686839999,0.846544034076,0.9542353870620001,0.039548665690094645,1.6610009362068574,0.616001452993,2.39302012503,0.7032059790811314,0.7477275531932341,0.643839155631,0.8981964926039999,0.05478928862282748,42.5359071039,42.328129744499996,42.7436844633,0.2938415596175509,1007.421875,1007.38745,1007.4563,0.04868430188477252,nan,nan,nan,nan,89.85157626375866,89.85157626375866,89.85157626375866,nan,nan,nan,nan,nan,nan,nan,nan,nan,82.0,82.0,82.0,nan,Walking,U15
14,,,17.38723776385,14.1314673368,25.6411642404,5.546179083422584,9.806650264814285,9.80664966348,9.8066510065,3.959279619339001e-07,7.893307643257144,1.7221703632900003,19.8375956944,6.2933019939252395,269.9940612043333,256.612678261,277.774148152,11.639709601627892,2.2294854537683335,1.09822626073,3.00267768881,0.6563117172226218,418.402845193,418.402845193,418.402845193,3.928732802333487,0.9542791872803332,0.943434106523,0.9643192990389999,0.01046583957091862,1.9224461391532497,0.382246911493,2.9453524280299996,1.0907572435011714,0.7614365558299075,0.641176467286,0.935686681354,0.06718557835523375,42.5359071039,42.328129744499996,42.7436844633,0.2938415596175509,1007.421875,1007.38745,1007.4563,0.04868430188477252,nan,nan,nan,nan,89.63429746054337,89.63429746054337,89.63429746054337,nan,nan,nan,nan,nan,nan,nan,nan,nan,82.0,82.0,82.0,nan,Walking,U15
15,,,14.407185322770001,5.61846268024,23.1959079653,12.429130757001435,9.80665037252,9.80664982437,9.806650653010001,3.3405147537975166e-07,13.929613243125,6.466939871109999,30.965742429200002,11.447906713838059,269.93777871799995,262.816955324,277.089316228,5.82680432533475,2.138907270602857,1.03658110485,3.32167924363,0.762714393229421,418.402845193,418.402845193,418.402845193,3.928732802333487,0.9002408146665714,0.836539448021,0.9678302079629999,0.04924619573866965,1.9496737157050001,1.43296110088,2.4663863305300002,0.7307419877347803,0.7747187891464182,0.6775778032879999,0.903866495871,0.059342210380002515,38.178665282349996,37.467353803499996,38.889976761199996,1.0059463404613327,1007.421875,1007.38745,1007.4563,0.04868430188477252,nan,nan,nan,nan,89.63429746054337,89.63429746054337,89.63429746054337,nan,nan,nan,nan,nan,nan,nan,nan,nan,82.0,82.0,82.0,nan,Walking,U15
16,,,10.885450119327501,3.66871441351,15.6841193441,5.106828574598385,9.806650377707143,9.80664974161,9.80665098773,4.0427103015398173e-07,6.703889643500001,3.88582853863,10.9054945704,2.7046581314281344,276.8813498105,269.34645691599997,286.23062949,8.129989590365865,2.0832108037449997,1.2408180923799998,3.3604377460799997,0.9455947086478981,414.9972568523333,411.89813114599997,420.171799234,4.5104225622203336,0.9363351806137145,0.8479106878980001,0.97483718565,0.05592476330602972,2.2521574864875,1.19943468624,2.8580490417,0.7792466351008317,0.7731057778951633,0.669831055503,0.889805312464,0.05918446034814701,37.25534142658,35.6867651629,40.3520890467,1.8272419375650606,1007.421875,1007.38745,1007.4563,0.04868430188477252,nan,nan,nan,nan,89.63429746054337,89.63429746054337,89.63429746054337,nan,nan,nan,nan,nan,nan,nan,nan,nan,82.0,82.0,82.0,nan,Walking,U15
17,,,12.499104574833334,8.602942860299999,14.7578115153,3.388442952583188,9.806649882493332,9.806649534269999,9.806650221449999,2.775289207002652e-07,7.660269976505001,6.921570738060002,8.39896921495,1.0446784815235948,269.43451788375,260.895834165,277.242854565,7.151402987492166,0.5688818507175,0.514113862355,0.62364983908,0.07745363192613937,414.9972568523333,411.89813114599997,420.171799234,4.5104225622203336,0.9397787496621818,0.8435076886949999,0.983902818012,0.04638333194624959,2.9077860027425,2.47166137336,3.3962736961699997,0.38946293076057326,0.7921900370522201,0.6972595497,0.895386226883,0.055531138543411435,38.8668637031,38.8668637031,38.8668637031,1.8272419375650606,1007.4159,1007.4159,1007.4159,0.04868430188477252,nan,nan,nan,nan,89.63429746054337,89.63429746054337,89.63429746054337,nan,nan,nan,nan,nan,nan,nan,nan,nan,82.0,82.0,82.0,nan,Walking,U15
18,,,19.8846895229,19.8846895229,19.8846895229,3.388442952583188,9.806650183644999,9.80664990466,9.80665044125,1.7061552359097487e-07,8.89108788752,3.36639577481,14.2663020874,4.530139428558669,275.41429494725,266.686084972,281.66607034,6.901168864557557,2.4693362010075,1.7586946490400002,3.6789710921900003,0.5923952186905367,408.09373232966664,403.20334764300003,417.30919892199995,7.9858318411020655,0.9260584964878572,0.858964704507,0.9603650241859999,0.04439892394046748,1.9926274303543998,0.7409029113519999,2.81153753193,0.8205009807914337,0.7708794602176666,0.678929639604,0.897864506304,0.05496242099181369,38.537886993200004,38.537886993200004,38.537886993200004,1.8272419375650606,1007.4159,1007.4159,1007.4159,0.04868430188477252,nan,nan,nan,nan,89.63429746054337,89.63429746054337,89.63429746054337,nan,nan,nan,nan,nan,nan,nan,nan,nan,82.0,82.0,82.0,nan,Walking,U15
19,,,11.114336225805715,3.7382294659900004,21.5883992346,5.8777536977957245,9.806650074275,9.806649678169999,9.80665086848,4.176535343902567e-07,9.1656025781294,0.609307609267,16.083184289400002,5.902360383800509,275.59866677633335,261.551534002,282.812741321,12.16666543235599,2.7602552455616673,2.2106506094599996,3.25867751037,0.414146240202099,405.40586760699995,405.40586760699995,405.40586760699995,7.9858318411020655,0.9469809053408889,0.8898940867560001,0.9691481451289999,0.024827078366513707,1.7303070617906666,0.875001418202,2.1728254851199997,0.7408655708527457,0.7963388832466521,0.6892189085070001,0.874290794632,0.053893288786609664,38.537886993200004,38.537886993200004,38.537886993200004,1.8272419375650606,1007.4159,1007.4159,1007.4159,0.04868430188477252,nan,nan,nan,nan,89.74616198218699,89.74616198218699,89.74616198218699,nan,nan,nan,nan,nan,nan,nan,nan,nan,82.0,82.0,82.0,nan,Walking,U15
20,,,10.13270812043,3.5524589987,16.1447649992,5.430586562834488,9.806650591007143,9.80664978607,9.80665127327,4.922509934848394e-07,10.2015715763425,4.10363609694,20.6915377924,7.342735492633997,271.3267108844445,256.576865055,282.169238944,8.210310937180765,2.5492385391009997,0.803694182546,3.72841106049,1.07647728803383,405.40586760699995,405.40586760699995,405.40586760699995,7.9858318411020655,0.9874124877513334,0.982441903657,0.991144187273,0.004481468651192279,2.129543310295,1.5597981950600002,2.69928842553,0.8057412690611587,0.795113587911902,0.6908018742409999,0.904129332265,0.05090407741399987,38.740686285,38.740686285,38.740686285,1.8272419375650606,1007.4159,1007.4159,1007.4159,0.04868430188477252,nan,nan,nan,nan,89.80872162386422,89.80872162386422,89.80872162386422,nan,nan,nan,nan,nan,nan,nan,nan,nan,82.0,82.0,82.0,nan,Walking,U15
21,,,12.308862076890001,6.34816534546,17.6897757368,4.8066725847032,9.806650031106,9.80664967685,9.80665067808,4.104204395388369e-07,6.05895993432,1.46086528368,10.4126396182,3.6721658241274078,281.939417753,274.014313663,289.864521843,11.207789687296472,2.6327064140066665,1.6518343480700002,4.03230421033,0.9906446927019824,407.54563512699997,407.54563512699997,407.54563512699997,7.9858318411020655,0.9123094223935,0.832415098321,0.975376927134,0.0652978308165719,1.9018390633597502,0.673328181364,3.06728210361,1.2436864961946117,0.7951911848268202,0.705557676058,0.886227142475,0.04751429330332304,38.740686285,38.740686285,38.740686285,1.8272419375650606,1007.4363,1007.4363,1007.4363,0.04868430188477252,nan,nan,nan,nan,89.80872162386422,89.80872162386422,89.80872162386422,nan,nan,nan,nan,nan,nan,nan,nan,nan,82.0,82.0,82.0,nan,Walking,U15
22,,,10.137768105618333,2.46638764362,26.9362919986,8.836589728837161,9.806650043647142,9.80664972184,9.80665036378,2.69144184806057e-07,7.117366709818572,0.9849254295799998,16.543592484,5.248333171333404,272.32739582125,262.06908108700003,282.43716548099997,10.353639074821462,2.66416773523,1.62116383386,3.14683984186,0.7071094482003618,416.54164845099996,416.54164845099996,416.54164845099996,7.9858318411020655,0.94369239398525,0.9161531147249999,0.979569351973,0.02267076273788071,2.275527560352,1.1183460830399998,2.91918245397,0.6961146514173898,0.8097799185220683,0.7225135120489999,0.878514990748,0.046763894853391615,35.0170108929,35.0170108929,35.0170108929,1.8272419375650606,1007.4363,1007.4363,1007.4363,0.04868430188477252,nan,nan,nan,nan,89.80872162386422,89.80872162386422,89.80872162386422,nan,nan,nan,nan,nan,nan,nan,nan,nan,82.0,82.0,82.0,nan,Walking,U15
23,,,13.547044171975,8.2285630766,17.3918974424,4.3474130768394845,9.80665014126,9.806649711739999,9.806650924480001,4.59446565006552e-07,10.18604392334,3.93458397333,18.5056018218,7.5024270825110415,275.18040548875,263.96116794299996,288.76021398299997,11.303949726876855,3.5045897572260003,2.49540892175,5.6871404196399995,1.3764592740366213,415.624298714,415.624298714,415.624298714,7.9858318411020655,0.8987464379047143,0.8336421878939999,0.9806357284810001,0.04994995052905064,2.24361873187,1.8238638849400002,2.6633735788,0.5936229974002484,0.80618000946982,0.7103666144499999,0.871806113668,0.04268391192537948,36.305370014299996,36.305370014299996,36.305370014299996,1.8272419375650606,1007.3381300000001,1007.3381300000001,1007.3381300000001,0.04868430188477252,nan,nan,nan,nan,89.76621884659308,89.76621884659308,89.76621884659308,nan,nan,nan,nan,nan,nan,nan,nan,nan,82.0,82.0,82.0,nan,Walking,U15
24,,,12.45274160017,9.37468606249,20.0172173251,4.401414351175754,9.806650385163,9.80665014682,9.80665088079,2.1634508053598087e-07,9.313040424986,5.724200175909999,11.8772546672,2.608818205589509,285.6227393585,278.565508915,292.679969802,9.980431005989997,2.539318301538571,1.8021966134799998,3.6836492175999997,0.7832163718993149,408.511613104,402.357946617,416.10435309300004,6.985278960712528,0.9100346917724544,0.84237038635,0.976948968375,0.04862897375247417,3.07753322789,2.63036816252,3.5246982932599997,0.6323869000657054,0.802608528904521,0.6997008558210001,0.9198255137870001,0.054112328973284565,34.0529551096,33.7636243554,34.3422858638,0.4091754766012787,1007.3381300000001,1007.3381300000001,1007.3381300000001,0.04868430188477252,nan,nan,nan,nan,89.76621884659308,89.76621884659308,89.76621884659308,nan,nan,nan,nan,nan,nan,nan,nan,nan,82.0,82.0,82.0,nan,Walking,U15
25,,,12.793655150955,7.80803961882,24.816189607600002,8.08148363193968,9.806650393085,9.80664980862,9.80665097755,8.265583296661027e-07,9.26164420053,1.68395933671,13.000401825,5.275542851785082,270.60979814971427,259.976383178,278.353522341,6.021741515837694,2.6478254221142863,1.3753569701,3.4942174641,0.7739188040756492,407.021693132,407.021693132,407.021693132,6.985278960712528,0.9260351877261428,0.8541241286910001,0.975612184937,0.04808129682752226,2.936714162936,1.1902958048799999,4.0216330972300005,1.1447371280948637,0.8098969354132354,0.7267399793129999,0.887349394513,0.043056969754993686,37.5245817611,37.5245817611,37.5245817611,0.4091754766012787,1007.3381300000001,1007.3381300000001,1007.3381300000001,0.04868430188477252,nan,nan,nan,nan,89.76621884659308,89.76621884659308,89.76621884659308,nan,nan,nan,nan,nan,nan,nan,nan,nan,82.0,82.0,82.0,nan,Walking,U15
26,,,11.522284838777143,8.573399940189999,19.563083451,3.9021298890958716,9.806650081876,9.806649599650001,9.80665065539,3.8619183812149257e-07,8.112774225449998,4.88384016328,11.2059673474,3.1632486837405187,276.506381526,276.506381526,276.506381526,6.021741515837694,2.7690796619033335,2.59447821208,3.09054127959,0.2787392570405047,417.975666936,417.975666936,417.975666936,6.985278960712528,0.9214446265136,0.818793703567,0.9779391048010001,0.0741120290546664,2.55876629239,2.5512269881900003,2.56630559659,0.010662186250496182,0.8336367278767777,0.735280986526,0.914074858767,0.03628707526651173,37.4134238997,37.4134238997,37.4134238997,0.4091754766012787,1007.3381300000001,1007.3381300000001,1007.3381300000001,0.04868430188477252,nan,nan,nan,nan,89.76621884659308,89.76621884659308,89.76621884659308,nan,nan,nan,nan,nan,nan,nan,nan,nan,82.0,82.0,82.0,nan,Walking,U15
27,,,13.565684470599999,7.837807171100001,19.2935617701,8.100441760561878,9.806650221314285,9.80664989861,9.80665059239,2.579363683882952e-07,8.9984709144525,3.86399432752,15.1902297338,4.665423199174808,274.373059908,274.373059908,274.373059908,6.021741515837694,1.95684529287,1.0130023986599999,2.67114899458,0.7544460783696441,421.65340743,421.65340743,421.65340743,6.985278960712528,0.8784559636662223,0.8274667345350001,0.9855488504719999,0.049509240377011286,1.5579319054740002,0.7620058478280001,2.3538579631200003,1.1256094253691233,0.8499301400554183,0.7745415279819999,0.885912522431,0.027123209860797068,39.03603611886666,38.269994908899996,40.1766947586,1.0070400901777659,1007.3381300000001,1007.3381300000001,1007.3381300000001,0.04868430188477252,nan,nan,nan,nan,89.74644479503641,89.74644479503641,89.74644479503641,nan,nan,nan,nan,nan,nan,nan,nan,nan,82.0,82.0,82.0,nan,Walking,U15
28,,,13.895423973045002,9.52741257263,20.3940482245,5.167868787661479,9.806650178243332,9.806649778139999,9.806650579260001,4.0056078211475196e-07,7.27192532988,1.3931401741299998,13.600182587699999,4.635958479925207,272.84444806,272.84444806,272.84444806,6.021741515837694,1.2539722222465002,0.755392746153,1.7525516983400002,0.7050978570123002,420.085147558,420.085147558,420.085147558,6.985278960712528,0.913243358356,0.833659114725,0.978919333177,0.050081141454835464,2.058826645446667,1.36681543629,3.2527364476800003,1.038316504539836,0.8437467417380001,0.7618114352609999,0.908133440549,0.033140281584648976,37.681897952499995,36.453183388,38.782374106300004,1.059159673535016,1007.3381300000001,1007.3381300000001,1007.3381300000001,0.04868430188477252,nan,nan,nan,nan,89.74644479503641,89.74644479503641,89.74644479503641,nan,nan,nan,nan,nan,nan,nan,nan,nan,82.0,82.0,82.0,nan,Walking,U15
29,,,9.125039561624286,3.7796894921900006,15.2324024925,4.180749286113842,9.806650087156,9.806649762180001,9.80665036294,2.1834733110265076e-07,8.291736345536668,3.09277354088,12.7087922116,3.2142225423950683,272.476614548,262.859326135,282.09390296099997,13.600899706918197,1.6030784493533334,1.2708188281200001,1.8139189108000002,0.2911981871925558,411.285162287,408.57130383099997,413.999020743,3.8379754348361432,0.9183193971160001,0.837909883082,0.97413479486,0.04864150423289919,2.3198814070433333,1.2072186831,3.34065667278,1.0696830804888993,0.8351955400561903,0.766008200068,0.8837483389920001,0.03325086993524477,40.2088081619,40.1990615579,40.2185547659,0.013783779563879925,1007.4762599999999,1007.4762599999999,1007.4762599999999,0.04868430188477252,nan,nan,nan,nan,89.74644479503641,89.74644479503641,89.74644479503641,nan,nan,nan,nan,nan,nan,nan,nan,nan,82.0,82.0,82.0,nan,Walking,U15
30,,,9.559573686036249,5.759399619990001,13.252255261199998,2.478682855109566,9.80664998708,9.80664963162,9.8066502779,2.434268697309592e-07,4.726533255825,4.09773361355,5.3553328981,0.8892569821206558,274.947617837,260.34546875,281.959572387,8.468294351422376,1.738060010723875,0.804522566515,3.29238594968,0.9304622241087107,409.91531678900003,409.91531678900003,409.91531678900003,3.8379754348361432,0.9079515165838751,0.84513318281,0.9829534150679999,0.05037665140096073,2.5413892590994998,0.813324121338,3.7788420885400003,1.2673203560057988,0.8508703416808333,0.7797900622030001,0.8862604160850001,0.028320222266433864,39.49817387835,39.2341507764,39.762196980300004,0.37338505155750734,1007.3963,1007.3963,1007.3963,0.04868430188477252,nan,nan,nan,nan,89.74644479503641,89.74644479503641,89.74644479503641,nan,nan,nan,nan,nan,nan,nan,nan,nan,82.0,82.0,82.0,nan,Walking,U15
31,,,16.539817482625,10.7709398497,20.878510426,4.948488539676277,9.806650091578334,9.80664973751,9.806650436830001,2.2180119911758958e-07,10.265217814012857,1.9812137248400004,28.7585804056,8.567865039492114,263.7962985145,256.568239678,271.024357351,10.222018836208989,2.062603680246,1.24023976416,3.03437678996,0.7291871483179493,409.91531678900003,409.91531678900003,409.91531678900003,3.8379754348361432,0.9198870662593335,0.846663070453,0.9796853390100001,0.05397177929233315,2.025172723337,0.5481430207600001,4.6730540626599995,2.298236920413173,0.8597963933544546,0.784680780961,0.8935084692,0.028459218201143936,38.7944023781,38.7944023781,38.7944023781,0.37338505155750734,1007.51624,1007.51624,1007.51624,0.04868430188477252,nan,nan,nan,nan,89.74644479503641,89.74644479503641,89.74644479503641,nan,nan,nan,nan,nan,nan,nan,nan,nan,82.0,82.0,82.0,nan,Walking,U15
32,,,13.709908930803332,7.32940231641,23.318003006399998,8.468874105852258,9.806650158153001,9.80664958583,9.80665067188,3.900999044309233e-07,9.631535343781428,1.2852149717899999,27.6662280179,8.695301648007085,267.69403253900003,253.396025245,275.57707541400003,8.47953932120993,2.6182313851225003,2.33917879621,3.2476748530400004,0.4245765501932578,413.7251188333333,404.89469959699994,420.65840322199995,8.05126874889188,0.9512918641715,0.869262006679,0.983067816983,0.05479531506764515,0.5370481329469999,0.5370481329469999,0.5370481329469999,2.298236920413173,0.8504891953420393,0.7857042350319999,0.8996968823829999,0.032196886844163865,38.7944023781,38.7944023781,38.7944023781,0.37338505155750734,1007.51624,1007.51624,1007.51624,0.04868430188477252,nan,nan,nan,nan,89.70818152645155,89.70818152645155,89.70818152645155,nan,nan,nan,nan,nan,nan,nan,nan,nan,82.0,82.0,82.0,nan,Walking,U15
33,,,12.674932309633334,11.1746497549,15.283430264000001,2.2675152363277227,9.80665024372,9.8066494265,9.80665082072,4.5528244786683294e-07,3.6518933604708748,0.622782189074,8.84778437762,3.167498705957097,235.13236470333334,222.07395747099997,260.099435044,21.629757949050582,1.9274797175964284,0.872293882245,3.07580368441,0.7906512537187775,398.494903366,389.798151966,409.245233677,9.60114074033836,0.944232252908,0.8421698413070001,0.992773142244,0.05427508063591806,1.45932160854,1.45932160854,1.45932160854,2.298236920413173,0.8889997074137562,0.8104986892239999,0.9632345980879999,0.03849353982445056,37.434742505100004,37.434742505100004,37.434742505100004,0.37338505155750734,1007.419535,1007.39307,1007.446,0.03742716192824661,nan,nan,nan,nan,89.70818152645155,89.70818152645155,89.70818152645155,nan,nan,nan,nan,nan,nan,nan,nan,nan,82.0,82.0,82.0,nan,Walking,U15
34,,,10.43097253685,10.000370481900001,11.458418536199998,0.6886324016468496,9.806650159544999,9.80664924512,9.80665073879,4.940566947913462e-07,0.35381738001,0.152952511975,0.55806003408,0.20257488293316858,221.873452706,221.873452706,221.873452706,21.629757949050582,0.1333370464497857,0.0657238764889,0.361491504483,0.10258750803155711,391.85548318200006,388.28020529300005,395.430761071,5.056206479876417,0.9719919678612001,0.963997825766,0.984358844192,0.009463563570675779,0.16069717185263332,0.037935390535900004,0.22444543388,0.10634117575634498,0.9444437028688846,0.684934123821,0.9753108247799999,0.044805875668094484,37.8832815689,37.3368473981,38.4297157397,0.7727746152894581,1007.419535,1007.39307,1007.446,0.03742716192824661,nan,nan,nan,nan,89.64546313262781,89.64546313262781,89.64546313262781,nan,nan,nan,nan,nan,nan,nan,nan,nan,82.0,82.0,82.0,nan,Walking,U15
35,,,10.43097253685,10.000370481900001,11.458418536199998,0.6886324016468496,9.806650289795556,9.80664954501,9.806651191130001,6.024333846278772e-07,0.10387099390179999,0.0645273459324,0.12919855228,0.03453880872561868,239.6416670735,239.484432762,239.798901385,0.2223628957936832,0.11408335438176666,0.07333401947860001,0.194543782163,0.0696827081540318,391.85548318200006,388.28020529300005,395.430761071,5.056206479876417,0.9650190687442499,0.962656915597,0.9677833855679999,0.0014531991894982078,0.05274163000533333,0.0333666143025,0.0884179196838,0.030934773410642318,0.9143856217597015,0.7288804436390001,0.940569839329,0.05130651364312044,37.188954005300005,36.8740597533,37.5038482573,0.44532772189172887,1007.419535,1007.39307,1007.446,0.03742716192824661,nan,nan,nan,nan,89.64546313262781,89.64546313262781,89.64546313262781,nan,nan,nan,nan,nan,nan,nan,nan,nan,82.0,82.0,82.0,nan,Walking,U15
36,,,10.033210136325,9.934003314049999,10.1324169586,0.1402996335412432,9.806650066248,9.806649188769999,9.806650958839999,4.975806042934649e-07,0.3262041463475833,0.0553330223295,0.676871310817,0.25735683025456957,230.04619145166666,214.57258893,238.99421917599997,13.45516074949606,0.09457477253595001,0.0892650930888,0.0998844519831,0.007509020686013211,395.20566398,395.20566398,395.20566398,5.056206479876417,0.97218700558025,0.964661362525,0.983141360316,0.007841509600880741,0.5748877145446333,0.0283090674119,0.902634350454,0.47647325422704456,0.937132968877396,0.705567318035,0.99053020989,0.05008564078348541,36.5856937187,36.5856937187,36.5856937187,0.44532772189172887,1007.4063,1007.4063,1007.4063,0.03742716192824661,nan,nan,nan,nan,66.06392114840978,66.06392114840978,66.06392114840978,nan,nan,nan,nan,nan,nan,nan,nan,nan,82.0,82.0,82.0,nan,Walking,U15
37,,,12.0220544415,11.780332784,12.263776099000001,0.34184604635580457,9.806650331956,9.806649566799999,9.8066508829,4.799886555151883e-07,6.068579573117572,0.40147596937299995,8.68124217851,2.8131036957258284,250.85860605433334,227.178047633,266.96057117099997,14.918280493703264,2.9595152367418334,0.5042940384210001,5.38881521038,1.5554837728577815,411.526501195,411.526501195,411.526501195,5.056206479876417,0.9303941999996667,0.8964730415700001,0.9723415436220001,0.02866910784268655,2.8256870524060003,2.2009900343,3.5813038320099997,0.5493856883869146,0.8965611882622224,0.838673707821,0.951574453019,0.0303712208645223,39.121776469699995,38.8830117197,39.360541219699996,0.33766434766661846,1007.4963,1007.4963,1007.4963,0.03742716192824661,nan,nan,nan,nan,84.3801575651378,84.3801575651378,84.3801575651378,nan,nan,nan,nan,nan,nan,nan,nan,nan,82.0,82.0,82.0,nan,Walking,U15
38,,,12.257516875685557,2.38256262244,22.7050508407,6.09326610540424,9.806650237769167,9.806649853969999,9.806650845130001,3.441612193034602e-07,13.863358379803332,4.90242229021,23.486794764499997,9.309882117757772,268.60846346700004,265.405939202,273.364911375,4.20087116308664,2.2831574367794003,0.8743347433769999,3.2881126884500005,0.9699459684068896,400.251514471,400.251514471,400.251514471,5.056206479876417,0.9138199921667144,0.8724270795990001,0.971765325378,0.03663222919331847,2.1704747544800003,1.16770128341,3.17836161308,1.0053399178268971,0.8911182607358957,0.75401499906,0.9375441410690001,0.03949059886710959,39.121776469699995,38.8830117197,39.360541219699996,0.33766434766661846,1007.4263,1007.4263,1007.4263,0.03742716192824661,nan,nan,nan,nan,84.3801575651378,84.3801575651378,84.3801575651378,nan,nan,nan,nan,nan,nan,nan,nan,nan,82.0,82.0,82.0,nan,Walking,U15
39,,,11.777962073017145,3.8879701334099996,20.2312403907,5.862500202800502,9.806650232005714,9.806649257,9.806651220510002,5.892582694281895e-07,9.105354146420002,6.1414739985899995,10.360491145700001,1.9969660216101577,269.6036187943334,259.73535665599996,283.44876584,12.346787191678096,2.4804915315666665,1.7153269760699998,3.40948899076,0.8588813353746144,419.954229022,419.954229022,419.954229022,5.056206479876417,0.8969709333708,0.821410941348,0.977363461978,0.051074229938737864,1.70259276144,1.70259276144,1.70259276144,1.0053399178268971,0.8837367538482,0.761976052729,0.928030996191,0.03628221345125893,42.04654136906667,38.0596185,44.971073161999996,3.5761092663963985,1007.4263,1007.4263,1007.4263,0.03742716192824661,nan,nan,nan,nan,84.3801575651378,84.3801575651378,84.3801575651378,nan,nan,nan,nan,nan,nan,nan,nan,nan,82.0,82.0,82.0,nan,Walking,U15
40,,,9.35252764911,8.27205664075,10.3394976444,1.0368871228234862,9.806650215238571,9.80664964638,9.80665057015,2.9740151061535183e-07,7.81769728076,5.01272556659,11.1866643822,2.4577209340907404,270.56358659800003,262.89088453200003,278.089565762,7.771934711944104,2.3055763188,1.28363251075,3.32752012685,1.445246793327517,419.954229022,419.954229022,419.954229022,5.056206479876417,0.9003865967911429,0.817527824909,0.972581642353,0.06444124708923696,2.3115927705866666,1.3779747118799999,3.1361234795599997,0.8841361941056126,0.887298088717037,0.7589373583779999,0.925052488335,0.03879066714244127,37.4406101991,37.4406101991,37.4406101991,3.5761092663963985,1007.4263,1007.4263,1007.4263,0.03742716192824661,nan,nan,nan,nan,89.73115970862905,89.73115970862905,89.73115970862905,nan,nan,nan,nan,nan,nan,nan,nan,nan,82.0,82.0,82.0,nan,Walking,U15
41,,,12.661945365273752,8.11850328547,20.0064162206,4.258223519575375,9.8066498857,9.806649179179999,9.80665041809,5.604282596806726e-07,9.772436277432499,8.17720241126,11.2931440185,1.2731260311923407,265.3568269156,252.357494813,276.872790253,10.086050175572085,2.4635138151233336,1.67672881987,3.00210182054,0.696674032133563,407.54871037699996,407.54871037699996,407.54871037699996,5.056206479876417,0.91296864044975,0.8621856762100001,0.943252126339,0.035228145285966794,2.1858343501900004,2.1858343501900004,2.1858343501900004,0.8841361941056126,0.8924725866198037,0.740908030161,0.9355266882,0.03905224257848734,40.15964302645,38.668077087600004,41.6512089653,2.109392779895426,1007.3670950000001,1007.35785,1007.37634,0.013074404384169337,nan,nan,nan,nan,89.73115970862905,89.73115970862905,89.73115970862905,nan,nan,nan,nan,nan,nan,nan,nan,nan,82.0,82.0,82.0,nan,Walking,U15
42,,,10.195768837451666,3.27237122551,16.5398267802,5.073675344569486,9.806649889045714,9.80664955531,9.806650384960001,2.993027224320349e-07,11.691662213755,3.6155869901699997,22.728418147800003,6.398036122858653,267.733214302,261.36441516,274.88470016599996,6.794039706938942,2.480690795664333,0.958145940943,3.3064538595200004,1.320138692779791,407.54871037699996,407.54871037699996,407.54871037699996,5.056206479876417,0.9272501027619285,0.834936560551,0.9906779983920001,0.043219381152651386,0.6121404758919999,0.6121404758919999,0.6121404758919999,0.8841361941056126,0.8967717303910444,0.7455288997669999,0.94677224612,0.04551659913001639,38.3994858827,38.3994858827,38.3994858827,2.109392779895426,1007.3670950000001,1007.35785,1007.37634,0.013074404384169337,nan,nan,nan,nan,89.73115970862905,89.73115970862905,89.73115970862905,nan,nan,nan,nan,nan,nan,nan,nan,nan,82.0,82.0,82.0,nan,Walking,U15
43,,,5.621529081619999,5.621529081619999,5.621529081619999,5.073675344569486,9.806650101327142,9.80664963015,9.80665053225,3.673034205541231e-07,7.453195609206667,2.49445310043,12.4811496219,3.294583832415486,255.28990255816666,234.605977331,286.28743058599997,19.136827319648955,2.3454822082333333,1.4571806211200002,3.21373257051,0.8784476230484889,415.026011522,415.026011522,415.026011522,5.056206479876417,0.9271360943888001,0.8665295469509999,0.996570362368,0.04212198559923322,2.0992266911999997,1.22398296799,3.52114223415,1.0438955045672278,0.9031708277921,0.74817442037,0.981466874836,0.05169783730719761,38.3994858827,38.3994858827,38.3994858827,2.109392779895426,1007.3670950000001,1007.35785,1007.37634,0.013074404384169337,nan,nan,nan,nan,89.73115970862905,89.73115970862905,89.73115970862905,nan,nan,nan,nan,nan,nan,nan,nan,nan,82.0,82.0,82.0,nan,Walking,U15
44,,,8.188658829555001,5.46320598112,10.9568421636,2.272533381135306,9.806650231442857,9.806649360589999,9.80665074797,4.041191073191194e-07,12.586237721115001,3.6340740382,28.8255760596,11.811226681664103,273.68046091133334,270.429041948,275.425220493,2.818326965178556,2.4472313623154287,0.851141845228,4.8506560213,1.336242698569007,412.0052576785,411.23479988199995,412.775715475,1.0895918650464462,0.9222632009378,0.831169915034,0.9831488936049999,0.07054401221982916,2.4574265276599996,2.4574265276599996,2.4574265276599996,1.0438955045672278,0.9129565164570942,0.7423426860850001,0.9525836726100001,0.03546412530100513,38.3994858827,38.3994858827,38.3994858827,2.109392779895426,1007.3670950000001,1007.35785,1007.37634,0.013074404384169337,nan,nan,nan,nan,89.73115970862905,89.73115970862905,89.73115970862905,nan,nan,nan,nan,nan,nan,nan,nan,nan,82.0,82.0,82.0,nan,Walking,U15
45,,,12.298167533194,3.03951485507,21.8291756907,7.2749690507236116,9.806650117637,9.80664964859,9.806650883380001,4.0993353823434664e-07,6.309785413542,2.06204383642,10.4029498511,4.053496722394757,267.455317836,261.613408777,273.297226895,8.261707021388029,1.6354105973126665,0.974214546718,2.0507868704,0.5788544845553426,403.634447055,403.634447055,403.634447055,1.0895918650464462,0.9155190592295999,0.814303111448,0.9870288862090001,0.06506088585629886,2.117263932878,0.743318037954,3.28593874649,1.28367915753364,0.8965376000167045,0.790205701537,0.9460226492720001,0.036092627842628275,38.3994858827,38.3994858827,38.3994858827,2.109392779895426,1007.3670950000001,1007.35785,1007.37634,0.013074404384169337,nan,nan,nan,nan,89.73115970862905,89.73115970862905,89.73115970862905,nan,nan,nan,nan,nan,nan,nan,nan,nan,82.0,82.0,82.0,nan,Walking,U15
46,,,7.18505296048,1.87803016471,10.846149607000001,4.166899417679402,9.806650357983333,9.8066497495,9.80665100661,5.775997059862843e-07,16.15810280712333,7.546530500499999,32.0631464449,13.78992956418084,267.87265084533334,260.545880455,272.33020335,6.394675517958478,2.0558357185475,0.983553622745,3.12811781435,1.5164358825737418,416.255536175,413.221082101,419.289990249,4.291366105849126,0.922478599890375,0.8325807015889999,0.980554153399,0.05524048122657213,2.3061208839626,0.716601012323,3.4755481912599997,1.0097160552822184,0.916955100540151,0.7620705478919999,0.952194931629,0.03520421981486186,38.3994858827,38.3994858827,38.3994858827,2.109392779895426,1007.3670950000001,1007.35785,1007.37634,0.013074404384169337,nan,nan,nan,nan,89.77848365200546,89.77496156463171,89.7820057393792,0.0049809837318143734,nan,nan,nan,nan,nan,nan,nan,nan,82.0,82.0,82.0,nan,Walking,U15
47,,,7.18505296048,1.87803016471,10.846149607000001,4.166899417679402,9.806650275837143,9.80664962973,9.80665085624,4.164926502199222e-07,11.823348753704998,3.68034053118,26.262687016199997,10.558424451217245,260.21149239174997,249.33009540400002,270.56161621900003,11.580801613838641,3.035704956863334,0.9973934388700001,5.38058537686,1.4053845271958718,416.255536175,413.221082101,419.289990249,4.291366105849126,0.945514968633,0.8667017787279999,0.990082880813,0.05440054309227657,2.7938402550291666,0.40983455165399996,6.8792144642799995,2.3865588847534047,0.9176766000477452,0.713434680326,0.972243840759,0.052812158996492296,40.8829201243,39.7545950616,41.7931912409,1.0366432549925149,1007.3670950000001,1007.35785,1007.37634,0.013074404384169337,nan,nan,nan,nan,89.77848365200546,89.77496156463171,89.7820057393792,0.0049809837318143734,nan,nan,nan,nan,nan,nan,nan,nan,82.0,82.0,82.0,nan,Walking,U15
48,,,14.780571625603997,5.93923680819,23.4894888307,7.546846082092907,9.806650018292224,9.80664933178,9.80665084028,5.110200795270017e-07,7.795096833188,4.06513405649,9.96479764635,2.3035112697104285,270.66136788375,262.127751819,287.960704494,12.146327184229412,3.247010087305,2.6312964240200003,3.6521059725300002,0.48222333619098123,416.26262801800004,416.26262801800004,416.26262801800004,4.291366105849126,0.9624331623111667,0.919770566831,0.98880744168,0.025086682412331838,3.612371474185,1.69535115919,5.00587628602,1.40122502043986,0.9166159290375715,0.7546445501890001,0.9570170026639999,0.03801078400760958,33.1211049572,33.1211049572,33.1211049572,1.0366432549925149,1007.3670950000001,1007.35785,1007.37634,0.013074404384169337,nan,nan,nan,nan,89.73540826477888,89.73540826477888,89.73540826477888,0.0049809837318143734,nan,nan,nan,nan,nan,nan,nan,nan,82.0,82.0,82.0,nan,Walking,U15
49,,,16.045653174266665,10.8039399254,19.8119052745,4.681730356768891,9.806650278354445,9.806649620369999,9.806650859269999,4.317855676073524e-07,9.937743260241428,6.9462638320100005,14.0406413749,2.778843695422963,277.634276418,275.317924359,279.950628477,3.275816497068638,2.86117042861,2.1695289063099996,3.6067457435100003,0.615705415680575,409.054668025,403.809939813,414.299396237,7.417165768371171,0.9152219537665,0.8302034300059999,0.984887800911,0.05261069948171393,2.9779134594866665,1.4323754225999998,3.91166091922,1.348120887071251,0.9107172104286222,0.7343991286020001,0.9733052986890001,0.054252156455535425,33.1211049572,33.1211049572,33.1211049572,1.0366432549925149,1007.3670950000001,1007.35785,1007.37634,0.013074404384169337,nan,nan,nan,nan,89.73540826477888,89.73540826477888,89.73540826477888,0.0049809837318143734,nan,nan,nan,nan,nan,nan,nan,nan,82.0,82.0,82.0,nan,Walking,U15
50,,,13.958901891012,8.033966416760002,25.2287915255,6.567363409745293,9.806650121576666,9.80664927228,9.8066511633,5.554015545729183e-07,6.581088621699999,4.2471623974,10.664204245399999,2.9073615527674317,270.8062351763333,253.48812036700002,281.297950041,15.109482412631834,3.0124636615050004,2.2514081352,3.9438709810900003,0.81955681098608,416.7826563575,413.05610927099997,420.50920344400004,5.270133430550291,0.8991572434622221,0.845940242974,0.9771716885299998,0.0460242635428308,2.02571761534,1.35364633586,3.03767916134,0.8919841278183236,0.9218064704475111,0.7065849275220001,0.97854619979,0.05028092781823378,40.6154750453,40.6154750453,40.6154750453,1.0366432549925149,1007.3670950000001,1007.35785,1007.37634,0.013074404384169337,nan,nan,nan,nan,89.73540826477888,89.73540826477888,89.73540826477888,0.0049809837318143734,nan,nan,nan,nan,nan,nan,nan,nan,82.0,82.0,82.0,nan,Walking,U15
51,,,8.003877755503334,2.00851794135,15.8431004788,5.070093551772549,9.806650299342,9.806650071169999,9.80665049364,1.974810572265351e-07,9.203256336619999,7.53898944764,10.8675232256,2.353628805803994,275.440689398,275.440689398,275.440689398,15.109482412631834,1.8600018420278572,0.661805523285,2.8788834204900002,0.8258765601519079,409.6314454665,403.581500362,415.681390571,8.555914418396627,0.95895550960025,0.9010858593709999,0.983322884913,0.03901511874599367,3.1474538357340003,1.6026123985,4.34093912248,1.0913687867492,0.9251294443806604,0.736219585037,0.965902040115,0.045601960234870904,34.3933099531,32.393456433699996,36.3931634725,2.8282199698950485,1007.3670950000001,1007.35785,1007.37634,0.013074404384169337,nan,nan,nan,nan,89.73540826477888,89.73540826477888,89.73540826477888,0.0049809837318143734,nan,nan,nan,nan,nan,nan,nan,nan,82.0,82.0,82.0,nan,Walking,U15
52,,,7.143658720615001,3.01828208496,16.5186908081,5.214340203874425,9.80665016367,9.80664968519,9.80665053324,2.934226320614987e-07,7.062292547626666,4.3715251447900005,10.5068923396,2.2107796031266482,269.17334782371427,258.55416739,283.706640921,9.513193557274793,2.514589320855,2.0039247405,3.46588904667,0.5866301641853314,409.6314454665,403.581500362,415.681390571,8.555914418396627,0.918546971548,0.824709044623,0.975049802897,0.08182919968356113,3.1446586578433333,2.4536497115900002,4.18420433872,0.9164132369770118,0.9423779283456828,0.694392969999,0.985932726527,0.058928138984604105,38.8265396419,38.8265396419,38.8265396419,2.8282199698950485,1007.3670950000001,1007.35785,1007.37634,0.013074404384169337,nan,nan,nan,nan,89.73540826477888,89.73540826477888,89.73540826477888,0.0049809837318143734,nan,nan,nan,nan,nan,nan,nan,nan,82.0,82.0,82.0,nan,Walking,U15
53,,,9.612611175915715,3.11006451847,20.1491983655,6.546004420121382,9.806650199462856,9.80664933783,9.80665068337,4.3178646301199273e-07,13.452382673690002,3.9070721834300004,28.0178923175,9.890824664275716,264.72232128699994,253.41929126099998,277.360525883,12.026333487630126,1.7310019410770001,0.968075646991,3.0038240558,1.1095328778001143,399.94069347199996,399.94069347199996,399.94069347199996,8.555914418396627,0.8950061377836667,0.838556398641,0.982113646591,0.05064062443670018,2.530510943375,1.9417075387599998,2.9877057207599997,0.44531561319201945,0.9358764310417234,0.689310746058,0.985150482183,0.06897797068684006,36.583423302233335,36.3085327314,36.954060920500005,0.33324508030852323,1007.4541,1007.4541,1007.4541,0.013074404384169337,nan,nan,nan,nan,89.73540826477888,89.73540826477888,89.73540826477888,0.0049809837318143734,nan,nan,nan,nan,nan,nan,nan,nan,82.0,82.0,82.0,nan,Walking,U15
54,,,17.334192079690002,7.44520104497,23.4899332775,8.64934817555567,9.806650198271429,9.80664975776,9.80665055845,2.685194992011268e-07,8.639346854609666,0.7535115833079999,23.252054094400002,7.906464866650915,271.7625283896,264.16598044299997,283.441862892,7.241527079674428,2.7619182650700003,2.20910234897,3.28825484138,0.4465055222285416,405.28579142,405.28579142,405.28579142,8.555914418396627,0.9576311380379999,0.827761309035,0.989897297355,0.06375651144796107,2.3927869196457503,0.795615386683,3.12131485609,1.0759995665767839,0.937699220531383,0.712693509668,0.9758713216949999,0.049933679975030655,35.6842563691,32.213676030500004,39.1548367077,4.908141784153526,1007.5813,1007.5813,1007.5813,0.013074404384169337,nan,nan,nan,nan,89.79523334219448,89.79523334219448,89.79523334219448,0.0049809837318143734,nan,nan,nan,nan,nan,nan,nan,nan,82.0,82.0,82.0,nan,Walking,U15
55,,,10.678083422657501,3.0261298521,15.9478930602,4.681818414890082,9.806650217206668,9.80664967159,9.806650593139999,3.951852651929713e-07,6.49351357818,1.8107171477500001,10.6153395608,3.807748364104023,274.3308956815,268.292976733,280.36881463,8.538906865478188,2.7619182650700003,2.20910234897,3.28825484138,0.4465055222285416,405.28579142,405.28579142,405.28579142,8.555914418396627,0.9334141348257143,0.871408244535,0.9827642746200002,0.04659031996616841,2.2028813972159997,1.03623648142,3.6277947557099997,1.1113643018771726,0.943998342195489,0.764145345504,0.993577528835,0.05014624286003199,38.7136421672,38.7136421672,38.7136421672,4.908141784153526,1007.5813,1007.5813,1007.5813,0.013074404384169337,nan,nan,nan,nan,89.79523334219448,89.79523334219448,89.79523334219448,0.0049809837318143734,nan,nan,nan,nan,nan,nan,nan,nan,82.0,82.0,82.0,nan,Walking,U15
56,,,6.55618179726,4.62060491759,9.82702991417,2.848495615057814,9.80665003942,9.8066497315,9.806650478789999,2.9661251259317983e-07,8.529616136585,5.189024175769999,11.8702080974,4.724310457339105,268.5622512532,257.329297777,279.0681419,7.246629816762995,3.2553729651783336,1.0316271483700001,5.75046308635,1.8237703294227778,408.74965149800005,408.74965149800005,408.74965149800005,8.555914418396627,0.9530299144092224,0.907123701229,0.9999998678049999,0.034307067830152686,3.34677973848,2.5332495408400004,4.0190324645199995,0.7528992077702288,0.9589049706922727,0.701149124384,0.9999732855869999,0.04725943215644106,36.989860836300004,36.989860836300004,36.989860836300004,4.908141784153526,1007.5813,1007.5813,1007.5813,0.013074404384169337,nan,nan,nan,nan,89.74898969638912,89.74898969638912,89.74898969638912,0.0049809837318143734,nan,nan,nan,nan,nan,nan,nan,nan,82.0,82.0,82.0,nan,Walking,U15
57,,,12.132859136276666,3.4789568810400002,24.480405596799997,7.024210340299285,9.806650290346667,9.80664984509,9.80665071015,3.3267861902594097e-07,6.711409817532001,1.70395114674,13.584670691700001,6.050653045873375,283.74868022,283.74868022,283.74868022,7.246629816762995,2.696720663543714,0.6820405939659999,5.2729143475,1.5182307034837934,408.40420754950003,400.858535634,415.949879465,10.671191560117842,0.95677082393,0.913215086171,0.9878698036210001,0.03674991869097272,2.09051473812,1.54220196088,3.0362660439599995,0.822511342839246,0.9506358373261957,0.7057695382189999,0.9924330147579999,0.056602481779513984,36.989860836300004,36.989860836300004,36.989860836300004,4.908141784153526,1007.5813,1007.5813,1007.5813,0.013074404384169337,nan,nan,nan,nan,89.781724082047,89.781724082047,89.781724082047,0.0049809837318143734,nan,nan,nan,nan,nan,nan,nan,nan,82.0,82.0,82.0,nan,Walking,U15
58,,,14.077956707799999,10.237960767799999,19.475486683,4.811694655898553,9.80665013177,9.80664986775,9.806650360339999,1.7968816869154326e-07,5.17842172718,2.3573975388900004,8.91857950218,3.3757787400115986,263.55394819625,258.310333752,274.051698102,7.118433438160568,2.720525048746667,1.7795774527500001,3.61036724107,0.7389661388607179,408.40420754950003,400.858535634,415.949879465,10.671191560117842,0.9392063222817143,0.8672306140880001,0.9910202836859999,0.04144622454710382,2.892801722186667,1.9385960270099998,3.8577455350800003,0.8330148143498051,0.9507954918644809,0.677658006461,0.9934376110709999,0.05930063400659053,37.243222757425,36.4292597342,38.327322556700004,0.8417413180702635,1007.5813,1007.5813,1007.5813,0.013074404384169337,nan,nan,nan,nan,89.73767331196245,89.73767331196245,89.73767331196245,0.0049809837318143734,nan,nan,nan,nan,nan,nan,nan,nan,82.0,82.0,82.0,nan,Walking,U15
59,,,12.413863946295,9.53814565369,15.289582238900001,4.066879810966393,9.806650208162223,9.80664927485,9.80665079337,4.5207808767419053e-07,7.1136331884574995,5.97810154851,9.81061842282,1.8249521044775294,261.06877032133326,244.43391535799998,274.108707805,15.160504624099488,2.4956830891155386,0.877842671717,4.584256281559999,1.1950871359479764,411.69599277349994,399.771098706,423.62088684099996,16.86434692012095,0.9875213600099999,0.966280366322,0.997056786041,0.010555994088922776,2.2071872400033334,1.71396198501,2.78681333076,0.5416191750989326,0.9617462369109165,0.774029331962,0.999950813901,0.05670912548229401,37.243222757425,36.4292597342,38.327322556700004,0.8417413180702635,1007.5813,1007.5813,1007.5813,0.013074404384169337,nan,nan,nan,nan,89.73767331196245,89.73767331196245,89.73767331196245,0.0049809837318143734,nan,nan,nan,nan,nan,nan,nan,nan,82.0,82.0,82.0,nan,Walking,U15
60,,,9.015720675821667,3.7318681088999996,14.3332676199,5.222406871452806,9.806649996023332,9.80664936262,9.80665066088,5.308609955201678e-07,9.55454529166,9.55454529166,9.55454529166,1.8249521044775294,270.316024125,267.953723733,272.678324517,3.3407972527656913,2.859190196804428,0.40683873457099995,3.98902263116,1.296148370032431,411.888401217,410.23548706800005,413.541315366,2.337573606954139,0.9195092477801667,0.85283484613,0.977190738608,0.05657420786115695,1.00686058922,1.00686058922,1.00686058922,0.5416191750989326,0.9671611550973845,0.770572626788,0.998746164591,0.0494006621882341,37.243222757425,36.4292597342,38.327322556700004,0.8417413180702635,1007.52704,1007.52704,1007.52704,0.013074404384169337,nan,nan,nan,nan,89.73767331196245,89.73767331196245,89.73767331196245,0.0049809837318143734,nan,nan,nan,nan,nan,nan,nan,nan,82.0,82.0,82.0,nan,Walking,U15
61,,,12.87605290666143,7.04788756633,20.447650240599998,4.265909024209488,9.806650150171667,9.80664984887,9.80665046971,2.516375077024546e-07,11.152808048526666,3.3522409831599997,17.1170753747,4.5849235389906555,259.92884102200003,249.530411794,265.986506331,6.241143106635648,3.7296051494675,3.2387858041900004,4.226617512840001,0.411018395200935,398.197619015,391.80400744,404.59123059,9.041932201910598,0.9583204525678889,0.8764979179369999,0.9947016165260001,0.043743431583657684,3.002546461948333,1.20210557558,4.28696829086,1.1936753879400988,0.9707970286828838,0.664179088874,0.999978304723,0.0613510496046999,35.6100842085,35.6100842085,35.6100842085,0.8417413180702635,1007.52704,1007.52704,1007.52704,0.013074404384169337,nan,nan,nan,nan,89.73767331196245,89.73767331196245,89.73767331196245,0.0049809837318143734,nan,nan,nan,nan,nan,nan,nan,nan,82.0,82.0,82.0,nan,Walking,U15
62,,,11.533573400796664,9.52685531609,13.499496616199998,1.9866348156760019,9.806650095321249,9.8066497218,9.806650662160001,3.772225735805495e-07,6.6011501605375,2.49729974107,8.36401562862,2.7882026305614325,267.933057426,267.933057426,267.933057426,6.241143106635648,2.7431523714329997,0.8469316190189999,5.50458773237,2.4464029424156997,409.8535017365,399.070121266,420.636882207,15.250002909610256,0.9436755012851666,0.8313164421320001,0.994807331851,0.07137655319839767,2.9736835369883337,1.9817735369099998,3.8581242208099997,0.7701850267774455,0.9728416750308825,0.656364304312,0.9987793856080001,0.06643445981948909,29.2149393212,29.2149393212,29.2149393212,0.8417413180702635,1007.52704,1007.52704,1007.52704,0.013074404384169337,nan,nan,nan,nan,87.24889547882108,87.24889547882108,87.24889547882108,0.0049809837318143734,nan,nan,nan,nan,nan,nan,nan,nan,82.0,82.0,82.0,nan,Walking,U15
63,,,14.4351467259,14.4351467259,14.4351467259,1.9866348156760019,9.806650524097,9.80664981909,9.80665119055,4.5475262932470375e-07,9.19107982875,9.19107982875,9.19107982875,2.7882026305614325,273.1694305153334,261.21877467400003,283.99221003,11.428535261995254,2.8042747109217143,0.578940043232,3.9561389210800004,1.2416815675719333,413.49258383800003,413.49258383800003,413.49258383800003,15.250002909610256,0.949032015616375,0.841795223787,0.9885076974089999,0.05542351760723709,2.3370960146599997,2.3370960146599997,2.3370960146599997,0.7701850267774455,0.9570619034138491,0.653098231939,0.999901007149,0.09029008963905549,29.2149393212,29.2149393212,29.2149393212,0.8417413180702635,1007.651155,1007.6361699999999,1007.66614,0.02119199023227548,nan,nan,nan,nan,87.24889547882108,87.24889547882108,87.24889547882108,0.0049809837318143734,nan,nan,nan,nan,nan,nan,nan,nan,82.0,82.0,82.0,nan,Walking,U15
64,,,8.17674296303,3.6010978715599995,12.7523880545,6.470939344962756,9.8066499955975,9.80664981403,9.806650072310001,1.2171504594140995e-07,5.190055403801111,1.9400115456599998,10.986026273599999,3.1915765312509037,261.22390121433335,255.786717956,268.41138188400004,4.510483850874804,2.5592050196381426,0.931651611377,4.41092796788,1.259197600123644,404.41253036499995,397.757625243,411.06743548699995,9.41145707983854,0.9646094435862,0.884544908786,0.992295473384,0.04594223694023295,2.0969367998815,0.979938579776,3.0831588081,0.9061648252923075,0.9699476820458847,0.219325694544,0.999999241903,0.11580229012064744,29.2149393212,29.2149393212,29.2149393212,0.8417413180702635,1007.651155,1007.6361699999999,1007.66614,0.02119199023227548,nan,nan,nan,nan,89.45659113425413,89.45659113425413,89.45659113425413,0.0049809837318143734,nan,nan,nan,nan,nan,nan,nan,nan,82.0,82.0,82.0,nan,Walking,U15
65,,,10.651956469728,5.40585590514,17.0158297042,5.419306671628443,9.80665036665,9.806650189239999,9.80665054406,2.5089562876262466e-07,10.49971933378,2.1740790729599997,26.6834900741,6.677288037330402,260.61102013540005,248.034897994,270.311805202,10.58704838771661,1.14732502043225,0.716265789296,1.79174715218,0.5067847286042173,404.41253036499995,397.757625243,411.06743548699995,9.41145707983854,0.9412883230293334,0.870026946918,0.995254230356,0.0473019743729066,2.156174974071,0.882513696255,3.15678661513,0.9392715533752041,0.9658440646724469,0.673588222765,0.9999768773219999,0.08493771910869338,44.2846718763,44.2846718763,44.2846718763,0.8417413180702635,1007.651155,1007.6361699999999,1007.66614,0.02119199023227548,nan,nan,nan,nan,89.45659113425413,89.45659113425413,89.45659113425413,0.0049809837318143734,nan,nan,nan,nan,nan,nan,nan,nan,82.0,82.0,82.0,nan,Walking,U15
66,,,10.651956469728,5.40585590514,17.0158297042,5.419306671628443,9.806649956377143,9.80664950643,9.806650379219999,3.354954998757179e-07,4.4799858374,2.20748811377,8.586476610910001,2.6410844052790616,261.6329231772,245.49950528099998,272.854124955,11.905406837257683,2.4010529210782,0.38594163364100004,4.57429756935,1.5202248691756686,396.85176504699996,396.85176504699996,396.85176504699996,9.41145707983854,0.9113966025995,0.841426294865,0.990133590767,0.0722029666114713,1.5723548279633333,1.2007596646799998,1.9302216516400001,0.36492471564169904,0.9733788128782115,0.612539215254,0.999989725598,0.07642313241505065,34.767583870100005,34.767583870100005,34.767583870100005,0.8417413180702635,1007.6007,1007.6007,1007.6007,0.02119199023227548,nan,nan,nan,nan,89.45659113425413,89.45659113425413,89.45659113425413,0.0049809837318143734,nan,nan,nan,nan,nan,nan,nan,nan,82.0,82.0,82.0,nan,Walking,U15
67,,,11.316008195666667,3.1589135719,15.8422469815,4.602680113134304,9.806650157245,9.80664969892,9.80665071879,4.8965543050197e-07,11.15193177537,5.5300124878400005,16.7738510629,7.950594502991814,255.90405877771425,244.362633897,267.07744861,9.339962467754155,3.1665831105633333,1.32228120004,5.09351036005,1.0672174274016335,396.85176504699996,396.85176504699996,396.85176504699996,9.41145707983854,0.9177277564301429,0.883620783253,0.990818625919,0.04118436786037364,1.7987662255654802,0.08457247968739999,3.28767791348,1.2108357657187658,0.9578882269749803,0.6251627096360001,0.999990005461,0.09256283810649585,34.767583870100005,34.767583870100005,34.767583870100005,0.8417413180702635,1007.6007,1007.6007,1007.6007,0.02119199023227548,nan,nan,nan,nan,89.45659113425413,89.45659113425413,89.45659113425413,0.0049809837318143734,nan,nan,nan,nan,nan,nan,nan,nan,82.0,82.0,82.0,nan,Walking,U15
68,,,18.679070023599998,18.679070023599998,18.679070023599998,4.602680113134304,9.80665015068625,9.80664966064,9.80665103799,4.93406900866579e-07,6.578702151710001,5.12375569867,8.03364860475,2.057605006415798,245.2078535095,239.764811896,250.650895123,7.697623270372834,2.5157836732199996,1.7287517388799998,3.30281560756,1.1130312355643592,394.520968466,394.520968466,394.520968466,9.41145707983854,0.9557387070757499,0.887480348981,0.995728478297,0.03655521943584763,2.119448551009,0.304049212374,5.49757264084,1.5604942102892418,0.9735090388247223,0.632202745321,0.9999875444140001,0.07082361616618668,40.2105410636,40.1105544143,40.3105277129,0.1414024754963022,1007.65767,1007.59924,1007.7161,0.0826324984494417,nan,nan,nan,nan,89.45659113425413,89.45659113425413,89.45659113425413,0.0049809837318143734,nan,nan,nan,nan,nan,nan,nan,nan,82.0,82.0,82.0,nan,Walking,U15
69,,,12.475759697468998,3.0073815308499996,23.804105861999997,7.858059008202751,9.806650055466,9.8066494508,9.80665070754,4.06716427184233e-07,11.374986369465,6.85741248288,15.323850634300001,4.49508778500705,263.5559049175,263.081236952,264.030572883,0.6712818744341496,2.6808887133075,1.19257044432,3.95829485563,1.1407918019764258,409.62832194500004,404.04703835699996,415.20960553300006,7.893126945600038,0.9504232221811666,0.881790499004,0.992669589329,0.04961631859251431,1.8082470875230001,0.587423680176,3.02907049487,1.726505019932661,0.9926737627425554,0.851191159027,0.999962599243,0.02173980348342465,40.82485015473333,39.5441135163,41.6873558932,1.1311762841397375,1007.6233,1007.6233,1007.6233,0.0826324984494417,nan,nan,nan,nan,89.45659113425413,89.45659113425413,89.45659113425413,0.0049809837318143734,nan,nan,nan,nan,nan,nan,nan,nan,82.0,82.0,82.0,nan,Walking,U15
70,,,10.931536819595001,3.47389888685,16.9252792829,6.0503092154809055,9.80665021619182,9.806649706860002,9.8066508681,3.1131315350575813e-07,12.298431738078571,6.45961275261,27.7882714538,7.192949633724914,256.171602574,242.150599817,266.825582758,8.666365826851568,2.7534731413233335,1.8318100705900002,3.3473532767500003,0.8091965409856395,404.4944036543334,397.44988180800004,410.180339354,6.473056045722356,0.98389548587775,0.9662248456229999,0.991865968036,0.011900326844921816,3.132339725055,2.4315279841,3.83315146601,0.9910974687288611,0.9846423584904667,0.653421826972,0.9999661384,0.057993379470522556,35.8392175038,35.8392175038,35.8392175038,1.1311762841397375,1007.6062,1007.5862,1007.6262,0.028284271247516566,nan,nan,nan,nan,89.45659113425413,89.45659113425413,89.45659113425413,0.0049809837318143734,nan,nan,nan,nan,nan,nan,nan,nan,82.0,82.0,82.0,nan,Walking,U15
71,,,5.624005022066,2.4151514827900002,9.88408812895,3.20904898735529,9.806649868212856,9.80664924177,9.80665053992,4.665210914688909e-07,10.346032707115,2.87343305719,28.748084105100002,9.636128992773527,245.661971981,219.702570821,260.453272594,17.139831093826874,2.009755457935,1.2361450114799999,2.5962237739300003,0.632660390791772,415.01548794800004,415.01548794800004,415.01548794800004,6.473056045722356,0.978809523194125,0.9441099311319999,0.9999640457819999,0.02008419151364976,2.4735800158025003,1.2561725227299998,4.27240171496,1.333612203073595,0.970099587282347,0.197539440645,0.999999497202,0.11939472824508202,34.4666662076,34.4666662076,34.4666662076,1.1311762841397375,1007.6062,1007.5862,1007.6262,0.028284271247516566,nan,nan,nan,nan,89.71896453175611,89.71016969667645,89.7277593668358,0.01243777504851315,nan,nan,nan,nan,nan,nan,nan,nan,82.0,82.0,82.0,nan,Walking,U15
72,,,18.049604002366667,10.2532447236,30.5542184493,10.93883602579893,9.8066502823025,9.806649613580001,9.806650825750001,3.3843749602171806e-07,7.164046308885,0.648546677535,15.5092351715,4.978866562621716,253.050382006,245.287645757,260.813118255,10.978166884461046,2.097280580635,1.17812946345,3.3238894772500003,0.9901577739657316,395.964298402,395.964298402,395.964298402,6.473056045722356,0.9450313961805556,0.870938089315,0.9956347204539999,0.04055347823292246,2.8839395736039997,1.0121859943,4.2966200171099995,1.1934751668990977,0.9682143751404082,0.636746560201,0.999959632986,0.0840327083287177,42.7655278829,42.7655278829,42.7655278829,1.1311762841397375,1007.6162,1007.6162,1007.6162,0.0,nan,nan,nan,nan,89.71896453175611,89.71016969667645,89.7277593668358,0.01243777504851315,nan,nan,nan,nan,nan,nan,nan,nan,82.0,82.0,82.0,nan,Walking,U15
73,,,10.633743652925,9.1828237191,12.4968654498,1.3788439272516375,9.806650482638002,9.80664945787,9.80665111655,6.379722722165225e-07,7.838930306445666,0.671711805151,13.382555603299998,4.088303149294334,247.523261078,245.085429603,251.601017811,3.5539046924371642,2.142806325333,0.7385034498019999,3.1091202293999998,1.0084238998819093,397.118914031,397.118914031,397.118914031,6.473056045722356,0.9385272426444545,0.872858852128,0.9990973557330001,0.04666032551513438,3.373358560212,1.81507053222,5.11325184477,1.3124174515423614,0.9602595686985436,0.669688518124,0.999987155583,0.08711813720135515,28.8623844762,28.8623844762,28.8623844762,1.1311762841397375,1007.6961699999999,1007.6961699999999,1007.6961699999999,0.0,nan,nan,nan,nan,89.71896453175611,89.71016969667645,89.7277593668358,0.01243777504851315,nan,nan,nan,nan,nan,nan,nan,nan,82.0,82.0,82.0,nan,Walking,U15
74,,,12.75350103252,6.92908933151,21.0397487724,6.620272651680983,9.80665037548,9.806650262669999,9.80665048829,1.595374326107555e-07,6.988383411488,2.71754292476,15.182089783299999,4.760776922855399,245.29265074366666,234.438676777,255.798223776,10.684034790700817,1.5541103479700002,1.3516407545200002,1.7565799414200003,0.28633524502515684,397.118914031,397.118914031,397.118914031,6.473056045722356,0.9778162150133333,0.942547345192,0.999042508167,0.017399453145145922,2.1228875987,2.1228875987,2.1228875987,1.3124174515423614,0.9787099487761206,0.726622433339,0.9999763153710001,0.0431540623962545,33.21290161073333,32.2827656611,34.3789770021,1.0678370950937843,1007.6562,1007.6562,1007.6562,0.0,nan,nan,nan,nan,89.71896453175611,89.71016969667645,89.7277593668358,0.01243777504851315,nan,nan,nan,nan,nan,nan,nan,nan,666.0,666.0,666.0,nan,Walking,U15
75,,,12.2543122600075,3.63881298395,25.0652916173,9.319799059139223,9.806650260401112,9.80664965222,9.80665094741,4.5185781637266913e-07,7.2389272459728575,1.81795336322,15.3769007406,4.211862133100573,259.3598702716667,249.20082133,264.81652193400004,5.631561307650292,2.573996042273333,1.2744397824299998,3.9726394744999998,0.9792312862227023,415.09746796300004,415.09746796300004,415.09746796300004,6.473056045722356,0.9387652367671429,0.883988671155,0.978933914903,0.041910934838652054,3.880643102875,3.34891715348,4.41236905227,0.7519740491001189,0.9689569219347084,0.596767502163,0.999994564903,0.08274170981286295,33.21290161073333,32.2827656611,34.3789770021,1.0678370950937843,1007.6562,1007.6562,1007.6562,0.0,nan,nan,nan,nan,89.64088408032377,89.64088408032377,89.64088408032377,0.01243777504851315,nan,nan,nan,nan,nan,nan,nan,nan,666.0,666.0,666.0,nan,Walking,U15
76,,,11.706922502715,2.0821744201700003,24.5430305589,9.873758489485713,9.806649966978572,9.80664906872,9.8066505714,5.366668382697572e-07,11.445120814705,4.2163339971,23.375618540100003,8.299469987897528,258.52611414,254.148690154,262.903538126,6.1906123692584885,2.0546954889675,1.07420144093,3.04524393571,0.808143895105902,402.230182359,402.230182359,402.230182359,6.473056045722356,0.950546290514,0.902076245124,0.987799612098,0.03897484316289918,2.38680972888,0.42472554633000004,3.53019464125,1.3873709565380228,0.9697805383725099,0.62074571813,0.9999782246250001,0.0829837086961423,35.46871554005,35.266207204699995,35.6712238754,0.2863900343455741,1007.68617,1007.6462,1007.72614,0.056526116088027885,nan,nan,nan,nan,89.64088408032377,89.64088408032377,89.64088408032377,0.01243777504851315,nan,nan,nan,nan,nan,nan,nan,nan,666.0,666.0,666.0,nan,Walking,U15
77,,,13.240777679157143,4.58811224676,25.0238971465,7.243837163695286,9.806650052295455,9.80664950538,9.80665054255,3.282862267835737e-07,7.028107214325,2.18385831671,12.0931130577,4.300079044137895,250.80481592025,246.85970633099998,253.798547575,3.2546618864996724,2.966904899863333,2.2444306242299996,4.1005783964899996,0.8122315994802043,402.230182359,402.230182359,402.230182359,6.473056045722356,0.9880982856356667,0.96376098956,0.9953552035340001,0.012145384612160125,2.147241671353333,1.33893244281,3.23714409222,0.9799351565083745,0.9549247027825746,0.626050108248,0.9999999451680001,0.08802820531755103,35.46871554005,35.266207204699995,35.6712238754,0.2863900343455741,1007.68617,1007.6462,1007.72614,0.056526116088027885,nan,nan,nan,nan,89.51981237204012,89.51981237204012,89.51981237204012,0.01243777504851315,nan,nan,nan,nan,nan,nan,nan,nan,666.0,666.0,666.0,nan,Walking,U15
78,,,12.016920479865998,3.49470367014,23.607102050399998,7.72315187941754,9.80665014277,9.806649458439999,9.80665120484,6.297634318097028e-07,11.211821088593334,6.37255378738,16.5929062931,5.131673831757155,249.29365932399998,244.845732395,253.74158625299998,6.290318587436297,1.288475639665,1.11371838064,1.4632328986899998,0.24714408583630287,413.506581647,410.96252505,416.050638244,3.5978393429221547,0.9634156019469999,0.9139893530040001,0.9931470953470001,0.030171940031606812,2.19600469745,2.01682188872,2.4254105789200002,0.20887304090385495,0.9702635970098431,0.625803619377,0.999956251213,0.07169129981492485,36.503551285374996,35.1294465554,38.7715102169,1.5885338707046586,1007.68617,1007.6462,1007.72614,0.056526116088027885,nan,nan,nan,nan,89.51981237204012,89.51981237204012,89.51981237204012,0.01243777504851315,nan,nan,nan,nan,nan,nan,nan,nan,666.0,666.0,666.0,nan,Walking,U15
79,,,13.023307749867143,6.82193842579,21.120705744200002,4.876845613528602,9.806650227057272,9.80664924619,9.806651029,4.846162581645918e-07,7.219752817945,6.5712230151,7.86828262079,0.917159642786548,248.27469890925,243.90787843900003,252.03095909200002,3.4214203446484417,3.1054587948933325,2.69949205726,3.5992866184599994,0.4562863584497276,405.1108823925,399.47017115,410.751593635,7.977170340573897,0.930597289524,0.903324885772,0.973687162428,0.03279163025698016,2.5935735932575,2.14627872472,3.2120522233399997,0.4711215658094738,0.9699844881032745,0.6538207201899999,0.9998618214239999,0.06346591076575975,30.827829200300002,30.827829200300002,30.827829200300002,1.5885338707046586,1007.68617,1007.6462,1007.72614,0.056526116088027885,nan,nan,nan,nan,89.51981237204012,89.51981237204012,89.51981237204012,0.01243777504851315,nan,nan,nan,nan,nan,nan,nan,nan,666.0,666.0,666.0,nan,Walking,U15
80,,,10.486169975795,6.670527717540001,14.6226188706,3.2737239689438806,9.806650467465715,9.80664966965,9.806650824570001,3.727991041288998e-07,7.067960577939999,4.27391706021,9.862004095669999,3.951374236634397,255.56845775633334,252.317380061,258.173156091,2.980919813883388,2.305156274494,0.85674995206,2.9366429228900004,0.8645968821739688,405.1108823925,399.47017115,410.751593635,7.977170340573897,0.9489323287216365,0.889350643905,0.991819642145,0.03649940907585031,2.173989759365,2.16943602672,2.1785434920099997,0.006439950465979835,0.9773433273152499,0.668018283684,0.999998731654,0.05113401779936414,35.4971896525,35.4971896525,35.4971896525,1.5885338707046586,1007.6261999999999,1007.6062,1007.6462,0.028284271247516566,nan,nan,nan,nan,89.51981237204012,89.51981237204012,89.51981237204012,0.01243777504851315,nan,nan,nan,nan,nan,nan,nan,nan,666.0,666.0,666.0,nan,Walking,U15
81,,,15.162450101474999,10.6753168498,18.3799923387,3.542591334628128,9.806650313766667,9.806649883410001,9.806650594119999,2.857477462466268e-07,6.205556081919999,3.1253106737199996,9.285801490119999,4.35612483171389,260.66327441733335,251.92557787799998,269.689181935,8.885308461133521,2.0898646583160003,1.3140525198100002,3.32513746007,0.7791208488482615,415.55738099,415.55738099,415.55738099,7.977170340573897,0.95817241160325,0.901847689287,0.981836941303,0.03806454370675524,2.4571339030366666,1.66438849696,3.69142468813,1.0832546659841693,0.9525647273091774,0.603807588288,0.9999820257790001,0.08793715143070685,35.4971896525,35.4971896525,35.4971896525,1.5885338707046586,1007.6261999999999,1007.6062,1007.6462,0.028284271247516566,nan,nan,nan,nan,89.51981237204012,89.51981237204012,89.51981237204012,0.01243777504851315,nan,nan,nan,nan,nan,nan,nan,nan,666.0,666.0,666.0,nan,Walking,U15
82,,,11.150714226069999,6.821427303019999,24.551703814299998,6.7277936700676,9.806650313471112,9.80664948703,9.80665086355,4.511952306509037e-07,10.0038311989,3.9851336364999996,16.022528761300002,8.51172372056797,231.90886915339996,220.41393403,237.238829245,6.646616501638087,2.120616766855,0.97383674826,3.6160871865900006,1.2534463298924152,415.55738099,415.55738099,415.55738099,7.977170340573897,0.9612295405526666,0.926023578518,0.989059092246,0.03215863134340476,1.4823316850665713,0.759861748765,2.89847410492,0.7324704642752449,0.9194836100197047,0.715524928983,0.99400412594,0.07549884526392221,41.1083618424,40.4955484746,41.7211752102,0.8666489759462934,1007.67615,1007.67615,1007.67615,0.028284271247516566,nan,nan,nan,nan,89.68428791924394,89.68428791924394,89.68428791924394,0.01243777504851315,nan,nan,nan,nan,nan,nan,nan,nan,666.0,666.0,666.0,nan,Walking,U15
83,,,15.648501615025,8.584193392949999,22.7128098371,9.990440496442233,9.8066500846875,9.806649399460001,9.80665120531,6.159698205460178e-07,6.0024566221325,1.7840786223700003,13.333265953699998,5.0551400380517535,182.90264044133335,182.60062811400002,183.23966636400002,0.3209547244307074,2.142585816469667,0.538265158468,3.8670898523300004,1.1521453638488168,411.56701216299996,410.824757246,412.30926708,1.0497069703595114,0.9856701323456001,0.975265200547,0.9967255086750001,0.01008966631589436,1.04634170909,1.04634170909,1.04634170909,0.7324704642752449,0.7961025285911755,0.649474152216,0.9507369348029999,0.08756141955072129,41.1083618424,40.4955484746,41.7211752102,0.8666489759462934,1007.7761,1007.7761,1007.7761,0.028284271247516566,nan,nan,nan,nan,89.68428791924394,89.68428791924394,89.68428791924394,0.01243777504851315,nan,nan,nan,nan,nan,nan,nan,nan,666.0,666.0,666.0,nan,Walking,U15
84,,,8.59803554742,8.59803554742,8.59803554742,9.990440496442233,9.806649991581427,9.80664922007,9.80665061776,5.618684402040459e-07,6.920049622403333,5.41785068625,8.045363422000001,1.3536940565541817,182.15692075175,173.71954490599998,198.39647776200002,11.619463767489188,2.6413424500044997,0.9176074890270001,3.7813619844499997,1.070628462812268,391.786841541,391.786841541,391.786841541,1.0497069703595114,0.9716789647817272,0.957455238205,0.9870257842360001,0.010405466480154975,1.7319697748099998,1.04613822119,2.21740496818,0.6108072314996114,0.7965213916126154,0.677548604541,0.9509648408849999,0.08676586247062777,36.2842497256,36.2842497256,36.2842497256,0.8666489759462934,1007.7761,1007.7761,1007.7761,0.028284271247516566,nan,nan,nan,nan,89.68428791924394,89.68428791924394,89.68428791924394,0.01243777504851315,nan,nan,nan,nan,nan,nan,nan,nan,666.0,666.0,666.0,nan,Walking,U15
85,,,8.52483721946,8.26369734854,8.78597709038,0.36930754713142355,9.806650214144286,9.806649646930001,9.8066504811,2.7255948389629864e-07,1.7689440681633333,1.2441874235500001,2.5830485735799997,0.7147929302801701,313.77520820025,311.436559263,319.199481058,3.6830541683624,1.0397362144189999,0.960704442898,1.11876798594,0.11176780314336984,368.567341486,368.567341486,368.567341486,1.0497069703595114,0.5201870147758001,0.39149703322800006,0.837723189219,0.1830200939921271,2.335273172315,1.0684009894,3.6021453552300002,1.7916278228716018,0.9562471281960697,0.6773399666329999,0.999989803827,0.09009898709401798,36.2842497256,36.2842497256,36.2842497256,0.8666489759462934,1007.7761,1007.7761,1007.7761,0.028284271247516566,nan,nan,nan,nan,89.68428791924394,89.68428791924394,89.68428791924394,0.01243777504851315,nan,nan,nan,nan,nan,nan,nan,nan,666.0,666.0,666.0,nan,Walking,U15
