time,activityrecognition#0,activityrecognition#1,android.sensor.accelerometer#mean,android.sensor.accelerometer#min,android.sensor.accelerometer#max,android.sensor.accelerometer#std,android.sensor.gravity#mean,android.sensor.gravity#min,android.sensor.gravity#max,android.sensor.gravity#std,android.sensor.linear_acceleration#mean,android.sensor.linear_acceleration#min,android.sensor.linear_acceleration#max,android.sensor.linear_acceleration#std,android.sensor.orientation#mean,android.sensor.orientation#min,android.sensor.orientation#max,android.sensor.orientation#std,android.sensor.gyroscope_uncalibrated#mean,android.sensor.gyroscope_uncalibrated#min,android.sensor.gyroscope_uncalibrated#max,android.sensor.gyroscope_uncalibrated#std,android.sensor.magnetic_field_uncalibrated#mean,android.sensor.magnetic_field_uncalibrated#min,android.sensor.magnetic_field_uncalibrated#max,android.sensor.magnetic_field_uncalibrated#std,android.sensor.rotation_vector#mean,android.sensor.rotation_vector#min,android.sensor.rotation_vector#max,android.sensor.rotation_vector#std,android.sensor.gyroscope#mean,android.sensor.gyroscope#min,android.sensor.gyroscope#max,android.sensor.gyroscope#std,android.sensor.game_rotation_vector#mean,android.sensor.game_rotation_vector#min,android.sensor.game_rotation_vector#max,android.sensor.game_rotation_vector#std,android.sensor.magnetic_field#mean,android.sensor.magnetic_field#min,android.sensor.magnetic_field#max,android.sensor.magnetic_field#std,android.sensor.pressure#mean,android.sensor.pressure#min,android.sensor.pressure#max,android.sensor.pressure#std,android.sensor.light#mean,android.sensor.light#min,android.sensor.light#max,android.sensor.light#std,sound#mean,sound#min,sound#max,sound#std,speed#mean,speed#min,speed#max,speed#std,android.sensor.proximity#mean,android.sensor.proximity#min,android.sensor.proximity#max,android.sensor.proximity#std,android.sensor.step_counter#mean,android.sensor.step_counter#min,android.sensor.step_counter#max,android.sensor.step_counter#std,target,user
1,,,12.66208762962589,1.03191271641,58.2402201404,7.84892552040653,9.806631574575858,9.80660261928,9.80664757334,7.67244892941676e-06,8.948443537734061,0.462670803028,51.0544676148,6.628605124552451,300.15189878713596,80.88722119010001,401.22379201900003,31.021464942626437,2.430669313649296,0.36210686676700005,7.8673363622100005,1.1515444462445474,83.06762465876648,64.17265809979999,101.730477243,10.551958327068393,0.8274585759424706,0.462943099588,0.9880624297499999,0.10639460760616723,2.4326456267073344,0.377918232772,7.858173246080001,1.148408507797641,0.8286128378097691,0.408605715182,0.9999995,0.12199790047517342,50.30403114401202,46.5125789438,56.247844403100004,2.0596225397415147,1008.5984860714286,1008.5569,1008.6316,0.022765289585692242,5462.392857142857,33.0,72827.0,18504.391161217776,nan,nan,nan,nan,0.9750617,0.0,1.9501234,1.378945480290566,0.0,0.0,0.0,4.0,6265.0,6260.0,6270.0,3.3166247903554,Walking,U12
2,,,13.265602908612152,2.18533507613,61.20612929560001,8.207262439489904,9.80663201655916,9.80660650571,9.80665026031,7.999834719223059e-06,9.479947941057308,1.302068373,53.3388917132,6.8923956856089275,302.0136525680229,183.120335565,397.84314046699996,29.62190783850156,2.4233923327346854,0.319900528017,5.6670315779,0.9392171174206152,87.66929235598441,63.2729028289,108.21575670899999,9.826353864548176,0.8151600055278629,0.458634505216,0.986181750547,0.11117879498802584,2.4246541551992995,0.31993777059399997,5.66384748334,0.9378273788566595,0.9008337974366298,0.587440995089,0.999990455874,0.0918509255725082,54.00921470932771,48.3302182941,64.268421924,3.7922049961607267,1008.5670264285715,1008.3525400000001,1009.4907,0.20346795735017384,35.925925925925924,10.0,74.0,13.338567348758971,nan,nan,nan,nan,0.5341374,0.0,2.670687,1.194367535724996,0.0,0.0,0.0,4.0,6275.0,6271.0,6279.0,2.7386127875258306,Walking,U12
3,,,13.43677855390416,1.46436809194,64.378640518,8.447812630651992,9.806632145135849,9.80660781618,9.80665125362,8.189090560258588e-06,9.202721960348644,0.21397359446800002,56.0113939583,7.1803682788340275,281.2719004550621,177.568905405,395.430604006,27.790609364823126,2.410931160748909,0.436894793824,5.90494699385,1.0375045592922154,74.41404857448592,60.7792727828,93.81780225950001,9.470656485611409,0.8604145655531548,0.536494211324,0.9900586704709999,0.09313376259526217,2.411378132177433,0.425063218121,5.90154942944,1.0374553763021837,0.8708542311989517,0.5239419085010001,0.999993154977,0.10749337839774979,46.323085834593826,39.0047440012,55.9042936508,4.079045167283257,1008.6000185714286,1008.5569,1008.6255,0.02086786626198546,16.821428571428573,4.0,30.0,7.242127636158637,nan,nan,nan,nan,0.52949274,0.0,1.4175817,0.7280684723182552,0.0,0.0,0.0,4.0,6284.5,6280.0,6289.0,3.0276503540974917,Walking,U12
4,,,13.763141173501664,1.9458810924799999,67.8162167055,9.226312259127594,9.806631345483282,9.806594486649999,9.80664955947,9.047431652816235e-06,10.396044372971316,1.00344922551,60.899883986099994,8.025679653963973,287.605593831728,179.073993455,404.69786884,30.91982693398082,2.4745885029657395,0.40123012441699996,5.73904752695,1.012765366049173,74.72253980773365,62.9671342845,90.52524509770001,9.047614770314617,0.8497660337055912,0.559419035049,0.9935106642,0.10741771405906109,2.4756454944086728,0.391416195143,5.735306293400001,1.0116100599443858,0.8702629363485259,0.458248728339,0.999996827314,0.11974206206793284,43.8363225022327,40.2150469352,48.6037035626,2.1622809117820205,1008.5872874999999,1008.56714,1008.6135,0.015234582400769917,2.0,1.0,5.0,0.9813067629253163,nan,nan,nan,nan,0.2471178,0.0,1.235589,0.5525721992501975,0.0,0.0,0.0,4.0,6294.8,6290.0,6300.0,3.425395354310701,Walking,U12
5,,,13.39870670600469,2.9282655514999996,60.98425751,8.639235869942704,9.806631405984474,9.80660018589,9.806649052660001,8.551426359530983e-06,9.674577521729333,0.381334492106,56.7399789804,7.667932719876997,286.1514470823372,80.1239444424,397.005061628,31.015800123992793,2.41610529886164,0.558776657232,5.74642577181,0.9634879624648542,74.7822538121671,63.14633797770001,92.3974025609,9.428381266162022,0.8512384751836999,0.377366490171,0.9888347848569999,0.10778526930258953,2.415840924041629,0.551724717956,5.74209448351,0.9627377824013158,0.8403642531851597,0.373097848742,0.999689199251,0.12321901919200881,44.41020971526503,41.3411433127,49.1708246829,2.226996811082196,1008.5921830769232,1008.53955,1008.635,0.021485139379443807,1.037037037037037,0.0,2.0,0.5175000172041232,nan,nan,nan,nan,0.2901438,0.0,1.450719,0.6487812600501035,0.0,0.0,0.0,4.0,6306.181818181818,6301.0,6312.0,3.6005050150827955,Walking,U12
6,,,14.096199309597617,3.00790109727,64.2481072344,9.220264764498092,9.806631303846736,9.806601888189999,9.80664930112,8.855352138888225e-06,10.333662467386585,0.764299200478,62.1909897778,7.7816070340615076,285.64508274954295,184.156331467,403.38784257699996,32.27165498537699,2.5808531644752413,0.309051559539,6.144030003509999,1.062042828428821,75.67614988771092,63.547306964200004,93.18251288200001,9.008806161411904,0.8477839627317352,0.512195315128,0.9920921014990001,0.10786533125230197,2.5795204597908286,0.30140959534899997,6.1395830487000005,1.0624851096246564,0.8780775314662844,0.24412806874899998,0.999999824175,0.12764959768233128,44.70803216380372,41.1713492613,49.7423364811,2.1815094473442866,1008.618344642857,1008.57275,1008.6577,0.021031058951185753,0.7142857142857143,0.0,2.0,0.5345224838248488,nan,nan,nan,nan,0.0,0.0,0.0,0.0,0.0,0.0,0.0,4.0,6318.583333333333,6313.0,6325.0,3.752776749732568,Walking,U12
7,,,13.629884054008947,2.5255494648099996,66.83692059170001,8.788062348797808,9.806630996206833,9.80660899195,9.80664912114,8.286629970325597e-06,9.678387752404701,1.55837843396,57.9620130338,7.528479609407711,287.3147301602846,181.957145262,403.40870146,31.037154401562386,2.421568002626019,0.672259515508,5.70835165176,1.0555921374737425,75.4705605169732,64.4228237847,91.5314712785,8.73596481305603,0.8473000201290039,0.515702040112,0.990602968216,0.1049231739991606,2.419631507016599,0.6644893716520001,5.7035069506,1.0558362729118786,0.8645904333338154,0.331514852608,0.9999998932780001,0.11345951370553842,44.660608734471815,41.3691930112,49.10081514189999,2.0427372140643514,1008.6343803703704,1008.5813,1008.6882300000001,0.0273036674743522,0.8148148148148148,0.0,2.0,0.557262335477027,nan,nan,nan,nan,0.9280009499999999,0.0,1.8600762999999998,1.0715683605933766,0.0,0.0,0.0,4.0,6332.0,6326.0,6338.0,3.63318042491699,Walking,U12
8,,,13.627854925585783,2.54672199478,67.3821208923,8.67949325623916,9.806631513622929,9.80660376878,9.80664930658,8.532494573661216e-06,9.730210596346314,0.599631909781,65.5470734925,7.9233020899724105,289.1821583818576,186.876957107,395.314250215,29.04558021920409,2.3615696830891184,0.623843103094,5.651404461,1.0538722991891807,75.78724586139394,64.7807070045,91.6602967484,8.831642807805606,0.8461642093055816,0.548782761004,0.99196698987,0.10541180145798208,2.3664886654423327,0.6143731982389999,5.64710538835,1.054609835616154,0.8619114653760473,0.435513911231,0.9999999712000001,0.12010087044255587,44.66912067099849,41.6790115046,48.908179275,2.0592099138462725,1008.6735814285714,1008.6039999999999,1008.7289999999999,0.037787669428626054,0.5714285714285714,0.0,1.0,0.5039526306789697,nan,nan,nan,nan,0.9280009499999999,0.0,1.8600762999999998,1.0715683605933766,0.0,0.0,0.0,4.0,6343.5,6339.0,6348.0,3.0276503540974917,Walking,U12
9,,,13.410376972030072,2.48274474693,63.886292645699996,8.58295445626748,9.806631643623403,9.80660570944,9.806649284,8.098561224066002e-06,9.706668804817236,0.8563433149869999,60.787190886800005,7.5324148119840855,289.03673304042366,179.819452838,397.228283105,28.883698745795602,2.4171153534192835,0.529638970845,5.845373395580001,1.0906199547169886,76.49304964280057,63.6202011943,92.3959414693,9.314197855513953,0.842343852511081,0.537488623655,0.988170540504,0.10193815093631009,2.417728772997709,0.526599523654,5.840660773810001,1.0889184476770102,0.8694189517739151,0.390874459212,0.999904374807,0.11473329675641526,45.40120679769295,41.7935401707,51.1473367303,2.2927744186024492,1008.6609907692308,1008.6239999999999,1008.7138699999999,0.029734316191629254,0.5185185185185185,0.0,1.0,0.5091750772173156,nan,nan,nan,nan,0.9280009499999999,0.0,1.8600762999999998,1.0715683605933766,0.0,0.0,0.0,4.0,6353.444444444444,6349.0,6359.0,3.358240279934981,Walking,U12
10,,,13.535055027009491,1.83886616417,65.3146223144,8.708036770007313,9.806631113220396,9.80659599295,9.806647906739999,8.560707039576928e-06,9.602057711298738,1.0802471802200002,56.6630880507,7.557376694609087,289.1483688896885,227.965211755,400.453931761,28.972065275796012,2.4541813259474106,0.620793326571,5.8108910934599995,1.0522434314047018,75.88627932364342,64.3414329962,91.653314181,8.709075055866293,0.8478365918582084,0.543994163644,0.990637314864,0.10346314601479045,2.4559879693874715,0.609323819594,5.80626763505,1.05347432883813,0.8631198208205743,0.383603237729,0.999999942539,0.1244534733078089,44.76022607871243,41.4143695427,49.038863632799995,2.0113964585929645,1008.6384711111111,1008.6011,1008.6572,0.015442725280943249,0.75,0.0,2.0,0.6454972243679028,nan,nan,nan,nan,1.9347861000000002,1.9347861000000002,1.9347861000000002,1.0715683605933766,0.0,0.0,0.0,4.0,6364.5,6360.0,6369.0,3.0276503540974917,Walking,U12
11,,,13.329946072856586,2.0985212154900004,65.7689644397,8.320823273867305,9.806630939061572,9.80660110786,9.80664723766,8.514642543477308e-06,9.44330454947643,0.818898394069,64.87747653560001,7.201954635779465,288.04771767863747,233.76507334400003,394.152245665,29.185325752671382,2.423536409942442,0.571872421011,5.82971058232,1.0459917385338335,75.78240260990701,64.8503679743,92.5779131327,8.679157826429654,0.850716426233276,0.565493137881,0.9903177698289999,0.10454184551922911,2.4254766463842854,0.557976921919,5.8245453532099996,1.0495710109612204,0.8498634321696522,0.45434462440300005,0.9990445237250001,0.11774694145416464,44.71364313495752,41.2099518126,50.1791794333,2.1561695190352057,1008.6160782142858,1008.5598,1008.6797,0.026765562320331535,1.3928571428571428,0.0,3.0,0.8751417118804335,nan,nan,nan,nan,1.9347861000000002,1.9347861000000002,1.9347861000000002,1.0715683605933766,0.0,0.0,0.0,4.0,6374.0,6370.0,6378.0,2.7386127875258306,Walking,U12
12,,,13.929309003562823,1.5325799079799998,64.6256896454,8.85016001033148,9.806632063153755,9.80660272036,9.8066487866,8.494612001146996e-06,9.871800811101474,0.8589978365209999,57.990156201000005,8.102330462175237,287.5973685845622,83.1644956342,402.42586422,31.160224905849333,2.4305927961783316,0.556804289366,5.77646281598,1.0818657675437384,77.10420407433497,63.0032541287,95.4729281001,8.664694527996035,0.8435721653243251,0.557309256136,0.991545954792,0.10150869012839826,2.4295458924124818,0.551779187389,5.77190429299,1.078621295498372,0.8906344720070928,0.541785172103,0.999999967995,0.10417399725035331,45.954635472426375,38.471548534899995,51.1083163487,2.221799773797754,1008.5822367857143,1008.54224,1008.63184,0.02245846240797837,9.142857142857142,0.0,31.0,9.336167370180398,nan,nan,nan,nan,1.9347861000000002,1.9347861000000002,1.9347861000000002,1.0715683605933766,0.0,0.0,0.0,4.0,6383.5,6379.0,6388.0,3.0276503540974917,Walking,U12
13,,,13.65469676415617,1.8253830026900002,66.0658996983,8.360633669324264,9.806631003070281,9.806599741389999,9.80664833947,8.93532168987216e-06,9.919293744963294,1.0768007993700002,56.221457155100005,7.614015016767372,287.40321842118834,179.587009899,405.643616414,30.332107497810746,2.522708701088696,0.382116748274,6.5582889172000005,1.0976089970494338,77.63734575321179,63.251403146499996,96.9029962252,9.731632160876519,0.843927216313953,0.339741093539,0.9890328061210001,0.10191015944029633,2.522410671499124,0.377062998468,6.552997964559999,1.0984040748336665,0.8414196910129286,0.386758585217,0.999999842078,0.1329134320078221,47.418192680236345,42.2317416169,53.1069680795,2.375531288464465,1008.5785177777777,1008.5393,1008.6548,0.021029720056179105,432.0,29.0,1172.0,358.22994334322794,nan,nan,nan,nan,1.391438475,1.361047,1.4365648000000002,0.03420703513405552,0.0,0.0,0.0,4.0,6393.5,6389.0,6398.0,3.0276503540974917,Walking,U12
14,,,13.85209533762681,2.7109114602099997,64.38794178890001,9.08340062378817,9.806630781934487,9.806601586889999,9.80664889779,8.669278223440514e-06,10.513906428521382,0.965000964968,61.4194395585,7.990171929698004,285.7602534394537,179.82744919299998,401.47526183,30.87933846210261,2.4828922169920538,0.45102094729900005,6.16432192917,1.1234369704776868,76.14907261120076,63.6152497441,93.5163125739,9.411244342667086,0.8551681507880419,0.52397442041,0.992224500544,0.10530649928603016,2.482626838972293,0.45623550782600003,6.159437542769999,1.1227073931635263,0.863290297610983,0.41190675755999995,0.999987999827,0.11436813644516436,46.62285188490208,43.2691576068,51.100880618599994,2.15388399138876,1008.5570014285714,1008.5134,1008.6118,0.031904654683549735,23.285714285714285,5.0,55.0,13.632361124958134,nan,nan,nan,nan,1.35231292,1.2926521999999998,1.403148,0.04487094933798487,0.0,0.0,0.0,4.0,6404.0,6399.0,6409.0,3.3166247903554,Walking,U12
15,,,13.383248745349793,1.9142226416099999,61.040181506,8.402957307033214,9.806631722803472,9.80660461982,9.80664929433,8.433134001353264e-06,9.588136816940555,1.73153929732,59.9969523818,7.6721842231553214,287.13904986950604,230.759925593,393.736195086,29.553919189551863,2.462713126128025,0.596515755652,6.28850371516,1.1036592810273387,76.45968797996194,64.7340713998,92.47102248809999,9.211032408596399,0.8509254220204088,0.5561797840230001,0.990596339843,0.10713132130343211,2.460780980318367,0.581217683566,6.2834621827,1.10343489469751,0.8819148189760156,0.5603380643,0.999998577014,0.11132640029284786,46.04253924144706,42.8570880952,50.3302111897,2.184383550201021,1008.5750503333334,1008.5361300000001,1008.6023,0.018124734382519443,4.275862068965517,1.0,10.0,2.234415099626393,nan,nan,nan,nan,0.7601253366666666,0.36334512,1.2376718999999998,0.2930533569490321,0.0,0.0,0.0,4.0,6416.727272727273,6411.0,6422.0,3.6902820784029258,Walking,U12
16,,,13.837182274823375,1.9193543690500001,62.9764170761,8.677896475838093,9.806631838866247,9.80660147265,9.80664944996,8.474460958772404e-06,9.634789355671675,1.09166437621,54.3840815265,7.366466998844492,286.69706858347973,179.33741402799998,398.05406588,29.907498863497626,2.4548028997951605,0.34487104556000003,6.230769066510001,1.152599601752857,75.43736697870352,64.0307738513,91.4192539895,9.017285504742583,0.8511707675382891,0.55048204929,0.9902322115629999,0.10297208858903986,2.4581597714139476,0.33155917368,6.2258161661699996,1.152903655925727,0.8483786795979245,0.417621692874,0.9999930770559999,0.1147252956488376,45.035776670463285,41.856184525100005,49.783632366499994,2.1533895181549143,1008.5474418518519,1008.5044,1008.58594,0.02032326462210349,2.5925925925925926,1.0,5.0,0.9710921393049905,nan,nan,nan,nan,1.3674513,1.0934091000000001,1.6194518,0.19644665773995745,0.0,0.0,0.0,4.0,6427.5,6423.0,6432.0,3.0276503540974917,Walking,U12
17,,,13.8123060827343,1.09669730637,66.05624653439999,9.044364616409117,9.806631304382185,9.80660347933,9.80664862213,8.783215510367595e-06,10.03704708751687,1.4896364506,67.176485887,8.004284079935085,286.85653036374384,177.973828508,393.664147198,31.416087511451252,2.465713674568626,0.62837963721,6.68157969546,1.141851274989361,76.73443745472566,65.5134337369,93.4198051807,9.124489912968874,0.8500746340026667,0.511184506963,0.9926078248960001,0.11097743955459376,2.467488715005321,0.6215167821450001,6.676336513150001,1.1421160607646046,0.8943875147412348,0.5281839103,0.9983287614309999,0.09563554097789914,46.2929232437852,41.8916459452,51.181051646099995,2.2686167000828035,1008.5235535714286,1008.4739,1008.5600599999999,0.021337635540894007,1.7857142857142858,0.0,4.0,0.917207632583725,nan,nan,nan,nan,1.27953036,1.1172758,1.4929286,0.14955311776819627,0.0,0.0,0.0,4.0,6440.2,6434.0,6447.0,4.541169697580373,Walking,U12
18,,,13.57985569844178,2.3448911344099996,61.047393183800004,8.683171940774228,9.806631104347098,9.80660724423,9.80664834739,8.802721885203317e-06,9.973167257580227,1.86724808539,57.1384974654,7.761920827666638,288.5891087332185,226.126862124,398.439687206,30.942364722590874,2.3969732776791988,0.586255578615,6.16106713847,1.0660521085246286,76.97913158214661,66.8057649488,93.0099994624,8.851457702821603,0.8494499556897996,0.516316245722,0.992323275833,0.10813304727711366,2.3978339640172304,0.574837275789,6.15635774084,1.0651052057854535,0.849041505009363,0.480508626249,0.999993258185,0.11655185158527494,46.258840416394904,43.253093951800004,51.0641753091,2.0631081337828907,1008.4986535714286,1008.4507,1008.5464,0.025258371287653108,1.0357142857142858,0.0,2.0,0.50787450018337,nan,nan,nan,nan,1.1217533,1.1104343,1.1341653,0.012925167045986898,0.0,0.0,0.0,4.0,6454.9,6449.0,6460.0,3.784471194529326,Walking,U12
19,,,13.654422499888238,2.288671762,63.138532365100005,8.687790371059345,9.806630838124535,9.806599161989999,9.80664894617,8.504569606258284e-06,9.825076207597453,1.29250458366,59.8305486262,7.734614264792982,289.6992379183574,177.68939904,396.237456349,27.434059696288642,2.4677496163705515,0.478689128894,5.9853739061199995,1.0464336459975987,76.54638021371025,65.6531813426,92.42267170129999,8.602201664835535,0.8469095340871231,0.535296858859,0.989077112666,0.09916964091058211,2.468093320433746,0.47380325217600006,5.98072177832,1.0458386330352132,0.88125303548007,0.469260094617,0.999999998895,0.10547216488512302,45.649807792417114,42.5570205724,50.0529719397,2.0211077345390867,1008.5046385185186,1008.428,1008.5505400000001,0.029569599604958446,1.2962962962962963,0.0,3.0,0.7240279857964913,nan,nan,nan,nan,0.9814530850000001,0.97770727,0.9851989,0.005297382375140555,0.0,0.0,0.0,4.0,6465.0,6461.0,6469.0,2.7386127875258306,Walking,U12
20,,,13.620055214037869,2.32625501884,61.589771742299995,8.66299324154217,9.806631620005794,9.806604124380002,9.80664896198,8.480308435272362e-06,9.607968416973602,0.729821876118,53.2576573745,6.989106169349617,288.83048498991326,231.05337782900003,393.923720441,27.31673685848691,2.3856357013347447,0.537536501935,5.79004429773,1.0526605349150981,76.94071180629417,65.6588929575,93.3788532935,9.103166437767372,0.8424072540035605,0.574691693954,0.98891511045,0.10369288022499012,2.3831929261445692,0.522904891168,5.78583073344,1.0522787598715972,0.8784783066443258,0.36120353657,0.9999996942380001,0.1168540017120371,46.70750143207951,43.703889987,51.017743525200004,2.0473780119110936,1008.4913928571428,1008.4299300000001,1008.52124,0.024013166582342906,2.1785714285714284,1.0,6.0,1.090483121902141,nan,nan,nan,nan,1.013746268,0.98435444,1.0362179,0.0206393731821274,0.0,0.0,0.0,4.0,6474.6,6470.0,6480.0,3.2041639575194445,Walking,U12
21,,,13.479111509133146,2.93467253979,60.8559200659,8.402602644971697,9.806631234953908,9.806608041839999,9.80664809591,8.281592081945264e-06,9.590076374743415,0.845505144666,57.167537066899996,7.546294720773741,287.5305814431591,185.32611713,395.19478780699995,28.184184163032356,2.417748410067486,0.499342085257,5.82300660362,1.0491951103941832,77.53949994135644,65.9348162961,93.3634309616,9.269229448650425,0.8460442219637457,0.521469373118,0.988887315679,0.10282800538438873,2.4191761801636824,0.495270072349,5.818154818840001,1.0496442335695118,0.8472961861471517,0.367749227565,0.999913469244,0.11658996027397987,46.99531230835769,43.968397742,51.34871184359999,2.138583387950456,1008.4496778571429,1008.4018599999999,1008.51025,0.03114620972805438,3.642857142857143,2.0,8.0,1.682464808157315,nan,nan,nan,nan,1.0582143,1.0462797,1.0689332,0.00954038464668312,0.0,0.0,0.0,4.0,6486.0,6481.0,6491.0,3.3166247903554,Walking,U12
22,,,13.279660676899196,2.25974756024,65.7270995851,8.148244799343583,9.806630734119363,9.80659991152,9.80664922387,8.68940768134209e-06,9.399103476577766,1.18100316823,66.0322614275,7.389898104781209,289.27129694497347,82.9487312757,403.91798411699995,30.026354549329557,2.3787326657475103,0.606810012112,5.93812041931,1.0571922392727573,79.02532691120278,66.0367322026,96.6391742533,9.337017298733544,0.8448412049969269,0.5042049929779999,0.987684771145,0.10122442616750535,2.3776398518605566,0.6042237803589999,5.93380313546,1.0552204154252651,0.8995195644296412,0.38677289120999997,0.999941061039,0.10911992206956189,47.449027814833585,43.7232203754,53.4229366696,2.3477187561183297,1008.4196142857143,1008.385,1008.46094,0.01916075975231207,8.444444444444445,3.0,19.0,4.144814492771321,nan,nan,nan,nan,1.1116460666666665,1.1090037,1.1160033999999999,0.0038019446370683584,0.0,0.0,0.0,4.0,6496.0,6492.0,6500.0,2.7386127875258306,Walking,U12
23,,,13.886881687791455,1.77896958905,66.1341466729,8.714096761367708,9.806631391366869,9.806598907489999,9.80664729633,8.796887634438087e-06,9.962062483640604,0.731451507667,60.72139565649999,7.751911039893207,286.89317031191445,180.386048987,403.862756421,30.028065369519677,2.5045790800545094,0.281852544113,6.02621665579,1.1036439630835708,77.42039259164846,64.0822908454,93.63631774049999,9.396735574144898,0.8429779532436136,0.47516631739200005,0.9908751399200001,0.10431626529658981,2.5053717795059067,0.279265936184,6.02167000014,1.1035695738724385,0.8475844297052315,0.342680521326,0.9999977358050001,0.12936475997790153,47.15072605503137,43.58417304939999,51.6428116973,2.2228584514624634,1008.4082814814815,1008.3513,1008.45654,0.027440788801132297,23.074074074074073,7.0,49.0,10.546329751390823,nan,nan,nan,nan,1.07846675,1.0762751,1.0806584,0.003099461153974979,0.0,0.0,0.0,4.0,6506.454545454545,6501.0,6512.0,3.7779263191236634,Walking,U12
24,,,13.34885870933335,1.96707029366,61.19536071,8.732748846396118,9.806630815531825,9.80660583202,9.80664954722,8.946677771454851e-06,9.683454298955132,0.923025698615,59.8451072882,7.897142353961661,289.619711432697,244.568107003,398.88221427800005,27.873481629393513,2.4305777589812823,0.579727083167,6.01814066272,1.0144723125654989,78.24464481106908,65.5344952037,94.8121337277,8.836304884004155,0.8452406601578571,0.5197506660660001,0.989313053968,0.10249116893740358,2.4298814967049154,0.566160746337,6.01355045031,1.0124386212512073,0.887500640148776,0.452398300333,0.999961875361,0.11278239778642987,47.4689804633839,43.8850793778,51.569565629399996,2.0570315687196112,1008.3841835714286,1008.3259,1008.4350599999999,0.027870979359826277,235.5,21.0,1185.0,332.9522822000507,nan,nan,nan,nan,1.1275450999999999,1.1114853999999998,1.1436048,0.022711845547643366,0.0,0.0,0.0,4.0,6518.666666666667,6513.0,6524.0,3.9370039370059056,Walking,U12
25,,,12.264423511419468,1.9921028126,65.0412238524,7.075867085819072,9.806631444827262,9.80660795475,9.80664701198,8.033768189314613e-06,7.4513837501458156,0.280608065263,56.9143368253,6.188239185409016,287.84478896471455,235.421222345,383.86084992199994,25.009847358193994,2.076530545758039,0.22740090606199997,5.224033760969999,0.9544781152790746,80.08104003831798,67.6683843046,95.264319879,8.274197014247235,0.8455572734195028,0.594892865964,0.9804964087799999,0.09068355999569387,2.0784458674406325,0.220718059087,5.2190387909,0.9526889576302945,0.8738633293114597,0.427323060692,0.997867051345,0.11152252654251958,48.08143031143218,44.271096665900004,52.608840542299994,1.9132670904702993,1008.372177037037,1008.3325,1008.4136,0.020084600265049726,721.5185185185185,90.0,1364.0,365.24231897050424,nan,nan,nan,nan,1.17601556,1.159386,1.1951419,0.015833524100243815,0.0,0.0,0.0,4.0,6529.0,6525.0,6533.0,2.7386127875258306,Walking,U12
26,,,10.030197380349515,5.9282141714600005,22.1707236806,1.6874732585037846,9.80663142407198,9.80661146983,9.80664837964,6.631632297601425e-06,1.7953756462301882,0.073060540112,12.9599834642,1.9958202500102162,306.3398201378867,223.363311491,336.177443746,27.501979694528703,0.6368291853465226,0.0236766867863,2.73706945148,0.588040450361332,90.08616243906499,69.6266471978,98.2216371275,8.566905569289094,0.8225030734924981,0.698665985501,0.97622692239,0.05726493047073286,0.6396081177680887,0.0394147858649,2.74495288481,0.5888528264011794,0.9871008991427221,0.889063445061,0.999999989775,0.023762526615366254,50.91936053061141,46.4437309053,52.974427793000004,1.8749352911973,1008.4151746428571,1008.3828,1008.428,0.01162181807736276,42.03703703703704,23.0,98.0,15.739420088724513,nan,nan,nan,nan,0.604806144,0.30760047,1.1404673,0.3445067846570059,0.0,0.0,0.0,4.0,6534.0,6534.0,6534.0,2.7386127875258306,Walking,U12
27,,,9.796486141153244,9.355192921739999,10.756447977899999,0.15089412280454328,9.806630457375887,9.806612170160001,9.806646953360001,6.3680030051616525e-06,0.3311257267385785,0.017986582397400003,1.9541985976900003,0.287736835240847,318.2977224881575,314.692805884,320.63353642,1.4042978394336407,0.10405929780861191,0.007224975048680001,0.40532438075000005,0.07748025077237393,94.899648086077,94.10313491059999,95.47193305030001,0.38596363727625876,0.8039059332312357,0.7878790586759999,0.814320838352,0.003428365432007627,0.10315405507594434,0.0146449651464,0.39452339071000003,0.07706229710214907,0.9999223682488598,0.999699437703,0.9999999999920001,7.520609151882716e-05,52.025431197948016,51.7873536686,52.3282906275,0.1090627040803221,1008.4089942857144,1008.38916,1008.4275,0.01113269939264385,46.964285714285715,43.0,49.0,1.5270921982678656,nan,nan,nan,nan,0.45380196799999994,0.24631567,0.517417,0.11637287720599707,0.0,0.0,0.0,4.0,6534.0,6534.0,6534.0,2.7386127875258306,Walking,U12
28,,,11.18431051765657,2.50427599117,55.529651683599994,5.630755815506956,9.806631575385326,9.80660859535,9.80664915537,7.178617552680625e-06,4.695590200368419,0.015915995905,49.992699470299996,5.92464064251525,318.242976897441,94.5451866542,400.423614732,18.347907036604376,1.3015376908844185,0.00760750969412,5.21769138118,1.1637310942252581,93.74361216480783,82.51793744390001,103.023735129,4.8504541347914,0.7810450694694231,0.499144090057,0.962076153971,0.07694915481546999,1.297420721243189,0.00573662470999,5.214277059940001,1.164604256568104,0.9409878920497816,0.437305531672,0.9999998668719999,0.10931256287879787,52.126036396946745,49.1325757517,54.2352284037,1.1388516955772052,1008.4130496296297,1008.3757300000001,1008.4619,0.024108320376909076,40.44444444444444,17.0,72.0,12.463279397226612,nan,nan,nan,nan,0.5347282825,0.3857837,0.6018753000000001,0.10171315726977456,0.0,0.0,0.0,4.0,6534.0,6534.0,6534.0,2.7386127875258306,Walking,U12
29,,,13.297399535660402,1.22079752729,59.2981662989,8.127149394775621,9.806631955780038,9.8066052513,9.80665005494,8.170807485703936e-06,9.17582631705036,1.1144219289200001,52.7731647987,6.6580713527187,309.7331522993867,84.74352899670001,399.026749166,28.247462725034797,2.3660558454518776,0.07424824732680001,7.47689639254,1.104981803232638,88.68344745436578,78.0789984567,101.69906588799999,7.419774862329518,0.7997963303770763,0.497102195867,0.976470283673,0.09838238014362892,2.366406598832062,0.0809390668298,7.4720656197,1.1042258941244054,0.8537894775118555,0.436354155904,0.999999324878,0.11538430200085695,50.5799249435814,46.4476048898,54.5683987707,1.7280538973091941,1008.4176478571428,1008.3794,1008.45874,0.021218324602608446,31.035714285714285,11.0,61.0,11.609326208977635,nan,nan,nan,nan,1.042137848,0.72287834,1.323182,0.25908298665567087,0.0,0.0,0.0,4.0,6548.25,6546.0,6550.0,1.707825127659933,Walking,U12
30,,,13.78776132824669,2.55278517294,59.956756006800006,8.345666633496517,9.80663151991097,9.80660136565,9.80664800401,8.564154142552082e-06,9.810209471863777,1.26185619267,53.9522927038,7.245396421983398,306.40600074995996,80.5472654666,401.661123963,31.481257173636873,2.5531700987544355,0.49400483428400005,8.11115830663,1.1397392056698157,85.44518952597167,74.7779379229,98.10168194280001,7.0863353650155,0.7942346849031184,0.388795688021,0.983032774174,0.10070144296977997,2.5559706843075936,0.49470149508100003,8.10404864535,1.1404226003077018,0.8811449156087772,0.288067852944,0.9989350754459999,0.11666331037688946,47.78163514506159,44.3419665779,51.4289801571,1.6984285257117875,1008.3815471428571,1008.3396,1008.4201699999999,0.016116554373295996,14.178571428571429,7.0,31.0,5.591352923329693,nan,nan,nan,nan,1.2615681200000002,0.8970558000000001,1.3753114,0.20479946009100458,0.0,0.0,0.0,4.0,6555.6,6551.0,6561.0,3.2041639575194445,Walking,U12
31,,,12.89779944996204,1.69158521,62.0049893317,7.985956751267342,9.806632312126661,9.80660694763,9.80664816167,8.313512077285738e-06,8.655242295128762,1.05264500489,55.4878042021,6.5476554031240255,304.6819377211498,73.8024532142,400.14145287300005,27.49805425916821,2.4113136192886295,0.49513257716700004,5.92937686768,1.0397957511645661,84.60096450391073,68.9815192642,97.7368405593,7.318656536326166,0.8021861169863129,0.425885642246,0.975091042916,0.0987940916823618,2.4139448435650035,0.487234785118,5.9252382193,1.0390070347051297,0.8967442103818218,0.49933153223000004,0.9999999258869999,0.10702796090851113,47.40506789604522,42.8684032826,51.0621190316,1.6205320650394932,1008.3819164285715,1008.3386,1008.4131,0.022992663598740377,5.464285714285714,3.0,11.0,1.9716911871705816,nan,nan,nan,nan,1.0506571480000002,0.94171464,1.1797183999999998,0.09534949940638132,0.0,0.0,0.0,4.0,6567.5,6563.0,6572.0,3.0276503540974917,Walking,U12
32,,,13.452577275675386,2.47590133788,62.6862831245,8.453007495477925,9.806631420157572,9.80660622339,9.80664783969,8.493655228560369e-06,9.563213320161827,1.5016315316,54.6486604057,7.530102393887314,300.59923328103196,88.5521633506,400.45001844,27.03520656151224,2.3546798628752814,0.741099537861,5.76769053165,0.9977586302248781,81.74480214790536,71.6240881268,95.13369892950001,7.381239496357219,0.816272071186217,0.460497501708,0.9868674748799999,0.10643138274461103,2.3567887128468556,0.729040287301,5.7630090984899995,0.997973691602576,0.860937498271183,0.405556451188,0.9999955299400001,0.11944159407259204,45.81970236060115,42.7964951836,49.54321346060001,1.6973369147757933,1008.3718414814815,1008.34644,1008.4155,0.018868585757551574,3.925925925925926,2.0,8.0,1.439175135702765,nan,nan,nan,nan,1.2517722333333332,1.239039,1.2685302,0.0151519496489176,0.0,0.0,0.0,4.0,6578.0,6573.0,6583.0,3.3166247903554,Walking,U12
33,,,13.382296776071058,1.9885073436200003,61.576290147600005,8.512473699988536,9.806631831076642,9.80660460042,9.80664957137,8.64949000627266e-06,9.651365532711523,0.803870976375,58.8026916957,7.280556751957006,301.2064070366067,77.7921867054,401.82943633800005,28.509573077673757,2.4328925094321576,0.569496241556,6.07980751495,1.067539073232343,81.60070198299461,71.9870127176,95.49853764459999,7.148966629345436,0.8125247185309713,0.48596189109800003,0.9804259867299999,0.10716378247994988,2.4330971660129244,0.55710582651,6.07493089793,1.0670610946448364,0.8596046973149057,0.48904955828999996,0.999999999968,0.11345759776889384,45.47218941650787,41.1656431992,50.0519736034,2.0259595725623942,1008.3277214285715,1008.2612,1008.39307,0.03882440581351087,3.642857142857143,1.0,6.0,1.0261140545329515,nan,nan,nan,nan,1.31893305,1.2930598,1.361688,0.030866101810508337,0.0,0.0,0.0,4.0,6590.0,6585.0,6595.0,3.3166247903554,Walking,U12
34,,,13.994336928504447,1.3633769717200002,66.28558012170001,9.13076115331812,9.806631832481896,9.80660430226,9.8066490329,8.667207333541263e-06,10.046728316538347,1.1383437973000001,60.406922594499996,7.727144443654051,308.7536649065921,58.9696968137,400.410228256,27.84723898101986,2.4646876764733636,0.615284985842,5.788444151109999,1.0822624376339578,85.66520021654324,76.3238494836,98.7478607363,6.299646219021261,0.7953007296561083,0.402854577117,0.982307906652,0.10948056695566971,2.469201383613865,0.600771367232,5.7836866374,1.0856491429592448,0.8729199869412566,0.381586825128,0.999555076057,0.11894346941191271,46.21867707599677,41.1491194292,51.5830401741,2.4437130728790506,1008.27357,1008.2178,1008.3501,0.03004285644004028,132.0,3.0,731.0,181.02076819668653,nan,nan,nan,nan,1.397486,1.397486,1.397486,0.030866101810508337,0.0,0.0,0.0,4.0,6602.636363636364,6596.0,6610.0,4.566677726153386,Walking,U12
35,,,14.162770294181309,2.33305432117,65.5647148105,9.088107801716689,9.80663220512701,9.80660485628,9.8066484106,8.823398180860693e-06,10.494548930283258,0.617891377354,57.3458962298,8.259772984377603,317.2463052502664,60.0015542509,400.119545543,36.03727756224701,2.565940751202417,0.566307043006,6.5060836455499995,1.1239424907304236,90.14144040537596,79.27830724729999,101.849402217,5.811631346300569,0.7652457360033873,0.376909720623,0.989422567034,0.12287062552105686,2.566325090270513,0.557109889445,6.5019859131599995,1.1236255682880596,0.8551861161717919,0.397924883962,0.999976913721,0.12427997465085279,46.490954697728945,42.682666271,51.2361200717,2.124631049959786,1008.2752678571427,1008.18164,1008.3694,0.057929268835636746,388.3703703703704,125.0,769.0,158.04116994002354,nan,nan,nan,nan,1.3280317,1.3047107,1.3649448999999998,0.026575098309507647,0.0,0.0,0.0,4.0,6615.0,6611.0,6619.0,2.7386127875258306,Walking,U12
36,,,13.569530158046387,2.39551396253,61.6915785398,8.165070044547166,9.806631451927121,9.806601847060001,9.80664997535,9.149935442424988e-06,9.56767502824965,0.713788552266,62.7819536646,7.682667263066198,309.6269282086002,62.460586421,401.009896526,32.42525010076104,2.486701976430373,0.29933931765099997,5.9752879177,1.1266662444274593,90.54000449975325,76.5204547817,104.361391328,7.009827895644181,0.7890376580900211,0.455698872112,0.981735094611,0.10788271639447751,2.487666889204289,0.295045559372,5.97109034895,1.126439397530621,0.9058277787958123,0.277030934516,0.9999964568719999,0.11093885694430458,51.20580646856889,46.4323163725,57.4450171904,2.2103982815727643,1008.3446057142856,1008.3147,1008.3672,0.013409327717729558,610.6071428571429,227.0,955.0,200.92606697871332,nan,nan,nan,nan,1.25268348,1.2242613000000002,1.2759457,0.019451216878308593,0.0,0.0,0.0,4.0,6625.181818181818,6620.0,6631.0,3.6005050150827955,Walking,U12
37,,,14.007900743930144,2.73653333392,63.3188837597,8.569762904284545,9.80663187249887,9.80659692512,9.806650345289999,9.003242196239543e-06,10.132226530910566,1.20082348156,56.9888309401,7.417862442720428,309.90766934717533,39.9461934708,395.380628475,33.17411483560804,2.575331718899485,0.283320292826,6.268206961410001,1.1614310636009701,89.66026837982274,76.6994784858,104.134436173,7.369035332218219,0.7872907476348988,0.312411102861,0.989138126795,0.11490693883681972,2.5742570450139777,0.269250735741,6.26423818,1.1616660784414021,0.8565732673351143,0.37711117164,0.9999999737790001,0.1402569017085875,49.53399082330303,46.5225772179,54.3814306542,1.7721865526155363,1008.3318823076924,1008.2837,1008.3742699999999,0.025459748358172184,556.0769230769231,126.0,1085.0,266.3315111776183,nan,nan,nan,nan,1.2127696000000001,1.198674,1.2378795,0.015351584070870344,0.0,0.0,0.0,4.0,6639.272727272727,6632.0,6645.0,4.383854675759887,Walking,U12
38,,,14.009533348273077,1.15905389502,66.8863758417,8.792185389564773,9.806631897079596,9.80660649742,9.80664927118,8.99313193893181e-06,10.035277184532463,1.1951111747799998,57.4486022336,7.595792727932751,318.6758442860994,75.8287755222,398.659839311,30.605938191044828,2.574071527335067,0.571879388284,6.18416250773,1.1190785572006186,94.78028119840556,85.9568496398,106.978315685,6.068523169289271,0.7736590409195403,0.38754449266999996,0.9813583224439999,0.11711821650549809,2.573777901107008,0.5581020376479999,6.17997931837,1.1194333423827545,0.8310853360775624,0.429898968213,0.999999847648,0.11720854080846674,52.18817785940249,49.9076146495,56.626584020200006,1.3245678681039266,1008.3271532142857,1008.25146,1008.3672,0.03157924846684476,131.53571428571428,42.0,644.0,131.68578824382237,nan,nan,nan,nan,1.3071118600000002,1.2665784,1.3325021000000001,0.02538775901360738,0.0,0.0,0.0,4.0,6651.0,6646.0,6657.0,3.7416573867739413,Walking,U12
39,,,14.004739396172427,2.1794794520500003,62.772884215699996,8.705951247894864,9.806631774857232,9.806601048780001,9.80664857953,9.072269098266723e-06,10.022460642008644,1.02201465774,61.4057489141,7.997997463259066,317.06041923532365,51.08063037350001,394.22404699099997,36.953194968964965,2.5088313037556063,0.535498603477,6.24768058791,1.1073218051049234,93.34729186519829,84.8790917977,104.205233995,5.616417019452859,0.7738105341144107,0.35907164173699996,0.9856105635469999,0.11548740073490105,2.5116696023073675,0.521328053801,6.24327002833,1.1076401510960963,0.8810815943270934,0.44997530189900004,0.9999980909399999,0.11755764587161224,49.8271012187208,45.0695018832,54.015739709799995,2.070802177311976,1008.3357644444443,1008.303,1008.37866,0.018353924823053234,62.857142857142854,34.0,106.0,18.386215218279972,nan,nan,nan,nan,1.38016992,1.3640475,1.3936464,0.01065101061904451,0.0,0.0,0.0,4.0,6664.3,6659.0,6669.0,3.3349995835415367,Walking,U12
40,,,14.045054849670223,2.57828111643,65.9719839208,8.394333298982588,9.806632372898536,9.80660403985,9.80664957156,8.669641315742127e-06,9.826953030297059,0.5973600950110001,63.7951124959,7.2761800879894665,319.283976051572,47.3951691521,386.211867718,39.48259922157555,2.5693377410337113,0.578800459204,5.98044305579,1.1436815893300187,94.74281530036163,87.5430219207,104.61027674200001,5.364434549856891,0.7660485972695888,0.34260375012500005,0.988107912809,0.1203866315921544,2.5656169728253033,0.568892145791,5.9762202783200005,1.140692564615228,0.8847295142991239,0.507794895126,0.999998900355,0.09744786679615741,50.04581538145347,47.8283407092,53.2696911949,1.1782387493361504,1008.3524503703703,1008.3125,1008.3987,0.027325302374495528,187.25925925925927,27.0,448.0,123.35489532008934,nan,nan,nan,nan,1.6265055,1.4811923999999999,1.7372199000000002,0.10753025677433783,0.0,0.0,0.0,4.0,6675.0,6670.0,6680.0,3.3166247903554,Walking,U12
41,,,13.734947905364411,2.6399351782900005,64.5606919762,8.786633722593189,9.806632225810175,9.806599864330002,9.80665082781,9.037480406908165e-06,9.87808154624723,1.3933501803600001,62.4074321787,7.682337648974979,317.5577413381455,49.2890574771,401.237520379,40.36232391863521,2.5512431065246455,0.597045337097,6.23746287623,1.1612742002193088,95.11778231855281,87.518231835,105.36085932200001,5.465481648707661,0.7640341431784212,0.316920816129,0.983447925169,0.1217977006380571,2.5506398394094374,0.5840972460880001,6.23287929848,1.1606403455842633,0.8598860397115557,0.353601927574,0.999999964887,0.13015172427212182,50.79484508444338,48.0191628415,54.0527533286,1.1392341030396347,1008.3612585185185,1008.32104,1008.3816,0.014309415594065046,304.3333333333333,48.0,680.0,165.37021404203264,nan,nan,nan,nan,1.5831869399999998,1.4431367,1.7234873,0.11667751823596097,0.0,0.0,0.0,4.0,6686.777777777777,6681.0,6692.0,3.9930495169036466,Walking,U12
42,,,13.979551759022184,2.25678144902,64.90239544949999,8.878539141389917,9.806631416065095,9.806597801599999,9.80664829279,9.057950736351339e-06,10.145099246311034,0.49308894111199997,67.3305898337,8.366591071555991,313.1687519899452,49.1105054899,399.582224229,40.8328323128231,2.5361826584741314,0.704935501252,6.056778023530001,1.1212388462042362,94.02742005392705,85.706709189,104.156132934,5.660645090310005,0.7746576032053077,0.363708029649,0.983035199833,0.11498892263696987,2.537732005885108,0.700048996009,6.05237594441,1.1229345823578685,0.8638778467606137,0.5303400737030001,0.999993871481,0.10609989526330603,51.105504370391635,48.9940826264,53.953501439700005,1.1051590972458933,1008.3617507142857,1008.33325,1008.4004,0.016928991772500214,273.0357142857143,90.0,548.0,128.4475630560053,nan,nan,nan,nan,1.3902358,1.3615988,1.4159903999999999,0.021205520322783812,0.0,0.0,0.0,4.0,6697.5,6693.0,6702.0,3.0276503540974917,Walking,U12
43,,,13.665035378276825,2.7227425114599995,61.637398277399996,8.528615910788368,9.8066323165422,9.80660413234,9.806648911849999,8.36765990868961e-06,9.831728338122637,0.43074308904200004,55.615127325900005,7.552770314517673,320.80864990952665,57.9384940535,398.945973667,37.22641906692463,2.5298725021765653,0.681760091027,5.42636825241,1.069433884001758,95.03115286081919,87.4082948009,104.44007851399999,5.044498072189856,0.7658810693492161,0.322539515198,0.989537194205,0.12238028997743451,2.528821122367244,0.6728424767260001,5.4223662385899996,1.069331577801996,0.8911033878401095,0.469779106968,0.999999910958,0.11435421389998339,50.242748307214534,47.4253096985,53.1235352739,1.1488289294014933,1008.3356164285714,1008.28906,1008.39136,0.022447620052728136,239.11111111111111,81.0,421.0,110.22785259261602,nan,nan,nan,nan,1.38882268,1.3677464,1.4209826,0.02341733521917044,0.0,0.0,0.0,4.0,6707.0,6703.0,6711.0,2.7386127875258306,Walking,U12
44,,,13.84447901654454,1.75247391086,63.1374492651,8.4455110876176,9.806632059150903,9.80659932287,9.806648208099999,8.413289774320037e-06,9.80321179897,1.26541007859,64.67386359529999,7.53534059855159,319.37843587680953,63.986403615200004,396.772129955,35.31406736503599,2.463174558111985,0.5953494100119999,5.420512835529999,1.0371361243918533,94.90123872474652,84.54407134739999,105.848436332,5.7098583949090065,0.763662272373728,0.303755555505,0.9858101630149999,0.11514087923357058,2.463883477042229,0.5835121471329999,5.415888923860001,1.0360624520068504,0.8424696555172246,0.488131669839,0.999525629084,0.11927870508726175,51.2118217422371,47.430053763400004,56.32628213899999,2.1051384953998062,1008.3543035714285,1008.3159,1008.3782,0.015096861634682783,301.0357142857143,79.0,645.0,137.13861118316998,nan,nan,nan,nan,1.3089820666666665,1.2501753999999998,1.3943682,0.07568184676111792,0.0,0.0,0.0,4.0,6718.818181818182,6712.0,6725.0,4.578606377887966,Walking,U12
45,,,13.981268201761617,2.33424174163,58.9212674862,7.859240939756806,9.806632176028126,9.80660591521,9.80664905967,8.72153598475428e-06,9.547962813456715,0.901885750212,55.488904308900004,6.564973359491736,310.87168830071056,63.755038394399996,397.929232536,35.79340816604779,2.594192621339412,0.162542747614,6.68533036604,1.1558428982565154,92.1128656433115,69.9682785268,111.33171465,11.314300152232864,0.7868125261124408,0.250965623112,0.993411255817,0.11616057710831273,2.5941696654194106,0.153859741877,6.67938036105,1.1564641961850357,0.8397923076826942,0.35193617521399995,0.999476375184,0.11762265048748403,52.770362452502305,40.66214621,59.6685021297,4.74637876240389,1008.332444642857,1008.2951699999999,1008.3589,0.014964382523593433,285.2857142857143,51.0,747.0,219.86272773623784,nan,nan,nan,nan,1.19914598,1.1602228,1.2293535,0.027360279597383463,0.0,0.0,0.0,4.0,6730.888888888889,6726.0,6735.0,2.934469476943168,Walking,U12
46,,,14.04217895495038,1.8855934512299999,65.1080462755,8.555645202367321,9.806631474629807,9.80659901894,9.80665023176,9.043755187262456e-06,10.378342600510079,1.1404252181999999,67.7888986432,8.119291230312745,304.54574492781893,57.1226921804,400.665992832,35.42005977466204,2.5412221564302615,0.46571067812,5.995544638180001,1.1101424731520266,86.36182332706795,70.2279870735,104.388984188,8.41282995942814,0.8000779170359557,0.396971353424,0.978482041622,0.11270906516385722,2.5425661473328725,0.46270995671099996,5.991333028380001,1.1105783862518595,0.8493069563461326,0.392870048698,0.999994475497,0.12371073433992891,47.58769064228704,40.7535290891,55.4192204925,3.9619588353743427,1008.3660188888889,1008.3323,1008.38745,0.013797491503691422,82.62962962962963,38.0,126.0,21.394010930718526,nan,nan,nan,nan,1.15120436,1.1321276000000002,1.165409,0.012554183803537235,0.0,0.0,0.0,4.0,6741.222222222223,6736.0,6747.0,3.666666666666667,Walking,U12
47,,,13.682074859756309,1.20212052041,58.76723172,8.23467197012205,9.80663158603348,9.8066038085,9.80664743061,8.323721012952107e-06,9.817464745480159,0.8011429475830001,59.594297983699995,7.038413894010827,312.17298559338064,69.5671586717,404.160912415,31.931609061544194,2.5110609273623767,0.596907524644,5.9209303109,1.0478429760857169,91.91398237290637,78.0977593904,109.896542356,6.80121440843624,0.78611028481321,0.393330848512,0.986401587281,0.11764252197925112,2.5109792354381875,0.588098342002,5.9169220653100005,1.047999293927512,0.8818470309986937,0.506331362923,0.999999989487,0.11051338061373948,50.71372126580463,46.6040770749,60.220264107700004,1.9610958811193238,1008.3499328571428,1008.27905,1008.4197,0.036358654668622564,69.21428571428571,39.0,102.0,17.75420063567043,nan,nan,nan,nan,1.2336528,1.1459625,1.3249106000000002,0.0747629062816916,0.0,0.0,0.0,4.0,6752.5,6748.0,6757.0,3.0276503540974917,Walking,U12
48,,,14.069228137108412,1.4319223279299997,64.810101084,8.462390129706817,9.806632600857606,9.80660675079,9.80664889995,8.209022025384286e-06,10.298214383373764,1.55068744699,62.2493293803,8.737534136091696,315.14193385216294,46.335303608100006,400.58508089,33.12423170018429,2.501902997756298,0.40958414407899996,6.00661421978,1.0848687059508484,91.2987681326896,80.6892805768,103.95292203700001,6.462064777148367,0.771416277502825,0.371244870369,0.9777162038339999,0.11617259360209839,2.5033335028305275,0.40412431819300004,6.00165784691,1.0873042952949539,0.8575293136210941,0.42806700409000004,0.999996899945,0.1311906438481303,49.32006277216673,45.6362797761,53.855363357799995,1.6790422238499667,1008.2923492592593,1008.2483,1008.3286,0.024884518808942154,27.333333333333332,2.0,76.0,16.30478929168218,nan,nan,nan,nan,1.3210617,1.3210617,1.3210617,0.0747629062816916,0.0,0.0,0.0,4.0,6762.9,6758.0,6768.0,3.4785054261852175,Walking,U12
49,,,13.751585068850808,1.57279055855,62.4228292604,8.743862287099299,9.806632787928741,9.80659948678,9.8066497221,8.99273328084753e-06,9.826398661426914,1.25094542017,57.6917077253,8.506191960030367,322.27522673915155,57.6625463574,397.37319026800003,31.52170203227028,2.424169071194483,0.480249976333,5.72703969994,1.0654954846541096,96.20501379058722,86.0712509564,106.619611114,5.893203020821987,0.766143526987393,0.40246585044600003,0.9809611645649999,0.11803854105377548,2.4235391240462474,0.46722017089100004,5.7230178897,1.0659581712149473,0.8445432682176116,0.401643730667,0.999944178264,0.12958987246566375,52.36604423214904,49.3098381097,55.229249497,1.2498393840847544,1008.2755735714285,1008.23584,1008.3132300000001,0.020520839311099322,24.464285714285715,9.0,44.0,7.8950624178666615,nan,nan,nan,nan,1.3210617,1.3210617,1.3210617,0.0747629062816916,0.0,0.0,0.0,4.0,6777.0,6770.0,6783.0,4.444097208657794,Walking,U12
50,,,13.602630635474043,1.5324055685,60.7834890753,8.392320396405712,9.8066319071451,9.80660213649,9.80664912672,8.905223434049393e-06,9.500051289153243,1.59240166249,54.505603145500004,6.912945350873031,323.5272142252199,94.5419525428,397.82168188599996,25.761123168724826,2.4255972004760276,0.70692236697,5.6294984677999995,1.027246278002594,96.13461599372151,87.6637895599,106.966350006,5.5010935703086075,0.7660693647372058,0.373033187365,0.986086333565,0.12145046923450034,2.425449139897437,0.691299999998,5.6246669202,1.028706628480287,0.8729401876982952,0.384996578265,0.999999631059,0.11016799329305066,52.42719980242757,49.4908072272,55.6852778964,1.199251905203419,1008.2786240740742,1008.23,1008.3244599999999,0.022168720732549926,31.85185185185185,20.0,50.0,7.754421585847273,nan,nan,nan,nan,1.3210617,1.3210617,1.3210617,0.0747629062816916,0.0,0.0,0.0,4.0,6790.2,6784.0,6796.0,4.157990967870047,Walking,U12
51,,,13.718402577185307,2.3366164222799997,60.8828981977,8.49755912775485,9.80663274624807,9.80660389095,9.806649127170001,8.547489187969556e-06,9.938413269021352,0.792723779437,53.3907638429,7.1709473373121835,319.77055822332136,54.7409549366,401.015028515,35.59248824802373,2.5202008412583736,0.513039577889,6.43208021508,1.1097463350933712,94.71923534409054,84.27342529170001,105.597872455,5.962107528385454,0.7673861747887746,0.411302289076,0.987023316377,0.12006561734060718,2.5225805179127976,0.5150363471689999,6.427614811310001,1.1099580889558998,0.875576124878054,0.46647951828100004,0.999999492975,0.12147226029099194,51.09054800699827,48.443886408900006,54.099722735,1.1450520392697006,1008.2863517857141,1008.2461,1008.31616,0.017376364972472167,34.214285714285715,10.0,62.0,11.50638194207134,nan,nan,nan,nan,1.0858014999999999,1.0858014999999999,1.0858014999999999,0.0747629062816916,0.0,0.0,0.0,4.0,6802.6,6797.0,6809.0,4.351245032554859,Walking,U12
52,,,13.812944336756411,2.2605933729700003,62.2148414116,8.661140294823051,9.806632636297241,9.806609527100001,9.80664917879,8.478511648234274e-06,9.82217974818772,0.999740855299,60.8722131,7.561548983978231,316.7370346303449,45.709485675500005,400.67705746300004,37.911805375937334,2.507386034940699,0.336510628045,6.2511501663699995,1.102799344156125,95.44034006120977,84.85434728050001,106.04994416299999,5.806320412783107,0.763881078981119,0.38131783444300005,0.980849537753,0.1131738071595361,2.50468626765834,0.33081907230200003,6.24663007497,1.1014902587575066,0.8483389476521992,0.397043020339,0.9996463968420001,0.1270113215157163,52.09016335224646,49.44107639,55.225900296899994,1.2039679353971682,1008.2698616,1008.2280000000001,1008.3242,0.02533667034162908,15.44,5.0,26.0,6.151422599691879,nan,nan,nan,nan,1.0858014999999999,1.0858014999999999,1.0858014999999999,0.0747629062816916,0.0,0.0,0.0,4.0,6815.4,6810.0,6820.0,3.2041639575194445,Walking,U12
53,,,13.696952990913449,2.43182120835,62.3023659758,8.033997003446858,9.806632756874878,9.806603429389998,9.806649240499999,8.352165612702938e-06,9.543746431433066,0.6545339807630001,61.82556560850001,7.403247407489279,326.556295045129,64.1581991708,397.72764251300003,31.292792427444766,2.4389208585851394,0.46198838449199997,5.80804548848,1.1098895551779246,97.23998300558122,90.0189980089,106.183335849,4.908290612471342,0.7583488052910516,0.36907151230999996,0.988181556727,0.1175351345631612,2.4352383158516244,0.44927520911300006,5.8037643291,1.111300234688175,0.8929522281956521,0.45636629666999995,0.9999995059819999,0.11553146251473988,51.28501598821377,48.954877183,55.0734976202,1.2173920925348287,1008.2658003846154,1008.2119,1008.29614,0.026182792896214554,20.11111111111111,9.0,32.0,5.8594652770823155,nan,nan,nan,nan,1.0858014999999999,1.0858014999999999,1.0858014999999999,0.0747629062816916,0.0,0.0,0.0,4.0,6825.0,6821.0,6829.0,2.7386127875258306,Walking,U12
54,,,13.929649478206695,2.3802045722400003,63.4779266729,8.610577892565273,9.806632949773805,9.806602634410002,9.80664868,9.078657807205572e-06,9.969722076018304,1.3803720224899998,57.4107369674,7.410963035411954,318.23845264136935,65.29127921140001,384.9770274,36.35041354307335,2.439238570718445,0.417809150908,6.47154554527,1.1041572778404214,95.98094162464413,88.12474506059999,106.460180349,5.751228246442969,0.7611232018043139,0.36666763709899997,0.9957512425020001,0.12820771857383115,2.4390060164246834,0.41150244045999995,6.4670092955800005,1.1046661529032797,0.8800309247468991,0.460169659407,0.999933757756,0.11959848905491184,51.88267205028333,49.2703764954,55.4331128841,1.3018750110253943,1008.2599524999999,1008.23364,1008.2973599999999,0.016961651217877637,22.0,9.0,39.0,8.844332774281067,nan,nan,nan,nan,1.0858014999999999,1.0858014999999999,1.0858014999999999,0.0747629062816916,0.0,0.0,0.0,4.0,6834.5,6830.0,6839.0,3.0276503540974917,Walking,U12
55,,,13.26218612817086,2.58490534019,61.7327207487,8.204931484525115,9.806632257073492,9.80660399844,9.806649735630002,8.87164839834181e-06,9.368571590687578,0.8499827157619999,56.73888552729999,6.83106751785175,321.94898747600513,73.140491248,400.828471456,34.967344333390145,2.422981034058613,0.26377505617400004,5.9690021176,0.9995489173942816,96.56757835798656,87.9626056913,107.081791169,5.445145508004698,0.7660254654257357,0.318915952738,0.990686310143,0.12001755737676606,2.424225138374913,0.248327745178,5.96444879303,0.9998618430521803,0.8847344688167315,0.589294922154,0.9999999968000001,0.0939001086682419,52.80536104911183,50.8289287709,55.8799619399,1.1643478723728682,1008.2589132142857,1008.20825,1008.3127400000001,0.023364634569049525,20.428571428571427,10.0,39.0,6.646795782923843,nan,nan,nan,nan,1.0858014999999999,1.0858014999999999,1.0858014999999999,0.0747629062816916,0.0,0.0,0.0,4.0,6844.777777777777,6840.0,6849.0,3.0731814857642963,Walking,U12
56,,,12.993754043005866,2.14037677075,62.300258077399995,8.10220869278671,9.806632567945302,9.80659922767,9.80664930227,8.295136418210237e-06,9.07443587648384,1.14184247173,58.0862315698,7.232366348258404,328.78960408401264,57.4961465489,397.074489844,33.916761412169414,2.376526542943289,0.46362750625200005,5.720416858230001,1.0131206079741033,97.87481753121439,90.05587669,106.76277441100001,5.220850461198148,0.7523705913889512,0.374685426586,0.975413416614,0.1160937475092745,2.3773548510784495,0.467395023786,5.71481612075,1.0118832687910184,0.8807084189870642,0.371092264517,0.999999249687,0.11668530294873151,52.51371407911087,49.986398646000005,55.0048179708,1.221979798653984,1008.2664555555556,1008.23535,1008.301,0.015764745559770952,16.85185185185185,6.0,30.0,7.649553550088365,nan,nan,nan,nan,1.0858014999999999,1.0858014999999999,1.0858014999999999,0.0747629062816916,0.0,0.0,0.0,4.0,6854.5,6850.0,6859.0,3.0276503540974917,Walking,U12
57,,,12.892456418349163,2.78566252287,59.7199575887,7.914856874584012,9.806632630034112,9.80659944089,9.80664979997,8.535407262419203e-06,8.838605222578684,1.09870076675,55.9798781374,6.724221443786169,325.1094298879421,51.046936518,397.963181906,37.72388931272592,2.33927773546968,0.409212710866,5.5539268880199995,1.0315691423972106,97.19544280291227,89.4870420515,106.33216822799999,5.050510256380278,0.7549296884830765,0.38593494182800003,0.9840109452320001,0.1121589426449783,2.3402480097667997,0.412021914587,5.54847702653,1.0306304766691332,0.8274998822544952,0.347467571344,0.999994682925,0.1172172305919344,51.66859588532419,49.403339968100006,54.4532827293,1.1008963746308176,1008.2983360714286,1008.25195,1008.32886,0.02107376714715464,18.0,7.0,33.0,6.770978795281658,nan,nan,nan,nan,1.0858014999999999,1.0858014999999999,1.0858014999999999,0.0747629062816916,0.0,0.0,0.0,4.0,6864.0,6860.0,6868.0,2.7386127875258306,Walking,U12
58,,,13.366123780727797,2.66560306738,62.8210775612,8.50630963837797,9.806632202788348,9.8066014008,9.80665151395,8.94991904803179e-06,8.953660268405713,0.593566054914,58.433577956099995,6.927949149312066,325.58501439418495,69.95862466770001,402.716192929,32.838299329204716,2.361749970273743,0.327396841386,5.62237695306,1.0268391908287267,96.00614311029378,88.86349081600001,105.337271816,5.290786546071337,0.7577050389443875,0.325900716145,0.974193841918,0.11154547572916987,2.3605971931302845,0.316457055125,5.61751426337,1.0232613594091393,0.90759339119675,0.552543592619,0.999999996638,0.09397456576564846,51.34889889522515,49.1986788441,54.222320127399996,1.0709608508857276,1008.3059885185185,1008.2610000000001,1008.3369,0.017592256973236187,21.51851851851852,9.0,33.0,5.898959297852529,nan,nan,nan,nan,1.0858014999999999,1.0858014999999999,1.0858014999999999,0.0747629062816916,0.0,0.0,0.0,4.0,6873.5,6869.0,6878.0,3.0276503540974917,Walking,U12
59,,,13.027340834237176,2.1025923812,58.6703279975,8.085655118138106,9.806631766780098,9.806603705039999,9.8066489548,8.46652822858936e-06,9.094871198855197,1.4503162062700001,50.982079909300005,7.1616079767941,320.1138706176053,70.6773321502,396.258128015,34.2216055096399,2.444162349073706,0.5391964021019999,5.643221129,1.0316352918234428,95.02336325008959,87.05641860200001,105.958246494,5.51151712504953,0.7671468871605375,0.39464191715400004,0.9724860782960001,0.10906051506533779,2.444049218210435,0.528913141597,5.638464163639999,1.0308903083669243,0.864878384735,0.442580049888,0.999999941859,0.11752575353603258,51.866147350954016,48.846801328199994,55.8628689596,1.4868439416124914,1008.3069518518519,1008.2719999999999,1008.3393599999999,0.01652704893313659,21.444444444444443,10.0,33.0,6.368995412473034,nan,nan,nan,nan,1.0858014999999999,1.0858014999999999,1.0858014999999999,0.0747629062816916,0.0,0.0,0.0,4.0,6883.0,6879.0,6887.0,2.7386127875258306,Walking,U12
60,,,13.001566771698787,2.47426518869,63.5431323249,8.143419669595968,9.806632632355711,9.806596474980001,9.806648714369999,8.723845706652723e-06,8.95757932560718,0.842166274366,64.2019217395,6.760661184796427,324.7325726151629,56.6237990918,396.247820382,33.92912176384111,2.3698722592877433,0.565078364904,5.66354451377,1.008247784387231,99.14910457175368,89.6184728,108.94705136,5.321470383454042,0.7526339577207495,0.373445801819,0.966947118239,0.10754867772618117,2.372572874650628,0.55156735142,5.659361779530001,1.0081709873459026,0.8440312520782621,0.341031138309,0.9994204712729999,0.13381727488766598,54.846798781994934,52.307649574399996,58.865439799799994,1.377756205911817,1008.28518,1008.2385,1008.3247,0.022536631579773463,19.074074074074073,4.0,31.0,7.1032274675558895,nan,nan,nan,nan,1.0858014999999999,1.0858014999999999,1.0858014999999999,0.0747629062816916,0.0,0.0,0.0,4.0,6892.5,6888.0,6897.0,3.0276503540974917,Walking,U12
61,,,13.333879501840515,1.4911485372799997,59.6602498208,7.816465437570816,9.806632217227365,9.80660671979,9.80665014852,8.659085690757647e-06,9.000537480078354,0.423639791365,55.1181307475,6.466556139098872,326.36459744040417,64.6795547824,399.738844847,30.242430949462367,2.3848367100349224,0.356553407685,5.864421838659999,1.0800924504872682,98.5486399931173,90.5943707016,112.133402695,5.534325646964996,0.7610069273627083,0.30596114469700003,0.987880713333,0.1182401768200666,2.38631034675663,0.348484803786,5.8598501472899995,1.0803518722275203,0.8339149324361113,0.476853107058,0.999999973319,0.11738551414590753,53.22808184564247,48.1301360896,65.3740784899,3.35814024312002,1008.3002507142857,1008.2651400000001,1008.3423,0.023617104273923082,20.428571428571427,2.0,39.0,10.949136855642909,nan,nan,nan,nan,1.0858014999999999,1.0858014999999999,1.0858014999999999,0.0747629062816916,0.0,0.0,0.0,4.0,6902.555555555556,6898.0,6907.0,3.2058973436118907,Walking,U12
62,,,13.564751049548853,1.60990660406,62.481424852399996,8.032455760323815,9.806632731349424,9.80660283725,9.806649373339999,8.236453540504796e-06,9.38702199900962,0.597320792783,59.310434267,7.159110812076784,323.82051192444675,65.2262319474,387.614858701,32.27916032043718,2.4595093712319125,0.7597538694679999,6.08716444104,1.0815558150766713,96.66166484187447,89.46893699489999,105.89570340700001,5.037365166557985,0.7589881334888389,0.36508803496,0.980320813346,0.11524992027777657,2.46310404146926,0.744516192331,6.083227571749999,1.08323005428345,0.9137508735259999,0.45652224157899995,0.9999999014319999,0.1099972488865093,51.789102534968244,49.4025307004,54.442905874,1.192114869734054,1008.2786710714287,1008.2427,1008.3032,0.013670994528642764,27.678571428571427,10.0,41.0,8.000248012028642,nan,nan,nan,nan,1.0858014999999999,1.0858014999999999,1.0858014999999999,0.0747629062816916,0.0,0.0,0.0,4.0,6912.5,6908.0,6917.0,3.0276503540974917,Walking,U12
63,,,13.425370396539217,2.4084015008,63.995855562399996,8.671117573987699,9.806632445984183,9.80659898185,9.806649046799999,8.45258422623782e-06,9.394274179716627,1.0282835091299998,53.9860560561,6.947025419462275,322.8650843743872,49.2421202782,399.51113975199996,36.96917157922862,2.37005222278231,0.314115765375,5.96905822887,1.0492173612594369,96.89030374689942,89.5536748101,107.58778508299999,4.977807501584723,0.7560111733124281,0.373294240019,0.988604680231,0.11797013276108004,2.371895239392126,0.424008707726,5.965127214090001,1.0490243224349916,0.8372622496326322,0.38058728956,0.997865611893,0.11873363395167012,51.57545984398283,48.8202836145,57.8696811811,1.6840922667786136,1008.2805617857142,1008.2497599999999,1008.3096,0.016124702249003506,35.892857142857146,17.0,52.0,9.70810766819953,nan,nan,nan,nan,2.4438386000000003,2.4438386000000003,2.4438386000000003,0.0747629062816916,0.0,0.0,0.0,4.0,6922.0,6918.0,6926.0,2.7386127875258306,Walking,U12
64,,,13.49385538278959,2.04496675568,61.7412228236,8.37428402979441,9.806632770358547,9.80660427584,9.806648967889998,8.636245303199741e-06,9.877729559574895,0.9353647367200001,58.408237881800005,7.875864156032514,322.65183214491395,34.975347232800004,398.161180399,46.14980347452554,2.4169752710783254,0.40667020774400003,5.9845239037699995,1.0227007220598494,96.4189592241618,87.114181865,108.815210334,5.344783535958354,0.7555719330322306,0.293474180996,0.993207103478,0.1206227835420251,2.418693630402877,0.390988333206,5.98008485923,1.0212878131903678,0.8860792912568897,0.330079890013,0.9999756674160001,0.13608332440517876,50.74969422713289,45.089244837299994,56.9366330968,3.5436393426458115,1008.2934688888889,1008.2219,1008.3662,0.034865176293108494,43.851851851851855,17.0,77.0,14.847179746966978,nan,nan,nan,nan,2.3169068999999998,2.2953707999999997,2.338443,0.030456644700623293,0.0,0.0,0.0,4.0,6931.5,6927.0,6936.0,3.0276503540974917,Walking,U12
65,,,13.21383370653575,2.58850350909,62.898278613,8.173953727553261,9.8066322056458,9.80660086819,9.80664963886,8.938609417722312e-06,9.51510016023143,0.7210795584999999,55.418931980299995,7.276452358685233,324.8451947325278,62.239829219799994,400.189311416,36.6401417510054,2.483458541388781,0.43863808835600004,6.00347098,1.0157775488001497,90.33940433904003,81.1686515842,100.461984095,5.219241861463738,0.7561598380321247,0.267495894397,0.9719736065860001,0.11971559861394354,2.481253149619837,0.43752813666100004,5.998334410090001,1.010579411645433,0.900442847309556,0.372091636004,0.999500943011,0.11283288765391507,44.47586720422674,40.7058976833,48.4864929709,1.8028481265974012,1008.2764046428572,1008.24805,1008.3064,0.01462555284985699,42.92857142857143,18.0,67.0,14.61335911247871,nan,nan,nan,nan,2.1190898,2.0018265,2.2478404,0.10011156159842374,0.0,0.0,0.0,4.0,6941.444444444444,6937.0,6946.0,3.2058973436118907,Walking,U12
66,,,13.797322864142458,2.53216708276,63.1002050437,8.86382203355232,9.806631849897743,9.806603301200001,9.80664970857,9.054024740320524e-06,9.648371023298937,1.12073454028,56.205717705699996,6.982417857092978,319.8498098959693,56.6448090164,400.809358075,34.82852910170772,2.46368278471998,0.360311435518,5.63377964019,1.0446856438500134,90.0455118569553,81.2340445872,100.256375347,5.1641065439822995,0.7633275655069772,0.31237157105,0.970247559531,0.11575289766679124,2.465895446966592,0.35456027702,5.629327761290001,1.0455995608386255,0.8535445134784011,0.341232295598,0.9999975601569999,0.12746381692165779,46.040934915341374,41.0922140995,49.5933463279,1.982134045689469,1008.2752285714286,1008.2324,1008.302,0.018366237485267244,39.142857142857146,17.0,61.0,12.524684621487475,nan,nan,nan,nan,1.89116176,1.8113503,1.9730174999999999,0.06523467239227922,0.0,0.0,0.0,4.0,6953.777777777777,6948.0,6959.0,4.116363011742823,Walking,U12
67,,,13.560750533628399,3.14231495802,60.2572506167,8.303640813184158,9.806631859616544,9.80659981909,9.8066480208,8.931685369022792e-06,9.656280308018813,1.67980575709,58.1874189603,7.569999284844191,316.65365144494325,30.441454353,395.64222825300004,37.28561875406168,2.5055592832779814,0.327237385737,5.4612098078199995,1.0671285278761267,93.47655508839111,80.7223031163,104.783256544,6.369931550719159,0.776108631035339,0.249976127852,0.976159820517,0.10244451807981501,2.503865447376833,0.312680069454,5.456564783180001,1.067093696460168,0.8796519648977374,0.429894767773,0.999999868415,0.11656978110654162,51.44607580118,45.211724143199994,57.7825233094,3.021870375996587,1008.2835903703703,1008.2466,1008.3127400000001,0.017607194438969315,22.40740740740741,10.0,43.0,8.590062502052811,nan,nan,nan,nan,1.7378343666666665,1.681589,1.780114,0.05072548853291936,0.0,0.0,0.0,4.0,6965.2,6960.0,6970.0,3.425395354310701,Walking,U12
68,,,13.154312853046722,1.75307108746,60.9334842895,7.456077922275216,9.806632823482504,9.80660176503,9.80664988425,8.371263579699237e-06,9.117964983001235,0.823370216786,52.6625376528,6.921719541813084,322.6717047665395,73.7318228783,397.274477517,30.47094102521182,2.3374041412988182,0.411696817691,5.6528075296099995,1.060271620764731,94.98429227069751,83.7783981944,107.09925303200001,5.849300740884608,0.7591648747573307,0.366271568561,0.9544409044040001,0.10852614974388718,2.338311927582849,0.40727249058,5.64789963406,1.0599265776461624,0.8400518509300915,0.320057853514,0.999998716797,0.1156988630067564,50.69262293794799,44.5710668483,57.634713067700005,3.3675475989160444,1008.2694466666667,1008.23413,1008.3096,0.024370725345086785,22.59259259259259,8.0,45.0,8.745369144952173,nan,nan,nan,nan,1.7378343666666665,1.681589,1.780114,0.05072548853291936,0.0,0.0,0.0,4.0,6975.0,6971.0,6979.0,2.7386127875258306,Walking,U12
69,,,13.50729379424542,1.10957621243,65.6160866812,8.496863138368544,9.806632357772616,9.806603915339998,9.80664875503,8.341719592929421e-06,9.259127860090633,1.2712963448899999,65.3795214033,6.956526044605862,327.1717263093078,39.1558165964,399.522359316,37.29787947073899,2.41677785316589,0.7510514573479999,5.575901196269999,1.0394749280738396,101.18871461267699,89.048638395,111.665482581,6.197724929095796,0.7562172725970552,0.331170300539,0.9755244477299999,0.11444585959499377,2.4165684431190924,0.754329863487,5.57160105066,1.0384163157860864,0.8671179488643879,0.38768480591300003,0.9999999999979999,0.12191606746070525,56.16013734237385,52.9042531372,61.5481924999,1.6119428716657986,1008.2543496296297,1008.2278,1008.29175,0.017297342944358713,21.11111111111111,8.0,31.0,7.17545674415082,nan,nan,nan,nan,1.7378343666666665,1.681589,1.780114,0.05072548853291936,0.0,0.0,0.0,4.0,6985.818181818182,6980.0,6991.0,3.6005050150827955,Walking,U12
70,,,13.314193477179504,1.99855402208,61.5060855537,8.49744021122511,9.806632934434115,9.80660025641,9.80665000865,8.975040452547346e-06,9.753445477802035,1.7620052960400001,60.099659422200006,7.702929806797277,324.02786534131786,33.6009802929,403.028554366,62.53789174377528,2.431604963213063,0.38213754004199996,6.34055853348,1.0434003543629222,104.39450698086415,96.4781322373,112.424952746,4.085417569023452,0.7387993521772824,0.284813328535,0.9889284693799999,0.12638498467794906,2.4289733099338773,0.38353810876999994,6.334790805619999,1.0420946401972933,0.8611298473306349,0.36002410856899997,0.999925357452,0.13027056914265214,56.440719676093536,53.0246183617,59.4906715376,1.4626952281721664,1008.2382892857142,1008.19995,1008.28394,0.023792231680947403,30.814814814814813,20.0,50.0,8.535162731254914,nan,nan,nan,nan,1.4159482,1.4159482,1.4159482,0.05072548853291936,0.0,0.0,0.0,4.0,6996.5,6992.0,7001.0,3.0276503540974917,Walking,U12
71,,,13.45398436678588,2.4758114745,61.739628404399994,8.285332799133206,9.806632826757749,9.806603507050001,9.80664953447,8.479639312147629e-06,9.395595780576103,1.14845304646,56.8092846837,7.014318283461999,327.14069356280635,41.4844310127,400.297428023,42.24410310243985,2.430490254214005,0.537263043912,6.014264795800001,1.0745375364466276,99.3604984235447,93.0850724177,110.041356056,4.546759851465807,0.7492283474052448,0.327552441772,0.9868115989749999,0.12180509626125662,2.431982392389928,0.5243471298899999,6.009125055580001,1.0739226026305353,0.8655748414802312,0.404228577708,0.9999999452189999,0.10626068663273774,52.76924795217795,48.697228376999995,57.891710912700006,2.020751434377828,1008.2573522222222,1008.2263,1008.2842,0.014960638183988153,25.5,16.0,39.0,6.790516262487788,nan,nan,nan,nan,1.3278142,1.3194327,1.3379695,0.008805317909082101,0.0,0.0,0.0,4.0,7007.363636363636,7002.0,7013.0,3.7489392439122633,Walking,U12
72,,,13.69993711490854,2.0046038804700004,61.2456919779,8.836692597366389,9.806632762056225,9.80660914125,9.806648738139998,8.407615806064105e-06,9.817991208378984,1.1526445678100001,60.1910100499,7.589141774932807,326.6704921081092,55.534589104700004,396.117619136,36.11688468332365,2.4723663996258076,0.464403991922,5.79213313732,1.0819294572749822,102.95484490783653,93.4278907607,120.577029322,6.331769623691552,0.7526582149143138,0.38670850934,0.9933136414,0.12163625876527126,2.4791444799106026,0.459388432962,5.78730089621,1.0812897758552835,0.856509477929322,0.385497213114,0.999999933752,0.1236304603022612,57.42443692516477,52.6363946391,70.3183475346,4.115019884664067,1008.2532567857143,1008.2295,1008.2844,0.015335541399853766,18.535714285714285,4.0,32.0,8.90061230876278,nan,nan,nan,nan,1.3986402500000001,1.3512837,1.4459968,0.06697227527719966,0.0,0.0,0.0,4.0,7020.7,7014.0,7026.0,4.056544780420347,Walking,U12
73,,,14.037364706743078,2.03165293093,60.8428085845,8.783784024684053,9.806632707419697,9.8066041584,9.806648576319999,8.693126731360376e-06,9.811089320626923,1.15831337066,59.6634733252,7.192640860552705,323.37865073651795,48.1731736025,398.88550939999993,39.45231340281267,2.4736127544917226,0.5218197593639999,5.95240905056,1.084169833454911,95.31630559899448,84.3764185066,109.38569376299999,6.190317127492308,0.758782305836021,0.312815225659,0.990490102396,0.12221241278912244,2.474973855329803,0.5089043748600001,5.94823106416,1.0845031408446801,0.8617754505714448,0.33643133435500006,0.9999799969869999,0.10929734920330529,49.90687494147782,45.8982574571,56.3292996583,2.3868657495671126,1008.2603185185185,1008.22046,1008.3042,0.023962003207599912,19.88888888888889,8.0,33.0,6.623578705790011,nan,nan,nan,nan,1.4498036,1.4421873,1.4612644,0.008183589601554174,0.0,0.0,0.0,4.0,7031.5,7027.0,7036.0,3.0276503540974917,Walking,U12
74,,,13.357948710980416,2.58368563819,61.700349414399994,7.997731642386992,9.806632624622237,9.80660219231,9.80664892534,8.890998558219255e-06,9.357335088017262,1.0564043031,54.68621002890001,7.245582445647277,324.96348223556294,34.801970029,400.164704701,37.44180995915044,2.458057082230862,0.71712716472,6.0434125430800005,1.0564987464848823,96.16418340227888,87.02700861459999,105.50061629999999,4.8918510497005485,0.759876865307516,0.296882556921,0.985719426198,0.11870305473461681,2.4604863953419733,0.710219144196,6.039026043,1.0561356880347716,0.8487896615765849,0.418822763679,0.9980092953030001,0.12309063491780227,50.598372161112074,46.6776177627,53.5101859462,1.4230869163166517,1008.29851,1008.2075,1008.33984,0.030161840497926657,17.071428571428573,7.0,26.0,4.799140134622663,nan,nan,nan,nan,1.4498036,1.4421873,1.4612644,0.008183589601554174,0.0,0.0,0.0,4.0,7043.25,7039.0,7047.0,2.815771906346718,Walking,U12
75,,,13.798852001514213,2.22211354522,65.2107796667,8.350128948332221,9.806632399176229,9.80660213187,9.806648564889999,8.78165169921743e-06,9.457043091464678,1.21628757623,60.255866878199996,6.9542761075947634,321.8927170919314,75.158052012,398.380126473,34.697798430179716,2.5348996629053953,0.800303595257,6.09239541681,1.0834641578849602,93.6730465237025,84.6962231413,104.456597025,5.451251558646301,0.7603424188082608,0.316228660167,0.990025256193,0.12129622764822261,2.5359234274720768,0.794976374613,6.08821925674,1.0793401639807025,0.8791022638354097,0.36078245176299995,0.999999988142,0.11956333728015739,48.8992785656668,44.141024002600005,53.4928967247,2.240162096272214,1008.3109878571429,1008.26074,1008.34106,0.018001135428612015,15.296296296296296,8.0,24.0,3.900836348339189,nan,nan,nan,nan,1.4498036,1.4421873,1.4612644,0.008183589601554174,0.0,0.0,0.0,4.0,7052.5,7048.0,7057.0,3.0276503540974917,Walking,U12
76,,,13.632001196717523,2.44889912776,60.1679237021,8.257574900044144,9.806632134616153,9.8066018001,9.80665033098,8.8046314233121e-06,9.43153996181787,1.55551437389,50.6928083433,6.7639839640962744,322.90505701274486,60.6220129954,396.49202142800004,28.965357012440183,2.398026269030542,0.380894251374,6.027175125,1.0166735169793184,96.15009699962197,86.97178089469999,106.604737356,5.969536657355027,0.7612401786263501,0.317703830477,0.987928586437,0.11264964178888888,2.4003968517343965,0.370903292447,6.0228504224699995,1.0149686546937902,0.8825144944005316,0.335242143198,0.9999999852079999,0.10961568961575208,52.800737373963166,49.683095716800004,56.230064824799996,1.3212471838534603,1008.2995535714286,1008.2141,1008.3486300000001,0.041383662746639245,14.892857142857142,6.0,27.0,5.328743064316635,nan,nan,nan,nan,1.4498036,1.4421873,1.4612644,0.008183589601554174,0.0,0.0,0.0,4.0,7064.3,7059.0,7069.0,3.3349995835415367,Walking,U12
77,,,13.55071134886929,1.4374075947,63.3862253514,8.598950860386394,9.806632558188657,9.80660243748,9.806649622050001,8.747780520094857e-06,9.775172893298787,1.0554454066299999,57.856187534600004,8.024706636299959,326.9940719372784,57.005230266800005,393.585251231,32.271451225662204,2.4049714504588864,0.472306356825,5.67055886227,1.0659692185485428,97.6587349285148,89.50424570940001,111.36857725600001,5.419968865421187,0.7525956040715,0.298399694234,0.9933556476790001,0.12549995125076152,2.405232701714844,0.4606157325,5.66502962857,1.0663492796703196,0.8439347332791873,0.350558062693,0.999809251827,0.12436555753515006,51.9010374856158,47.4007388191,59.7271323169,2.7761060992586324,1008.2377014814815,1008.16235,1008.2825,0.029964446843626084,19.14814814814815,10.0,38.0,6.614109066717811,nan,nan,nan,nan,1.4498036,1.4421873,1.4612644,0.008183589601554174,0.0,0.0,0.0,4.0,7075.545454545455,7070.0,7081.0,3.7779263191236634,Walking,U12
78,,,13.360772265512209,3.78351913514,56.17738363270001,8.879479349158158,9.806633174814841,9.806607124700001,9.80664831687,8.674591029940157e-06,9.765822364371685,1.30976842071,48.3267895679,7.846125171322343,313.61122430745104,54.817084441300004,374.251274351,39.80563366204386,2.7343288602209848,0.44596429284100003,6.196353568769999,1.2013397214961299,92.33296904986979,85.8965657055,103.10892298899999,5.094726041062645,0.7799120338191788,0.403630690008,0.979088869568,0.1219388039187062,2.7300403449619894,0.431080811807,6.191797973080001,1.1998157352312642,0.9304249958079684,0.838604342297,0.9978800497050001,0.03487031443716678,49.75259295884166,48.139484833100006,53.1846782448,1.270041228257542,1008.178362,1008.1748,1008.1865,0.004761383202382032,26.6,15.0,44.0,10.784247771634329,nan,nan,nan,nan,1.4498036,1.4421873,1.4612644,0.008183589601554174,0.0,0.0,0.0,4.0,7083.0,7083.0,7083.0,3.7779263191236634,Walking,U12
