time,activityrecognition#0,activityrecognition#1,android.sensor.accelerometer#mean,android.sensor.accelerometer#min,android.sensor.accelerometer#max,android.sensor.accelerometer#std,android.sensor.gravity#mean,android.sensor.gravity#min,android.sensor.gravity#max,android.sensor.gravity#std,android.sensor.linear_acceleration#mean,android.sensor.linear_acceleration#min,android.sensor.linear_acceleration#max,android.sensor.linear_acceleration#std,android.sensor.orientation#mean,android.sensor.orientation#min,android.sensor.orientation#max,android.sensor.orientation#std,android.sensor.gyroscope_uncalibrated#mean,android.sensor.gyroscope_uncalibrated#min,android.sensor.gyroscope_uncalibrated#max,android.sensor.gyroscope_uncalibrated#std,android.sensor.magnetic_field_uncalibrated#mean,android.sensor.magnetic_field_uncalibrated#min,android.sensor.magnetic_field_uncalibrated#max,android.sensor.magnetic_field_uncalibrated#std,android.sensor.rotation_vector#mean,android.sensor.rotation_vector#min,android.sensor.rotation_vector#max,android.sensor.rotation_vector#std,android.sensor.gyroscope#mean,android.sensor.gyroscope#min,android.sensor.gyroscope#max,android.sensor.gyroscope#std,android.sensor.game_rotation_vector#mean,android.sensor.game_rotation_vector#min,android.sensor.game_rotation_vector#max,android.sensor.game_rotation_vector#std,android.sensor.magnetic_field#mean,android.sensor.magnetic_field#min,android.sensor.magnetic_field#max,android.sensor.magnetic_field#std,android.sensor.pressure#mean,android.sensor.pressure#min,android.sensor.pressure#max,android.sensor.pressure#std,android.sensor.light#mean,android.sensor.light#min,android.sensor.light#max,android.sensor.light#std,sound#mean,sound#min,sound#max,sound#std,speed#mean,speed#min,speed#max,speed#std,android.sensor.proximity#mean,android.sensor.proximity#min,android.sensor.proximity#max,android.sensor.proximity#std,android.sensor.step_counter#mean,android.sensor.step_counter#min,android.sensor.step_counter#max,android.sensor.step_counter#std,target,user
1,,,9.877102483849676,9.846168000419999,9.92298623451,0.01212070968400106,9.80805922635,9.80805922635,9.80805922635,nan,0.06945041435039999,0.06945041435039999,0.06945041435039999,nan,335.047638187,335.047638187,335.047638187,nan,nan,nan,nan,nan,nan,nan,nan,nan,nan,nan,nan,nan,nan,nan,nan,nan,nan,nan,nan,nan,33.327352646960605,32.2562919983,34.169617190100006,0.3850635445315298,nan,nan,nan,nan,nan,nan,nan,nan,51.88785100750854,51.88785100750854,51.88785100750854,10.282468223891973,nan,nan,nan,nan,nan,nan,nan,nan,nan,nan,nan,nan,Still,U4
2,,,9.871561590029028,9.76977941536,9.933106649760001,0.025994188057210977,9.807936281789999,9.807936281789999,9.807936281789999,nan,0.06945041435039999,0.06945041435039999,0.06945041435039999,nan,335.047638187,335.047638187,335.047638187,nan,nan,nan,nan,nan,nan,nan,nan,nan,nan,nan,nan,nan,nan,nan,nan,nan,nan,nan,nan,nan,33.49316106083043,32.9848328782,34.0050231584,0.271771219729118,nan,nan,nan,nan,nan,nan,nan,nan,62.958308949585856,58.27627704767434,67.64034085149737,6.621393015146761,nan,nan,nan,nan,nan,nan,nan,nan,nan,nan,nan,nan,Still,U4
3,,,9.87033391663178,9.817577003310001,9.94200274819,0.024235225104723784,9.807936281789999,9.807936281789999,9.807936281789999,nan,0.06945041435039999,0.06945041435039999,0.06945041435039999,nan,335.047638187,335.047638187,335.047638187,nan,nan,nan,nan,nan,nan,nan,nan,nan,nan,nan,nan,nan,nan,nan,nan,nan,nan,nan,nan,nan,33.33817699377143,32.6100961765,33.8338811081,0.34920098205702427,nan,nan,nan,nan,nan,nan,nan,nan,62.14318669865011,59.09449581958126,65.19187757771897,4.311499988662327,nan,nan,nan,nan,nan,nan,nan,nan,nan,nan,nan,nan,Still,U4
4,,,9.86936812732143,9.84604224958,9.903978507589999,0.013605702915517801,9.807936281789999,9.807936281789999,9.807936281789999,nan,0.06945041435039999,0.06945041435039999,0.06945041435039999,nan,335.047638187,335.047638187,335.047638187,nan,nan,nan,nan,nan,nan,nan,nan,nan,nan,nan,nan,nan,nan,nan,nan,nan,nan,nan,nan,nan,33.381181354294455,32.6962566665,34.4087310402,0.4218710049946946,nan,nan,nan,nan,nan,nan,nan,nan,41.945420914420374,31.3640344813399,52.52680734750085,14.964340202373076,nan,nan,nan,nan,nan,nan,nan,nan,nan,nan,nan,nan,Still,U4
5,,,9.869440864414667,9.84597238735,9.884684715219999,0.00854117241794616,9.807936281789999,9.807936281789999,9.807936281789999,nan,0.06945041435039999,0.06945041435039999,0.06945041435039999,nan,335.047638187,335.047638187,335.047638187,nan,nan,nan,nan,nan,nan,nan,nan,nan,nan,nan,nan,nan,nan,nan,nan,nan,nan,nan,nan,nan,33.393551315105,32.1280251373,34.1885243905,0.4450231888401872,nan,nan,nan,nan,nan,nan,nan,nan,58.90305862398205,47.12051714386246,70.68560010410164,16.663029960408686,nan,nan,nan,nan,nan,nan,nan,nan,nan,nan,nan,nan,Still,U4
6,,,9.868078930370606,9.826536701110001,9.913151551719999,0.01743663174442477,9.807936281789999,9.807936281789999,9.807936281789999,nan,0.06945041435039999,0.06945041435039999,0.06945041435039999,nan,336.313115591,336.313115591,336.313115591,nan,nan,nan,nan,nan,nan,nan,nan,nan,nan,nan,nan,nan,nan,nan,nan,nan,nan,nan,nan,nan,33.748621845849996,32.6837014648,34.5008868903,0.43378862483286085,nan,nan,nan,nan,nan,nan,nan,nan,51.6904516228975,46.7691298720921,56.61177337370289,6.959799964790693,nan,nan,nan,nan,nan,nan,nan,nan,nan,nan,nan,nan,Still,U4
7,,,9.86414908522921,9.836173595730001,9.89425934117,0.010991867203277219,9.80774713324,9.80774713324,9.80774713324,nan,0.06945041435039999,0.06945041435039999,0.06945041435039999,nan,336.313115591,336.313115591,336.313115591,nan,nan,nan,nan,nan,nan,nan,nan,nan,nan,nan,nan,nan,nan,nan,nan,nan,nan,nan,nan,nan,33.70114501054999,32.9216884676,34.2491742668,0.4035900015526831,nan,nan,nan,nan,nan,nan,nan,nan,50.22312319883488,43.28705711568875,59.56361033874828,8.40044502805904,nan,nan,nan,nan,nan,nan,nan,nan,nan,nan,nan,nan,Still,U4
8,,,9.8686140313885,9.79809334962,9.970785256760001,0.023612556974401264,9.80775659077,9.80775659077,9.80775659077,nan,0.06945041435039999,0.06945041435039999,0.06945041435039999,nan,336.313115591,336.313115591,336.313115591,nan,nan,nan,nan,nan,nan,nan,nan,nan,nan,nan,nan,nan,nan,nan,nan,nan,nan,nan,nan,nan,33.27122557172778,31.5837743016,34.489981154,0.7395961941303388,nan,nan,nan,nan,nan,nan,nan,nan,50.22312319883488,43.28705711568875,59.56361033874828,8.40044502805904,nan,nan,nan,nan,nan,nan,nan,nan,nan,nan,nan,nan,Still,U4
9,,,9.868817043534769,9.83633676921,9.913276451269999,0.011609374888991976,9.807742404035,9.80765255757,9.807832250499999,0.00012706208933347687,0.07451228029016667,0.0624162735195,0.0903471688662,0.01433590445639735,336.313115591,336.313115591,336.313115591,nan,nan,nan,nan,nan,nan,nan,nan,nan,nan,nan,nan,nan,nan,nan,nan,nan,nan,nan,nan,nan,33.47504899554615,31.9225938796,34.4608991885,0.5565249882742945,nan,nan,nan,nan,nan,nan,nan,nan,59.9564616149145,59.9564616149145,59.9564616149145,8.40044502805904,nan,nan,nan,nan,nan,nan,nan,nan,nan,nan,nan,nan,Still,U4
10,,,9.868426743988035,9.8360150816,9.90421927621,0.013885185564681785,9.807742404035,9.80765255757,9.807832250499999,0.00012706208933347687,0.07451228029016667,0.0624162735195,0.0903471688662,0.01433590445639735,336.07894953699997,335.875271126,336.28262794799997,0.2880447711987993,nan,nan,nan,nan,nan,nan,nan,nan,nan,nan,nan,nan,nan,nan,nan,nan,nan,nan,nan,nan,33.44326780776667,31.161091123400002,34.6106919896,0.6769605168330093,nan,nan,nan,nan,nan,nan,nan,nan,41.53448988600983,32.46498580795801,50.60399396406165,12.826215671178979,nan,nan,nan,nan,nan,nan,nan,nan,nan,nan,nan,nan,Still,U4
11,,,9.867265800235373,9.84574882485,9.89425934117,0.010557663777272033,9.807742404035,9.80765255757,9.807832250499999,0.00012706208933347687,0.07451228029016667,0.0624162735195,0.0903471688662,0.01433590445639735,335.95409289,335.95409289,335.95409289,0.2880447711987993,nan,nan,nan,nan,nan,nan,nan,nan,nan,nan,nan,nan,nan,nan,nan,nan,nan,nan,nan,nan,33.8620736682963,33.2549424898,34.9952282461,0.39159415926677954,nan,nan,nan,nan,nan,nan,nan,nan,41.72719661349497,41.72719661349497,41.72719661349497,12.826215671178979,nan,nan,nan,nan,nan,nan,nan,nan,nan,nan,nan,nan,Still,U4
12,,,9.860564045476128,9.827017360680001,9.88482853126,0.013549113663826287,9.807742404035,9.80765255757,9.807832250499999,0.00012706208933347687,0.07451228029016667,0.0624162735195,0.0903471688662,0.01433590445639735,335.95409289,335.95409289,335.95409289,0.2880447711987993,nan,nan,nan,nan,nan,nan,nan,nan,nan,nan,nan,nan,nan,nan,nan,nan,nan,nan,nan,nan,33.96384698614375,33.3143743768,34.6848772487,0.2984575776138596,nan,nan,nan,nan,nan,nan,nan,nan,51.259787114563665,49.51342376648859,53.00615046263873,2.4697307316790473,nan,nan,nan,nan,nan,nan,nan,nan,nan,nan,nan,nan,Still,U4
13,,,9.861871052600172,9.8075524603,9.903427495939999,0.014778752852710353,9.807742404035,9.80765255757,9.807832250499999,0.00012706208933347687,0.07077339848480001,0.07077339848480001,0.07077339848480001,0.01433590445639735,335.95409289,335.95409289,335.95409289,0.2880447711987993,nan,nan,nan,nan,nan,nan,nan,nan,nan,nan,nan,nan,nan,nan,nan,nan,nan,nan,nan,nan,33.84323321802222,32.9439884143,34.5192468052,0.34185585121420353,nan,nan,nan,nan,nan,nan,nan,nan,60.74283115537268,57.77481921365786,63.7108430970875,4.197402741258403,nan,nan,nan,nan,nan,nan,nan,nan,nan,nan,nan,nan,Still,U4
14,,,9.861326048400645,9.788082648180001,9.92307403979,0.030541960433058544,9.80760999816,9.80756743875,9.80765255757,6.018809482824914e-05,0.0192620808658,0.0192620808658,0.0192620808658,0.01433590445639735,335.344814744,335.344814744,335.344814744,0.2880447711987993,nan,nan,nan,nan,nan,nan,nan,nan,nan,nan,nan,nan,nan,nan,nan,nan,nan,nan,nan,nan,33.878641944369996,33.0397388149,34.645363326100004,0.3350524765062309,nan,nan,nan,nan,nan,nan,nan,nan,59.09449581958126,59.09449581958126,59.09449581958126,4.197402741258403,nan,nan,nan,nan,nan,nan,nan,nan,nan,nan,nan,nan,Still,U4
15,,,9.859175095988734,9.80781897416,9.95070781445,0.020230106209513758,9.807662013755,9.80749177701,9.807832250499999,0.00024075111359238155,0.0192620808658,0.0192620808658,0.0192620808658,0.01433590445639735,335.344814744,335.344814744,335.344814744,0.2880447711987993,nan,nan,nan,nan,nan,nan,nan,nan,nan,nan,nan,nan,nan,nan,nan,nan,nan,nan,nan,nan,33.89370113290715,33.248067613,34.3591550891,0.2969994999366796,nan,nan,nan,nan,nan,nan,nan,nan,54.67998573076775,54.67998573076775,54.67998573076775,4.197402741258403,nan,nan,nan,nan,nan,nan,nan,nan,nan,nan,nan,nan,Still,U4
16,,,9.85655253372579,9.81780120738,9.90327468896,0.014110271274536804,9.807662013755,9.80749177701,9.807832250499999,0.00024075111359238155,0.0192620808658,0.0192620808658,0.0192620808658,0.01433590445639735,335.344814744,335.344814744,335.344814744,0.2880447711987993,nan,nan,nan,nan,nan,nan,nan,nan,nan,nan,nan,nan,nan,nan,nan,nan,nan,nan,nan,nan,34.33664671081579,33.553896538000004,35.051813077199995,0.45931086518118125,nan,nan,nan,nan,nan,nan,nan,nan,49.004982166387215,49.004982166387215,49.004982166387215,4.197402741258403,nan,nan,nan,nan,nan,nan,nan,nan,nan,nan,nan,nan,Still,U4
17,,,9.853853616783935,9.836280824289998,9.874974422280001,0.00970157316290389,9.80775659077,9.80775659077,9.80775659077,0.00024075111359238155,0.0192620808658,0.0192620808658,0.0192620808658,0.01433590445639735,336.172676531,335.922717974,336.422635088,0.3534947813405873,nan,nan,nan,nan,nan,nan,nan,nan,nan,nan,nan,nan,nan,nan,nan,nan,nan,nan,nan,nan,34.30367894849311,33.6468422661,34.7529505179,0.28530639188531587,nan,nan,nan,nan,nan,nan,nan,nan,57.43307751629348,44.136517520636986,68.68498904792952,11.955243241544425,nan,nan,nan,nan,nan,nan,nan,nan,nan,nan,nan,nan,Still,U4
18,,,9.859282452976622,9.836280824289998,9.88460584751,0.010477967253983322,9.80749177701,9.80749177701,9.80749177701,0.00024075111359238155,0.0192620808658,0.0192620808658,0.0192620808658,0.01433590445639735,336.9151204125,336.61061299700003,337.219627828,0.4306385168432564,nan,nan,nan,nan,nan,nan,nan,nan,nan,nan,nan,nan,nan,nan,nan,nan,nan,nan,nan,nan,34.313955424707146,33.9000527062,34.862891065999996,0.31051367586046175,nan,nan,nan,nan,nan,nan,nan,nan,64.22075143773603,60.906459575733145,67.91002248611252,3.51680684749255,nan,nan,nan,nan,nan,nan,nan,nan,nan,nan,nan,nan,Still,U4
19,,,9.862384298509241,9.827017360680001,9.884772860730001,0.011323673937486128,9.80749177701,9.80749177701,9.80749177701,0.00024075111359238155,0.0561581315214,0.0561581315214,0.0561581315214,0.01433590445639735,336.9151204125,336.61061299700003,337.219627828,0.4306385168432564,nan,nan,nan,nan,nan,nan,nan,nan,nan,nan,nan,nan,nan,nan,nan,nan,nan,nan,nan,nan,34.33356786381538,33.534847547,35.0114258082,0.32341390882191345,nan,nan,nan,nan,nan,nan,nan,nan,54.03384793916039,52.19188818450439,55.875807693816384,2.6049244663799276,nan,nan,nan,nan,nan,nan,nan,nan,nan,nan,nan,nan,Still,U4
20,,,9.857936813826761,9.8457954007,9.87510909208,0.00820313468721593,9.807917366303334,9.80775659077,9.80805922635,0.00015220190635286692,0.0577862425975,0.0577862425975,0.0577862425975,0.01433590445639735,336.9151204125,336.61061299700003,337.219627828,0.4306385168432564,nan,nan,nan,nan,nan,nan,nan,nan,nan,nan,nan,nan,nan,nan,nan,nan,nan,nan,nan,nan,34.116855504209525,33.637158025,35.2649457677,0.39507995913245053,nan,nan,nan,nan,nan,nan,nan,nan,65.56134661777325,65.56134661777325,65.56134661777325,2.6049244663799276,nan,nan,nan,nan,nan,nan,nan,nan,nan,nan,nan,nan,Still,U4
21,,,9.86114121135246,9.836280824289998,9.8844713071,0.01005033933937634,9.807936281789999,9.807936281789999,9.807936281789999,0.00015220190635286692,0.0577862425975,0.0577862425975,0.0577862425975,0.01433590445639735,336.9151204125,336.61061299700003,337.219627828,0.4306385168432564,nan,nan,nan,nan,nan,nan,nan,nan,nan,nan,nan,nan,nan,nan,nan,nan,nan,nan,nan,nan,34.23407380931724,33.7707256185,34.7191125134,0.2522057218888853,nan,nan,nan,nan,nan,nan,nan,nan,46.8303802788642,43.91799304818467,49.742767509543725,4.118737520509208,nan,nan,nan,nan,nan,nan,nan,nan,nan,nan,nan,nan,Still,U4
22,,,9.859859584125692,9.80803405024,9.92240392707,0.01989513032875558,9.80765255757,9.80765255757,9.80765255757,0.00015220190635286692,0.069450418665,0.069450418665,0.069450418665,0.01433590445639735,336.90721016599997,336.90721016599997,336.90721016599997,0.4306385168432564,nan,nan,nan,nan,nan,nan,nan,nan,nan,nan,nan,nan,nan,nan,nan,nan,nan,nan,nan,nan,34.34910282602,33.3954307637,35.6206508764,0.5059576780466929,nan,nan,nan,nan,nan,nan,nan,nan,48.13387740644648,45.97706152819414,50.396559875514384,2.211650336689725,nan,nan,nan,nan,nan,nan,nan,nan,nan,nan,nan,nan,Still,U4
23,,,9.857939447907256,9.82682136639,9.8844713071,0.011770966245301578,9.807742404035,9.80765255757,9.807832250499999,0.00012706208933347687,0.0561581315214,0.0561581315214,0.0561581315214,0.01433590445639735,336.672576514,336.672576514,336.672576514,0.4306385168432564,nan,nan,nan,nan,nan,nan,nan,nan,nan,nan,nan,nan,nan,nan,nan,nan,nan,nan,nan,nan,34.250218586520695,33.4940292574,35.0283352242,0.4107170792811249,nan,nan,nan,nan,nan,nan,nan,nan,49.681325697677636,47.04365036222725,52.319001033128025,3.730236232530943,nan,nan,nan,nan,nan,nan,nan,nan,nan,nan,nan,nan,Still,U4
24,,,9.853374161495331,9.82643869958,9.87510909208,0.01260408602359728,9.807742404035,9.80765255757,9.807832250499999,0.00012706208933347687,0.0561581315214,0.0561581315214,0.0561581315214,0.01433590445639735,336.672576514,336.672576514,336.672576514,0.4306385168432564,nan,nan,nan,nan,nan,nan,nan,nan,nan,nan,nan,nan,nan,nan,nan,nan,nan,nan,nan,nan,34.320817167952384,33.5657490513,35.243705821,0.40949981841743555,nan,nan,nan,nan,nan,nan,nan,nan,49.681325697677636,47.04365036222725,52.319001033128025,3.730236232530943,nan,nan,nan,nan,nan,nan,nan,nan,nan,nan,nan,nan,Still,U4
25,,,9.857858253396524,9.826704701239999,9.88463832259,0.011210986828975587,9.807742404035,9.80765255757,9.807832250499999,0.00012706208933347687,0.0561581315214,0.0561581315214,0.0561581315214,0.01433590445639735,336.11021750599997,336.11021750599997,336.11021750599997,0.4306385168432564,nan,nan,nan,nan,nan,nan,nan,nan,nan,nan,nan,nan,nan,nan,nan,nan,nan,nan,nan,nan,34.356441363225,33.6875279485,34.8806479298,0.3799422143356995,nan,nan,nan,nan,nan,nan,nan,nan,49.3192547708597,48.56269588057578,50.07581366114362,1.0699358433734574,nan,nan,nan,nan,nan,nan,nan,nan,nan,nan,nan,nan,Still,U4
26,,,9.860992349714026,9.827017360680001,9.90266343739,0.014471558276066516,9.807832250499999,9.807832250499999,9.807832250499999,0.00012706208933347687,0.18970948485999997,0.18970948485999997,0.18970948485999997,0.01433590445639735,337.016589854,337.016589854,337.016589854,0.4306385168432564,nan,nan,nan,nan,nan,nan,nan,nan,nan,nan,nan,nan,nan,nan,nan,nan,nan,nan,nan,nan,34.0391326370125,33.5591532875,34.6493627353,0.35311208630024127,nan,nan,nan,nan,nan,nan,nan,nan,49.3192547708597,48.56269588057578,50.07581366114362,1.0699358433734574,nan,nan,nan,nan,nan,nan,nan,nan,nan,nan,nan,nan,Still,U4
27,,,9.858392013838,9.817656409480001,9.92277365014,0.015140116196972999,9.807832250499999,9.807832250499999,9.807832250499999,0.00012706208933347687,0.18970948485999997,0.18970948485999997,0.18970948485999997,0.01433590445639735,337.016589854,337.016589854,337.016589854,0.4306385168432564,nan,nan,nan,nan,nan,nan,nan,nan,nan,nan,nan,nan,nan,nan,nan,nan,nan,nan,nan,nan,34.038419883559996,33.4550964049,34.86381982,0.38729635342090685,nan,nan,nan,nan,nan,nan,nan,nan,48.19866246662589,48.19866246662589,48.19866246662589,1.0699358433734574,nan,nan,nan,nan,nan,nan,nan,nan,nan,nan,nan,nan,Still,U4
28,,,9.853078818052973,9.8265973682,9.87465399335,0.009415154191352729,9.807832250499999,9.807832250499999,9.807832250499999,0.00012706208933347687,0.18970948485999997,0.18970948485999997,0.18970948485999997,0.01433590445639735,337.016589854,337.016589854,337.016589854,0.4306385168432564,nan,nan,nan,nan,nan,nan,nan,nan,nan,nan,nan,nan,nan,nan,nan,nan,nan,nan,nan,nan,33.91542953641905,32.913431505700004,34.7609771748,0.4784985352173552,nan,nan,nan,nan,nan,nan,nan,nan,58.11591760735739,58.11591760735739,58.11591760735739,1.0699358433734574,nan,nan,nan,nan,nan,nan,nan,nan,nan,nan,nan,nan,Still,U4
29,,,9.851151931178512,9.836173595730001,9.8653986711,0.009455815936188222,9.807832250499999,9.807832250499999,9.807832250499999,0.00012706208933347687,0.18970948485999997,0.18970948485999997,0.18970948485999997,0.01433590445639735,337.016589854,337.016589854,337.016589854,0.4306385168432564,nan,nan,nan,nan,nan,nan,nan,nan,nan,nan,nan,nan,nan,nan,nan,nan,nan,nan,nan,nan,33.991951675455006,33.0736088143,34.8119979317,0.36280096556768376,nan,nan,nan,nan,nan,nan,nan,nan,47.251219635166514,44.243752088079155,52.6491458436945,4.684909871681282,nan,nan,nan,nan,nan,nan,nan,nan,nan,nan,nan,nan,Still,U4
30,,,9.88325376287544,9.29290289764,10.345375965599999,0.12263513517548913,9.807832250499999,9.807832250499999,9.807832250499999,0.00012706208933347687,0.0561581315214,0.0561581315214,0.0561581315214,0.01433590445639735,337.016589854,337.016589854,337.016589854,0.4306385168432564,nan,nan,nan,nan,nan,nan,nan,nan,nan,nan,nan,nan,nan,nan,nan,nan,nan,nan,nan,nan,34.993066459596,32.7569774814,39.0077069308,2.169920571289289,nan,nan,nan,nan,nan,nan,nan,nan,58.024658484457845,44.86076097372589,71.1885559951898,18.616562393366557,nan,nan,nan,nan,nan,nan,nan,nan,nan,nan,nan,nan,Still,U4
31,,,9.866669961132388,9.81606371734,10.0506062242,0.03647801300036067,9.80820108354,9.80820108354,9.80820108354,0.00012706208933347687,0.0561581315214,0.0561581315214,0.0561581315214,0.01433590445639735,340.87745432466664,340.58184608700003,341.252016077,0.3419900539238061,nan,nan,nan,nan,nan,nan,nan,nan,nan,nan,nan,nan,nan,nan,nan,nan,nan,nan,nan,nan,38.661575732495834,37.6422420557,39.2589858484,0.4196184189051239,nan,nan,nan,nan,39.0,39.0,39.0,nan,74.34508625525099,74.34508625525099,74.34508625525099,18.616562393366557,nan,nan,nan,nan,nan,nan,nan,nan,nan,nan,nan,nan,Still,U4
32,,,9.86561481585,9.85614396337,9.875294840710001,0.007819776108369128,9.80820108354,9.80820108354,9.80820108354,0.00012706208933347687,0.0561581315214,0.0561581315214,0.0561581315214,0.01433590445639735,340.87745432466664,340.58184608700003,341.252016077,0.3419900539238061,nan,nan,nan,nan,nan,nan,nan,nan,nan,nan,nan,nan,nan,nan,nan,nan,nan,nan,nan,nan,36.0475046908,35.9801426367,36.1148667449,0.09526433049752789,nan,nan,nan,nan,39.0,39.0,39.0,nan,74.34508625525099,74.34508625525099,74.34508625525099,18.616562393366557,nan,nan,nan,nan,nan,nan,nan,nan,nan,nan,nan,nan,Still,U4
