time,activityrecognition#0,activityrecognition#1,android.sensor.accelerometer#mean,android.sensor.accelerometer#min,android.sensor.accelerometer#max,android.sensor.accelerometer#std,android.sensor.gravity#mean,android.sensor.gravity#min,android.sensor.gravity#max,android.sensor.gravity#std,android.sensor.linear_acceleration#mean,android.sensor.linear_acceleration#min,android.sensor.linear_acceleration#max,android.sensor.linear_acceleration#std,android.sensor.orientation#mean,android.sensor.orientation#min,android.sensor.orientation#max,android.sensor.orientation#std,android.sensor.gyroscope_uncalibrated#mean,android.sensor.gyroscope_uncalibrated#min,android.sensor.gyroscope_uncalibrated#max,android.sensor.gyroscope_uncalibrated#std,android.sensor.magnetic_field_uncalibrated#mean,android.sensor.magnetic_field_uncalibrated#min,android.sensor.magnetic_field_uncalibrated#max,android.sensor.magnetic_field_uncalibrated#std,android.sensor.rotation_vector#mean,android.sensor.rotation_vector#min,android.sensor.rotation_vector#max,android.sensor.rotation_vector#std,android.sensor.gyroscope#mean,android.sensor.gyroscope#min,android.sensor.gyroscope#max,android.sensor.gyroscope#std,android.sensor.game_rotation_vector#mean,android.sensor.game_rotation_vector#min,android.sensor.game_rotation_vector#max,android.sensor.game_rotation_vector#std,android.sensor.magnetic_field#mean,android.sensor.magnetic_field#min,android.sensor.magnetic_field#max,android.sensor.magnetic_field#std,android.sensor.pressure#mean,android.sensor.pressure#min,android.sensor.pressure#max,android.sensor.pressure#std,android.sensor.light#mean,android.sensor.light#min,android.sensor.light#max,android.sensor.light#std,sound#mean,sound#min,sound#max,sound#std,speed#mean,speed#min,speed#max,speed#std,android.sensor.proximity#mean,android.sensor.proximity#min,android.sensor.proximity#max,android.sensor.proximity#std,android.sensor.step_counter#mean,android.sensor.step_counter#min,android.sensor.step_counter#max,android.sensor.step_counter#std,target,user
1,,,9.752785236989446,4.77499806202,14.4324602724,0.8321368194525465,9.806644969773767,9.80663943972,9.80665025721,2.357803385976885e-06,1.0839209751878793,0.159568125245,6.58022131755,0.8429692760384457,52.90801483806818,50.863500074499996,56.8822523425,0.885563962421119,0.05887233028843815,0.00398585470511,0.515212620057,0.05374677072049387,73.16744765967194,68.25899350270001,74.80200532069999,0.9463025437160125,0.4459431707872366,0.428855713348,0.477848985178,0.007152954785975254,0.05601643262059995,0.0033686620356500004,0.527686660451,0.05505015271131126,0.9704899354772902,0.965844330558,0.973239999342,0.0010396258696648323,34.49692562621604,32.3638687428,40.3012406757,1.148433210069073,1008.0042903846154,1007.9377400000001,1008.0488,0.03793181065868518,3384.923076923077,2384.0,3857.0,406.37243243870995,nan,nan,nan,nan,15.550837999999999,14.921339000000001,15.857002,0.3623669070796883,6.0,0.0,8.0,4.0,5022.0,5022.0,5022.0,nan,Car,U11
2,,,9.80552188447597,7.216325197889999,14.5643020501,0.9188029224354822,9.806645012719482,9.80663948997,9.8066503022,2.2310379311856806e-06,1.2322663513537344,0.199965918268,4.820083231580001,0.7814495468218899,297.8659349224831,51.0723209455,363.99860986699997,122.77649793158459,0.0755554534569536,0.0038408656934799997,0.499435245747,0.06589994862528291,71.23045692759163,65.462508354,79.9888117176,3.0564517452043196,0.44377035006182863,0.431035436797,0.470974171681,0.00618969473499999,0.07891456432341769,0.0054318044138,0.48852798229500005,0.06442464857920663,0.9617193316307948,0.9538473225499999,0.972699087642,0.0046069223965248115,35.70141429144107,27.0575312991,43.2728552328,3.6230123938950864,1007.9495392592594,1007.9282,1007.97095,0.011217927933560237,2828.8888888888887,2150.0,3362.0,421.0263406096814,nan,nan,nan,nan,15.8718222,15.206963,16.259439999999998,0.39482550066795286,6.0,0.0,8.0,4.0,5022.0,5022.0,5022.0,nan,Car,U11
3,,,9.7397211060427,8.358152980589999,12.0970279443,0.42302354471926773,9.80664509729714,9.8066399394,9.80665064197,2.3838320251756996e-06,0.7876660478978147,0.056933307315699996,4.4262961956,0.41526985277454576,281.05757578511646,51.7615243503,363.80173480400003,135.46546656925244,0.03501213342614683,0.0035330825585300004,0.163274143121,0.019973629286786934,71.47915948193707,66.8173630129,77.6585475012,2.5239944323254675,0.4426380254622229,0.43600756501599996,0.452009743071,0.0027142205105728434,0.031597950263706875,0.00150651150341,0.151657155148,0.020302249540948156,0.956522510360931,0.953110974839,0.959216333822,0.0011037443643908313,34.201491402985965,27.619015188800002,40.038731470900004,2.60317170135548,1007.9560267857142,1007.9236,1008.0183,0.028450368747657696,2928.8571428571427,2064.0,3508.0,460.93453494248564,nan,nan,nan,nan,15.7710064,15.66266,16.110249,0.19048803088724467,6.0,0.0,8.0,4.0,5022.0,5022.0,5022.0,nan,Car,U11
4,,,9.746191892213426,6.938230078739999,11.548448016300002,0.5763273387761907,9.806644612994704,9.80663979206,9.80665025737,2.3384496103257842e-06,0.870884836450834,0.0713248468139,4.57529555781,0.5155490762651624,122.74991474296758,51.837548472799995,364.010444587,128.78938679325992,0.04912881143777625,0.00865424946291,0.183231685718,0.024122799192491443,71.21152081760437,65.2262232266,77.489420003,2.1062994191548032,0.45028849241202357,0.436898112698,0.46292778182300004,0.005889849367794287,0.0429511770241375,0.0031957935,0.17182818059799998,0.02447870336035634,0.9601551797306969,0.955579645404,0.9681347091700001,0.0029251495402983015,34.6479324716501,27.4105828942,41.8246338896,2.7435071674432208,1008.0303435714286,1007.9961,1008.06396,0.01952769717972455,2932.3928571428573,2046.0,3600.0,489.57020752414877,nan,nan,nan,nan,16.579405400000002,16.417496,16.902134,0.19573272958756766,6.0,0.0,8.0,4.0,5022.0,5022.0,5022.0,nan,Car,U11
5,,,9.791049117741906,5.9418842645800005,13.870432541600001,0.581736258961546,9.806644638666501,9.8066387458,9.8066504731,2.3803169517627295e-06,0.78382857102805,0.0793518303217,4.7196803656,0.5355167591438114,54.660307658148334,53.3961231599,56.712945216099996,0.7028545794897129,0.04023668731650954,0.0054318044138,0.402555828916,0.030337952951529478,72.77580177806412,69.3479632001,78.4592888064,1.7714922205135046,0.4589945710508998,0.449164651769,0.475701088448,0.005660842721235276,0.0321240003737142,0.00398585470511,0.390269343248,0.031458565611160796,0.9696157531151,0.967013797122,0.971627837588,0.001345669312126769,34.44379154141785,27.649774969099997,39.9437103935,2.4147062793297596,1007.9793685714285,1007.92065,1008.0486,0.043898651013981105,3098.9285714285716,2066.0,3796.0,608.8983937967433,nan,nan,nan,nan,15.97264425,15.685958,16.130361999999998,0.20915388319349187,6.0,0.0,8.0,4.0,5022.0,5022.0,5022.0,nan,Car,U11
6,,,9.737995983006748,8.48097015461,11.7778405999,0.46795394640174837,9.806644849243188,9.8066382807,9.80665020125,2.4143720211711372e-06,0.7044662066156586,0.08272134291739999,2.16023654525,0.3644814249999024,77.48671899746648,52.2113568122,363.70265915199997,82.11866208867815,0.0349490518114915,0.00621150583184,0.108369391746,0.018387352070864546,72.13706769731067,68.99304433350001,77.83585424729999,1.4440010439609183,0.45198155246132604,0.44041156023,0.472547877971,0.008607912169934886,0.031351515269425166,0.00238200383602,0.09773185058219999,0.01727988591947182,0.9709805630054087,0.968342583684,0.974364997971,0.0013137113578036387,35.068667198601595,30.5296577531,39.1098453078,1.487922501636972,1008.0507246153846,1008.0073,1008.07886,0.020387374177303585,2436.0,1603.0,3256.0,429.92855220373536,nan,nan,nan,nan,14.8856164,14.668947,15.196142000000002,0.19490873096990896,6.0,0.0,8.0,4.0,5022.0,5022.0,5022.0,nan,Car,U11
7,,,9.802896708060546,6.26980403953,15.543548225799999,0.987967150023668,9.80664464507032,9.80663903819,9.80665065891,2.293062828972557e-06,1.3007744561825079,0.15029092869400001,6.60839999853,0.9783599085066975,53.82048166210642,51.266001951499995,58.3599590562,1.3236890636707237,0.0614087138641406,0.00150651150341,0.385591897746,0.04716157930056269,73.18259121237627,70.6029744416,78.8535985228,1.3707368540047473,0.4528233852169142,0.432795764693,0.486213589279,0.009883408889488705,0.058788251294133266,0.0038408656934799997,0.39660040792400003,0.04807044528188629,0.9724966234212564,0.969299515274,0.975446843644,0.0012556778358292203,34.448642956319475,27.671285749299997,40.064947273099996,2.5212981943713495,1008.0839932142857,1008.052,1008.1267,0.02241907455941449,2931.25,2326.0,3665.0,382.2754121582249,nan,nan,nan,nan,14.7077134,14.54393,14.946303,0.1671086439035996,6.0,0.0,8.0,4.0,5022.0,5022.0,5022.0,nan,Car,U11
8,,,9.769881747361813,8.156434394360002,12.111588636199999,0.5553169253152745,9.80664471012504,9.806638849339999,9.80665047603,2.4073130864686613e-06,0.8562115501043067,0.0663960727717,3.44872780584,0.4369147412011773,54.580884129246684,53.0804215116,57.3525771571,1.1493339911887201,0.035080125760125154,0.006391587,0.12705260665100002,0.017509083408567824,72.45046380498648,70.7111036005,73.17342446949999,0.47563944033311645,0.45888647198877125,0.447237976669,0.479673599639,0.008890072187432619,0.03057991160166923,0.0010652645,0.129616898864,0.019001513668953918,0.9726657751212407,0.971327849114,0.9746082172399999,0.0006401487290976038,34.71397942082294,34.0296929757,36.5104094844,0.498220621654995,1008.0981671428572,1008.0598,1008.166,0.028280555007553103,2827.9285714285716,2323.0,3985.0,484.4169407512215,nan,nan,nan,nan,14.659507,14.247742,15.163394,0.34468687842953916,6.0,0.0,8.0,4.0,5022.0,5022.0,5022.0,nan,Car,U11
9,,,9.801851671190494,5.900379891919999,14.918716541099998,0.8929717883292648,9.806644794467934,9.80663895543,9.80665025725,2.3240769622041197e-06,1.1911650416351045,0.148020721812,5.32965998549,0.7093846723671053,306.5730757352032,55.2912860258,364.010792695,99.96026923272439,0.08382536657141611,0.00602604601366,0.258721130933,0.04131360003691658,70.3277467079774,67.787168243,72.6329814891,1.542373428222657,0.46335942022497245,0.441898614815,0.482276592464,0.007882007860433147,0.09128808200834035,0.00439219805272,0.270966938882,0.0439556804791727,0.9413396030520883,0.9198586508259999,0.9729428276540001,0.017753744644192188,35.4393060192338,33.7170580027,37.5522302933,0.9252896363523454,1008.1459592592593,1008.1221,1008.1638,0.012606447656151046,2865.3333333333335,1499.0,3741.0,644.0269941786363,nan,nan,nan,nan,13.363437,12.894594999999999,13.703197,0.3400006009575577,6.0,0.0,8.0,4.0,5022.0,5022.0,5022.0,nan,Car,U11
10,,,9.886189043499925,7.4768757804799995,12.4612230665,0.6571283605298979,9.806643240370157,9.80663460754,9.80664976972,3.071583554354374e-06,0.8788782658216662,0.09716715407309999,4.00951062636,0.6096797127295832,349.3314322512711,344.99041848,354.299869076,2.737971209828837,0.047524909586121634,0.004881655206399999,0.155623423416,0.023817128310683118,67.04785505816463,62.4658333395,69.8528465877,1.963684770812149,0.5074871203318196,0.441898614815,0.563082043044,0.03468911450218988,0.043949295234959405,0.0053263223,0.168197126027,0.024562105056801186,0.9283636903294461,0.919608972757,0.939619490623,0.005911515048927745,35.343701281795276,32.8184399385,40.0733078245,1.411231564372085,1008.2169351851852,1008.1513699999999,1008.3489,0.06125699208884377,1532.111111111111,567.0,2334.0,615.8467175257001,nan,nan,nan,nan,12.5699728,10.0850315,13.664721499999999,1.4205113251079962,6.0,0.0,8.0,4.0,5022.0,5022.0,5022.0,nan,Car,U11
11,,,9.781042175453026,6.42985246973,12.8192004611,0.5659849666860061,9.806645210083417,9.80663518166,9.80665052972,2.3702011598408067e-06,0.7535821915594751,0.08583362238230001,3.44991045579,0.5386266955715175,347.4892635009392,344.351303242,354.36130285,1.8329124003127912,0.02937411928911177,0.00150651150341,0.219405696688,0.024315255609005933,67.74490982931016,65.2874427926,68.6429908468,0.6463524947724125,0.4379522126835048,0.40488187393200004,0.5471386389540001,0.031166216457528612,0.029238947449844083,0.00238200383602,0.227700123988,0.02357374153635194,0.9199929209579804,0.913638767933,0.9386820512530001,0.005712565047463401,36.70196744551209,35.1512466123,39.254681249499995,0.7927096609701614,1008.381144074074,1008.29346,1008.438,0.03770414344290729,2212.6296296296296,1955.0,2487.0,172.26592773253176,nan,nan,nan,nan,6.78341374,5.706118,7.840778,0.791400116733273,6.0,0.0,8.0,4.0,5022.0,5022.0,5022.0,nan,Car,U11
12,,,9.727215869327775,7.62127218533,11.8091786224,0.5314452607540574,9.806645140840278,9.806637886599999,9.806650392949999,2.3441108753894754e-06,0.7828115209544969,0.0305034136605,3.21709041015,0.509201834785523,349.6797218817929,344.095428524,354.946903543,3.9330740890670928,0.035128321113328566,0.007755242373899999,0.117367782095,0.014573690264081098,68.38729183849703,67.5134076684,69.1532356437,0.4510801414735675,0.44626110574593864,0.40356041405299997,0.492763993643,0.03235330222937665,0.025955306122144438,0.0035330825585300004,0.106131567255,0.015348401999428366,0.9236332858806107,0.913872632263,0.9323523338299998,0.006482907905207599,36.63740354394398,36.1712612774,37.1188651012,0.23520536856034882,1008.4208725925926,1008.2597699999999,1008.5469,0.09746178038251666,2572.5714285714284,2265.0,3143.0,248.58554359972845,nan,nan,nan,nan,9.6323138,8.586229,10.461714,0.7623982312231583,6.0,0.0,8.0,4.0,5022.0,5022.0,5022.0,nan,Car,U11
13,,,9.733917895891123,8.69431563042,10.955221158199999,0.4375184329968945,9.806644724164773,9.8066395701,9.806649626739999,2.353457136843088e-06,0.5928767659368046,0.10477887582999999,1.2608272141799999,0.2717290072915198,349.5295412040575,347.46132756199995,352.268494537,1.2557651204364813,0.027106947109472337,0.0074568512,0.048606885787,0.006122531433969625,68.44438695125632,68.210997779,68.77136171689999,0.1276175004925488,0.46130876573509094,0.436358279939,0.47766326753399996,0.014175665350651043,0.019164163569501225,0.00476400767203,0.0462133271923,0.0066595518527503604,0.9298111620057955,0.928136109587,0.9313848778589999,0.001064610008860913,35.71045186044368,35.0231352109,36.587019566,0.5627091885033683,1008.5619600000002,1008.553,1008.5691,0.006382632685675263,2901.8,2758.0,3016.0,103.22402821048983,nan,nan,nan,nan,8.923513,8.923513,8.923513,0.7623982312231583,6.0,0.0,8.0,4.0,5022.0,5022.0,5022.0,nan,Car,U11
