time,activityrecognition#0,activityrecognition#1,android.sensor.accelerometer#mean,android.sensor.accelerometer#min,android.sensor.accelerometer#max,android.sensor.accelerometer#std,android.sensor.gravity#mean,android.sensor.gravity#min,android.sensor.gravity#max,android.sensor.gravity#std,android.sensor.linear_acceleration#mean,android.sensor.linear_acceleration#min,android.sensor.linear_acceleration#max,android.sensor.linear_acceleration#std,android.sensor.orientation#mean,android.sensor.orientation#min,android.sensor.orientation#max,android.sensor.orientation#std,android.sensor.gyroscope_uncalibrated#mean,android.sensor.gyroscope_uncalibrated#min,android.sensor.gyroscope_uncalibrated#max,android.sensor.gyroscope_uncalibrated#std,android.sensor.magnetic_field_uncalibrated#mean,android.sensor.magnetic_field_uncalibrated#min,android.sensor.magnetic_field_uncalibrated#max,android.sensor.magnetic_field_uncalibrated#std,android.sensor.rotation_vector#mean,android.sensor.rotation_vector#min,android.sensor.rotation_vector#max,android.sensor.rotation_vector#std,android.sensor.gyroscope#mean,android.sensor.gyroscope#min,android.sensor.gyroscope#max,android.sensor.gyroscope#std,android.sensor.game_rotation_vector#mean,android.sensor.game_rotation_vector#min,android.sensor.game_rotation_vector#max,android.sensor.game_rotation_vector#std,android.sensor.magnetic_field#mean,android.sensor.magnetic_field#min,android.sensor.magnetic_field#max,android.sensor.magnetic_field#std,android.sensor.pressure#mean,android.sensor.pressure#min,android.sensor.pressure#max,android.sensor.pressure#std,android.sensor.light#mean,android.sensor.light#min,android.sensor.light#max,android.sensor.light#std,sound#mean,sound#min,sound#max,sound#std,speed#mean,speed#min,speed#max,speed#std,android.sensor.proximity#mean,android.sensor.proximity#min,android.sensor.proximity#max,android.sensor.proximity#std,android.sensor.step_counter#mean,android.sensor.step_counter#min,android.sensor.step_counter#max,android.sensor.step_counter#std,target,user
1,,,9.220631128008387,1.23198831912,26.712371331999996,5.383104867169178,nan,nan,nan,nan,2.5764894970950003,2.06356120574,3.0894177884500005,0.7253901461590997,345.0659245315,344.99844457300003,345.13340449,0.09543107249903576,nan,nan,nan,nan,nan,nan,nan,nan,nan,nan,nan,nan,nan,nan,nan,nan,nan,nan,nan,nan,42.60080852781212,41.570734163800005,43.743045142,0.5226409110808398,nan,nan,nan,nan,nan,nan,nan,nan,67.37689013651644,67.37689013651644,67.37689013651644,nan,nan,nan,nan,nan,9.0,9.0,9.0,nan,nan,nan,nan,nan,Walking,U4
2,,,10.232209741285086,2.7112007252599994,26.7233689711,3.624620087885538,nan,nan,nan,nan,5.003377514658,0.8141505303859999,9.19260449893,5.924461617016804,345.0659245315,344.99844457300003,345.13340449,0.09543107249903576,nan,nan,nan,nan,nan,nan,nan,nan,nan,nan,nan,nan,nan,nan,nan,nan,nan,nan,nan,nan,43.82680246748888,39.7130651665,46.2344287301,1.4162041100447937,nan,nan,nan,nan,nan,nan,nan,nan,69.60301450546561,69.60301450546561,69.60301450546561,nan,nan,nan,nan,nan,9.0,9.0,9.0,nan,nan,nan,nan,nan,Walking,U4
3,,,10.43486760535561,0.851259059295,25.321172812100002,6.022794911393521,nan,nan,nan,nan,5.003377514658,0.8141505303859999,9.19260449893,5.924461617016804,345.0659245315,344.99844457300003,345.13340449,0.09543107249903576,nan,nan,nan,nan,nan,nan,nan,nan,nan,nan,nan,nan,nan,nan,nan,nan,nan,nan,nan,nan,43.78691194228438,39.9745919304,46.009516112200004,1.564056506145728,nan,nan,nan,nan,nan,nan,nan,nan,69.60301450546561,69.60301450546561,69.60301450546561,nan,nan,nan,nan,nan,9.0,9.0,9.0,nan,nan,nan,nan,nan,Walking,U4
4,,,10.101888301571563,5.61319348265,14.7700972503,1.558352131980599,9.78943952415,9.78943952415,9.78943952415,nan,5.003377514658,0.8141505303859999,9.19260449893,5.924461617016804,345.0659245315,344.99844457300003,345.13340449,0.09543107249903576,nan,nan,nan,nan,nan,nan,nan,nan,nan,nan,nan,nan,nan,nan,nan,nan,nan,nan,nan,nan,45.73045246777812,43.481788918999996,47.0319252776,0.7799939815808258,nan,nan,nan,nan,nan,nan,nan,nan,69.60301450546561,69.60301450546561,69.60301450546561,nan,nan,nan,nan,nan,9.0,9.0,9.0,nan,nan,nan,nan,nan,Walking,U4
5,,,10.315109295272547,5.63365369561,19.196039156199998,2.315897649908389,9.78943952415,9.78943952415,9.78943952415,nan,5.003377514658,0.8141505303859999,9.19260449893,5.924461617016804,247.322973662,247.322973662,247.322973662,0.09543107249903576,nan,nan,nan,nan,nan,nan,nan,nan,nan,nan,nan,nan,nan,nan,nan,nan,nan,nan,nan,nan,46.5002524442825,44.98899865520001,47.804037334499995,0.635754460486056,nan,nan,nan,nan,nan,nan,nan,nan,60.91428117881735,60.91428117881735,60.91428117881735,nan,nan,nan,nan,nan,9.0,9.0,9.0,nan,nan,nan,nan,nan,Walking,U4
6,,,9.969770356337301,5.712418841819999,12.191572396,1.0184211622730155,9.799288743239998,9.799288743239998,9.799288743239998,nan,0.868076830924,0.868076830924,0.868076830924,5.924461617016804,86.8512416929,86.8512416929,86.8512416929,0.09543107249903576,nan,nan,nan,nan,nan,nan,nan,nan,nan,nan,nan,nan,nan,nan,nan,nan,nan,nan,nan,nan,41.400057501073334,39.3891191707,44.5810497858,1.5843150611924965,nan,nan,nan,nan,nan,nan,nan,nan,60.91428117881735,60.91428117881735,60.91428117881735,nan,nan,nan,nan,nan,9.0,9.0,9.0,nan,nan,nan,nan,nan,Walking,U4
7,,,10.302524746607935,7.0113280614999995,15.0912426877,1.8858146093346777,9.80440770316,9.80440770316,9.80440770316,nan,0.868076830924,0.868076830924,0.868076830924,5.924461617016804,173.297530511,173.297530511,173.297530511,0.09543107249903576,nan,nan,nan,nan,nan,nan,nan,nan,nan,nan,nan,nan,nan,nan,nan,nan,nan,nan,nan,nan,42.15240690286897,39.947294694899995,44.0830170075,1.1361583274683529,nan,nan,nan,nan,nan,nan,nan,nan,64.41161717605532,60.93770381675421,67.88553053535642,4.912855387232705,nan,nan,nan,nan,9.0,9.0,9.0,nan,nan,nan,nan,nan,Walking,U4
8,,,10.269422474806417,6.47746914284,15.6751404003,2.268221613070804,9.80440770316,9.80440770316,9.80440770316,nan,0.868076830924,0.868076830924,0.868076830924,5.924461617016804,167.28746783000003,162.478067931,172.09686772900002,6.801518564041612,nan,nan,nan,nan,nan,nan,nan,nan,nan,nan,nan,nan,nan,nan,nan,nan,nan,nan,nan,nan,41.16873172681785,37.6720214483,43.995590217700006,1.7813286905240266,nan,nan,nan,nan,nan,nan,nan,nan,64.41161717605532,60.93770381675421,67.88553053535642,4.912855387232705,nan,nan,nan,nan,9.0,9.0,9.0,nan,nan,nan,nan,nan,Walking,U4
9,,,10.595063996577274,6.16756015445,16.0862678485,2.629294817384897,9.80440770316,9.80440770316,9.80440770316,nan,0.868076830924,0.868076830924,0.868076830924,5.924461617016804,173.4597549605,172.81711355099998,174.10239637,0.9088321970574839,nan,nan,nan,nan,nan,nan,nan,nan,nan,nan,nan,nan,nan,nan,nan,nan,nan,nan,nan,nan,41.68182325041501,39.3694179251,43.637245128900005,0.9961390570465621,nan,nan,nan,nan,nan,nan,nan,nan,64.41161717605532,60.93770381675421,67.88553053535642,4.912855387232705,nan,nan,nan,nan,9.0,9.0,9.0,nan,nan,nan,nan,nan,Walking,U4
10,,,10.659783362470716,5.64381159334,19.1556837762,3.297377960483216,9.795994278630001,9.795994278630001,9.795994278630001,nan,7.356412934730001,7.356412934730001,7.356412934730001,5.924461617016804,142.596850654,142.596850654,142.596850654,0.9088321970574839,nan,nan,nan,nan,nan,nan,nan,nan,nan,nan,nan,nan,nan,nan,nan,nan,nan,nan,nan,nan,43.04049260538919,41.0933425265,45.334832653,0.9865347698902631,nan,nan,nan,nan,nan,nan,nan,nan,64.41161717605532,60.93770381675421,67.88553053535642,4.912855387232705,nan,nan,nan,nan,9.0,9.0,9.0,nan,nan,nan,nan,nan,Walking,U4
11,,,10.377592017659552,2.72806230787,16.3772951041,3.189934892049311,9.795994278630001,9.795994278630001,9.795994278630001,nan,2.7197417980600007,2.1020835196000003,3.25856654468,0.5822579249192946,183.880083345,183.880083345,183.880083345,0.9088321970574839,nan,nan,nan,nan,nan,nan,nan,nan,nan,nan,nan,nan,nan,nan,nan,nan,nan,nan,nan,nan,41.91645597283461,37.3835144784,46.8057273701,3.243055205445336,nan,nan,nan,nan,nan,nan,nan,nan,64.41161717605532,60.93770381675421,67.88553053535642,4.912855387232705,nan,nan,nan,nan,9.0,9.0,9.0,nan,nan,nan,nan,nan,Walking,U4
12,,,10.282168690798985,6.017725968810001,18.792930946800002,2.7665680718728005,9.795994278630001,9.795994278630001,9.795994278630001,nan,2.7197417980600007,2.1020835196000003,3.25856654468,0.5822579249192946,183.880083345,183.880083345,183.880083345,0.9088321970574839,nan,nan,nan,nan,nan,nan,nan,nan,nan,nan,nan,nan,nan,nan,nan,nan,nan,nan,nan,nan,40.18934971690833,37.2457457243,41.4825693245,1.0668368969940112,nan,nan,nan,nan,nan,nan,nan,nan,66.64876919831211,66.64876919831211,66.64876919831211,4.912855387232705,nan,nan,nan,nan,9.0,9.0,9.0,nan,nan,nan,nan,nan,Walking,U4
13,,,10.63127769282323,5.2220387518199995,19.4910108995,3.137149943615867,9.795994278630001,9.795994278630001,9.795994278630001,nan,2.7197417980600007,2.1020835196000003,3.25856654468,0.5822579249192946,183.880083345,183.880083345,183.880083345,0.9088321970574839,nan,nan,nan,nan,nan,nan,nan,nan,nan,nan,nan,nan,nan,nan,nan,nan,nan,nan,nan,nan,36.75194844283636,32.8625315349,39.4101353669,1.9191081499072598,nan,nan,nan,nan,nan,nan,nan,nan,75.31337109518029,75.31337109518029,75.31337109518029,4.912855387232705,nan,nan,nan,nan,9.0,9.0,9.0,nan,nan,nan,nan,nan,Walking,U4
14,,,10.694471236239687,6.324500259430001,18.1999645257,3.0151791072528944,9.795994278630001,9.795994278630001,9.795994278630001,nan,2.7197417980600007,2.1020835196000003,3.25856654468,0.5822579249192946,146.588363654,146.588363654,146.588363654,0.9088321970574839,nan,nan,nan,nan,nan,nan,nan,nan,nan,nan,nan,nan,nan,nan,nan,nan,nan,nan,nan,nan,38.95139970672187,34.0787851896,41.8627597322,2.0277140850176645,nan,nan,nan,nan,nan,nan,nan,nan,75.31337109518029,75.31337109518029,75.31337109518029,4.912855387232705,nan,nan,nan,nan,9.0,9.0,9.0,nan,nan,nan,nan,nan,Walking,U4
15,,,10.605343170979445,5.63820204784,16.4020931844,3.0215769695659933,9.80143724841,9.80143724841,9.80143724841,nan,5.23012098861,3.3102207783399997,7.15002119888,2.7151489157667914,146.588363654,146.588363654,146.588363654,0.9088321970574839,nan,nan,nan,nan,nan,nan,nan,nan,nan,nan,nan,nan,nan,nan,nan,nan,nan,nan,nan,nan,35.875463275562495,32.124326555100005,39.523425224,2.1681601338559915,nan,nan,nan,nan,nan,nan,nan,nan,75.31337109518029,75.31337109518029,75.31337109518029,4.912855387232705,nan,nan,nan,nan,9.0,9.0,9.0,nan,nan,nan,nan,nan,Walking,U4
16,,,10.031634358747628,4.75815049501,17.656341283,3.300854313394861,9.80143724841,9.80143724841,9.80143724841,nan,5.23012098861,3.3102207783399997,7.15002119888,2.7151489157667914,318.834108384,318.834108384,318.834108384,0.9088321970574839,nan,nan,nan,nan,nan,nan,nan,nan,nan,nan,nan,nan,nan,nan,nan,nan,nan,nan,nan,nan,35.229433423994436,29.991478741399998,39.6935712679,2.369202750759542,nan,nan,nan,nan,nan,nan,nan,nan,71.16456843606652,71.16456843606652,71.16456843606652,4.912855387232705,nan,nan,nan,nan,9.0,9.0,9.0,nan,nan,nan,nan,nan,Walking,U4
17,,,10.107457687033182,4.49316596464,18.656941886,3.516608268349901,9.80143724841,9.80143724841,9.80143724841,nan,5.23012098861,3.3102207783399997,7.15002119888,2.7151489157667914,318.834108384,318.834108384,318.834108384,0.9088321970574839,nan,nan,nan,nan,nan,nan,nan,nan,nan,nan,nan,nan,nan,nan,nan,nan,nan,nan,nan,nan,35.252631086261296,28.243816939000002,39.3677274884,2.5207763517183146,nan,nan,nan,nan,nan,nan,nan,nan,71.16456843606652,71.16456843606652,71.16456843606652,4.912855387232705,nan,nan,nan,nan,9.0,9.0,9.0,nan,nan,nan,nan,nan,Walking,U4
18,,,10.425214829869834,4.6723532490699995,19.0317461444,3.417169883197287,9.79193117238,9.79193117238,9.79193117238,nan,5.23012098861,3.3102207783399997,7.15002119888,2.7151489157667914,318.834108384,318.834108384,318.834108384,0.9088321970574839,nan,nan,nan,nan,nan,nan,nan,nan,nan,nan,nan,nan,nan,nan,nan,nan,nan,nan,nan,nan,31.755380476119996,25.6826634133,39.405430709499996,3.915230762090858,nan,nan,nan,nan,nan,nan,nan,nan,71.16456843606652,71.16456843606652,71.16456843606652,4.912855387232705,nan,nan,nan,nan,9.0,9.0,9.0,nan,nan,nan,nan,nan,Walking,U4
19,,,10.145316591298412,4.9416416026,16.370158288699997,2.6263973840954664,9.789667079500001,9.789667079500001,9.789667079500001,nan,5.23012098861,3.3102207783399997,7.15002119888,2.7151489157667914,151.543700509,151.543700509,151.543700509,0.9088321970574839,nan,nan,nan,nan,nan,nan,nan,nan,nan,nan,nan,nan,nan,nan,nan,nan,nan,nan,nan,nan,33.05391954455,28.9755273546,37.7821848971,1.987642960690497,nan,nan,nan,nan,nan,nan,nan,nan,71.16456843606652,71.16456843606652,71.16456843606652,4.912855387232705,nan,nan,nan,nan,9.0,9.0,9.0,nan,nan,nan,nan,nan,Walking,U4
20,,,10.170425491938303,5.010811829080001,14.486214450799999,1.2909459614647834,9.79663797982,9.79663797982,9.79663797982,nan,0.34268102697499997,0.34268102697499997,0.34268102697499997,2.7151489157667914,151.543700509,151.543700509,151.543700509,0.9088321970574839,nan,nan,nan,nan,nan,nan,nan,nan,nan,nan,nan,nan,nan,nan,nan,nan,nan,nan,nan,nan,36.770247679375,33.4374991655,38.1782023773,1.1015726145023579,nan,nan,nan,nan,nan,nan,nan,nan,71.16456843606652,71.16456843606652,71.16456843606652,4.912855387232705,nan,nan,nan,nan,9.0,9.0,9.0,nan,nan,nan,nan,nan,Walking,U4
21,,,10.007405031065177,5.35628658949,16.3557446621,3.0285594627294157,9.79663797982,9.79663797982,9.79663797982,nan,2.01309464249,2.01309464249,2.01309464249,2.7151489157667914,151.543700509,151.543700509,151.543700509,0.9088321970574839,nan,nan,nan,nan,nan,nan,nan,nan,nan,nan,nan,nan,nan,nan,nan,nan,nan,nan,nan,nan,34.606423230018414,29.693028925300002,38.3910927169,2.0162162860155135,nan,nan,nan,nan,nan,nan,nan,nan,66.80491523135863,66.80491523135863,66.80491523135863,4.912855387232705,nan,nan,nan,nan,9.0,9.0,9.0,nan,nan,nan,nan,nan,Walking,U4
22,,,11.006184392845162,4.921407337480001,21.687814062399998,3.9334921249622723,9.7954261137,9.7954261137,9.7954261137,nan,2.01309464249,2.01309464249,2.01309464249,2.7151489157667914,380.07363817199996,380.07363817199996,380.07363817199996,0.9088321970574839,nan,nan,nan,nan,nan,nan,nan,nan,nan,nan,nan,nan,nan,nan,nan,nan,nan,nan,nan,nan,34.0321636544303,25.2614248506,38.5461593343,3.3814430345367197,nan,nan,nan,nan,nan,nan,nan,nan,66.80491523135863,66.80491523135863,66.80491523135863,4.912855387232705,nan,nan,nan,nan,9.0,9.0,9.0,nan,nan,nan,nan,nan,Walking,U4
23,,,10.426720330393165,5.40095407729,16.9015361861,3.1538811454686444,9.7954261137,9.7954261137,9.7954261137,nan,5.947305714930001,5.947305714930001,5.947305714930001,2.7151489157667914,359.45869879349993,342.471879905,376.44551768199995,24.02298965369214,nan,nan,nan,nan,nan,nan,nan,nan,nan,nan,nan,nan,nan,nan,nan,nan,nan,nan,nan,nan,33.799462066108816,15.0739775773,43.60233410359999,9.349259815167779,nan,nan,nan,nan,nan,nan,nan,nan,66.80491523135863,66.80491523135863,66.80491523135863,4.912855387232705,nan,nan,nan,nan,9.0,9.0,9.0,nan,nan,nan,nan,nan,Walking,U4
24,,,9.951513476952499,5.20596135128,17.1600077444,3.095504955671252,9.7954261137,9.7954261137,9.7954261137,nan,6.959518103280001,6.959518103280001,6.959518103280001,2.7151489157667914,374.455635601,374.455635601,374.455635601,24.02298965369214,nan,nan,nan,nan,nan,nan,nan,nan,nan,nan,nan,nan,nan,nan,nan,nan,nan,nan,nan,nan,41.78525362350644,40.893994669099996,42.9579032505,0.4761843385371826,nan,nan,nan,nan,nan,nan,nan,nan,66.80491523135863,66.80491523135863,66.80491523135863,4.912855387232705,nan,nan,nan,nan,9.0,9.0,9.0,nan,nan,nan,nan,nan,Walking,U4
25,,,10.445798757019617,5.629777933680001,16.3268711094,2.8803501598367753,9.794383042484998,9.789969485539999,9.79879659943,0.006241712089926074,7.983905586930001,7.983905586930001,7.983905586930001,2.7151489157667914,327.172283553,327.172283553,327.172283553,24.02298965369214,nan,nan,nan,nan,nan,nan,nan,nan,nan,nan,nan,nan,nan,nan,nan,nan,nan,nan,nan,nan,38.20092914048049,15.099152275,51.8227026258,8.51535011286558,nan,nan,nan,nan,nan,nan,nan,nan,66.80491523135863,66.80491523135863,66.80491523135863,4.912855387232705,nan,nan,nan,nan,9.0,9.0,9.0,nan,nan,nan,nan,nan,Walking,U4
26,,,10.443467129644311,6.06096127169,16.5096093631,2.6880318276883632,9.795301893543334,9.790851298239998,9.800632555510001,0.004949660235251304,1.2939330473700001,1.2939330473700001,1.2939330473700001,2.7151489157667914,313.130608543,313.130608543,313.130608543,24.02298965369214,nan,nan,nan,nan,nan,nan,nan,nan,nan,nan,nan,nan,nan,nan,nan,nan,nan,nan,nan,nan,39.13972316645312,33.3913342051,42.7618194162,3.110107901915475,nan,nan,nan,nan,nan,nan,nan,nan,59.83338014759897,59.83338014759897,59.83338014759897,4.912855387232705,nan,nan,nan,nan,9.0,9.0,9.0,nan,nan,nan,nan,nan,Walking,U4
27,,,10.296179426373833,5.921634772439999,15.960296662000001,2.682432401313521,9.78946729251,9.78946729251,9.78946729251,0.004949660235251304,1.2939330473700001,1.2939330473700001,1.2939330473700001,2.7151489157667914,313.130608543,313.130608543,313.130608543,24.02298965369214,nan,nan,nan,nan,nan,nan,nan,nan,nan,nan,nan,nan,nan,nan,nan,nan,nan,nan,nan,nan,40.111400110999995,31.4982846826,44.553181216800006,3.019213403868588,nan,nan,nan,nan,nan,nan,nan,nan,59.83338014759897,59.83338014759897,59.83338014759897,4.912855387232705,nan,nan,nan,nan,9.0,9.0,9.0,nan,nan,nan,nan,nan,Walking,U4
28,,,10.878674776800535,5.614116581089999,16.4169708511,3.1076908560832,9.79542587593,9.79542587593,9.79542587593,0.004949660235251304,1.2939330473700001,1.2939330473700001,1.2939330473700001,2.7151489157667914,283.163732835,283.163732835,283.163732835,24.02298965369214,nan,nan,nan,nan,nan,nan,nan,nan,nan,nan,nan,nan,nan,nan,nan,nan,nan,nan,nan,nan,40.72692077538421,35.0552530928,43.4514763846,2.2534459440298376,nan,nan,nan,nan,nan,nan,nan,nan,58.89951816824096,58.89951816824096,58.89951816824096,4.912855387232705,nan,nan,nan,nan,9.0,9.0,9.0,nan,nan,nan,nan,nan,Walking,U4
29,,,9.918228724868246,5.41179404959,17.7721539526,3.0767147109471806,9.79542587593,9.79542587593,9.79542587593,0.004949660235251304,1.2939330473700001,1.2939330473700001,1.2939330473700001,2.7151489157667914,283.163732835,283.163732835,283.163732835,24.02298965369214,nan,nan,nan,nan,nan,nan,nan,nan,nan,nan,nan,nan,nan,nan,nan,nan,nan,nan,nan,nan,40.768942638827504,34.8527703347,45.1485942319,3.4084220330745674,nan,nan,nan,nan,nan,nan,nan,nan,58.89951816824096,58.89951816824096,58.89951816824096,4.912855387232705,nan,nan,nan,nan,9.0,9.0,9.0,nan,nan,nan,nan,nan,Walking,U4
30,,,9.828543630394778,5.6012040466499995,16.9669314139,2.8527986078778644,9.79542587593,9.79542587593,9.79542587593,0.004949660235251304,1.2939330473700001,1.2939330473700001,1.2939330473700001,2.7151489157667914,210.59885779900003,210.59885779900003,210.59885779900003,24.02298965369214,nan,nan,nan,nan,nan,nan,nan,nan,nan,nan,nan,nan,nan,nan,nan,nan,nan,nan,nan,nan,43.393899272586665,42.428992632399996,45.1194389447,0.6653155223736142,nan,nan,nan,nan,nan,nan,nan,nan,58.89951816824096,58.89951816824096,58.89951816824096,4.912855387232705,nan,nan,nan,nan,9.0,9.0,9.0,nan,nan,nan,nan,nan,Walking,U4
31,,,10.290507325759668,5.89505973698,18.2549663968,2.823989596737341,9.79542587593,9.79542587593,9.79542587593,0.004949660235251304,1.2939330473700001,1.2939330473700001,1.2939330473700001,2.7151489157667914,210.59885779900003,210.59885779900003,210.59885779900003,24.02298965369214,nan,nan,nan,nan,nan,nan,nan,nan,nan,nan,nan,nan,nan,nan,nan,nan,nan,nan,nan,nan,37.91606169425429,34.3096658483,41.7010358824,2.0449881734488033,nan,nan,nan,nan,nan,nan,nan,nan,61.86842240524661,61.854412893681996,61.88243191681123,0.019812441256902895,nan,nan,nan,nan,9.0,9.0,9.0,nan,nan,nan,nan,nan,Walking,U4
32,,,10.309997434698358,5.27069914269,15.3085581911,2.197989342666226,9.79542587593,9.79542587593,9.79542587593,0.004949660235251304,1.2939330473700001,1.2939330473700001,1.2939330473700001,2.7151489157667914,163.3004244275,160.231313202,166.36953565299999,4.340378719533604,nan,nan,nan,nan,nan,nan,nan,nan,nan,nan,nan,nan,nan,nan,nan,nan,nan,nan,nan,nan,30.37983694032143,23.493045779499997,39.818352552600004,5.144969606544711,nan,nan,nan,nan,nan,nan,nan,nan,61.86842240524661,61.854412893681996,61.88243191681123,0.019812441256902895,nan,nan,nan,nan,9.0,9.0,9.0,nan,nan,nan,nan,nan,Walking,U4
33,,,10.603764066076229,5.2064722166,16.592303624,2.900123979802514,9.800092909389999,9.800092909389999,9.800092909389999,0.004949660235251304,5.126645348319999,5.126645348319999,5.126645348319999,2.7151489157667914,163.3004244275,160.231313202,166.36953565299999,4.340378719533604,nan,nan,nan,nan,nan,nan,nan,nan,nan,nan,nan,nan,nan,nan,nan,nan,nan,nan,nan,nan,42.794016490602935,34.475782804699996,47.331367777,3.246787174111045,nan,nan,nan,nan,nan,nan,nan,nan,61.86842240524661,61.854412893681996,61.88243191681123,0.019812441256902895,nan,nan,nan,nan,9.0,9.0,9.0,nan,nan,nan,nan,nan,Walking,U4
34,,,10.580554854360482,6.242241689859999,16.02744629,2.91534408110109,9.800092909389999,9.800092909389999,9.800092909389999,0.004949660235251304,5.126645348319999,5.126645348319999,5.126645348319999,2.7151489157667914,381.91455895800004,378.44982829800006,385.37928961800003,4.899869089341866,nan,nan,nan,nan,nan,nan,nan,nan,nan,nan,nan,nan,nan,nan,nan,nan,nan,nan,nan,nan,42.942303319636366,37.6051166731,47.116390000500004,2.884714170524303,nan,nan,nan,nan,nan,nan,nan,nan,61.86842240524661,61.854412893681996,61.88243191681123,0.019812441256902895,nan,nan,nan,nan,9.0,9.0,9.0,nan,nan,nan,nan,nan,Walking,U4
35,,,10.481196738390807,5.27959189867,16.2776783802,2.7526486355441944,9.800092909389999,9.800092909389999,9.800092909389999,0.004949660235251304,5.126645348319999,5.126645348319999,5.126645348319999,2.7151489157667914,381.91455895800004,378.44982829800006,385.37928961800003,4.899869089341866,nan,nan,nan,nan,nan,nan,nan,nan,nan,nan,nan,nan,nan,nan,nan,nan,nan,nan,nan,nan,41.12251308965295,39.4445129264,42.505288474299995,0.7623276676645006,nan,nan,nan,nan,nan,nan,nan,nan,62.28554593123173,62.28554593123173,62.28554593123173,0.019812441256902895,nan,nan,nan,nan,9.0,9.0,9.0,nan,nan,nan,nan,nan,Walking,U4
36,,,10.612591674120175,5.680273757059999,18.215210109,3.436275887666024,9.800092909389999,9.800092909389999,9.800092909389999,0.004949660235251304,2.7977360330866667,2.19291836528,3.79118168874,0.867113139955025,381.91455895800004,378.44982829800006,385.37928961800003,4.899869089341866,nan,nan,nan,nan,nan,nan,nan,nan,nan,nan,nan,nan,nan,nan,nan,nan,nan,nan,nan,nan,43.43521179777143,40.024002798299996,45.426815868999995,1.5400423478055885,nan,nan,nan,nan,nan,nan,nan,nan,54.202347302236326,54.202347302236326,54.202347302236326,0.019812441256902895,nan,nan,nan,nan,9.0,9.0,9.0,nan,nan,nan,nan,nan,Walking,U4
37,,,10.331444942032753,5.95967543625,17.7351138738,2.7360870593823683,9.792954101080001,9.792954101080001,9.792954101080001,0.004949660235251304,2.7977360330866667,2.19291836528,3.79118168874,0.867113139955025,381.91455895800004,378.44982829800006,385.37928961800003,4.899869089341866,nan,nan,nan,nan,nan,nan,nan,nan,nan,nan,nan,nan,nan,nan,nan,nan,nan,nan,nan,nan,43.105588670518515,40.9090891231,44.9699893662,1.140447396443233,nan,nan,nan,nan,nan,nan,nan,nan,54.202347302236326,54.202347302236326,54.202347302236326,0.019812441256902895,nan,nan,nan,nan,9.0,9.0,9.0,nan,nan,nan,nan,nan,Walking,U4
38,,,10.563612940640331,5.9516674318,18.4547778295,2.9209993454236534,9.792954101080001,9.792954101080001,9.792954101080001,0.004949660235251304,2.7977360330866667,2.19291836528,3.79118168874,0.867113139955025,381.91455895800004,378.44982829800006,385.37928961800003,4.899869089341866,nan,nan,nan,nan,nan,nan,nan,nan,nan,nan,nan,nan,nan,nan,nan,nan,nan,nan,nan,nan,42.75480977718108,40.5539640479,44.936995894300004,1.188880488851196,nan,nan,nan,nan,nan,nan,nan,nan,54.202347302236326,54.202347302236326,54.202347302236326,0.019812441256902895,nan,nan,nan,nan,9.0,9.0,9.0,nan,nan,nan,nan,nan,Walking,U4
39,,,9.410358335836936,5.739511976059999,14.8358984601,2.0470868027986002,9.81460655293,9.80730266595,9.82084674695,0.006834406672747821,2.7977360330866667,2.19291836528,3.79118168874,0.867113139955025,381.91455895800004,378.44982829800006,385.37928961800003,4.899869089341866,nan,nan,nan,nan,nan,nan,nan,nan,nan,nan,nan,nan,nan,nan,nan,nan,nan,nan,nan,nan,47.32430505625758,45.2427844276,50.459714624600004,1.4653254440138344,nan,nan,nan,nan,nan,nan,nan,nan,54.202347302236326,54.202347302236326,54.202347302236326,0.019812441256902895,nan,nan,nan,nan,9.0,9.0,9.0,nan,nan,nan,nan,nan,Walking,U4
40,,,10.889220693995,5.1133870334500005,22.814091499099998,3.775980493733896,9.79420442394,9.79420442394,9.79420442394,0.006834406672747821,4.963210527,4.963210527,4.963210527,0.867113139955025,137.29555711665,96.74615045030001,177.844963783,57.34552085373415,nan,nan,nan,nan,nan,nan,nan,nan,nan,nan,nan,nan,nan,nan,nan,nan,nan,nan,nan,nan,46.847290453490324,42.1598523119,51.1293266539,1.9358098954006349,nan,nan,nan,nan,nan,nan,nan,nan,54.202347302236326,54.202347302236326,54.202347302236326,0.019812441256902895,nan,nan,nan,nan,9.0,9.0,9.0,nan,nan,nan,nan,nan,Walking,U4
41,,,10.06685857205815,4.00266976514,16.9996551401,3.3964113517877097,9.79420442394,9.79420442394,9.79420442394,0.006834406672747821,4.963210527,4.963210527,4.963210527,0.867113139955025,123.70656395200001,123.70656395200001,123.70656395200001,57.34552085373415,nan,nan,nan,nan,nan,nan,nan,nan,nan,nan,nan,nan,nan,nan,nan,nan,nan,nan,nan,nan,41.47610075587674,37.5960689434,44.839634253599996,2.043290869811325,nan,nan,nan,nan,nan,nan,nan,nan,54.202347302236326,54.202347302236326,54.202347302236326,0.019812441256902895,nan,nan,nan,nan,9.0,9.0,9.0,nan,nan,nan,nan,nan,Walking,U4
42,,,10.618019455805424,4.440851135980001,16.4124390506,3.37095637774768,9.79420442394,9.79420442394,9.79420442394,0.006834406672747821,4.963210527,4.963210527,4.963210527,0.867113139955025,144.184283354,144.184283354,144.184283354,57.34552085373415,nan,nan,nan,nan,nan,nan,nan,nan,nan,nan,nan,nan,nan,nan,nan,nan,nan,nan,nan,nan,41.019341605397216,37.1437313247,43.768961605200005,1.5270064046222531,nan,nan,nan,nan,nan,nan,nan,nan,66.28577321894996,66.28577321894996,66.28577321894996,0.019812441256902895,nan,nan,nan,nan,9.0,9.0,9.0,nan,nan,nan,nan,nan,Walking,U4
43,,,10.563605823567354,6.01620916636,17.2180938317,3.0812716272646625,9.79420442394,9.79420442394,9.79420442394,0.006834406672747821,4.963210527,4.963210527,4.963210527,0.867113139955025,141.9585458825,136.110844375,147.80624739,8.269898780616101,nan,nan,nan,nan,nan,nan,nan,nan,nan,nan,nan,nan,nan,nan,nan,nan,nan,nan,nan,nan,42.118727217242316,39.5609352771,43.6894351183,1.191692670636973,nan,nan,nan,nan,nan,nan,nan,nan,60.8751025393736,60.8751025393736,60.8751025393736,0.019812441256902895,nan,nan,nan,nan,9.0,9.0,9.0,nan,nan,nan,nan,nan,Walking,U4
44,,,10.613249012411666,5.16960426439,16.4835074314,3.1592164717466615,9.799016841166669,9.79401544683,9.802809449480002,0.004519899710138541,2.11926638243,2.11926638243,2.11926638243,0.867113139955025,151.158003095,151.158003095,151.158003095,8.269898780616101,nan,nan,nan,nan,nan,nan,nan,nan,nan,nan,nan,nan,nan,nan,nan,nan,nan,nan,nan,nan,41.817505379924235,38.7334271481,44.0833029616,1.3584793215540878,nan,nan,nan,nan,nan,nan,nan,nan,60.8751025393736,60.8751025393736,60.8751025393736,0.019812441256902895,nan,nan,nan,nan,9.0,9.0,9.0,nan,nan,nan,nan,nan,Walking,U4
45,,,10.767534621239566,4.39553501516,18.0550340219,3.462960588514877,9.799016841166669,9.79401544683,9.802809449480002,0.004519899710138541,3.9230803840850004,3.7955097760900003,4.0506509920800005,0.18041208398671071,384.83681352900004,384.83681352900004,384.83681352900004,8.269898780616101,nan,nan,nan,nan,nan,nan,nan,nan,nan,nan,nan,nan,nan,nan,nan,nan,nan,nan,nan,nan,41.63221406814348,38.4811470629,43.2899477463,1.22508762900552,nan,nan,nan,nan,nan,nan,nan,nan,69.97447941495811,69.97447941495811,69.97447941495811,0.019812441256902895,nan,nan,nan,nan,9.0,9.0,9.0,nan,nan,nan,nan,nan,Walking,U4
46,,,10.230208446471744,5.11642616182,17.0824970842,3.1243262759060997,9.794971247180001,9.794971247180001,9.794971247180001,0.004519899710138541,3.9230803840850004,3.7955097760900003,4.0506509920800005,0.18041208398671071,153.874051233,153.874051233,153.874051233,8.269898780616101,nan,nan,nan,nan,nan,nan,nan,nan,nan,nan,nan,nan,nan,nan,nan,nan,nan,nan,nan,nan,42.34529928198788,39.6172225882,44.278129812799996,1.1899309797315212,nan,nan,nan,nan,nan,nan,nan,nan,69.97447941495811,69.97447941495811,69.97447941495811,0.019812441256902895,nan,nan,nan,nan,9.0,9.0,9.0,nan,nan,nan,nan,nan,Walking,U4
47,,,10.136482242615166,5.2874208165,15.6879114094,2.978864047911348,9.79883414902,9.79883414902,9.79883414902,0.004519899710138541,3.9230803840850004,3.7955097760900003,4.0506509920800005,0.18041208398671071,65.91111920430001,65.91111920430001,65.91111920430001,8.269898780616101,nan,nan,nan,nan,nan,nan,nan,nan,nan,nan,nan,nan,nan,nan,nan,nan,nan,nan,nan,nan,42.70799345869706,38.991783749899994,44.8834067076,1.450141272325141,nan,nan,nan,nan,nan,nan,nan,nan,69.97447941495811,69.97447941495811,69.97447941495811,0.019812441256902895,nan,nan,nan,nan,9.0,9.0,9.0,nan,nan,nan,nan,nan,Walking,U4
48,,,10.194576625455078,5.35980447803,17.7166608868,3.0813250153756346,9.79690248677,9.79690248677,9.79690248677,0.004519899710138541,3.9230803840850004,3.7955097760900003,4.0506509920800005,0.18041208398671071,65.91111920430001,65.91111920430001,65.91111920430001,8.269898780616101,nan,nan,nan,nan,nan,nan,nan,nan,nan,nan,nan,nan,nan,nan,nan,nan,nan,nan,nan,nan,46.56624303195714,43.759828911499994,49.0821270933,1.4425706783410188,nan,nan,nan,nan,nan,nan,nan,nan,68.55295772739416,68.53997917513074,68.56593627965759,0.01835444463090576,nan,nan,nan,nan,9.0,9.0,9.0,nan,nan,nan,nan,nan,Walking,U4
49,,,10.502661282412275,4.91248190515,17.5399027682,3.376714027267752,9.79690248677,9.79690248677,9.79690248677,0.004519899710138541,3.9230803840850004,3.7955097760900003,4.0506509920800005,0.18041208398671071,72.24618319560001,72.24618319560001,72.24618319560001,8.269898780616101,nan,nan,nan,nan,nan,nan,nan,nan,nan,nan,nan,nan,nan,nan,nan,nan,nan,nan,nan,nan,45.41454497974643,41.902899626199996,47.9797435658,1.9395308202838875,nan,nan,nan,nan,nan,nan,nan,nan,67.65114643817572,67.65114643817572,67.65114643817572,0.01835444463090576,nan,nan,nan,nan,9.0,9.0,9.0,nan,nan,nan,nan,nan,Walking,U4
50,,,10.239870619929508,5.55627323738,17.3537052098,3.057454524315763,9.7994304818,9.7994304818,9.7994304818,0.004519899710138541,3.9230803840850004,3.7955097760900003,4.0506509920800005,0.18041208398671071,72.24618319560001,72.24618319560001,72.24618319560001,8.269898780616101,nan,nan,nan,nan,nan,nan,nan,nan,nan,nan,nan,nan,nan,nan,nan,nan,nan,nan,nan,nan,44.14551717909706,40.220321951500004,46.7982287114,1.5030540429535646,nan,nan,nan,nan,nan,nan,nan,nan,67.65114643817572,67.65114643817572,67.65114643817572,0.01835444463090576,nan,nan,nan,nan,9.0,9.0,9.0,nan,nan,nan,nan,nan,Walking,U4
51,,,10.124755802029666,4.87587409071,17.0911443457,3.1457017937245992,9.801390195739998,9.801390195739998,9.801390195739998,0.004519899710138541,3.9230803840850004,3.7955097760900003,4.0506509920800005,0.18041208398671071,72.24618319560001,72.24618319560001,72.24618319560001,8.269898780616101,nan,nan,nan,nan,nan,nan,nan,nan,nan,nan,nan,nan,nan,nan,nan,nan,nan,nan,nan,nan,45.17561165357714,40.8887564008,48.1273307533,1.9802512056410058,nan,nan,nan,nan,nan,nan,nan,nan,68.8433217156944,68.8433217156944,68.8433217156944,0.01835444463090576,nan,nan,nan,nan,9.0,9.0,9.0,nan,nan,nan,nan,nan,Walking,U4
52,,,10.57559325155231,5.10876633875,17.3529017157,3.1176104431475475,9.797654824399999,9.79511290749,9.80019674131,0.003594813368547899,3.9230803840850004,3.7955097760900003,4.0506509920800005,0.18041208398671071,140.723409834,132.13001206299998,149.316807605,12.152899674614945,nan,nan,nan,nan,nan,nan,nan,nan,nan,nan,nan,nan,nan,nan,nan,nan,nan,nan,nan,nan,46.76946929210371,45.5354528296,48.0362098047,0.6588529130644016,nan,nan,nan,nan,nan,nan,nan,nan,68.8433217156944,68.8433217156944,68.8433217156944,0.01835444463090576,nan,nan,nan,nan,9.0,9.0,9.0,nan,nan,nan,nan,nan,Walking,U4
53,,,10.43947443422596,4.92561720879,17.493285252,3.342960937620802,9.79371166207,9.79371166207,9.79371166207,0.003594813368547899,3.9230803840850004,3.7955097760900003,4.0506509920800005,0.18041208398671071,154.793039281,154.793039281,154.793039281,12.152899674614945,nan,nan,nan,nan,nan,nan,nan,nan,nan,nan,nan,nan,nan,nan,nan,nan,nan,nan,nan,nan,45.49537739087143,43.2530502212,48.4003672775,1.1306071869226377,nan,nan,nan,nan,nan,nan,nan,nan,68.8433217156944,68.8433217156944,68.8433217156944,0.01835444463090576,nan,nan,nan,nan,9.0,9.0,9.0,nan,nan,nan,nan,nan,Walking,U4
54,,,10.530536963852187,6.941189962539999,16.3547212596,2.470800059092405,9.79371166207,9.79371166207,9.79371166207,0.003594813368547899,3.9230803840850004,3.7955097760900003,4.0506509920800005,0.18041208398671071,152.09676831299998,144.30818682,159.885349806,11.014717579048682,nan,nan,nan,nan,nan,nan,nan,nan,nan,nan,nan,nan,nan,nan,nan,nan,nan,nan,nan,nan,43.61779486080345,38.812764825,47.0726289897,1.7528184594414586,nan,nan,nan,nan,nan,nan,nan,nan,68.8433217156944,68.8433217156944,68.8433217156944,0.01835444463090576,nan,nan,nan,nan,9.0,9.0,9.0,nan,nan,nan,nan,nan,Walking,U4
55,,,9.932525905409491,5.03195365891,13.995283306700001,1.384479979800564,9.79371166207,9.79371166207,9.79371166207,0.003594813368547899,1.39865786487,1.39865786487,1.39865786487,0.18041208398671071,152.09676831299998,144.30818682,159.885349806,11.014717579048682,nan,nan,nan,nan,nan,nan,nan,nan,nan,nan,nan,nan,nan,nan,nan,nan,nan,nan,nan,nan,42.03505293921892,40.0664338785,43.5709471503,0.9747017649854803,nan,nan,nan,nan,nan,nan,nan,nan,68.32948158200439,68.32948158200439,68.32948158200439,0.01835444463090576,nan,nan,nan,nan,9.0,9.0,9.0,nan,nan,nan,nan,nan,Walking,U4
56,,,9.94952714384,4.53366476021,15.620194761199999,2.558892755902517,9.798455494430002,9.798455494430002,9.798455494430002,0.003594813368547899,1.73545896379,1.73545896379,1.73545896379,0.18041208398671071,331.59026745200003,331.59026745200003,331.59026745200003,11.014717579048682,nan,nan,nan,nan,nan,nan,nan,nan,nan,nan,nan,nan,nan,nan,nan,nan,nan,nan,nan,nan,42.66586749747667,40.8972077286,45.053446287700005,1.3143165669279646,nan,nan,nan,nan,nan,nan,nan,nan,71.46873420512466,70.36764631090689,72.56982209934245,1.557173433367612,nan,nan,nan,nan,9.0,9.0,9.0,nan,nan,nan,nan,nan,Walking,U4
57,,,10.158139807692914,5.58752290794,17.029676445299998,3.052648626454245,9.7908459045,9.788207361749999,9.79348444725,0.003731462941952106,1.73545896379,1.73545896379,1.73545896379,0.18041208398671071,323.5655121245,308.81356135,338.317462899,20.862408856758208,nan,nan,nan,nan,nan,nan,nan,nan,nan,nan,nan,nan,nan,nan,nan,nan,nan,nan,nan,nan,41.647054860765714,38.9938148942,45.280485863100004,1.6449388366054598,nan,nan,nan,nan,nan,nan,nan,nan,67.85042179863865,67.85042179863865,67.85042179863865,1.557173433367612,nan,nan,nan,nan,9.0,9.0,9.0,nan,nan,nan,nan,nan,Walking,U4
58,,,10.333129550709849,5.57132308011,16.5621757227,3.0277846786297005,9.7908459045,9.788207361749999,9.79348444725,0.003731462941952106,4.39283127704,4.39283127704,4.39283127704,0.18041208398671071,323.5655121245,308.81356135,338.317462899,20.862408856758208,nan,nan,nan,nan,nan,nan,nan,nan,nan,nan,nan,nan,nan,nan,nan,nan,nan,nan,nan,nan,42.314073264113794,38.3387323734,45.4877941616,1.9608486726709304,nan,nan,nan,nan,nan,nan,nan,nan,66.668945489935,66.668945489935,66.668945489935,1.557173433367612,nan,nan,nan,nan,9.0,9.0,9.0,nan,nan,nan,nan,nan,Walking,U4
59,,,10.460053028647458,5.20623425865,17.7557321164,3.2082937980049224,9.79516079584,9.79516079584,9.79516079584,0.003731462941952106,4.39283127704,4.39283127704,4.39283127704,0.18041208398671071,355.80073542699995,355.80073542699995,355.80073542699995,20.862408856758208,nan,nan,nan,nan,nan,nan,nan,nan,nan,nan,nan,nan,nan,nan,nan,nan,nan,nan,nan,nan,42.40339809881819,40.1722720161,45.5395255792,1.4792440548641006,nan,nan,nan,nan,nan,nan,nan,nan,69.62519347372728,69.16368871140526,70.08669823604929,0.6526662939755653,nan,nan,nan,nan,9.0,9.0,9.0,nan,nan,nan,nan,nan,Walking,U4
60,,,10.902821943406101,5.9115044680299995,17.2071953977,3.180468492216374,9.78969501572,9.78969501572,9.78969501572,0.003731462941952106,3.6174523385800006,3.6174523385800006,3.6174523385800006,0.18041208398671071,320.73188551,320.73188551,320.73188551,20.862408856758208,nan,nan,nan,nan,nan,nan,nan,nan,nan,nan,nan,nan,nan,nan,nan,nan,nan,nan,nan,nan,42.65372345244857,41.4225156165,45.0889520674,0.9996960527339861,nan,nan,nan,nan,nan,nan,nan,nan,69.62519347372728,69.16368871140526,70.08669823604929,0.6526662939755653,nan,nan,nan,nan,9.0,9.0,9.0,nan,nan,nan,nan,nan,Walking,U4
61,,,10.303436896234917,6.5421155536,17.508356754,2.60386755583682,9.78969501572,9.78969501572,9.78969501572,0.003731462941952106,3.6174523385800006,3.6174523385800006,3.6174523385800006,0.18041208398671071,317.5009070163333,308.084892685,328.571881565,10.343275512768093,nan,nan,nan,nan,nan,nan,nan,nan,nan,nan,nan,nan,nan,nan,nan,nan,nan,nan,nan,nan,40.12169813514062,37.2354990161,42.0785265902,1.3654797171378987,nan,nan,nan,nan,nan,nan,nan,nan,69.18181579201173,69.18181579201173,69.18181579201173,0.6526662939755653,nan,nan,nan,nan,9.0,9.0,9.0,nan,nan,nan,nan,nan,Walking,U4
62,,,10.009260400919539,5.99940133355,17.0357530334,3.0256259509023073,9.78969501572,9.78969501572,9.78969501572,0.003731462941952106,2.08911434659,2.08911434659,2.08911434659,0.18041208398671071,355.60732189099997,355.60732189099997,355.60732189099997,10.343275512768093,nan,nan,nan,nan,nan,nan,nan,nan,nan,nan,nan,nan,nan,nan,nan,nan,nan,nan,nan,nan,38.936989691389996,36.508506621900004,41.8747971582,1.260648487104528,nan,nan,nan,nan,nan,nan,nan,nan,69.18181579201173,69.18181579201173,69.18181579201173,0.6526662939755653,nan,nan,nan,nan,9.0,9.0,9.0,nan,nan,nan,nan,nan,Walking,U4
63,,,10.579860890701719,6.18013546286,17.153614421700002,3.0443329844272933,9.78969501572,9.78969501572,9.78969501572,0.003731462941952106,2.08911434659,2.08911434659,2.08911434659,0.18041208398671071,355.023966963,355.023966963,355.023966963,10.343275512768093,nan,nan,nan,nan,nan,nan,nan,nan,nan,nan,nan,nan,nan,nan,nan,nan,nan,nan,nan,nan,40.99641407689654,39.385738519499995,44.2186974028,1.3403558156440003,nan,nan,nan,nan,nan,nan,nan,nan,69.18181579201173,69.18181579201173,69.18181579201173,0.6526662939755653,nan,nan,nan,nan,9.0,9.0,9.0,nan,nan,nan,nan,nan,Walking,U4
64,,,10.499401753630334,6.5613779588300005,17.090833199200002,2.8046165108702836,9.78969501572,9.78969501572,9.78969501572,0.003731462941952106,2.08911434659,2.08911434659,2.08911434659,0.18041208398671071,355.023966963,355.023966963,355.023966963,10.343275512768093,nan,nan,nan,nan,nan,nan,nan,nan,nan,nan,nan,nan,nan,nan,nan,nan,nan,nan,nan,nan,42.38443667206216,40.3050864843,46.72755932,2.180035232160486,nan,nan,nan,nan,nan,nan,nan,nan,69.18181579201173,69.18181579201173,69.18181579201173,0.6526662939755653,nan,nan,nan,nan,9.0,9.0,9.0,nan,nan,nan,nan,nan,Walking,U4
65,,,9.986531138209058,5.3632596957,17.407091580699998,2.915125171387617,9.79492374183,9.79492374183,9.79492374183,0.003731462941952106,4.30763734072,2.0716365395099996,6.543638141930001,3.1621826585482897,357.4213917515,356.707232448,358.135551055,1.0099737727046194,nan,nan,nan,nan,nan,nan,nan,nan,nan,nan,nan,nan,nan,nan,nan,nan,nan,nan,nan,nan,42.108284495284614,39.9514405247,44.371245610600006,1.0767227131762098,nan,nan,nan,nan,nan,nan,nan,nan,69.18181579201173,69.18181579201173,69.18181579201173,0.6526662939755653,nan,nan,nan,nan,9.0,9.0,9.0,nan,nan,nan,nan,nan,Walking,U4
66,,,10.497294046098965,6.3841829506,17.5586101851,2.9356140970788016,9.79177937376,9.79177937376,9.79177937376,0.003731462941952106,3.24811070484,1.7049389197,4.39397141887,1.3878458166590573,342.139654841,334.68064833799997,349.598661344,10.548628158371729,nan,nan,nan,nan,nan,nan,nan,nan,nan,nan,nan,nan,nan,nan,nan,nan,nan,nan,nan,nan,41.2404821225,36.9396352061,45.432996819399996,1.9264177683754893,nan,nan,nan,nan,nan,nan,nan,nan,69.18181579201173,69.18181579201173,69.18181579201173,0.6526662939755653,nan,nan,nan,nan,9.0,9.0,9.0,nan,nan,nan,nan,nan,Walking,U4
67,,,10.488007561484032,6.609432985490001,16.5883923199,2.500759213235512,9.796585427324999,9.79494263935,9.7982282153,0.002323253034348831,3.24811070484,1.7049389197,4.39397141887,1.3878458166590573,342.139654841,334.68064833799997,349.598661344,10.548628158371729,nan,nan,nan,nan,nan,nan,nan,nan,nan,nan,nan,nan,nan,nan,nan,nan,nan,nan,nan,nan,42.73057909350303,39.8636225148,45.2565070654,1.275005593423712,nan,nan,nan,nan,nan,nan,nan,nan,69.18181579201173,69.18181579201173,69.18181579201173,0.6526662939755653,nan,nan,nan,nan,9.0,9.0,9.0,nan,nan,nan,nan,nan,Walking,U4
68,,,10.155842942515807,5.630258516869999,17.446547066300003,3.1527066542832207,9.79659991087,9.79659991087,9.79659991087,0.002323253034348831,2.1971440567,2.1971440567,2.1971440567,1.3878458166590573,342.139654841,334.68064833799997,349.598661344,10.548628158371729,nan,nan,nan,nan,nan,nan,nan,nan,nan,nan,nan,nan,nan,nan,nan,nan,nan,nan,nan,nan,42.72760589256061,39.0025361437,51.082062093699996,3.1187930739620833,nan,nan,nan,nan,nan,nan,nan,nan,69.18181579201173,69.18181579201173,69.18181579201173,0.6526662939755653,nan,nan,nan,nan,9.0,9.0,9.0,nan,nan,nan,nan,nan,Walking,U4
69,,,10.046838680014755,5.63789309758,17.3031055569,2.9637447607514065,9.79659991087,9.79659991087,9.79659991087,0.002323253034348831,6.49206381858,6.49206381858,6.49206381858,1.3878458166590573,357.3906249093334,347.596574251,368.960254711,10.791951708098349,nan,nan,nan,nan,nan,nan,nan,nan,nan,nan,nan,nan,nan,nan,nan,nan,nan,nan,nan,nan,41.69432468479334,39.1871203331,43.2204118444,1.2317938239546067,nan,nan,nan,nan,nan,nan,nan,nan,59.51782272803585,59.51782272803585,59.51782272803585,0.6526662939755653,nan,nan,nan,nan,9.0,9.0,9.0,nan,nan,nan,nan,nan,Walking,U4
70,,,9.829554732806228,6.018160171440001,14.883435796199999,1.661040354547921,9.79292576497,9.79292576497,9.79292576497,0.002323253034348831,6.49206381858,6.49206381858,6.49206381858,1.3878458166590573,381.165841333,381.165841333,381.165841333,10.791951708098349,nan,nan,nan,nan,nan,nan,nan,nan,nan,nan,nan,nan,nan,nan,nan,nan,nan,nan,nan,nan,44.885927836523535,42.2820382248,46.5534273711,1.0496205260353755,nan,nan,nan,nan,nan,nan,nan,nan,59.51782272803585,59.51782272803585,59.51782272803585,0.6526662939755653,nan,nan,nan,nan,9.0,9.0,9.0,nan,nan,nan,nan,nan,Walking,U4
71,,,10.0079479509238,7.828774189330001,12.254975359200001,0.832159456855085,9.79292576497,9.79292576497,9.79292576497,0.002323253034348831,1.52985061342,1.52985061342,1.52985061342,1.3878458166590573,381.165841333,381.165841333,381.165841333,10.791951708098349,nan,nan,nan,nan,nan,nan,nan,nan,nan,nan,nan,nan,nan,nan,nan,nan,nan,nan,nan,nan,43.947718967673325,38.9944133137,48.6736103272,2.8968567650644856,nan,nan,nan,nan,nan,nan,nan,nan,59.51782272803585,59.51782272803585,59.51782272803585,0.6526662939755653,nan,nan,nan,nan,9.0,9.0,9.0,nan,nan,nan,nan,nan,Walking,U4
72,,,9.953425369695593,7.66635202861,12.780014408900001,0.7842509031994332,9.79292576497,9.79292576497,9.79292576497,0.002323253034348831,0.468666650568,0.468666650568,0.468666650568,1.3878458166590573,381.165841333,381.165841333,381.165841333,10.791951708098349,nan,nan,nan,nan,nan,nan,nan,nan,nan,nan,nan,nan,nan,nan,nan,nan,nan,nan,nan,nan,39.01122702472571,38.1102499677,39.9548645349,0.5023685005954222,nan,nan,nan,nan,nan,nan,nan,nan,52.6491458436945,52.6491458436945,52.6491458436945,0.6526662939755653,nan,nan,nan,nan,9.0,9.0,9.0,nan,nan,nan,nan,nan,Walking,U4
73,,,9.984137755978667,9.804106195669998,10.1609018737,0.054707006543537384,9.79292576497,9.79292576497,9.79292576497,0.002323253034348831,0.207146956757,0.157666915777,0.256626997737,0.06997534502069251,173.985961348,173.985961348,173.985961348,10.791951708098349,nan,nan,nan,nan,nan,nan,nan,nan,nan,nan,nan,nan,nan,nan,nan,nan,nan,nan,nan,nan,37.01451665163429,34.283267055500005,39.0166572582,1.4231556800825416,nan,nan,nan,nan,nan,nan,nan,nan,52.6491458436945,52.6491458436945,52.6491458436945,0.6526662939755653,nan,nan,nan,nan,9.0,9.0,9.0,nan,nan,nan,nan,nan,Walking,U4
74,,,10.065095776803332,9.1304543573,12.0961140808,0.4107808806725913,9.80079345033,9.80079345033,9.80079345033,0.002323253034348831,0.8603784492919999,0.25444910009599997,1.3079789389399998,0.5443181984446174,175.255283398,175.255283398,175.255283398,10.791951708098349,nan,nan,nan,nan,nan,nan,nan,nan,nan,nan,nan,nan,nan,nan,nan,nan,nan,nan,nan,nan,37.41790722094474,34.595033437800005,39.438853185700005,1.3535368751137127,nan,nan,nan,nan,nan,nan,nan,nan,52.6491458436945,52.6491458436945,52.6491458436945,0.6526662939755653,nan,nan,nan,nan,9.0,9.0,9.0,nan,nan,nan,nan,nan,Walking,U4
75,,,9.995970584630163,9.01881499974,10.367936415299999,0.18540933718282962,9.79903779296,9.79829479877,9.79978078715,0.001050752460262901,0.19501369360999998,0.19501369360999998,0.19501369360999998,0.5443181984446174,175.255283398,175.255283398,175.255283398,10.791951708098349,nan,nan,nan,nan,nan,nan,nan,nan,nan,nan,nan,nan,nan,nan,nan,nan,nan,nan,nan,nan,39.004895343293335,35.8115049572,40.775286633,1.2847080320553628,nan,nan,nan,nan,nan,nan,nan,nan,46.51035594521069,45.97706152819414,47.04365036222725,0.7541921972826617,nan,nan,nan,nan,9.0,9.0,9.0,nan,nan,nan,nan,nan,Walking,U4
76,,,10.343772632502167,8.51031712437,14.229227523599999,0.9939404372288518,9.797982915619999,9.797982915619999,9.797982915619999,0.001050752460262901,0.476906700199,0.476906700199,0.476906700199,0.5443181984446174,175.255283398,175.255283398,175.255283398,10.791951708098349,nan,nan,nan,nan,nan,nan,nan,nan,nan,nan,nan,nan,nan,nan,nan,nan,nan,nan,nan,nan,41.461582914340624,39.958106925100005,43.0066896687,0.906156844810915,nan,nan,nan,nan,nan,nan,nan,nan,59.40693752460187,59.40693752460187,59.40693752460187,0.7541921972826617,nan,nan,nan,nan,9.0,9.0,9.0,nan,nan,nan,nan,nan,Walking,U4
77,,,10.050755323110963,8.38531313363,11.589079914200001,0.6495992676625404,9.797982915619999,9.797982915619999,9.797982915619999,0.001050752460262901,0.646500383974,0.646500383974,0.646500383974,0.5443181984446174,189.8128176605,180.062869417,199.562765904,13.788509038393435,nan,nan,nan,nan,nan,nan,nan,nan,nan,nan,nan,nan,nan,nan,nan,nan,nan,nan,nan,nan,43.7341847724925,40.5523654087,46.8956324116,2.3274108967897087,nan,nan,nan,nan,nan,nan,nan,nan,67.4766229014766,67.4766229014766,67.4766229014766,0.7541921972826617,nan,nan,nan,nan,9.0,9.0,9.0,nan,nan,nan,nan,nan,Walking,U4
78,,,10.085454340996723,7.941356155169999,14.5103026955,1.4310965846492627,9.789439506319999,9.789439506319999,9.789439506319999,0.001050752460262901,0.646500383974,0.646500383974,0.646500383974,0.5443181984446174,189.8128176605,180.062869417,199.562765904,13.788509038393435,nan,nan,nan,nan,nan,nan,nan,nan,nan,nan,nan,nan,nan,nan,nan,nan,nan,nan,nan,nan,45.49839513137576,43.7452671726,47.764557123,0.8780072940435373,nan,nan,nan,nan,nan,nan,nan,nan,67.22700048704533,67.22700048704533,67.22700048704533,0.7541921972826617,nan,nan,nan,nan,9.0,9.0,9.0,nan,nan,nan,nan,nan,Walking,U4
79,,,10.473875243470166,7.13614125756,15.690600048299999,1.9873892831190862,9.789439506319999,9.789439506319999,9.789439506319999,0.001050752460262901,0.646500383974,0.646500383974,0.646500383974,0.5443181984446174,222.410722082,222.410722082,222.410722082,13.788509038393435,nan,nan,nan,nan,nan,nan,nan,nan,nan,nan,nan,nan,nan,nan,nan,nan,nan,nan,nan,nan,45.92172694816945,42.5507038689,48.5073561404,1.7235529538669334,nan,nan,nan,nan,nan,nan,nan,nan,67.22700048704533,67.22700048704533,67.22700048704533,0.7541921972826617,nan,nan,nan,nan,9.0,9.0,9.0,nan,nan,nan,nan,nan,Walking,U4
80,,,10.168259151042859,6.4654580602900005,15.0463153114,1.738597217484022,9.789439506319999,9.789439506319999,9.789439506319999,0.001050752460262901,1.89283625502,1.89283625502,1.89283625502,0.5443181984446174,141.12910427100002,141.12910427100002,141.12910427100002,13.788509038393435,nan,nan,nan,nan,nan,nan,nan,nan,nan,nan,nan,nan,nan,nan,nan,nan,nan,nan,nan,nan,44.40180025893549,43.0911950356,46.9320423216,1.0080419054940628,nan,nan,nan,nan,nan,nan,nan,nan,67.22700048704533,67.22700048704533,67.22700048704533,0.7541921972826617,nan,nan,nan,nan,9.0,9.0,9.0,nan,nan,nan,nan,nan,Walking,U4
81,,,10.387921229298126,5.92384924696,17.8289273188,2.490831366539759,9.789439506319999,9.789439506319999,9.789439506319999,0.001050752460262901,1.89283625502,1.89283625502,1.89283625502,0.5443181984446174,172.124460153,138.960311822,192.764188133,29.006208048773875,nan,nan,nan,nan,nan,nan,nan,nan,nan,nan,nan,nan,nan,nan,nan,nan,nan,nan,nan,nan,44.58610013771,43.3466261663,46.0777343045,0.7529411135956996,nan,nan,nan,nan,nan,nan,nan,nan,67.22700048704533,67.22700048704533,67.22700048704533,0.7541921972826617,nan,nan,nan,nan,9.0,9.0,9.0,nan,nan,nan,nan,nan,Walking,U4
82,,,9.922065995591037,6.0313508777600005,16.1077026365,2.570931256127113,9.79297330969,9.79297330969,9.79297330969,0.001050752460262901,1.89283625502,1.89283625502,1.89283625502,0.5443181984446174,219.10461401400002,219.10461401400002,219.10461401400002,29.006208048773875,nan,nan,nan,nan,nan,nan,nan,nan,nan,nan,nan,nan,nan,nan,nan,nan,nan,nan,nan,nan,44.45919063648611,42.6364914129,45.722913293000005,0.7212136984940561,nan,nan,nan,nan,nan,nan,nan,nan,67.22700048704533,67.22700048704533,67.22700048704533,0.7541921972826617,nan,nan,nan,nan,9.0,9.0,9.0,nan,nan,nan,nan,nan,Walking,U4
83,,,10.151720089095692,5.72678633508,16.7455038644,3.0455562390120376,9.79297330969,9.79297330969,9.79297330969,0.001050752460262901,1.89283625502,1.89283625502,1.89283625502,0.5443181984446174,219.10461401400002,219.10461401400002,219.10461401400002,29.006208048773875,nan,nan,nan,nan,nan,nan,nan,nan,nan,nan,nan,nan,nan,nan,nan,nan,nan,nan,nan,nan,40.163466450225805,27.8912241929,48.12590985600001,5.385910361273288,nan,nan,nan,nan,nan,nan,nan,nan,67.22700048704533,67.22700048704533,67.22700048704533,0.7541921972826617,nan,nan,nan,nan,9.0,9.0,9.0,nan,nan,nan,nan,nan,Walking,U4
84,,,10.401430720840635,5.502106791669999,18.735093281199998,3.37888754064139,9.797797309369999,9.79003653239,9.80475781429,0.007393196989282103,3.14240637613,3.14240637613,3.14240637613,0.5443181984446174,208.231806232,208.231806232,208.231806232,29.006208048773875,nan,nan,nan,nan,nan,nan,nan,nan,nan,nan,nan,nan,nan,nan,nan,nan,nan,nan,nan,nan,42.44435104703448,40.6674758904,43.9515050937,0.7461680031199346,nan,nan,nan,nan,nan,nan,nan,nan,67.22700048704533,67.22700048704533,67.22700048704533,0.7541921972826617,nan,nan,nan,nan,9.0,9.0,9.0,nan,nan,nan,nan,nan,Walking,U4
85,,,10.636657316464603,5.158770995919999,16.8248033478,3.0566703045978456,9.80034888402,9.80034888402,9.80034888402,0.007393196989282103,3.14240637613,3.14240637613,3.14240637613,0.5443181984446174,208.231806232,208.231806232,208.231806232,29.006208048773875,nan,nan,nan,nan,nan,nan,nan,nan,nan,nan,nan,nan,nan,nan,nan,nan,nan,nan,nan,nan,42.72167047273548,40.5610630858,44.856410912600005,1.4640744436026758,nan,nan,nan,nan,nan,nan,nan,nan,67.4913012144553,67.4913012144553,67.4913012144553,0.7541921972826617,nan,nan,nan,nan,9.0,9.0,9.0,nan,nan,nan,nan,nan,Walking,U4
86,,,10.368575148405931,5.33991790728,16.7483756962,3.134043409902436,9.80489044408,9.80489044408,9.80489044408,0.007393196989282103,3.6688362977800004,2.83816797177,4.6876559679800005,0.9389899670771774,200.36842447200002,200.36842447200002,200.36842447200002,29.006208048773875,nan,nan,nan,nan,nan,nan,nan,nan,nan,nan,nan,nan,nan,nan,nan,nan,nan,nan,nan,nan,40.087496992949994,37.0716978262,42.415245346,1.4212633200960796,nan,nan,nan,nan,nan,nan,nan,nan,68.35939284429475,68.35939284429475,68.35939284429475,0.7541921972826617,nan,nan,nan,nan,9.0,9.0,9.0,nan,nan,nan,nan,nan,Walking,U4
87,,,10.28136818720295,5.461299458840001,16.470203462,3.0927726415742023,9.7940645814275,9.79303916123,9.7957666013,0.0012018477620659167,3.6688362977800004,2.83816797177,4.6876559679800005,0.9389899670771774,187.04451707299998,187.04451707299998,187.04451707299998,29.006208048773875,nan,nan,nan,nan,nan,nan,nan,nan,nan,nan,nan,nan,nan,nan,nan,nan,nan,nan,nan,nan,38.559593318525806,34.836704781,40.3245533143,1.2429352469934316,nan,nan,nan,nan,nan,nan,nan,nan,68.35939284429475,68.35939284429475,68.35939284429475,0.7541921972826617,nan,nan,nan,nan,9.0,9.0,9.0,nan,nan,nan,nan,nan,Walking,U4
88,,,10.433309051118643,5.68554288573,16.8709233066,3.298474381094018,9.7940645814275,9.79303916123,9.7957666013,0.0012018477620659167,5.7979179506900005,5.7979179506900005,5.7979179506900005,0.9389899670771774,195.1056300855,186.303254023,203.908006148,12.448439608695786,nan,nan,nan,nan,nan,nan,nan,nan,nan,nan,nan,nan,nan,nan,nan,nan,nan,nan,nan,nan,40.90170467628235,37.6887866902,43.274141620600005,1.448141429234187,nan,nan,nan,nan,nan,nan,nan,nan,68.35939284429475,68.35939284429475,68.35939284429475,0.7541921972826617,nan,nan,nan,nan,9.0,9.0,9.0,nan,nan,nan,nan,nan,Walking,U4
89,,,10.234536814371209,5.52814057296,17.7844449954,2.8767619690010466,9.7940645814275,9.79303916123,9.7957666013,0.0012018477620659167,5.7979179506900005,5.7979179506900005,5.7979179506900005,0.9389899670771774,195.1056300855,186.303254023,203.908006148,12.448439608695786,nan,nan,nan,nan,nan,nan,nan,nan,nan,nan,nan,nan,nan,nan,nan,nan,nan,nan,nan,nan,42.15472360006842,40.496885763499996,43.421513391800005,0.7444166767128664,nan,nan,nan,nan,nan,nan,nan,nan,68.45179679702964,68.45179679702964,68.45179679702964,0.7541921972826617,nan,nan,nan,nan,9.0,9.0,9.0,nan,nan,nan,nan,nan,Walking,U4
90,,,10.30152233841158,5.5197230929400005,18.6941445681,3.1029929776546297,9.792546556000001,9.79212981971,9.79296329229,0.0005893541132511216,2.81005303853,2.81005303853,2.81005303853,0.9389899670771774,195.1056300855,186.303254023,203.908006148,12.448439608695786,nan,nan,nan,nan,nan,nan,nan,nan,nan,nan,nan,nan,nan,nan,nan,nan,nan,nan,nan,nan,42.16416623193784,36.695332920700004,46.117523409700006,2.091063192709401,nan,nan,nan,nan,nan,nan,nan,nan,68.45179679702964,68.45179679702964,68.45179679702964,0.7541921972826617,nan,nan,nan,nan,9.0,9.0,9.0,nan,nan,nan,nan,nan,Walking,U4
91,,,10.684951994581128,6.2927200146899995,16.9735653692,2.916967019629347,9.792546556000001,9.79212981971,9.79296329229,0.0005893541132511216,3.002653544603333,2.6143616278599997,3.6329323211699998,0.5507175270162297,195.1056300855,186.303254023,203.908006148,12.448439608695786,nan,nan,nan,nan,nan,nan,nan,nan,nan,nan,nan,nan,nan,nan,nan,nan,nan,nan,nan,nan,40.57317451223751,34.7348700458,44.8596210416,3.16501748260784,nan,nan,nan,nan,nan,nan,nan,nan,68.45179679702964,68.45179679702964,68.45179679702964,0.7541921972826617,nan,nan,nan,nan,9.0,9.0,9.0,nan,nan,nan,nan,nan,Walking,U4
92,,,9.779739745124754,5.742411860519999,16.8418815462,2.891528329443993,9.792546556000001,9.79212981971,9.79296329229,0.0005893541132511216,6.72184536051,6.72184536051,6.72184536051,0.5507175270162297,195.1056300855,186.303254023,203.908006148,12.448439608695786,nan,nan,nan,nan,nan,nan,nan,nan,nan,nan,nan,nan,nan,nan,nan,nan,nan,nan,nan,nan,42.914274968969444,37.859334384,46.7412319966,2.22806133581702,nan,nan,nan,nan,nan,nan,nan,nan,68.45179679702964,68.45179679702964,68.45179679702964,0.7541921972826617,nan,nan,nan,nan,9.0,9.0,9.0,nan,nan,nan,nan,nan,Walking,U4
93,,,10.672746979701873,5.49005842337,16.3225370713,2.9258846566170345,9.80153150542,9.80153102087,9.80153198997,6.852571818229881e-07,2.8744670734133333,1.7815601329099997,3.8490196965099996,1.0387988593163135,195.1056300855,186.303254023,203.908006148,12.448439608695786,nan,nan,nan,nan,nan,nan,nan,nan,nan,nan,nan,nan,nan,nan,nan,nan,nan,nan,nan,nan,42.467386492167996,40.588967052600005,44.7170705659,0.762950235962464,nan,nan,nan,nan,nan,nan,nan,nan,68.45179679702964,68.45179679702964,68.45179679702964,0.7541921972826617,nan,nan,nan,nan,9.0,9.0,9.0,nan,nan,nan,nan,nan,Walking,U4
94,,,10.852628010220347,6.4310308545099995,16.1094222446,3.0036642583153976,9.79751366097,9.79723451357,9.79779280837,0.00039477403898073425,4.06082844775,4.06082844775,4.06082844775,1.0387988593163135,195.1056300855,186.303254023,203.908006148,12.448439608695786,nan,nan,nan,nan,nan,nan,nan,nan,nan,nan,nan,nan,nan,nan,nan,nan,nan,nan,nan,nan,41.84350237545294,39.2704927395,44.244579329,1.573304458013415,nan,nan,nan,nan,nan,nan,nan,nan,68.45179679702964,68.45179679702964,68.45179679702964,0.7541921972826617,nan,nan,nan,nan,9.0,9.0,9.0,nan,nan,nan,nan,nan,Walking,U4
95,,,10.24827279331242,5.832416996699999,16.7606866934,2.5609373037946255,9.79751366097,9.79723451357,9.79779280837,0.00039477403898073425,4.06082844775,4.06082844775,4.06082844775,1.0387988593163135,139.537359982,135.945788181,143.12893178299998,5.0792495512109435,nan,nan,nan,nan,nan,nan,nan,nan,nan,nan,nan,nan,nan,nan,nan,nan,nan,nan,nan,nan,44.65780484578182,40.8339123768,48.0117357778,1.923016209652135,nan,nan,nan,nan,nan,nan,nan,nan,68.45179679702964,68.45179679702964,68.45179679702964,0.7541921972826617,nan,nan,nan,nan,9.0,9.0,9.0,nan,nan,nan,nan,nan,Walking,U4
96,,,10.816690095740308,3.14087147954,17.106409908099998,3.6251480507765095,9.79751366097,9.79723451357,9.79779280837,0.00039477403898073425,4.06082844775,4.06082844775,4.06082844775,1.0387988593163135,139.537359982,135.945788181,143.12893178299998,5.0792495512109435,nan,nan,nan,nan,nan,nan,nan,nan,nan,nan,nan,nan,nan,nan,nan,nan,nan,nan,nan,nan,41.78490537078,39.4011352852,44.322456832600004,1.1601948283635253,nan,nan,nan,nan,nan,nan,nan,nan,68.45179679702964,68.45179679702964,68.45179679702964,0.7541921972826617,nan,nan,nan,nan,9.0,9.0,9.0,nan,nan,nan,nan,nan,Walking,U4
97,,,10.422654163604333,5.0500381592500005,16.973827461,2.951269362292459,9.79751366097,9.79723451357,9.79779280837,0.00039477403898073425,4.06082844775,4.06082844775,4.06082844775,1.0387988593163135,207.01677779599999,207.01677779599999,207.01677779599999,5.0792495512109435,nan,nan,nan,nan,nan,nan,nan,nan,nan,nan,nan,nan,nan,nan,nan,nan,nan,nan,nan,nan,40.15953063456571,35.7010083891,42.6768316725,1.4722509386652896,nan,nan,nan,nan,nan,nan,nan,nan,69.97447941495811,69.97447941495811,69.97447941495811,0.7541921972826617,nan,nan,nan,nan,9.0,9.0,9.0,nan,nan,nan,nan,nan,Walking,U4
98,,,10.31017200037393,6.4032182035,16.5548034059,2.3377253819084314,9.79782428758,9.79580442335,9.80120064184,0.0029427610163024376,4.06082844775,4.06082844775,4.06082844775,1.0387988593163135,207.01677779599999,207.01677779599999,207.01677779599999,5.0792495512109435,nan,nan,nan,nan,nan,nan,nan,nan,nan,nan,nan,nan,nan,nan,nan,nan,nan,nan,nan,nan,41.01971326511667,37.6840584025,43.6107551579,2.013708328772827,nan,nan,nan,nan,nan,nan,nan,nan,69.97447941495811,69.97447941495811,69.97447941495811,0.7541921972826617,nan,nan,nan,nan,9.0,9.0,9.0,nan,nan,nan,nan,nan,Walking,U4
99,,,10.100993924801477,2.868649317,18.8683635258,3.711663058360904,9.799847367849999,9.799847367849999,9.799847367849999,0.0029427610163024376,4.06082844775,4.06082844775,4.06082844775,1.0387988593163135,207.01677779599999,207.01677779599999,207.01677779599999,5.0792495512109435,nan,nan,nan,nan,nan,nan,nan,nan,nan,nan,nan,nan,nan,nan,nan,nan,nan,nan,nan,nan,39.56405036386857,35.136749992,42.2514182948,2.20593936674486,nan,nan,nan,nan,nan,nan,nan,nan,69.97447941495811,69.97447941495811,69.97447941495811,0.7541921972826617,nan,nan,nan,nan,9.0,9.0,9.0,nan,nan,nan,nan,nan,Walking,U4
100,,,10.519645570724666,5.5737426786899995,18.279434296199998,2.947552284870115,9.799601133149999,9.79795396085,9.801248305449999,0.0023294534062243415,4.06082844775,4.06082844775,4.06082844775,1.0387988593163135,207.01677779599999,207.01677779599999,207.01677779599999,5.0792495512109435,nan,nan,nan,nan,nan,nan,nan,nan,nan,nan,nan,nan,nan,nan,nan,nan,nan,nan,nan,nan,41.40234644565312,37.529988009600004,45.0702251072,1.8789919881837367,nan,nan,nan,nan,nan,nan,nan,nan,72.336365905049,72.17265978980075,72.50007202029727,0.23151540842750248,nan,nan,nan,nan,9.0,9.0,9.0,nan,nan,nan,nan,nan,Walking,U4
101,,,10.121211939653548,3.71093534506,17.1548761125,2.9323403675935786,9.799601133149999,9.79795396085,9.801248305449999,0.0023294534062243415,3.444332497465,3.11786992138,3.77079507355,0.4616878027066654,152.038850337,152.038850337,152.038850337,5.0792495512109435,nan,nan,nan,nan,nan,nan,nan,nan,nan,nan,nan,nan,nan,nan,nan,nan,nan,nan,nan,nan,40.748753953821875,37.9666772273,43.3598274176,1.4100782002508083,nan,nan,nan,nan,nan,nan,nan,nan,72.336365905049,72.17265978980075,72.50007202029727,0.23151540842750248,nan,nan,nan,nan,9.0,9.0,9.0,nan,nan,nan,nan,nan,Walking,U4
102,,,9.924466630069666,5.41179412628,16.4914866729,2.7204963233411146,9.799601133149999,9.79795396085,9.801248305449999,0.0023294534062243415,1.8402365659000002,1.5777279331,2.1027451987,0.37124326874577873,152.038850337,152.038850337,152.038850337,5.0792495512109435,nan,nan,nan,nan,nan,nan,nan,nan,nan,nan,nan,nan,nan,nan,nan,nan,nan,nan,nan,nan,40.4533923066697,36.489916415399996,43.5373908267,1.8617486000506156,nan,nan,nan,nan,nan,nan,nan,nan,72.13837051896581,72.13837051896581,72.13837051896581,0.23151540842750248,nan,nan,nan,nan,9.0,9.0,9.0,nan,nan,nan,nan,nan,Walking,U4
103,,,10.603976186134501,4.07761718648,16.6462722954,2.9930067506900366,9.799601133149999,9.79795396085,9.801248305449999,0.0023294534062243415,1.8402365659000002,1.5777279331,2.1027451987,0.37124326874577873,152.038850337,152.038850337,152.038850337,5.0792495512109435,nan,nan,nan,nan,nan,nan,nan,nan,nan,nan,nan,nan,nan,nan,nan,nan,nan,nan,nan,nan,40.505946454986116,35.32874184,43.594242738599995,2.103051720000721,nan,nan,nan,nan,nan,nan,nan,nan,72.13837051896581,72.13837051896581,72.13837051896581,0.23151540842750248,nan,nan,nan,nan,9.0,9.0,9.0,nan,nan,nan,nan,nan,Walking,U4
104,,,10.22043752174143,3.27458174294,18.508360614,2.909469704959677,9.79228131635,9.79228131635,9.79228131635,0.0023294534062243415,1.8402365659000002,1.5777279331,2.1027451987,0.37124326874577873,152.038850337,152.038850337,152.038850337,5.0792495512109435,nan,nan,nan,nan,nan,nan,nan,nan,nan,nan,nan,nan,nan,nan,nan,nan,nan,nan,nan,nan,39.73719241123125,37.1885788919,42.554762489299996,1.3165929740624538,nan,nan,nan,nan,nan,nan,nan,nan,72.13837051896581,72.13837051896581,72.13837051896581,0.23151540842750248,nan,nan,nan,nan,9.0,9.0,9.0,nan,nan,nan,nan,nan,Walking,U4
105,,,10.029723806236793,6.53296896713,16.955711282,2.368343924858357,9.796830663686668,9.79503741073,9.79872123947,0.0018438417355767995,1.8402365659000002,1.5777279331,2.1027451987,0.37124326874577873,152.038850337,152.038850337,152.038850337,5.0792495512109435,nan,nan,nan,nan,nan,nan,nan,nan,nan,nan,nan,nan,nan,nan,nan,nan,nan,nan,nan,nan,41.239552177487184,39.5849512391,42.3102088234,0.6320911854541399,nan,nan,nan,nan,nan,nan,nan,nan,70.98251853516224,70.98251853516224,70.98251853516224,0.23151540842750248,nan,nan,nan,nan,9.0,9.0,9.0,nan,nan,nan,nan,nan,Walking,U4
106,,,10.228661233036291,5.60041783137,16.7046960569,2.6810659578642624,9.7884157901,9.7884157901,9.7884157901,0.0018438417355767995,1.8402365659000002,1.5777279331,2.1027451987,0.37124326874577873,209.38030101599998,209.38030101599998,209.38030101599998,5.0792495512109435,nan,nan,nan,nan,nan,nan,nan,nan,nan,nan,nan,nan,nan,nan,nan,nan,nan,nan,nan,nan,42.091144961877426,40.7167970886,44.4804792429,1.1421566676973114,nan,nan,nan,nan,nan,nan,nan,nan,72.26203033933824,72.26203033933824,72.26203033933824,0.23151540842750248,nan,nan,nan,nan,9.0,9.0,9.0,nan,nan,nan,nan,nan,Walking,U4
107,,,10.073952476865651,4.29990110189,17.6675259617,2.5451153773493966,9.7884157901,9.7884157901,9.7884157901,0.0018438417355767995,2.9558036369650003,2.8502997847600002,3.06130748917,0.14920497867091728,207.5643805745,184.009820757,231.118940392,33.31117794963684,nan,nan,nan,nan,nan,nan,nan,nan,nan,nan,nan,nan,nan,nan,nan,nan,nan,nan,nan,nan,37.525965056445834,32.0741381622,43.167862353500006,3.9687787264419936,nan,nan,nan,nan,nan,nan,nan,nan,72.26203033933824,72.26203033933824,72.26203033933824,0.23151540842750248,nan,nan,nan,nan,9.0,9.0,9.0,nan,nan,nan,nan,nan,Walking,U4
108,,,10.462481498662587,7.07976094085,16.0902667116,2.334148416066757,9.7884157901,9.7884157901,9.7884157901,0.0018438417355767995,2.564423870975,1.47961111128,3.64923663067,1.534156917396054,207.5643805745,184.009820757,231.118940392,33.31117794963684,nan,nan,nan,nan,nan,nan,nan,nan,nan,nan,nan,nan,nan,nan,nan,nan,nan,nan,nan,nan,40.95278957686,39.598044932,43.356922795299994,0.7456896453649745,nan,nan,nan,nan,nan,nan,nan,nan,72.26203033933824,72.26203033933824,72.26203033933824,0.23151540842750248,nan,nan,nan,nan,9.0,9.0,9.0,nan,nan,nan,nan,nan,Walking,U4
109,,,10.357991053616153,6.0902318257,16.8013388675,2.406359489667021,9.79469705825,9.79469705825,9.79469705825,0.0018438417355767995,1.9442778013099997,1.9442778013099997,1.9442778013099997,1.534156917396054,207.5643805745,184.009820757,231.118940392,33.31117794963684,nan,nan,nan,nan,nan,nan,nan,nan,nan,nan,nan,nan,nan,nan,nan,nan,nan,nan,nan,nan,42.297596394368966,40.576549878,45.9608615465,1.1971308149451425,nan,nan,nan,nan,nan,nan,nan,nan,72.26203033933824,72.26203033933824,72.26203033933824,0.23151540842750248,nan,nan,nan,nan,9.0,9.0,9.0,nan,nan,nan,nan,nan,Walking,U4
110,,,10.282670226074655,5.990015382999999,16.7666067437,2.6827218364346574,9.79469705825,9.79469705825,9.79469705825,0.0018438417355767995,1.9442778013099997,1.9442778013099997,1.9442778013099997,1.534156917396054,169.413400621,169.413400621,169.413400621,33.31117794963684,nan,nan,nan,nan,nan,nan,nan,nan,nan,nan,nan,nan,nan,nan,nan,nan,nan,nan,nan,nan,43.202714459032435,41.0706026252,46.017809595900005,1.345850996196534,nan,nan,nan,nan,nan,nan,nan,nan,72.26203033933824,72.26203033933824,72.26203033933824,0.23151540842750248,nan,nan,nan,nan,9.0,9.0,9.0,nan,nan,nan,nan,nan,Walking,U4
111,,,10.501555281798769,5.56288846061,16.9628855702,2.5392321445725363,9.79469705825,9.79469705825,9.79469705825,0.0018438417355767995,3.6537808114950003,2.01663952743,5.29092209556,2.3152674074456265,169.413400621,169.413400621,169.413400621,33.31117794963684,nan,nan,nan,nan,nan,nan,nan,nan,nan,nan,nan,nan,nan,nan,nan,nan,nan,nan,nan,nan,40.887722662550004,37.1239060057,42.7693087468,1.176236143056833,nan,nan,nan,nan,nan,nan,nan,nan,72.26203033933824,72.26203033933824,72.26203033933824,0.23151540842750248,nan,nan,nan,nan,9.0,9.0,9.0,nan,nan,nan,nan,nan,Walking,U4
112,,,10.565367103825253,5.22094965909,17.1022385476,2.8946535331099645,9.793224429096666,9.7870418966,9.798834276200001,0.005917011963603962,2.9745707063449998,1.6856246405700002,4.263516772119999,1.8228450073864477,169.413400621,169.413400621,169.413400621,33.31117794963684,nan,nan,nan,nan,nan,nan,nan,nan,nan,nan,nan,nan,nan,nan,nan,nan,nan,nan,nan,nan,41.255124118568745,37.2306164304,44.7232272136,1.7883374618779107,nan,nan,nan,nan,nan,nan,nan,nan,72.26203033933824,72.26203033933824,72.26203033933824,0.23151540842750248,nan,nan,nan,nan,9.0,9.0,9.0,nan,nan,nan,nan,nan,Walking,U4
113,,,9.972421366786719,6.120733422790001,17.1905627179,2.714901637719255,9.793224429096666,9.7870418966,9.798834276200001,0.005917011963603962,6.956331484,6.956331484,6.956331484,1.8228450073864477,169.413400621,169.413400621,169.413400621,33.31117794963684,nan,nan,nan,nan,nan,nan,nan,nan,nan,nan,nan,nan,nan,nan,nan,nan,nan,nan,nan,nan,42.306989557856255,39.6006363585,46.941976531,2.1379555706418083,nan,nan,nan,nan,nan,nan,nan,nan,72.26203033933824,72.26203033933824,72.26203033933824,0.23151540842750248,nan,nan,nan,nan,9.0,9.0,9.0,nan,nan,nan,nan,nan,Walking,U4
114,,,10.216815851934308,5.65789106334,18.0867569718,2.8830189137213953,9.793224429096666,9.7870418966,9.798834276200001,0.005917011963603962,3.2174955696699996,2.37658452817,4.05840661117,1.1892277996385845,169.413400621,169.413400621,169.413400621,33.31117794963684,nan,nan,nan,nan,nan,nan,nan,nan,nan,nan,nan,nan,nan,nan,nan,nan,nan,nan,nan,nan,45.21724638495863,39.196994734499995,48.387423986,2.3804392402054884,nan,nan,nan,nan,nan,nan,nan,nan,72.26203033933824,72.26203033933824,72.26203033933824,0.23151540842750248,nan,nan,nan,nan,9.0,9.0,9.0,nan,nan,nan,nan,nan,Walking,U4
115,,,10.561899242046419,4.76861507711,17.365437691300002,3.3367062792922044,9.793224429096666,9.7870418966,9.798834276200001,0.005917011963603962,3.2174955696699996,2.37658452817,4.05840661117,1.1892277996385845,169.413400621,169.413400621,169.413400621,33.31117794963684,nan,nan,nan,nan,nan,nan,nan,nan,nan,nan,nan,nan,nan,nan,nan,nan,nan,nan,nan,nan,42.58269244619334,38.2377976139,47.7746208776,2.326658940069872,nan,nan,nan,nan,nan,nan,nan,nan,72.26203033933824,72.26203033933824,72.26203033933824,0.23151540842750248,nan,nan,nan,nan,9.0,9.0,9.0,nan,nan,nan,nan,nan,Walking,U4
116,,,10.00683582739058,3.24335784931,16.7177059324,3.321049890855028,9.793224429096666,9.7870418966,9.798834276200001,0.005917011963603962,3.2174955696699996,2.37658452817,4.05840661117,1.1892277996385845,169.413400621,169.413400621,169.413400621,33.31117794963684,nan,nan,nan,nan,nan,nan,nan,nan,nan,nan,nan,nan,nan,nan,nan,nan,nan,nan,nan,nan,45.72680796948077,42.5934924607,47.6427581066,1.440513224236292,nan,nan,nan,nan,nan,nan,nan,nan,72.26203033933824,72.26203033933824,72.26203033933824,0.23151540842750248,nan,nan,nan,nan,9.0,9.0,9.0,nan,nan,nan,nan,nan,Walking,U4
117,,,10.306741767287543,1.9708221161500001,15.789904291700001,2.3021529329833124,9.793224429096666,9.7870418966,9.798834276200001,0.005917011963603962,3.2174955696699996,2.37658452817,4.05840661117,1.1892277996385845,354.052936237,354.052936237,354.052936237,33.31117794963684,nan,nan,nan,nan,nan,nan,nan,nan,nan,nan,nan,nan,nan,nan,nan,nan,nan,nan,nan,nan,44.12952306808684,40.5976596409,48.685775757600005,2.081369519726015,nan,nan,nan,nan,nan,nan,nan,nan,69.69453608597323,69.69453608597323,69.69453608597323,0.23151540842750248,nan,nan,nan,nan,9.0,9.0,9.0,nan,nan,nan,nan,nan,Walking,U4
118,,,10.489548022519195,6.908430104189999,15.6459907705,1.8784096138141015,9.793224429096666,9.7870418966,9.798834276200001,0.005917011963603962,3.2174955696699996,2.37658452817,4.05840661117,1.1892277996385845,339.27722563099996,338.789493442,339.76495782,0.6897574764897364,nan,nan,nan,nan,nan,nan,nan,nan,nan,nan,nan,nan,nan,nan,nan,nan,nan,nan,nan,nan,45.535758657100004,41.076124451999995,48.8695459635,2.418641004275002,nan,nan,nan,nan,nan,nan,nan,nan,69.69453608597323,69.69453608597323,69.69453608597323,0.23151540842750248,nan,nan,nan,nan,9.0,9.0,9.0,nan,nan,nan,nan,nan,Walking,U4
119,,,10.47908006959105,4.89354223162,16.4794807797,2.5425154461005093,9.793361454360001,9.793361454360001,9.793361454360001,0.005917011963603962,3.2174955696699996,2.37658452817,4.05840661117,1.1892277996385845,194.012280817,187.323132697,200.701428937,9.45988399202649,nan,nan,nan,nan,nan,nan,nan,nan,nan,nan,nan,nan,nan,nan,nan,nan,nan,nan,nan,nan,43.96962912740556,41.6637680235,48.5175220575,2.2252893316024087,nan,nan,nan,nan,nan,nan,nan,nan,69.69453608597323,69.69453608597323,69.69453608597323,0.23151540842750248,nan,nan,nan,nan,9.0,9.0,9.0,nan,nan,nan,nan,nan,Walking,U4
120,,,10.494784136830477,5.86136528136,17.0534246341,2.8610833806058746,9.793361454360001,9.793361454360001,9.793361454360001,0.005917011963603962,1.30108184895,1.30108184895,1.30108184895,1.1892277996385845,194.012280817,187.323132697,200.701428937,9.45988399202649,nan,nan,nan,nan,nan,nan,nan,nan,nan,nan,nan,nan,nan,nan,nan,nan,nan,nan,nan,nan,44.4341276425697,41.8250355648,47.67104781729999,1.2988975578158515,nan,nan,nan,nan,nan,nan,nan,nan,69.69453608597323,69.69453608597323,69.69453608597323,0.23151540842750248,nan,nan,nan,nan,9.0,9.0,9.0,nan,nan,nan,nan,nan,Walking,U4
121,,,10.248436801789689,5.2802607499,17.0088888503,3.011740904164567,9.79418491353,9.79418491353,9.79418491353,0.005917011963603962,1.30108184895,1.30108184895,1.30108184895,1.1892277996385845,194.012280817,187.323132697,200.701428937,9.45988399202649,nan,nan,nan,nan,nan,nan,nan,nan,nan,nan,nan,nan,nan,nan,nan,nan,nan,nan,nan,nan,42.21572452633124,32.959775484699996,48.291203618900006,4.056643959743299,nan,nan,nan,nan,nan,nan,nan,nan,69.69453608597323,69.69453608597323,69.69453608597323,0.23151540842750248,nan,nan,nan,nan,9.0,9.0,9.0,nan,nan,nan,nan,nan,Walking,U4
122,,,10.018878431851968,6.10396536819,16.634725495999998,2.9385783589914385,9.79418491353,9.79418491353,9.79418491353,0.005917011963603962,1.30108184895,1.30108184895,1.30108184895,1.1892277996385845,194.012280817,187.323132697,200.701428937,9.45988399202649,nan,nan,nan,nan,nan,nan,nan,nan,nan,nan,nan,nan,nan,nan,nan,nan,nan,nan,nan,nan,43.67621120653055,41.9668579939,46.6758734371,1.0740406857501745,nan,nan,nan,nan,nan,nan,nan,nan,70.68560010410164,70.68560010410164,70.68560010410164,0.23151540842750248,nan,nan,nan,nan,9.0,9.0,9.0,nan,nan,nan,nan,nan,Walking,U4
123,,,10.096599499604642,5.53832608901,16.796041887,3.0722156775600515,9.80130458134,9.80130458134,9.80130458134,0.005917011963603962,2.48894828374,2.48894828374,2.48894828374,1.1892277996385845,194.012280817,187.323132697,200.701428937,9.45988399202649,nan,nan,nan,nan,nan,nan,nan,nan,nan,nan,nan,nan,nan,nan,nan,nan,nan,nan,nan,nan,43.975115566818914,40.8609231957,46.0434993614,1.0578612725135488,nan,nan,nan,nan,nan,nan,nan,nan,68.50742332877883,68.50742332877883,68.50742332877883,0.23151540842750248,nan,nan,nan,nan,9.0,9.0,9.0,nan,nan,nan,nan,nan,Walking,U4
124,,,10.65798782198705,6.00634532475,16.9952592068,3.1533005808109835,9.80130458134,9.80130458134,9.80130458134,0.005917011963603962,2.48894828374,2.48894828374,2.48894828374,1.1892277996385845,194.012280817,187.323132697,200.701428937,9.45988399202649,nan,nan,nan,nan,nan,nan,nan,nan,nan,nan,nan,nan,nan,nan,nan,nan,nan,nan,nan,nan,40.33796248173999,37.7583103436,42.8713330656,1.0853303892617028,nan,nan,nan,nan,nan,nan,nan,nan,71.53833911930414,71.53833911930414,71.53833911930414,0.23151540842750248,nan,nan,nan,nan,9.0,9.0,9.0,nan,nan,nan,nan,nan,Walking,U4
125,,,9.958172913083438,5.75251297235,17.78833096,2.8526310278243496,9.80130458134,9.80130458134,9.80130458134,0.005917011963603962,1.6322836636700002,1.6322836636700002,1.6322836636700002,1.1892277996385845,185.156795268,185.156795268,185.156795268,9.45988399202649,nan,nan,nan,nan,nan,nan,nan,nan,nan,nan,nan,nan,nan,nan,nan,nan,nan,nan,nan,nan,43.0893320273129,34.3220969534,48.19553745979999,4.056402037109805,nan,nan,nan,nan,nan,nan,nan,nan,71.53833911930414,71.53833911930414,71.53833911930414,0.23151540842750248,nan,nan,nan,nan,9.0,9.0,9.0,nan,nan,nan,nan,nan,Walking,U4
126,,,10.331080082633493,5.6607675998,16.7557283076,3.0729669546245733,9.80130458134,9.80130458134,9.80130458134,0.005917011963603962,1.76124313165,1.76124313165,1.76124313165,1.1892277996385845,175.156056255,175.156056255,175.156056255,9.45988399202649,nan,nan,nan,nan,nan,nan,nan,nan,nan,nan,nan,nan,nan,nan,nan,nan,nan,nan,nan,nan,42.20147338505162,36.8814099514,47.768931325699995,3.533735919842199,nan,nan,nan,nan,nan,nan,nan,nan,63.539179611738156,63.539179611738156,63.539179611738156,0.23151540842750248,nan,nan,nan,nan,9.0,9.0,9.0,nan,nan,nan,nan,nan,Walking,U4
127,,,10.23124783651453,6.59775976455,16.2819770864,2.622486323212188,9.80130458134,9.80130458134,9.80130458134,0.005917011963603962,6.812025922869999,6.812025922869999,6.812025922869999,1.1892277996385845,175.156056255,175.156056255,175.156056255,9.45988399202649,nan,nan,nan,nan,nan,nan,nan,nan,nan,nan,nan,nan,nan,nan,nan,nan,nan,nan,nan,nan,43.15488707447,36.6479685658,48.9390009825,3.331501768932371,nan,nan,nan,nan,nan,nan,nan,nan,67.07787269070167,64.73578198818585,69.41996339321747,3.312216435805791,nan,nan,nan,nan,9.0,9.0,9.0,nan,nan,nan,nan,nan,Walking,U4
128,,,10.67827135782603,6.1949654045399996,15.938761460799999,2.479330164206489,9.80130458134,9.80130458134,9.80130458134,0.005917011963603962,6.812025922869999,6.812025922869999,6.812025922869999,1.1892277996385845,175.156056255,175.156056255,175.156056255,9.45988399202649,nan,nan,nan,nan,nan,nan,nan,nan,nan,nan,nan,nan,nan,nan,nan,nan,nan,nan,nan,nan,43.21044416841515,41.2591075415,44.7738718025,0.9985329606472202,nan,nan,nan,nan,nan,nan,nan,nan,62.854044914752315,62.854044914752315,62.854044914752315,3.312216435805791,nan,nan,nan,nan,9.0,9.0,9.0,nan,nan,nan,nan,nan,Walking,U4
129,,,9.931333516522788,6.43920450756,16.7621864981,2.670164040043452,9.80130458134,9.80130458134,9.80130458134,0.005917011963603962,6.812025922869999,6.812025922869999,6.812025922869999,1.1892277996385845,172.468653759,170.958517475,173.978790043,2.135655213864505,nan,nan,nan,nan,nan,nan,nan,nan,nan,nan,nan,nan,nan,nan,nan,nan,nan,nan,nan,nan,40.97245108261177,39.0155490757,42.555525829699995,0.859100157584088,nan,nan,nan,nan,nan,nan,nan,nan,62.854044914752315,62.854044914752315,62.854044914752315,3.312216435805791,nan,nan,nan,nan,9.0,9.0,9.0,nan,nan,nan,nan,nan,Walking,U4
130,,,9.97805677939923,5.80606530083,16.0704022374,2.6169255691498607,9.80130458134,9.80130458134,9.80130458134,0.005917011963603962,6.812025922869999,6.812025922869999,6.812025922869999,1.1892277996385845,172.468653759,170.958517475,173.978790043,2.135655213864505,nan,nan,nan,nan,nan,nan,nan,nan,nan,nan,nan,nan,nan,nan,nan,nan,nan,nan,nan,nan,41.006623816380646,39.4376668417,42.671810455700005,0.8340534777153923,nan,nan,nan,nan,nan,nan,nan,nan,62.854044914752315,62.854044914752315,62.854044914752315,3.312216435805791,nan,nan,nan,nan,9.0,9.0,9.0,nan,nan,nan,nan,nan,Walking,U4
131,,,10.058922618690625,4.750685063680001,16.2285596877,2.748218996593424,9.79592801143,9.79592801143,9.79592801143,0.005917011963603962,2.7898115519599997,2.7898115519599997,2.7898115519599997,1.1892277996385845,157.181711912,121.799769449,192.563654375,50.03762289427912,nan,nan,nan,nan,nan,nan,nan,nan,nan,nan,nan,nan,nan,nan,nan,nan,nan,nan,nan,nan,40.63271917020689,38.423102425500005,42.0862240131,0.936512015823912,nan,nan,nan,nan,nan,nan,nan,nan,62.854044914752315,62.854044914752315,62.854044914752315,3.312216435805791,nan,nan,nan,nan,9.0,9.0,9.0,nan,nan,nan,nan,nan,Walking,U4
132,,,10.096475548219718,5.75069487372,17.2855258768,2.8559105913648284,9.79592801143,9.79592801143,9.79592801143,0.005917011963603962,2.7898115519599997,2.7898115519599997,2.7898115519599997,1.1892277996385845,200.04831325599997,200.04831325599997,200.04831325599997,50.03762289427912,nan,nan,nan,nan,nan,nan,nan,nan,nan,nan,nan,nan,nan,nan,nan,nan,nan,nan,nan,nan,42.24607364055652,39.202229528400004,45.071341287799996,1.609070058050177,nan,nan,nan,nan,nan,nan,nan,nan,72.66532822310849,72.66532822310849,72.66532822310849,3.312216435805791,nan,nan,nan,nan,9.0,9.0,9.0,nan,nan,nan,nan,nan,Walking,U4
133,,,10.269899986272462,6.28998669337,16.6231156745,2.640611103153354,9.79592801143,9.79592801143,9.79592801143,0.005917011963603962,2.7898115519599997,2.7898115519599997,2.7898115519599997,1.1892277996385845,200.04831325599997,200.04831325599997,200.04831325599997,50.03762289427912,nan,nan,nan,nan,nan,nan,nan,nan,nan,nan,nan,nan,nan,nan,nan,nan,nan,nan,nan,nan,42.464528773937495,38.9418951773,45.0558053973,1.8436151249162367,nan,nan,nan,nan,nan,nan,nan,nan,72.66532822310849,72.66532822310849,72.66532822310849,3.312216435805791,nan,nan,nan,nan,9.0,9.0,9.0,nan,nan,nan,nan,nan,Walking,U4
134,,,10.185687130142107,6.2165869891100005,16.2010164924,2.39695766833864,9.7957666013,9.7957666013,9.7957666013,0.005917011963603962,6.7316082900900005,6.7316082900900005,6.7316082900900005,1.1892277996385845,200.04831325599997,200.04831325599997,200.04831325599997,50.03762289427912,nan,nan,nan,nan,nan,nan,nan,nan,nan,nan,nan,nan,nan,nan,nan,nan,nan,nan,nan,nan,42.360474071173684,40.432031234200004,45.986504125399996,1.369722090168769,nan,nan,nan,nan,nan,nan,nan,nan,72.66532822310849,72.66532822310849,72.66532822310849,3.312216435805791,nan,nan,nan,nan,9.0,9.0,9.0,nan,nan,nan,nan,nan,Walking,U4
135,,,9.891982201085966,3.9614888114399998,17.4122914677,2.8075964914797007,9.79378733635,9.79378733635,9.79378733635,0.005917011963603962,6.7316082900900005,6.7316082900900005,6.7316082900900005,1.1892277996385845,180.55531797,180.55531797,180.55531797,50.03762289427912,nan,nan,nan,nan,nan,nan,nan,nan,nan,nan,nan,nan,nan,nan,nan,nan,nan,nan,nan,nan,45.25384152104375,40.1917603496,49.3692090275,2.6996898920823647,nan,nan,nan,nan,nan,nan,nan,nan,66.42248308471298,64.78598958253785,68.05897658688811,2.31435130551151,nan,nan,nan,nan,9.0,9.0,9.0,nan,nan,nan,nan,nan,Walking,U4
136,,,10.581941513791525,4.9405187164,20.0576130938,3.49085662736854,9.79349338581,9.79349338581,9.79349338581,0.005917011963603962,3.9528818914599997,3.9528818914599997,3.9528818914599997,1.1892277996385845,180.55531797,180.55531797,180.55531797,50.03762289427912,nan,nan,nan,nan,nan,nan,nan,nan,nan,nan,nan,nan,nan,nan,nan,nan,nan,nan,nan,nan,44.33359658939412,38.8858328958,47.252388654399994,1.8401576974095866,nan,nan,nan,nan,nan,nan,nan,nan,62.61310698044062,62.61310698044062,62.61310698044062,2.31435130551151,nan,nan,nan,nan,9.0,9.0,9.0,nan,nan,nan,nan,nan,Walking,U4
137,,,10.603959063833772,4.74897620122,19.329796843,3.508947795890834,9.79931663091,9.79931663091,9.79931663091,0.005917011963603962,2.6265655627199997,2.53547072668,2.7176603987599997,0.12882755258992126,180.55531797,180.55531797,180.55531797,50.03762289427912,nan,nan,nan,nan,nan,nan,nan,nan,nan,nan,nan,nan,nan,nan,nan,nan,nan,nan,nan,nan,43.72095173271562,42.23833749,44.63592723359999,0.5784488367980883,nan,nan,nan,nan,nan,nan,nan,nan,72.01292471324787,72.01292471324787,72.01292471324787,2.31435130551151,nan,nan,nan,nan,9.0,9.0,9.0,nan,nan,nan,nan,nan,Walking,U4
138,,,10.454847197530922,4.77073020408,16.799730494200002,3.213710693205279,9.79931663091,9.79931663091,9.79931663091,0.005917011963603962,8.24051127341,7.167642488069999,9.31338005875,1.5172655868745777,163.739210015,163.739210015,163.739210015,50.03762289427912,nan,nan,nan,nan,nan,nan,nan,nan,nan,nan,nan,nan,nan,nan,nan,nan,nan,nan,nan,nan,43.85168981372069,42.294680516599996,45.7737077943,0.983970572713154,nan,nan,nan,nan,nan,nan,nan,nan,72.01292471324787,72.01292471324787,72.01292471324787,2.31435130551151,nan,nan,nan,nan,9.0,9.0,9.0,nan,nan,nan,nan,nan,Walking,U4
139,,,9.799174227703684,5.6486031293800005,16.4180354836,2.7625797214655896,9.79318135364,9.79318135364,9.79318135364,0.005917011963603962,8.24051127341,7.167642488069999,9.31338005875,1.5172655868745777,201.11081556599999,201.11081556599999,201.11081556599999,50.03762289427912,nan,nan,nan,nan,nan,nan,nan,nan,nan,nan,nan,nan,nan,nan,nan,nan,nan,nan,nan,nan,43.16292002583334,40.618316065500004,44.3492953721,0.7742406397243254,nan,nan,nan,nan,nan,nan,nan,nan,71.57049210549988,71.57049210549988,71.57049210549988,2.31435130551151,nan,nan,nan,nan,9.0,9.0,9.0,nan,nan,nan,nan,nan,Walking,U4
140,,,10.018720550931386,5.23032202901,17.131964900899998,2.964277250002141,9.79272699943,9.79272699943,9.79272699943,0.005917011963603962,8.24051127341,7.167642488069999,9.31338005875,1.5172655868745777,113.125295666,113.125295666,113.125295666,50.03762289427912,nan,nan,nan,nan,nan,nan,nan,nan,nan,nan,nan,nan,nan,nan,nan,nan,nan,nan,nan,nan,43.80204774654827,42.9307004387,44.7069251696,0.5711838981103443,nan,nan,nan,nan,nan,nan,nan,nan,67.94141099918818,67.94141099918818,67.94141099918818,2.31435130551151,nan,nan,nan,nan,9.0,9.0,9.0,nan,nan,nan,nan,nan,Walking,U4
141,,,9.985424682888794,3.63778756008,19.0595736342,3.460420444905967,9.79235703466,9.79235703466,9.79235703466,0.005917011963603962,4.1872103115499995,4.1872103115499995,4.1872103115499995,1.5172655868745777,113.125295666,113.125295666,113.125295666,50.03762289427912,nan,nan,nan,nan,nan,nan,nan,nan,nan,nan,nan,nan,nan,nan,nan,nan,nan,nan,nan,nan,42.693892172719444,41.1113852844,44.101510178199995,0.6586824953596393,nan,nan,nan,nan,nan,nan,nan,nan,67.94141099918818,67.94141099918818,67.94141099918818,2.31435130551151,nan,nan,nan,nan,9.0,9.0,9.0,nan,nan,nan,nan,nan,Walking,U4
142,,,10.379440141321998,4.10560280932,18.4705021094,3.434395569803757,9.797215072145,9.79529298478,9.799137159510002,0.0027182420196503665,11.8601395033,11.8601395033,11.8601395033,1.5172655868745777,113.125295666,113.125295666,113.125295666,50.03762289427912,nan,nan,nan,nan,nan,nan,nan,nan,nan,nan,nan,nan,nan,nan,nan,nan,nan,nan,nan,nan,43.70367173899411,42.027417766199996,45.6497489229,0.9682264239677936,nan,nan,nan,nan,nan,nan,nan,nan,67.94141099918818,67.94141099918818,67.94141099918818,2.31435130551151,nan,nan,nan,nan,9.0,9.0,9.0,nan,nan,nan,nan,nan,Walking,U4
143,,,10.489754158082802,4.65087833992,18.2946819321,3.5855509628206352,9.797215072145,9.79529298478,9.799137159510002,0.0027182420196503665,4.0758534919,4.0758534919,4.0758534919,1.5172655868745777,113.125295666,113.125295666,113.125295666,50.03762289427912,nan,nan,nan,nan,nan,nan,nan,nan,nan,nan,nan,nan,nan,nan,nan,nan,nan,nan,nan,nan,43.59766549074318,42.0622253334,44.9733515976,0.6938894139795759,nan,nan,nan,nan,nan,nan,nan,nan,67.86799390586204,67.86799390586204,67.86799390586204,2.31435130551151,nan,nan,nan,nan,9.0,9.0,9.0,nan,nan,nan,nan,nan,Walking,U4
144,,,10.602761398646827,6.115508943609999,18.529488041,2.9727528719440017,9.797215072145,9.79529298478,9.799137159510002,0.0027182420196503665,8.84444201787,8.84444201787,8.84444201787,1.5172655868745777,190.684885061,176.18843395,205.18133617200002,20.501077767454742,nan,nan,nan,nan,nan,nan,nan,nan,nan,nan,nan,nan,nan,nan,nan,nan,nan,nan,nan,nan,42.757150231863335,41.0019559935,44.357249689300005,0.8626057787623242,nan,nan,nan,nan,nan,nan,nan,nan,74.16841800269425,74.16841800269425,74.16841800269425,2.31435130551151,nan,nan,nan,nan,9.0,9.0,9.0,nan,nan,nan,nan,nan,Walking,U4
145,,,10.335714569047456,5.01502884612,16.2920197745,2.8951560084152916,9.797215072145,9.79529298478,9.799137159510002,0.0027182420196503665,4.015341048534999,3.6885247681099997,4.34215732896,0.46218801618136385,190.684885061,176.18843395,205.18133617200002,20.501077767454742,nan,nan,nan,nan,nan,nan,nan,nan,nan,nan,nan,nan,nan,nan,nan,nan,nan,nan,nan,nan,42.42941174193823,40.5724241327,44.3921344384,1.1538150853315134,nan,nan,nan,nan,nan,nan,nan,nan,73.51373417398803,73.51373417398803,73.51373417398803,2.31435130551151,nan,nan,nan,nan,9.0,9.0,9.0,nan,nan,nan,nan,nan,Walking,U4
146,,,9.93965934896655,4.63862598139,17.2144377752,3.132006277847599,9.797215072145,9.79529298478,9.799137159510002,0.0027182420196503665,4.015341048534999,3.6885247681099997,4.34215732896,0.46218801618136385,194.630544438,194.630544438,194.630544438,20.501077767454742,nan,nan,nan,nan,nan,nan,nan,nan,nan,nan,nan,nan,nan,nan,nan,nan,nan,nan,nan,nan,43.54415026492106,41.0783584482,44.94211997,0.8356038703559757,nan,nan,nan,nan,nan,nan,nan,nan,73.51373417398803,73.51373417398803,73.51373417398803,2.31435130551151,nan,nan,nan,nan,9.0,9.0,9.0,nan,nan,nan,nan,nan,Walking,U4
147,,,10.2584027635225,5.820453426,16.7805336197,2.614673042664133,9.797215072145,9.79529298478,9.799137159510002,0.0027182420196503665,4.015341048534999,3.6885247681099997,4.34215732896,0.46218801618136385,126.509634985,126.509634985,126.509634985,20.501077767454742,nan,nan,nan,nan,nan,nan,nan,nan,nan,nan,nan,nan,nan,nan,nan,nan,nan,nan,nan,nan,41.47763691409355,37.841928845,44.05364911109999,1.9680438935341542,nan,nan,nan,nan,nan,nan,nan,nan,61.69867149873432,61.69867149873432,61.69867149873432,2.31435130551151,nan,nan,nan,nan,9.0,9.0,9.0,nan,nan,nan,nan,nan,Walking,U4
148,,,10.198171172499412,6.4934421221,15.355728216300001,1.111643179823248,9.80419995237,9.80419995237,9.80419995237,0.0027182420196503665,1.198738475395,1.01469301831,1.38278393248,0.2602795815027624,126.509634985,126.509634985,126.509634985,20.501077767454742,nan,nan,nan,nan,nan,nan,nan,nan,nan,nan,nan,nan,nan,nan,nan,nan,nan,nan,nan,nan,38.633450054453846,37.0306467672,40.429004439699995,1.125906002218949,nan,nan,nan,nan,nan,nan,nan,nan,61.69867149873432,61.69867149873432,61.69867149873432,2.31435130551151,nan,nan,nan,nan,9.0,9.0,9.0,nan,nan,nan,nan,nan,Walking,U4
149,,,10.037426418000745,8.0417638999,13.299165151199999,1.0527990254692996,9.80419995237,9.80419995237,9.80419995237,0.0027182420196503665,1.198738475395,1.01469301831,1.38278393248,0.2602795815027624,126.509634985,126.509634985,126.509634985,20.501077767454742,nan,nan,nan,nan,nan,nan,nan,nan,nan,nan,nan,nan,nan,nan,nan,nan,nan,nan,nan,nan,35.46007307134483,34.2184674981,37.3416978725,0.7971167307107367,nan,nan,nan,nan,nan,nan,nan,nan,61.69867149873432,61.69867149873432,61.69867149873432,2.31435130551151,nan,nan,nan,nan,9.0,9.0,9.0,nan,nan,nan,nan,nan,Walking,U4
150,,,10.15407827683724,7.75156566625,13.2921037917,0.9728988667279862,9.80419995237,9.80419995237,9.80419995237,0.0027182420196503665,4.519205846269999,4.519205846269999,4.519205846269999,0.2602795815027624,126.509634985,126.509634985,126.509634985,20.501077767454742,nan,nan,nan,nan,nan,nan,nan,nan,nan,nan,nan,nan,nan,nan,nan,nan,nan,nan,nan,nan,43.3573581195875,37.1787513411,49.206765861899996,4.83567195671202,nan,nan,nan,nan,nan,nan,nan,nan,61.69867149873432,61.69867149873432,61.69867149873432,2.31435130551151,nan,nan,nan,nan,9.0,9.0,9.0,nan,nan,nan,nan,nan,Walking,U4
