time,activityrecognition#0,activityrecognition#1,android.sensor.accelerometer#mean,android.sensor.accelerometer#min,android.sensor.accelerometer#max,android.sensor.accelerometer#std,android.sensor.gravity#mean,android.sensor.gravity#min,android.sensor.gravity#max,android.sensor.gravity#std,android.sensor.linear_acceleration#mean,android.sensor.linear_acceleration#min,android.sensor.linear_acceleration#max,android.sensor.linear_acceleration#std,android.sensor.orientation#mean,android.sensor.orientation#min,android.sensor.orientation#max,android.sensor.orientation#std,android.sensor.gyroscope_uncalibrated#mean,android.sensor.gyroscope_uncalibrated#min,android.sensor.gyroscope_uncalibrated#max,android.sensor.gyroscope_uncalibrated#std,android.sensor.magnetic_field_uncalibrated#mean,android.sensor.magnetic_field_uncalibrated#min,android.sensor.magnetic_field_uncalibrated#max,android.sensor.magnetic_field_uncalibrated#std,android.sensor.rotation_vector#mean,android.sensor.rotation_vector#min,android.sensor.rotation_vector#max,android.sensor.rotation_vector#std,android.sensor.gyroscope#mean,android.sensor.gyroscope#min,android.sensor.gyroscope#max,android.sensor.gyroscope#std,android.sensor.game_rotation_vector#mean,android.sensor.game_rotation_vector#min,android.sensor.game_rotation_vector#max,android.sensor.game_rotation_vector#std,android.sensor.magnetic_field#mean,android.sensor.magnetic_field#min,android.sensor.magnetic_field#max,android.sensor.magnetic_field#std,android.sensor.pressure#mean,android.sensor.pressure#min,android.sensor.pressure#max,android.sensor.pressure#std,android.sensor.light#mean,android.sensor.light#min,android.sensor.light#max,android.sensor.light#std,sound#mean,sound#min,sound#max,sound#std,speed#mean,speed#min,speed#max,speed#std,android.sensor.proximity#mean,android.sensor.proximity#min,android.sensor.proximity#max,android.sensor.proximity#std,android.sensor.step_counter#mean,android.sensor.step_counter#min,android.sensor.step_counter#max,android.sensor.step_counter#std,target,user
1,,,10.231451414550001,8.213360525439999,14.9380226691,1.501147341242244,9.80665064113,9.80665064113,9.80665064113,nan,1.630103471245,1.4862261344799998,1.77398080801,0.20347328097118417,140.2328837831091,95.73241210020001,227.972448879,47.71403324751512,nan,nan,nan,nan,nan,nan,nan,nan,0.8169877837149999,0.7566674038179999,0.877308163612,0.08530589933783489,1.258423488628392,0.311452736081,3.5818235784699994,0.7138981323183095,nan,nan,nan,nan,112.40604613318571,99.88686960129999,126.632835394,10.446053770548696,nan,nan,nan,nan,58.0,15.0,101.0,60.81118318204309,nan,nan,nan,nan,nan,nan,nan,nan,nan,nan,nan,nan,nan,nan,nan,nan,Walking,U9
2,,,10.167179697303158,5.5634050142,15.474283912799999,2.4817159267046383,9.80665005583,9.80664949522,9.806650616439999,7.92822264228469e-07,1.8091728395005,0.7762580383609999,2.84208764064,1.4607621205473893,126.9784079767125,70.85253377949999,211.591685444,56.331949566585486,nan,nan,nan,nan,nan,nan,nan,nan,0.8517061233306666,0.772363319455,0.9163283565799999,0.07310269747604596,1.531724770217073,0.241696612315,3.9045834675099997,0.8303023823177803,nan,nan,nan,nan,37.15079186366923,18.1616009757,121.600315455,26.756950721944733,nan,nan,nan,nan,58.0,15.0,101.0,60.81118318204309,nan,nan,nan,nan,nan,nan,nan,nan,nan,nan,nan,nan,nan,nan,nan,nan,Walking,U9
3,,,11.522358803794763,5.54831093234,17.9357818495,2.7272174013413233,9.806650834253334,9.80664934332,9.80665236231,1.5098373295644758e-06,4.5835534906,4.5835534906,4.5835534906,1.4607621205473893,109.26056270268,84.7222939057,129.995136816,18.499888597730056,nan,nan,nan,nan,nan,nan,nan,nan,0.7047376788186667,0.683802578935,0.7170624751870001,0.018225206984917166,1.7601738660533892,0.408236542127,3.71222780755,0.8003759671557785,nan,nan,nan,nan,14.143433464027499,9.119219059219999,16.878934726500002,2.665798762487317,nan,nan,nan,nan,58.0,15.0,101.0,60.81118318204309,85.50991262802448,85.50991262802448,85.50991262802448,nan,nan,nan,nan,nan,nan,nan,nan,nan,nan,nan,nan,nan,Walking,U9
4,,,9.730045406166429,5.85528420757,19.6171426156,3.2783543119220657,9.806650462795,9.8066502261,9.80665069949,3.3473727858052215e-07,4.5835534906,4.5835534906,4.5835534906,1.4607621205473893,143.15583646588638,95.00907510200001,229.912400523,38.59286344324307,nan,nan,nan,nan,nan,nan,nan,nan,0.7193118693588001,0.659973703455,0.767144073592,0.03962258019455445,1.6374505764349998,0.49926798986800003,3.58338722306,0.7327830833358023,nan,nan,nan,nan,15.40735924,15.40735924,15.40735924,2.665798762487317,nan,nan,nan,nan,58.0,15.0,101.0,60.81118318204309,76.25024568579965,76.25024568579965,76.25024568579965,nan,nan,nan,nan,nan,nan,nan,nan,nan,nan,nan,nan,nan,Walking,U9
5,,,12.44931404640059,6.1420636886199995,17.7903771054,2.7726569700803103,9.80665077576,9.806650076819999,9.806651155580001,6.060602006784454e-07,4.5835534906,4.5835534906,4.5835534906,1.4607621205473893,207.3884198779533,72.50476311130001,354.14187830699996,85.32015307528543,nan,nan,nan,nan,nan,nan,nan,nan,0.8703189035434999,0.813154787075,0.927483020012,0.0808422687908279,2.091068650292403,0.5055810313419999,5.4615356167,1.0332157706165195,nan,nan,nan,nan,62.4096221548,62.4096221548,62.4096221548,2.665798762487317,nan,nan,nan,nan,58.0,15.0,101.0,60.81118318204309,76.25024568579965,76.25024568579965,76.25024568579965,nan,nan,nan,nan,nan,nan,nan,nan,nan,nan,nan,nan,nan,Walking,U9
6,,,10.146882428387896,6.123748130090001,15.1756253243,2.4985939171885274,9.806650518196667,9.80664911267,9.80665219689,1.5601500798177419e-06,8.69843839181,8.69843839181,8.69843839181,1.4607621205473893,291.4743372405714,181.60249587200002,340.84137611799997,64.27915214913659,nan,nan,nan,nan,nan,nan,nan,nan,0.9294779618145,0.867960291345,0.9909956322840001,0.08699912390356584,1.8545142165981965,0.312159800983,5.644448022280001,0.9998245158485083,nan,nan,nan,nan,51.088207253483326,40.0303595725,57.217956370799996,6.465137415497841,nan,nan,nan,nan,58.0,15.0,101.0,60.81118318204309,72.28106211974438,72.28106211974438,72.28106211974438,nan,nan,nan,nan,nan,nan,nan,nan,nan,nan,nan,nan,nan,Walking,U9
7,,,9.980240585506472,3.88699772307,15.661683486900001,3.6360026056698946,9.80664876748,9.80664876748,9.80664876748,1.5601500798177419e-06,3.09495046773,3.09495046773,3.09495046773,1.4607621205473893,255.24525197983573,85.7561065437,370.693395345,110.92704718897788,nan,nan,nan,nan,nan,nan,nan,nan,0.7397213342294999,0.662374829994,0.817067838465,0.10938447529199212,2.262762361770712,0.6800328390379999,6.08245532136,1.2311806675513768,nan,nan,nan,nan,38.2852166312,38.2852166312,38.2852166312,6.465137415497841,nan,nan,nan,nan,58.0,15.0,101.0,60.81118318204309,72.28106211974438,72.28106211974438,72.28106211974438,nan,nan,nan,nan,nan,nan,nan,nan,nan,nan,nan,nan,nan,Walking,U9
8,,,10.484025671053637,3.7234287815499996,17.3234617761,4.489833257559861,9.806650138224999,9.80664935314,9.80665092331,1.1102778554151203e-06,6.4911586013299996,5.30608542434,7.67623177832,1.6759465593038294,279.24986596684545,96.20583727430001,359.93351379,80.96906163473152,nan,nan,nan,nan,nan,nan,nan,nan,0.6434934054153333,0.5955296878499999,0.669432819758,0.0415838992373946,2.3219912554371924,0.41046516114500003,5.5174458708800005,1.2891298660493398,nan,nan,nan,nan,42.6185500714,26.141516908000003,56.6262417082,15.391648619209885,nan,nan,nan,nan,58.0,15.0,101.0,60.81118318204309,72.28106211974438,72.28106211974438,72.28106211974438,nan,nan,nan,nan,nan,nan,nan,nan,nan,nan,nan,nan,nan,Walking,U9
9,,,9.99422861133389,5.05094814438,15.6274555647,3.183757783300301,9.8066515396,9.8066515396,9.8066515396,1.1102778554151203e-06,6.4911586013299996,5.30608542434,7.67623177832,1.6759465593038294,334.13511512463634,296.777634116,368.817776156,22.367495001467173,nan,nan,nan,nan,nan,nan,nan,nan,0.6434934054153333,0.5955296878499999,0.669432819758,0.0415838992373946,2.3323911383034286,0.378234147329,6.448687221599999,1.2279660061034383,nan,nan,nan,nan,38.95038767332,18.1703097456,44.9722570731,11.644940228980294,nan,nan,nan,nan,58.0,15.0,101.0,60.81118318204309,72.28106211974438,72.28106211974438,72.28106211974438,nan,nan,nan,nan,nan,nan,nan,nan,nan,nan,nan,nan,nan,Walking,U9
10,,,11.291370573804349,7.87956791766,17.1481712981,2.9485334748517897,9.8066515396,9.8066515396,9.8066515396,1.1102778554151203e-06,6.4911586013299996,5.30608542434,7.67623177832,1.6759465593038294,333.70813475925,284.318717449,362.64724536800003,26.748398407387853,nan,nan,nan,nan,nan,nan,nan,nan,0.689538216091,0.689538216091,0.689538216091,0.0415838992373946,1.5008856175963772,0.40268697879500004,4.23383556236,0.8998009797600933,nan,nan,nan,nan,18.328246996525,13.7654742472,21.712431634899996,3.4714555371523796,nan,nan,nan,nan,58.0,15.0,101.0,60.81118318204309,72.28106211974438,72.28106211974438,72.28106211974438,nan,nan,nan,nan,nan,nan,nan,nan,nan,nan,nan,nan,nan,Walking,U9
11,,,10.18006228823889,8.3494625001,12.0886039703,0.9936173420563957,9.806649927639999,9.806649927639999,9.806649927639999,1.1102778554151203e-06,1.61386110204,1.61386110204,1.61386110204,1.6759465593038294,145.94404730861334,60.5317440771,361.80281272300005,121.47951558218924,nan,nan,nan,nan,nan,nan,nan,nan,0.62520030584,0.541703405418,0.745175623908,0.0995407220166755,1.119807931997396,0.14838694081599998,2.34887731363,0.47245271306100767,nan,nan,nan,nan,18.3513703005625,13.9375,22.594506384299997,3.039483678773063,nan,nan,nan,nan,58.0,15.0,101.0,60.81118318204309,72.28106211974438,72.28106211974438,72.28106211974438,nan,nan,nan,nan,nan,nan,nan,nan,nan,nan,nan,nan,nan,Walking,U9
12,,,10.316893126889092,7.00851004243,15.2068729249,1.6941815643267317,9.806651592864998,9.806651105639999,9.80665208009,6.890402040433818e-07,1.61386110204,1.61386110204,1.61386110204,1.6759465593038294,298.9991181790333,66.9182212842,356.15515596,114.25147202485502,nan,nan,nan,nan,nan,nan,nan,nan,0.5757058898577501,0.569537513987,0.582890744433,0.0058258577480809984,0.5853192166764728,0.144923445293,1.2161727114399998,0.2448013973057569,nan,nan,nan,nan,17.992196263285713,12.1534781544,25.8978612775,4.831491580562059,nan,nan,nan,nan,58.0,15.0,101.0,60.81118318204309,72.28106211974438,72.28106211974438,72.28106211974438,nan,nan,nan,nan,nan,nan,nan,nan,nan,nan,nan,nan,nan,Walking,U9
13,,,10.330846752987142,7.24599274829,14.094526881099998,2.019830439026971,9.806650101703333,9.80664994558,9.806650397150001,2.5600216789544447e-07,3.2453298665499997,3.2453298665499997,3.2453298665499997,1.6759465593038294,104.87005723376001,62.850472430699995,344.300949712,84.91961192348039,nan,nan,nan,nan,nan,nan,nan,nan,0.628813994827,0.628813994827,0.628813994827,0.0058258577480809984,0.795067811605596,0.110531496457,1.80610476443,0.3948775187213803,nan,nan,nan,nan,25.093954131700002,19.0601432969,27.5396021667,3.15854048460838,nan,nan,nan,nan,58.0,15.0,101.0,60.81118318204309,72.28106211974438,72.28106211974438,72.28106211974438,nan,nan,nan,nan,nan,nan,nan,nan,nan,nan,nan,nan,nan,Walking,U9
14,,,10.12897425693375,7.69221504796,15.514504381400002,2.2593966635488743,9.806650128060001,9.806650128060001,9.806650128060001,2.5600216789544447e-07,2.054461854535,2.00035050444,2.10857320463,0.07652500518266753,140.56163877625002,103.237391975,192.66819535,27.25292917852579,nan,nan,nan,nan,nan,nan,nan,nan,0.6593592814679999,0.61586333743,0.712756555682,0.048904450396655814,0.6480204471275881,0.194007762783,1.28846496081,0.26165444711150043,nan,nan,nan,nan,16.01967138286,14.6812486696,17.697545733800002,1.1300947334406417,nan,nan,nan,nan,58.0,15.0,101.0,60.81118318204309,72.28106211974438,72.28106211974438,72.28106211974438,nan,nan,nan,nan,nan,nan,nan,nan,nan,nan,nan,nan,nan,Walking,U9
15,,,10.283524665128095,7.40136386227,15.4233881283,2.168199915272571,9.80665028359,9.806649361760002,9.80665120542,1.3036644867896385e-06,2.054461854535,2.00035050444,2.10857320463,0.07652500518266753,156.08930728821667,94.7286110416,187.063623174,24.510456852376933,nan,nan,nan,nan,nan,nan,nan,nan,0.8582893357627499,0.730268446877,0.981197757383,0.11921848650119145,1.2845575067113846,0.24008620519,3.1915454486900003,0.7348844458176714,nan,nan,nan,nan,20.0928577883,11.7695980178,25.6370398545,6.011351618554998,nan,nan,nan,nan,58.0,15.0,101.0,60.81118318204309,72.28106211974438,72.28106211974438,72.28106211974438,nan,nan,nan,nan,nan,nan,nan,nan,nan,nan,nan,nan,nan,Walking,U9
16,,,10.487352209091501,7.27016112452,14.575518776700001,2.431359106689069,9.806651013969999,9.806651013969999,9.806651013969999,1.3036644867896385e-06,5.215777179155,4.12714311297,6.304411245340001,1.5395610608601973,203.74467349383335,182.292606099,227.257389633,15.898059009421205,nan,nan,nan,nan,nan,nan,nan,nan,0.99514978596425,0.9870539061210001,0.999985451188,0.006181001316592973,1.9727289926112181,0.178211279817,5.68804244646,1.2329313637631283,nan,nan,nan,nan,33.08345258945714,24.932251954,39.0872921325,4.650857843375005,nan,nan,nan,nan,58.0,15.0,101.0,60.81118318204309,72.28106211974438,72.28106211974438,72.28106211974438,nan,nan,nan,nan,nan,nan,nan,nan,nan,nan,nan,nan,nan,Walking,U9
17,,,10.403257028682631,8.60315429109,13.9968618602,1.2241864514968481,9.806651013969999,9.806651013969999,9.806651013969999,1.3036644867896385e-06,1.2266510905399999,1.2266510905399999,1.2266510905399999,1.5395610608601973,272.85080117815386,221.492962245,327.512980565,34.54668254652672,nan,nan,nan,nan,nan,nan,nan,nan,0.7256491530949999,0.7256491530949999,0.7256491530949999,0.006181001316592973,1.1186231497619965,0.0504065641629,5.26263846239,1.2231202631538203,nan,nan,nan,nan,44.00326538675,36.8214653769,46.468613399300004,4.788187852140407,nan,nan,nan,nan,58.0,15.0,101.0,60.81118318204309,72.28106211974438,72.28106211974438,72.28106211974438,nan,nan,nan,nan,nan,nan,nan,nan,nan,nan,nan,nan,nan,Walking,U9
18,,,10.572878485205356,8.16459967909,13.7318871918,1.12246533856979,9.80665156623,9.80665156623,9.80665156623,1.3036644867896385e-06,1.2266510905399999,1.2266510905399999,1.2266510905399999,1.5395610608601973,276.0285470952,228.224111649,311.121718288,21.545547951232276,nan,nan,nan,nan,nan,nan,nan,nan,0.8050182102600001,0.8050182102600001,0.8050182102600001,0.006181001316592973,0.5862817915559785,0.0509602246433,2.56031817628,0.6072969551327907,nan,nan,nan,nan,44.00326538675,36.8214653769,46.468613399300004,4.788187852140407,nan,nan,nan,nan,58.0,15.0,101.0,60.81118318204309,72.28106211974438,72.28106211974438,72.28106211974438,nan,nan,nan,nan,nan,nan,nan,nan,nan,nan,nan,nan,nan,Walking,U9
19,,,10.34345526399842,6.22134343233,18.7352486224,3.078737511800753,9.806650056786001,9.806649426089999,9.806650705669998,4.783325698345597e-07,2.914027053896667,1.30343649059,4.99235726763,1.8884171706101633,175.97595521446667,149.029897673,235.482464588,26.94805733591084,nan,nan,nan,nan,nan,nan,nan,nan,0.960094292247,0.940743189018,0.970169187661,0.016763304346242697,1.3994749310407777,0.210530261753,2.9709952672099997,0.7138651617725424,nan,nan,nan,nan,36.282343616,31.6419174119,45.1293713257,4.771301586397274,nan,nan,nan,nan,58.0,15.0,101.0,60.81118318204309,72.28106211974438,72.28106211974438,72.28106211974438,nan,nan,nan,nan,nan,nan,nan,nan,nan,nan,nan,nan,nan,Walking,U9
20,,,11.752587100822916,8.16978093448,20.5942638672,3.4010192686714276,9.806650056786001,9.806649426089999,9.806650705669998,4.783325698345597e-07,2.914027053896667,1.30343649059,4.99235726763,1.8884171706101633,216.81131042075,172.28598094,253.90433669900003,23.416765816250884,nan,nan,nan,nan,nan,nan,nan,nan,0.98429932728075,0.96543181552,0.993267549473,0.013094668644383432,2.802288290140224,0.37279290294600004,10.3793992194,2.4376492116843154,nan,nan,nan,nan,37.625331106160004,34.4953574775,40.5895037233,2.7135560509292915,nan,nan,nan,nan,58.0,15.0,101.0,60.81118318204309,74.87803100970358,74.87803100970358,74.87803100970358,nan,nan,nan,nan,nan,nan,nan,nan,nan,nan,nan,nan,nan,Walking,U9
21,,,10.869775693208148,7.192494194349999,17.2781493252,3.032128303750044,9.806650530986666,9.80664942769,9.80665112105,9.562548634981235e-07,2.914027053896667,1.30343649059,4.99235726763,1.8884171706101633,226.90466197966668,184.05083128299998,277.044497608,31.06288508887177,nan,nan,nan,nan,nan,nan,nan,nan,0.9882330064754999,0.976796182813,0.9996698301379999,0.01617411113397701,1.893943592700132,0.331304494331,4.862017000390001,1.169909000976563,nan,nan,nan,nan,38.70972122483334,36.982840193099996,41.2762227257,2.2664962589753967,nan,nan,nan,nan,58.0,15.0,101.0,60.81118318204309,74.87803100970358,74.87803100970358,74.87803100970358,nan,nan,nan,nan,nan,nan,nan,nan,nan,nan,nan,nan,nan,Walking,U9
22,,,12.147763765277142,7.52384157028,19.0455937165,3.464519617252873,9.806649907965,9.80664952912,9.806650286810001,5.357677380323047e-07,2.7519238742766667,2.12937046447,3.1634740209200003,0.5483924909814284,217.95687480450002,194.16682775799998,253.664614046,21.765113774781252,nan,nan,nan,nan,nan,nan,nan,nan,0.9796300103405,0.966711675852,0.9925483448289999,0.018269283836908713,1.5420600216122886,0.155476176075,4.71563966476,0.974298574117872,nan,nan,nan,nan,36.31904500925833,33.0021897948,39.950653154899996,2.3248022475236656,nan,nan,nan,nan,58.0,15.0,101.0,60.81118318204309,74.87803100970358,74.87803100970358,74.87803100970358,nan,nan,nan,nan,nan,nan,nan,nan,nan,nan,nan,nan,nan,Walking,U9
23,,,11.003850908657776,7.8151554163800006,18.0493948204,2.8329172155126146,9.806650274945,9.80664976882,9.80665078107,7.157688388155487e-07,5.513462663415001,2.8562235825,8.170701744330001,3.757903546697812,222.87484013009092,203.40967602900002,281.95723622,24.386634556226642,nan,nan,nan,nan,nan,nan,nan,nan,0.96953968993325,0.9446528110439999,0.985796693989,0.017542595579022442,1.7541387629220637,0.281455121805,4.27405265478,0.9707308999995928,nan,nan,nan,nan,36.7137471916,34.3516966466,39.0757977366,3.340443915749764,nan,nan,nan,nan,58.0,15.0,101.0,60.81118318204309,74.87803100970358,74.87803100970358,74.87803100970358,nan,nan,nan,nan,nan,nan,nan,nan,nan,nan,nan,nan,nan,Walking,U9
24,,,9.763777825317037,6.62151507404,16.8681674838,2.6034683798049363,9.80665116043,9.80665116043,9.80665116043,7.157688388155487e-07,2.8516560636,1.67810430792,4.02520781928,1.6596528090294131,224.09421883710002,201.024898372,250.729295802,13.728801084731524,nan,nan,nan,nan,nan,nan,nan,nan,0.9734535457115001,0.9615910531290001,0.985316038294,0.016776097893721732,1.5010008781448407,0.38670510330200003,4.92815014451,1.0513921057493771,nan,nan,nan,nan,38.99934914433333,35.9991861887,44.643641064499995,2.788523284139441,nan,nan,nan,nan,58.0,15.0,101.0,60.81118318204309,74.87803100970358,74.87803100970358,74.87803100970358,nan,nan,nan,nan,nan,nan,nan,nan,nan,nan,nan,nan,nan,Walking,U9
25,,,10.199364230668,6.27343581701,15.2662045367,2.582034451352319,9.8066506138775,9.80664964044,9.80665127895,7.949647914628979e-07,2.8516560636,1.67810430792,4.02520781928,1.6596528090294131,231.68399617966668,205.942259168,252.526771862,11.639660658727836,nan,nan,nan,nan,nan,nan,nan,nan,0.947104431514,0.947104431514,0.947104431514,0.016776097893721732,1.5895712902101766,0.38018530528399996,5.36057149184,1.0504937911734409,nan,nan,nan,nan,41.515550070825,38.5220107536,44.1709215718,2.863682609874433,nan,nan,nan,nan,58.0,15.0,101.0,60.81118318204309,74.87803100970358,74.87803100970358,74.87803100970358,nan,nan,nan,nan,nan,nan,nan,nan,nan,nan,nan,nan,nan,Walking,U9
26,,,10.200532823946297,7.49299923726,15.680093510799999,2.3925897677937695,9.80665047699,9.8066503891,9.806650633710001,1.360576710083867e-07,2.86572638255,2.86572638255,2.86572638255,1.6596528090294131,230.20529804026665,215.99769056,257.13075525,11.968903024187616,nan,nan,nan,nan,nan,nan,nan,nan,0.952866456374,0.931718165782,0.975556886302,0.018304491738675436,2.038992838446146,0.292313028661,5.45249337709,1.2012047130409154,nan,nan,nan,nan,37.64844963764,34.4878828359,41.173888114899995,2.6768734403826233,nan,nan,nan,nan,58.0,15.0,101.0,60.81118318204309,74.87803100970358,74.87803100970358,74.87803100970358,nan,nan,nan,nan,nan,nan,nan,nan,nan,nan,nan,nan,nan,Walking,U9
27,,,9.261375755141906,6.106259884709999,15.587773759400001,2.1511724444727625,9.806649590060001,9.80664924959,9.80664993053,4.814972912260652e-07,6.171952964610501,0.961728635221,11.382177294000002,7.368369909628896,225.77423438963635,194.58998674,277.847674675,19.651604988095325,nan,nan,nan,nan,nan,nan,nan,nan,0.9541748662105,0.920458861931,0.9878908704899999,0.04768163052109813,1.7086421869690782,0.33722074662,4.78851612679,1.1526596298430931,nan,nan,nan,nan,39.659198109933335,38.275573558699996,41.1297964528,1.429097761744962,nan,nan,nan,nan,58.0,15.0,101.0,60.81118318204309,80.1779622954188,80.1779622954188,80.1779622954188,nan,nan,nan,nan,nan,nan,nan,nan,nan,nan,nan,nan,nan,Walking,U9
28,,,10.481965651118333,7.25607276124,15.1213832748,2.8593333905297773,9.80664956804,9.80664956804,9.80664956804,4.814972912260652e-07,8.338908266679999,8.338908266679999,8.338908266679999,7.368369909628896,244.4041424652308,215.70848609400002,274.789083191,20.610777047917626,nan,nan,nan,nan,nan,nan,nan,nan,0.978263980832,0.978263980832,0.978263980832,0.04768163052109813,1.6236161126987814,0.245854105998,4.53131506508,0.9967478385995538,nan,nan,nan,nan,44.341243299,43.1910725729,45.4914140251,1.6265870398951314,nan,nan,nan,nan,58.0,15.0,101.0,60.81118318204309,80.1779622954188,80.1779622954188,80.1779622954188,nan,nan,nan,nan,nan,nan,nan,nan,nan,nan,nan,nan,nan,Walking,U9
29,,,11.128940700481875,6.967553714319999,17.1544505343,2.798589634665292,9.806650894856668,9.80665041488,9.8066514489,5.209738415127274e-07,4.232912693585,3.05511815733,5.41070722984,1.665653006860751,243.71222891272728,221.194979659,293.911069428,25.55800722827454,nan,nan,nan,nan,nan,nan,nan,nan,0.9240589469830001,0.9240589469830001,0.9240589469830001,0.04768163052109813,1.7976047325556717,0.0351096083533,4.68759027874,1.1145627899966788,nan,nan,nan,nan,39.7630187014,39.7630187014,39.7630187014,1.6265870398951314,nan,nan,nan,nan,58.0,15.0,101.0,60.81118318204309,80.1779622954188,80.1779622954188,80.1779622954188,nan,nan,nan,nan,nan,nan,nan,nan,nan,nan,nan,nan,nan,Walking,U9
30,,,11.975637738647142,7.9482998484600005,19.724896009600002,3.234500812586997,9.806650894856668,9.80665041488,9.8066514489,5.209738415127274e-07,2.345473028852,0.706564393054,3.98438166465,2.317766820235919,243.33029287566671,221.501113092,262.349084022,13.043584598386119,nan,nan,nan,nan,nan,nan,nan,nan,0.9501440531136667,0.9361278002850001,0.975430885181,0.021942027888662476,1.9725167962924615,0.24639807550099999,4.76377165504,1.104358077656707,nan,nan,nan,nan,35.86441157715,35.7769238651,35.9518992892,0.1237263089221004,nan,nan,nan,nan,58.0,15.0,101.0,60.81118318204309,80.1779622954188,80.1779622954188,80.1779622954188,nan,nan,nan,nan,nan,nan,nan,nan,nan,nan,nan,nan,nan,Walking,U9
31,,,11.421734035683848,7.32456336465,20.0553832801,3.2688020251045664,9.806650894856668,9.80665041488,9.8066514489,5.209738415127274e-07,8.06288979744,8.06288979744,8.06288979744,2.317766820235919,232.49071693390908,215.043488722,240.18724762,7.454619642925596,nan,nan,nan,nan,nan,nan,nan,nan,0.97079485924075,0.950410062089,0.98057128755,0.013780891630310519,2.2547596388811764,0.341808347434,4.90489624872,1.2848921330719703,nan,nan,nan,nan,36.6436599223,36.6436599223,36.6436599223,0.1237263089221004,nan,nan,nan,nan,58.0,15.0,101.0,60.81118318204309,80.1779622954188,80.1779622954188,80.1779622954188,nan,nan,nan,nan,nan,nan,nan,nan,nan,nan,nan,nan,nan,Walking,U9
32,,,11.005891187093706,6.720124255519999,15.4613021789,2.289369499238532,9.806650673025,9.80665038377,9.80665096228,4.09068344544736e-07,3.9478495308199997,3.9478495308199997,3.9478495308199997,2.317766820235919,236.74713939582352,210.29530947599997,298.57569055,24.211611938579743,nan,nan,nan,nan,nan,nan,nan,nan,0.97079485924075,0.950410062089,0.98057128755,0.013780891630310519,2.1245887500097953,0.355063247827,4.72012852883,1.2262490467769245,nan,nan,nan,nan,37.58678895473333,35.9274442453,39.8694647412,1.5541203663585903,nan,nan,nan,nan,58.0,15.0,101.0,60.81118318204309,80.1779622954188,80.1779622954188,80.1779622954188,nan,nan,nan,nan,nan,nan,nan,nan,nan,nan,nan,nan,nan,Walking,U9
33,,,10.496041431288695,7.44169006545,16.1599293877,2.319322956093058,9.80664984964,9.806649576549999,9.80665012273,3.8620758230157796e-07,3.9478495308199997,3.9478495308199997,3.9478495308199997,2.317766820235919,224.24918580658334,197.34504926900001,247.579414227,17.28235010712184,nan,nan,nan,nan,nan,nan,nan,nan,0.969087385239,0.9656488745039999,0.972525895974,0.004862788515802495,1.851721055759352,0.219879072984,4.78776166939,1.1082771022348548,nan,nan,nan,nan,38.2089343957,34.742692577,41.675176214400004,4.902006190470326,nan,nan,nan,nan,58.0,15.0,101.0,60.81118318204309,80.1779622954188,80.1779622954188,80.1779622954188,nan,nan,nan,nan,nan,nan,nan,nan,nan,nan,nan,nan,nan,Walking,U9
34,,,11.083994324217727,7.273863958130001,17.557267413599998,3.3700706261876707,9.806651133423335,9.8066503524,9.80665263186,1.2980739158103776e-06,3.0853170519249997,2.29950847853,3.8711256253199995,1.1113011419242622,240.85891498209998,176.55187201200002,310.27158127,35.53517932101135,nan,nan,nan,nan,nan,nan,nan,nan,0.9468891904410001,0.922797497934,0.983524053691,0.02864629723373222,2.610108242517979,0.23807465858000001,8.12777276296,1.658697294660017,nan,nan,nan,nan,40.1893788189,36.3935734368,45.1878890025,3.6509981771877538,nan,nan,nan,nan,58.0,15.0,101.0,60.81118318204309,80.1779622954188,80.1779622954188,80.1779622954188,nan,nan,nan,nan,nan,nan,nan,nan,nan,nan,nan,nan,nan,Walking,U9
35,,,10.406031312303334,6.41747656459,15.421292299300001,3.014007464264612,9.806651133423335,9.8066503524,9.80665263186,1.2980739158103776e-06,7.15396357617,6.10854543957,8.19938171277,1.4784445071305288,248.28354691864288,229.26681611599997,273.46663461400004,11.807494675526568,nan,nan,nan,nan,nan,nan,nan,nan,0.971534536981,0.971534536981,0.971534536981,0.02864629723373222,2.127560582987136,0.42785525460999996,4.8772877061,1.1546686783917661,nan,nan,nan,nan,39.4419074399,39.4419074399,39.4419074399,3.6509981771877538,nan,nan,nan,nan,58.0,15.0,101.0,60.81118318204309,80.1779622954188,80.1779622954188,80.1779622954188,nan,nan,nan,nan,nan,nan,nan,nan,nan,nan,nan,nan,nan,Walking,U9
36,,,10.579951371836362,5.830133840619999,16.3890685356,3.241207290474998,9.80665103878,9.806650810510002,9.80665126705,3.22822528959735e-07,1.6656877799100003,1.3799078530200002,1.9514677068000001,0.40415384846182956,248.6001264391667,229.851124223,275.411686695,15.258500165770199,nan,nan,nan,nan,nan,nan,nan,nan,0.901566379293,0.8626868668909999,0.961275973263,0.04204817241663618,2.0586888397346326,0.426340273173,4.9720711488,1.1900728592188283,nan,nan,nan,nan,43.61228215677273,38.8580650412,50.47965246020001,3.2853407677080853,nan,nan,nan,nan,58.0,15.0,101.0,60.81118318204309,80.1779622954188,80.1779622954188,80.1779622954188,nan,nan,nan,nan,nan,nan,nan,nan,nan,nan,nan,nan,nan,Walking,U9
37,,,10.941938801985238,5.54900409705,16.1235164353,2.601801559582273,9.80665066163,9.80664918428,9.80665140649,1.0405312478724956e-06,1.668029066315,1.06521970795,2.27083842468,0.8525011701252062,245.2805399436667,221.28083129599997,296.907871947,20.716306243023404,nan,nan,nan,nan,nan,nan,nan,nan,0.9236038980894999,0.8722199559289999,0.9602156606219999,0.03889607135536672,2.2733712793129413,0.26301293197299996,5.530083562919999,1.3153875011696528,nan,nan,nan,nan,42.9477334967,42.9477334967,42.9477334967,3.2853407677080853,nan,nan,nan,nan,58.0,15.0,101.0,60.81118318204309,80.1779622954188,80.1779622954188,80.1779622954188,nan,nan,nan,nan,nan,nan,nan,nan,nan,nan,nan,nan,nan,Walking,U9
38,,,11.367504782938887,6.557884695669999,18.0327624347,3.117320373311173,9.806650630786665,9.80664963511,9.80665131281,8.817330279189887e-07,4.481020096253333,2.6276503663,6.31789191726,1.8451760923710305,238.80413494375,203.034433558,272.780687027,22.69724584267125,nan,nan,nan,nan,nan,nan,nan,nan,0.9453564238816666,0.931429126383,0.9528355982269999,0.012072405657217034,2.4230081792197367,0.14297090993,5.05562285177,1.3768694109229465,nan,nan,nan,nan,38.7922380983,35.631359081599996,42.596489732100004,3.5268551838655418,nan,nan,nan,nan,58.0,15.0,101.0,60.81118318204309,80.1779622954188,80.1779622954188,80.1779622954188,nan,nan,nan,nan,nan,nan,nan,nan,nan,nan,nan,nan,nan,Walking,U9
39,,,9.9989188214235,5.89444094003,16.3228851113,2.9541442076598674,9.806651142455,9.80665073591,9.806651549,5.749414519269913e-07,4.78685427634,4.78685427634,4.78685427634,1.8451760923710305,244.53488123636365,212.34802357900003,285.59197938799997,21.70846907350273,nan,nan,nan,nan,nan,nan,nan,nan,0.9555516729360001,0.918856339165,0.977848573962,0.02249126332711085,1.9750329997455922,0.21743387136,5.33175929256,1.281448102147459,nan,nan,nan,nan,36.7842633642,36.7842633642,36.7842633642,3.5268551838655418,nan,nan,nan,nan,58.0,15.0,101.0,60.81118318204309,80.1779622954188,80.1779622954188,80.1779622954188,nan,nan,nan,nan,nan,nan,nan,nan,nan,nan,nan,nan,nan,Walking,U9
40,,,11.210309365909499,6.861403696900001,20.1209897568,3.7144173685335096,9.806651017315,9.80665090646,9.80665112817,1.5677264423951956e-07,3.5663335708,3.5663335708,3.5663335708,1.8451760923710305,241.816186184,210.86029432,273.92504255,20.99338722943583,nan,nan,nan,nan,nan,nan,nan,nan,0.9339918347920001,0.9339918347920001,0.9339918347920001,0.02249126332711085,1.8959964181366604,0.23947116815299999,4.7887669944699995,1.2185891499888641,nan,nan,nan,nan,40.857027075625,38.7149034611,43.132109921099996,2.084547146175342,nan,nan,nan,nan,58.0,15.0,101.0,60.81118318204309,80.1779622954188,80.1779622954188,80.1779622954188,nan,nan,nan,nan,nan,nan,nan,nan,nan,nan,nan,nan,nan,Walking,U9
41,,,10.672050528047825,7.39834861875,16.2507042197,2.7159277925339533,9.806650639337779,9.80664954296,9.80665187455,8.172564253819661e-07,3.5663335708,3.5663335708,3.5663335708,1.8451760923710305,271.3911962802857,228.886158835,350.884479125,45.97641525458053,nan,nan,nan,nan,nan,nan,nan,nan,0.978901780504,0.968850220836,0.988953340172,0.014215052005487972,2.1099660299517446,0.38421288294600003,5.71766623079,1.184616169011653,nan,nan,nan,nan,38.37122420637143,35.7129397068,42.168421611999996,2.1013205798508907,nan,nan,nan,nan,58.0,15.0,101.0,60.81118318204309,77.1502682955338,77.1502682955338,77.1502682955338,nan,nan,nan,nan,nan,nan,nan,nan,nan,nan,nan,nan,nan,Walking,U9
42,,,10.606251588207826,6.18749091903,16.6565309892,3.0540135259993133,9.80665103902,9.8066506192,9.80665145884,5.937151378927988e-07,3.5663335708,3.5663335708,3.5663335708,1.8451760923710305,244.43307639428568,198.53476208900003,299.869227805,32.986680995870664,nan,nan,nan,nan,nan,nan,nan,nan,0.9770955053500001,0.9742331769020001,0.979957833798,0.004047943711127926,2.0944765332257878,0.393534996584,5.25011939827,1.3292251997955395,nan,nan,nan,nan,36.92416846206667,33.694282712399996,41.3114126181,3.0292175250638738,nan,nan,nan,nan,58.0,15.0,101.0,60.81118318204309,84.22080811464106,84.22080811464106,84.22080811464106,nan,nan,nan,nan,nan,nan,nan,nan,nan,nan,nan,nan,nan,Walking,U9
43,,,11.734213765840556,7.17514411416,19.5740336791,3.8862429155917804,9.806651194815,9.8066511162,9.80665127343,1.1117840024042208e-07,3.28520773747,3.28520773747,3.28520773747,1.8451760923710305,202.85077357666668,162.84715697,247.915273119,21.897574790669943,nan,nan,nan,nan,nan,nan,nan,nan,0.993544493715,0.9885949114939999,0.998494075936,0.00699976630501903,2.7809907923189288,0.448882213245,6.485735646519999,1.4469382126886672,nan,nan,nan,nan,34.52618539783333,33.9687356256,35.5998266323,0.9300294013074787,nan,nan,nan,nan,58.0,15.0,101.0,60.81118318204309,84.22080811464106,84.22080811464106,84.22080811464106,nan,nan,nan,nan,nan,nan,nan,nan,nan,nan,nan,nan,nan,Walking,U9
44,,,11.146009928813639,6.98784215387,20.7576552478,3.7861180498192506,9.806651106830001,9.806651106830001,9.806651106830001,1.1117840024042208e-07,5.1139160528300005,5.1139160528300005,5.1139160528300005,1.8451760923710305,242.03755925854546,174.208348905,302.560274459,35.90861157208379,nan,nan,nan,nan,nan,nan,nan,nan,0.9248235595658001,0.8885133642219999,0.9828510086669999,0.039204262271408274,2.757662797037648,0.347225707404,6.42653577849,1.527117722590543,nan,nan,nan,nan,37.3137430201,35.2269982577,39.4004877825,2.951102744197105,nan,nan,nan,nan,58.0,15.0,101.0,60.81118318204309,84.22080811464106,84.22080811464106,84.22080811464106,nan,nan,nan,nan,nan,nan,nan,nan,nan,nan,nan,nan,nan,Walking,U9
45,,,10.73818105392619,7.46594594348,19.1885040378,3.1409964628325846,9.80665132261,9.80665132261,9.80665132261,1.1117840024042208e-07,4.85278463832,3.34748125995,6.35808801669,2.1288204531768926,244.19423698974995,207.208415352,294.171414515,22.512427998804558,nan,nan,nan,nan,nan,nan,nan,nan,0.9464233473653333,0.929079162518,0.962152672802,0.016595785573862622,1.7011621843282343,0.102988691662,3.90259289417,0.8590297340149554,nan,nan,nan,nan,43.231521301044445,41.3255936134,45.0523133424,1.2011843234964776,nan,nan,nan,nan,58.0,15.0,101.0,60.81118318204309,84.22080811464106,84.22080811464106,84.22080811464106,nan,nan,nan,nan,nan,nan,nan,nan,nan,nan,nan,nan,nan,Walking,U9
46,,,10.516124898237825,6.89551847892,17.1791000887,3.184538370963304,9.806650136310001,9.80664990498,9.80665036764,3.271500228186551e-07,8.23743923173,7.36891431123,9.105964152230001,1.228279721830115,243.30098804977777,220.58697718099998,290.088574242,20.013949249515665,nan,nan,nan,nan,nan,nan,nan,nan,0.9563796656863333,0.944388518363,0.9659509349809999,0.010983000949525043,1.7335986328931818,0.264464041376,4.1333890002,1.0187946447906282,nan,nan,nan,nan,43.231521301044445,41.3255936134,45.0523133424,1.2011843234964776,nan,nan,nan,nan,58.0,15.0,101.0,60.81118318204309,84.22080811464106,84.22080811464106,84.22080811464106,nan,nan,nan,nan,nan,nan,nan,nan,nan,nan,nan,nan,nan,Walking,U9
47,,,10.268848339114399,7.1599021344399985,18.8222699627,3.0064635826242316,9.80665116474,9.80665116474,9.80665116474,3.271500228186551e-07,5.199378432343334,3.8600496903600003,6.98293243293,1.6081359445787784,232.1513429063333,206.72834740099998,266.098520738,20.83327828771296,nan,nan,nan,nan,nan,nan,nan,nan,0.9606498255375,0.9486384761390001,0.9726611749359999,0.016986613221760483,1.9780990501004254,0.109063318488,3.99020132826,1.0559011798727633,nan,nan,nan,nan,41.65256622371667,39.5652645164,43.9021016724,1.569704550358397,nan,nan,nan,nan,58.0,15.0,101.0,60.81118318204309,73.75771049697411,73.75771049697411,73.75771049697411,nan,nan,nan,nan,nan,nan,nan,nan,nan,nan,nan,nan,nan,Walking,U9
48,,,10.64846343984625,6.697992203509999,18.5159926199,3.4138962914765143,9.806650945089999,9.806650945089999,9.806650945089999,3.271500228186551e-07,5.199378432343334,3.8600496903600003,6.98293243293,1.6081359445787784,249.90533548972726,223.72561069099999,305.417889126,21.673539498662944,nan,nan,nan,nan,nan,nan,nan,nan,0.937624283347,0.937624283347,0.937624283347,0.016986613221760483,2.0777042395210183,0.251185679195,5.33991855879,1.253868103919546,nan,nan,nan,nan,40.404414492499996,38.966882974499995,43.086531755900005,2.3247842434863286,nan,nan,nan,nan,58.0,15.0,101.0,60.81118318204309,73.75771049697411,73.75771049697411,73.75771049697411,nan,nan,nan,nan,nan,nan,nan,nan,nan,nan,nan,nan,nan,Walking,U9
49,,,10.846844830659048,7.11300587095,19.514592660799998,3.4077217011703795,9.80665069302,9.80665007062,9.80665131542,8.802065211973385e-07,3.80517797129,3.80517797129,3.80517797129,1.6081359445787784,233.8217444138,213.238831858,259.436814573,14.029531037553193,nan,nan,nan,nan,nan,nan,nan,nan,0.9606906788130001,0.9606906788130001,0.9606906788130001,0.016986613221760483,1.5616971337740733,0.059555449783100005,4.18568644945,0.9586477711358323,nan,nan,nan,nan,38.159087645025,37.3572804986,38.9568571467,0.669505824960469,nan,nan,nan,nan,58.0,15.0,101.0,60.81118318204309,73.75771049697411,73.75771049697411,73.75771049697411,nan,nan,nan,nan,nan,nan,nan,nan,nan,nan,nan,nan,nan,Walking,U9
50,,,12.168079317793334,7.16097651906,20.250083993,4.714345177348064,9.80665074059,9.80664946668,9.80665156955,1.1198218326190344e-06,3.80517797129,3.80517797129,3.80517797129,1.6081359445787784,236.7231781860714,197.27665425200001,292.193751604,25.148360082617934,nan,nan,nan,nan,nan,nan,nan,nan,0.9674751252679998,0.93874453095,0.985749985636,0.020426129158240755,1.49187506208508,0.39303747381399995,3.36621585204,0.8073762897999809,nan,nan,nan,nan,41.13263717148,40.156529668299996,43.1053850319,1.2134837853504867,nan,nan,nan,nan,58.0,15.0,101.0,60.81118318204309,73.75771049697411,73.75771049697411,73.75771049697411,nan,nan,nan,nan,nan,nan,nan,nan,nan,nan,nan,nan,nan,Walking,U9
51,,,9.794390254172308,5.37518907951,15.642955376300002,2.719592636940266,9.806650508139999,9.806650508139999,9.806650508139999,1.1198218326190344e-06,6.347021333825,4.6219081634400005,8.07213450421,2.439678442186915,249.6465833098,210.866457565,311.122176712,31.888309412845093,nan,nan,nan,nan,nan,nan,nan,nan,0.9669046420713334,0.945444698536,0.982672731026,0.019255635725540593,1.5336498017270577,0.22662243730999998,4.60641789647,0.9363340246366086,nan,nan,nan,nan,45.371716830050005,45.3391301058,45.4043035543,0.04608458738766062,nan,nan,nan,nan,58.0,15.0,101.0,60.81118318204309,73.75771049697411,73.75771049697411,73.75771049697411,nan,nan,nan,nan,nan,nan,nan,nan,nan,nan,nan,nan,nan,Walking,U9
52,,,12.630802844986668,7.172892290489999,18.7515033533,3.3850803751499807,9.806650659012,9.80664965542,9.806651424260002,8.21681796560464e-07,2.264629517405,2.22448758899,2.30477144582,0.05676925958430288,248.41307830458823,208.50750909200002,302.242416273,30.641466955494387,nan,nan,nan,nan,nan,nan,nan,nan,0.9669046420713334,0.945444698536,0.982672731026,0.019255635725540593,1.6922244917572942,0.35168917671300004,3.9182218515800007,0.8681142636883121,nan,nan,nan,nan,40.86106119926,35.0051893474,47.0951911691,5.5678790195367975,nan,nan,nan,nan,58.0,15.0,101.0,60.81118318204309,73.75771049697411,73.75771049697411,73.75771049697411,nan,nan,nan,nan,nan,nan,nan,nan,nan,nan,nan,nan,nan,Walking,U9
53,,,10.203907664407897,7.53354975428,14.108603588,2.220231634890216,9.806650523766667,9.80665006294,9.806651622110001,5.770217575596922e-07,3.877595725733333,3.1386243644200005,4.866877157719999,0.8909016657284232,244.16080698683336,218.27949903099997,306.59568138599997,25.391380666886082,nan,nan,nan,nan,nan,nan,nan,nan,0.9605882008844999,0.940201532464,0.971593197428,0.013994865659291231,1.6902911163626306,0.325064015119,3.5037019988199996,0.756915786056853,nan,nan,nan,nan,38.95647935120001,35.5456352806,44.8760880787,3.582423742850901,nan,nan,nan,nan,58.0,15.0,101.0,60.81118318204309,73.75771049697411,73.75771049697411,73.75771049697411,nan,nan,nan,nan,nan,nan,nan,nan,nan,nan,nan,nan,nan,Walking,U9
54,,,11.294486916284116,7.46481248763,18.7428030549,3.3899709673379825,9.80665026422,9.806649091910002,9.80665183622,9.537974772925249e-07,3.8034318140599996,3.8034318140599996,3.8034318140599996,0.8909016657284232,245.712192085,214.60111208400002,293.6256635,24.030204283700797,nan,nan,nan,nan,nan,nan,nan,nan,0.9792140819399999,0.9792140819399999,0.9792140819399999,0.013994865659291231,1.4260815121839345,0.171100940419,4.1650587095,0.8073253841124858,nan,nan,nan,nan,53.7779360542,53.7779360542,53.7779360542,3.582423742850901,nan,nan,nan,nan,58.0,15.0,101.0,60.81118318204309,73.75771049697411,73.75771049697411,73.75771049697411,nan,nan,nan,nan,nan,nan,nan,nan,nan,nan,nan,nan,nan,Walking,U9
55,,,10.397891249902667,6.953073666910001,16.8176009333,2.9372617519515156,9.806650967362499,9.8066503958,9.806651267889999,4.061034844503201e-07,5.903468543735,1.60303981657,10.2038972709,6.08172462997561,246.42106067000003,206.382436809,296.615935842,29.667081602467373,nan,nan,nan,nan,nan,nan,nan,nan,0.9666406586602857,0.9283753373479999,0.997258159013,0.023351349648371985,1.4633658683737694,0.22517938261599998,4.21690186715,0.8869299963889983,nan,nan,nan,nan,40.747127686419994,33.3410993558,58.0511964239,9.927108816008467,nan,nan,nan,nan,58.0,15.0,101.0,60.81118318204309,73.75771049697411,73.75771049697411,73.75771049697411,nan,nan,nan,nan,nan,nan,nan,nan,nan,nan,nan,nan,nan,Walking,U9
56,,,11.006832853139523,7.521898634839999,18.3591796652,3.322376801544497,9.806650382032856,9.806649583230001,9.806651364,6.21216189744996e-07,4.0857785419,4.0857785419,4.0857785419,6.08172462997561,255.49432353014285,224.59287147,297.918544239,30.19061760786217,nan,nan,nan,nan,nan,nan,nan,nan,0.9711259495919999,0.9711259495919999,0.9711259495919999,0.023351349648371985,1.6081289202774256,0.227694808676,3.87211426614,0.863059961618922,nan,nan,nan,nan,53.96481109607,48.0098459954,58.2962865991,3.7913723678879814,nan,nan,nan,nan,58.0,15.0,101.0,60.81118318204309,76.58607545662048,76.58607545662048,76.58607545662048,nan,nan,nan,nan,nan,nan,nan,nan,nan,nan,nan,nan,nan,Walking,U9
57,,,10.787996152923043,7.01125393725,17.126172649100003,2.6261880749666093,9.806650393963999,9.80664958488,9.806651163589999,5.961774700335416e-07,4.269382915474999,2.92339896099,5.615366869959999,1.9035087631692569,256.00704701462496,229.66673328,298.287714784,22.665683471104526,nan,nan,nan,nan,nan,nan,nan,nan,0.9060772593546668,0.867076564676,0.937777814704,0.035911498361265864,1.7195839401782338,0.172235618435,4.59533829955,0.9264576323357774,nan,nan,nan,nan,47.535610933275,45.8881963309,49.045339355500005,1.0304893502252268,nan,nan,nan,nan,58.0,15.0,101.0,60.81118318204309,76.58607545662048,76.58607545662048,76.58607545662048,nan,nan,nan,nan,nan,nan,nan,nan,nan,nan,nan,nan,nan,Walking,U9
58,,,10.90200144318,6.68741600898,20.2427880093,3.729548365703758,9.806650763739999,9.806650763739999,9.806650763739999,5.961774700335416e-07,3.60701140815,3.60701140815,3.60701140815,1.9035087631692569,279.907924606,251.61215920400002,329.763151865,27.191711908286788,nan,nan,nan,nan,nan,nan,nan,nan,0.8917730573533333,0.859752479235,0.912695502727,0.028162339159457216,1.4708281513949444,0.17199279298,3.78865906125,0.8836376398093545,nan,nan,nan,nan,47.535610933275,45.8881963309,49.045339355500005,1.0304893502252268,nan,nan,nan,nan,58.0,15.0,101.0,60.81118318204309,76.58607545662048,76.58607545662048,76.58607545662048,nan,nan,nan,nan,nan,nan,nan,nan,nan,nan,nan,nan,nan,Walking,U9
59,,,10.378541848404762,5.79890672766,17.0276436123,3.113501054312955,9.80665039682,9.80664883815,9.80665117884,1.0593291261255188e-06,3.60701140815,3.60701140815,3.60701140815,1.9035087631692569,244.38810844263637,197.779278041,283.22112499,29.01688112400812,nan,nan,nan,nan,nan,nan,nan,nan,0.9048828678704,0.876949848847,0.913482642004,0.015674486872378546,1.9524552432763194,0.330589183622,5.07954333042,1.132695022141867,nan,nan,nan,nan,26.771421647933334,20.083419778499998,30.499167509099998,5.804678020591146,nan,nan,nan,nan,58.0,15.0,101.0,60.81118318204309,80.21920262974703,78.94573289355597,81.49267236593808,1.8009581721930754,nan,nan,nan,nan,nan,nan,nan,nan,nan,nan,nan,nan,Walking,U9
60,,,10.798903287085626,6.413158896540001,19.5651099578,3.1578892540724537,9.806650576454,9.806649572060001,9.806651614989999,8.17933714788697e-07,4.066299796216667,1.09288154217,9.5845970211,3.067457921267433,253.174591467375,235.42546726,270.044806363,10.839631960150054,nan,nan,nan,nan,nan,nan,nan,nan,0.907360477386,0.907360477386,0.907360477386,0.015674486872378546,2.4579769357293473,0.30025663281599996,5.19396811624,1.3115848273800275,nan,nan,nan,nan,37.617232984775,34.9321328615,39.768961672399996,2.2373583958490513,nan,nan,nan,nan,58.0,15.0,101.0,60.81118318204309,80.87038920491511,80.87038920491511,80.87038920491511,1.8009581721930754,nan,nan,nan,nan,nan,nan,nan,nan,nan,nan,nan,nan,Walking,U9
61,,,11.564145831028751,5.86893372726,20.0616352987,4.061181712851885,9.806650243476668,9.8066495874,9.80665132139,9.408187707768719e-07,5.863602214559999,5.863602214559999,5.863602214559999,3.067457921267433,233.70790300454544,207.522534603,264.751969477,17.38688448863464,nan,nan,nan,nan,nan,nan,nan,nan,0.8466477659430001,0.8466477659430001,0.8466477659430001,0.015674486872378546,2.3319272391346204,0.558260604221,5.74885441125,1.293312371947244,nan,nan,nan,nan,38.620307786175,37.2631059159,40.2663495521,1.237515959969945,nan,nan,nan,nan,58.0,15.0,101.0,60.81118318204309,78.11699653284637,78.11699653284637,78.11699653284637,1.8009581721930754,nan,nan,nan,nan,nan,nan,nan,nan,nan,nan,nan,nan,Walking,U9
62,,,10.632885056373684,6.14056066508,17.044442358599998,2.7166086908784477,9.80665030247,9.80665030247,9.80665030247,9.408187707768719e-07,4.94915922944,4.94915922944,4.94915922944,3.067457921267433,238.9820648872857,200.312413483,259.374881911,20.34434259961282,nan,nan,nan,nan,nan,nan,nan,nan,0.9284064543195,0.894921155236,0.9618917534029999,0.047355364104005,2.7951138746594575,0.483366445483,6.05949549462,1.3587859644901914,nan,nan,nan,nan,38.620307786175,37.2631059159,40.2663495521,1.237515959969945,nan,nan,nan,nan,58.0,15.0,101.0,60.81118318204309,78.11699653284637,78.11699653284637,78.11699653284637,1.8009581721930754,nan,nan,nan,nan,nan,nan,nan,nan,nan,nan,nan,nan,Walking,U9
63,,,11.257510019735598,7.19217308018,17.7869601535,2.8308414029295075,9.80665078666,9.80665078666,9.80665078666,9.408187707768719e-07,2.386369055455,1.27523642315,3.49750168776,1.5713788382010483,250.18886822666664,232.443124346,281.06167573,15.167338247924517,nan,nan,nan,nan,nan,nan,nan,nan,0.938940584674,0.938940584674,0.938940584674,0.047355364104005,2.4539180821717914,0.18845820812,5.26532107376,1.365347690241654,nan,nan,nan,nan,45.71066893041667,42.0793985372,48.0426649578,2.478401979586854,nan,nan,nan,nan,58.0,15.0,101.0,60.81118318204309,78.11699653284637,78.11699653284637,78.11699653284637,1.8009581721930754,nan,nan,nan,nan,nan,nan,nan,nan,nan,nan,nan,nan,Walking,U9
64,,,11.173896193984335,6.75905157252,17.2449417394,2.834614364676338,9.80665078666,9.80665078666,9.80665078666,9.408187707768719e-07,2.386369055455,1.27523642315,3.49750168776,1.5713788382010483,253.02281721957144,226.98839280599998,260.834096746,11.805046336591193,nan,nan,nan,nan,nan,nan,nan,nan,0.8773693306729999,0.8343337781769999,0.920404883169,0.060861462004062575,2.461847189918163,0.398712761079,6.013136876240001,1.4634277750677072,nan,nan,nan,nan,41.43151018655,38.9910346266,44.0717632107,2.1943507340815036,nan,nan,nan,nan,58.0,15.0,101.0,60.81118318204309,78.11699653284637,78.11699653284637,78.11699653284637,1.8009581721930754,nan,nan,nan,nan,nan,nan,nan,nan,nan,nan,nan,nan,Walking,U9
65,,,10.25772812964619,6.3042647359,15.1091670331,2.6975871324226994,9.80664985173,9.80664985173,9.80664985173,9.408187707768719e-07,3.05577717467,3.05577717467,3.05577717467,1.5713788382010483,260.3665072285,225.63098643799998,288.744097295,18.00977604227398,nan,nan,nan,nan,nan,nan,nan,nan,0.8749983417741666,0.814668337849,0.9195776060200002,0.0357186375206405,2.67140728518016,0.45201064335,5.26497684008,1.31274139001666,nan,nan,nan,nan,47.623783155425,45.0248629232,49.9533376012,2.382030339615716,nan,nan,nan,nan,58.0,15.0,101.0,60.81118318204309,78.11699653284637,78.11699653284637,78.11699653284637,1.8009581721930754,nan,nan,nan,nan,nan,nan,nan,nan,nan,nan,nan,nan,Walking,U9
66,,,10.429656982979258,7.060896861939999,16.4460529852,2.751275166530665,9.806650077693334,9.806649343150001,9.80665098202,8.325223747022792e-07,4.0369442464350005,2.61657961493,5.45730887794,2.0086989253894347,259.8546436746364,204.63330628,301.505449137,26.16141735869673,nan,nan,nan,nan,nan,nan,nan,nan,0.9022694715192501,0.841902608815,0.9332709866490001,0.041405340019481894,2.704076786177822,0.12202299331800001,5.29717920365,1.3560925469365892,nan,nan,nan,nan,50.998350038266665,48.4268940001,54.5732735641,3.193697807447073,nan,nan,nan,nan,58.0,15.0,101.0,60.81118318204309,78.11699653284637,78.11699653284637,78.11699653284637,1.8009581721930754,nan,nan,nan,nan,nan,nan,nan,nan,nan,nan,nan,nan,Walking,U9
67,,,10.80726134128091,7.34554076758,16.564311386900002,2.995767160462262,9.806650077693334,9.806649343150001,9.80665098202,8.325223747022792e-07,4.0369442464350005,2.61657961493,5.45730887794,2.0086989253894347,231.32861331566664,207.839540064,290.535082714,23.053805671826087,nan,nan,nan,nan,nan,nan,nan,nan,0.9022694715192501,0.841902608815,0.9332709866490001,0.041405340019481894,3.1393322175108183,0.629803265405,6.260220939780001,1.2784194449653767,nan,nan,nan,nan,42.2841243029,39.9185205293,45.793439076999995,2.6339381318918504,nan,nan,nan,nan,58.0,15.0,101.0,60.81118318204309,78.11699653284637,78.11699653284637,78.11699653284637,1.8009581721930754,nan,nan,nan,nan,nan,nan,nan,nan,nan,nan,nan,nan,Walking,U9
68,,,10.083525082701428,6.506769648320001,16.2930210424,2.9366292321893095,9.806650077693334,9.806649343150001,9.80665098202,8.325223747022792e-07,6.788252097003333,5.180807162980001,8.52152067624,1.673907221649566,239.33299483785714,182.77916722700002,319.572976216,37.152807522774175,nan,nan,nan,nan,nan,nan,nan,nan,0.9865466219833333,0.976122594527,0.999471182727,0.011873442751539716,3.120087299748833,0.601300526661,7.027655187130001,1.3942171770451055,nan,nan,nan,nan,29.313688218720007,23.5306482327,32.0449513379,3.5419961294330564,nan,nan,nan,nan,58.0,15.0,101.0,60.81118318204309,78.11699653284637,78.11699653284637,78.11699653284637,1.8009581721930754,nan,nan,nan,nan,nan,nan,nan,nan,nan,nan,nan,nan,Walking,U9
69,,,10.815097165167142,5.78016957912,18.7529809257,3.5426974769847566,9.806650932,9.80665048355,9.80665157629,4.604352891429236e-07,0.54832957522,0.54832957522,0.54832957522,1.673907221649566,239.8284314662,197.256015752,278.952886177,29.923517801892324,nan,nan,nan,nan,nan,nan,nan,nan,0.963084514577,0.9537380478059999,0.972430981348,0.013217900067817725,2.184716224366404,0.363002541483,5.22280477786,1.2463232468567809,nan,nan,nan,nan,34.32099259431667,20.3559151416,38.6574499612,6.930497695570347,nan,nan,nan,nan,58.0,15.0,101.0,60.81118318204309,78.11699653284637,78.11699653284637,78.11699653284637,1.8009581721930754,nan,nan,nan,nan,nan,nan,nan,nan,nan,nan,nan,nan,Walking,U9
70,,,10.390847096920357,6.74366726699,19.6279648256,3.231298811167373,9.80665014543,9.80664948692,9.80665080394,9.312737733917323e-07,0.54832957522,0.54832957522,0.54832957522,1.673907221649566,219.97191081857142,190.156969938,246.84551264099997,21.87205457842977,nan,nan,nan,nan,nan,nan,nan,nan,0.9314940460259999,0.9314940460259999,0.9314940460259999,0.013217900067817725,1.991563818524765,0.309518247862,5.15254849974,1.206210561663974,nan,nan,nan,nan,43.203028798249996,40.1213978134,44.9020635662,2.2124358288437773,nan,nan,nan,nan,58.0,15.0,101.0,60.81118318204309,78.11699653284637,78.11699653284637,78.11699653284637,1.8009581721930754,nan,nan,nan,nan,nan,nan,nan,nan,nan,nan,nan,nan,Walking,U9
71,,,10.070420615007727,6.63416774676,19.5994078615,3.5079287756341664,9.806650620802,9.80665003173,9.80665158396,5.879156886067002e-07,7.755946058373333,5.747948984419999,9.68973808642,1.9719419673991427,214.18822622775002,196.44358653900002,249.03248608400003,18.714595536992,nan,nan,nan,nan,nan,nan,nan,nan,0.97896462375375,0.9766065783869999,0.982462549384,0.0028339159841655457,1.8724874819935418,0.37047947073700005,5.09456742082,1.1512021575061326,nan,nan,nan,nan,36.48255827918,35.0577091201,39.3580320583,1.7011499437448385,nan,nan,nan,nan,58.0,15.0,101.0,60.81118318204309,78.11699653284637,78.11699653284637,78.11699653284637,1.8009581721930754,nan,nan,nan,nan,nan,nan,nan,nan,nan,nan,nan,nan,Walking,U9
72,,,11.3758694356475,6.57955285615,15.227096505599999,2.9371219581237913,9.8066499604,9.8066499604,9.8066499604,5.879156886067002e-07,4.989751761236667,2.6483723263,8.033901481869998,2.760687527993209,218.5997208682,185.404893923,286.440976226,33.44631932625119,nan,nan,nan,nan,nan,nan,nan,nan,0.9700839514203333,0.947041778529,0.9835774287479999,0.020052347105936754,2.5780260501513124,0.542024502843,9.3696158765,1.7351741341216165,nan,nan,nan,nan,38.77150901456667,33.5807678404,43.0136242951,4.040406876762651,nan,nan,nan,nan,58.0,15.0,101.0,60.81118318204309,78.11699653284637,78.11699653284637,78.11699653284637,1.8009581721930754,nan,nan,nan,nan,nan,nan,nan,nan,nan,nan,nan,nan,Walking,U9
73,,,11.489769044573597,6.60231560852,20.2240800267,3.856848186137084,9.806650688440001,9.80665035347,9.806651023410001,4.737191185015921e-07,3.42008161523,3.42008161523,3.42008161523,2.760687527993209,251.794262450625,211.96740990400002,278.098729154,23.43845799123659,nan,nan,nan,nan,nan,nan,nan,nan,0.8717634254819999,0.7666899827789999,0.945193850914,0.09336416947254968,2.170671332243904,0.277688480679,4.92839528166,1.1725674659149075,nan,nan,nan,nan,39.136287070449995,34.9049490581,43.125951076499994,4.281966053821402,nan,nan,nan,nan,58.0,15.0,101.0,60.81118318204309,78.11699653284637,78.11699653284637,78.11699653284637,1.8009581721930754,nan,nan,nan,nan,nan,nan,nan,nan,nan,nan,nan,nan,Walking,U9
74,,,11.585564452282174,5.03859507127,20.2577569438,3.702289805737086,9.80664979485,9.80664979485,9.80664979485,4.737191185015921e-07,5.31662640413,4.70609649099,5.92715631727,0.8634196833970553,223.5474798911111,193.473250558,282.28384983,29.77292670870775,nan,nan,nan,nan,nan,nan,nan,nan,0.98706837550075,0.975272264516,0.996090535721,0.009683438744327432,2.1592292070380976,0.13691151700999998,6.736765683220001,1.293377391699361,nan,nan,nan,nan,41.625497864066666,38.9913351753,44.302493581099995,1.9506282533287211,nan,nan,nan,nan,58.0,15.0,101.0,60.81118318204309,78.11699653284637,78.11699653284637,78.11699653284637,1.8009581721930754,nan,nan,nan,nan,nan,nan,nan,nan,nan,nan,nan,nan,Walking,U9
75,,,9.758158406892353,5.608992042230001,14.341815503800001,2.797106611026468,9.806650453889999,9.806650453889999,9.806650453889999,4.737191185015921e-07,4.78215771188,4.78215771188,4.78215771188,0.8634196833970553,208.10664517906253,184.465223045,225.201000714,12.21743322689037,nan,nan,nan,nan,nan,nan,nan,nan,0.9994597100657499,0.999199189076,0.9997856694509999,0.00028630962747385174,2.067286906567423,0.138441257634,4.42539415115,1.0882209101601816,nan,nan,nan,nan,39.4392034648,38.782093564600004,39.7679303114,0.5690738926132928,nan,nan,nan,nan,58.0,15.0,101.0,60.81118318204309,78.11699653284637,78.11699653284637,78.11699653284637,1.8009581721930754,nan,nan,nan,nan,nan,nan,nan,nan,nan,nan,nan,nan,Walking,U9
76,,,10.2569660042865,7.900825040039999,13.147466236600001,1.5182135082474908,9.806650322434999,9.806650314439999,9.80665033043,1.1306637738651287e-08,2.2380858209400003,1.7450945298900002,2.73107711199,0.6971949699347316,221.98988012080002,180.925151495,259.393060674,22.487624651891295,nan,nan,nan,nan,nan,nan,nan,nan,0.9549400598185,0.8855700772759999,0.999780641304,0.05304881514292331,1.4716632668043332,0.24238668199400001,4.49643458922,1.0016621600029543,nan,nan,nan,nan,39.4392034648,38.782093564600004,39.7679303114,0.5690738926132928,nan,nan,nan,nan,58.0,15.0,101.0,60.81118318204309,78.11699653284637,78.11699653284637,78.11699653284637,1.8009581721930754,nan,nan,nan,nan,nan,nan,nan,nan,nan,nan,nan,nan,Walking,U9
77,,,11.209975596698147,5.660875074990001,18.4238523521,3.663758006246033,9.806650297409998,9.80664978324,9.806650811579999,7.271461872381692e-07,4.2313692645800005,3.5937869603900006,4.86895156877,0.9016775417145858,208.45365794366663,179.469678518,277.84551090400004,36.44224534780374,nan,nan,nan,nan,nan,nan,nan,nan,0.998881760199,0.998881760199,0.998881760199,0.05304881514292331,2.3934573139013655,0.274488471537,6.99879763149,1.3644279067816898,nan,nan,nan,nan,40.319896691539995,38.5134412413,42.1956473614,1.7308075361783999,nan,nan,nan,nan,58.0,15.0,101.0,60.81118318204309,78.11699653284637,78.11699653284637,78.11699653284637,1.8009581721930754,nan,nan,nan,nan,nan,nan,nan,nan,nan,nan,nan,nan,Walking,U9
78,,,12.327311786687309,5.824852701669999,18.7982611481,3.437237910487108,9.806649651239999,9.806649651239999,9.806649651239999,7.271461872381692e-07,2.3736799579900003,2.3736799579900003,2.3736799579900003,0.9016775417145858,221.87649488,185.91246774599998,245.95269896599999,15.650089400724545,nan,nan,nan,nan,nan,nan,nan,nan,0.9892981804993334,0.979123001396,0.9982496429700001,0.009621861372565408,2.9998469326568142,0.8350740259530001,5.38447230162,1.3190242362931732,nan,nan,nan,nan,42.22437145021667,39.652001841,46.5064259673,2.521682823467367,nan,nan,nan,nan,58.0,15.0,101.0,60.81118318204309,78.11699653284637,78.11699653284637,78.11699653284637,1.8009581721930754,nan,nan,nan,nan,nan,nan,nan,nan,nan,nan,nan,nan,Walking,U9
79,,,11.299032078301112,7.41569498594,18.948273834600002,3.2629265980953073,9.806649651239999,9.806649651239999,9.806649651239999,7.271461872381692e-07,6.17266864947,5.44066072894,6.90467657,1.035215528978053,218.3735172972857,178.62801576900003,265.74243227700003,24.127863083151624,nan,nan,nan,nan,nan,nan,nan,nan,0.9968763582595999,0.991591210906,0.9995580527879999,0.003299549615290706,1.9949729090247648,0.315480649473,4.80226136909,1.105639681012096,nan,nan,nan,nan,37.148243337875,33.3074574045,41.864784201599996,3.814755022334251,nan,nan,nan,nan,58.0,15.0,101.0,60.81118318204309,78.11699653284637,78.11699653284637,78.11699653284637,1.8009581721930754,nan,nan,nan,nan,nan,nan,nan,nan,nan,nan,nan,nan,Walking,U9
80,,,10.395643057733913,6.96004130232,16.531162108,2.7155399654611,9.806649651239999,9.806649651239999,9.806649651239999,7.271461872381692e-07,2.254755237835,1.9716651502400002,2.5378453254299997,0.40034984125023615,193.7851894950625,164.051824802,264.522087112,27.7913464586429,nan,nan,nan,nan,nan,nan,nan,nan,0.9987137124936666,0.996516086957,0.9999702052889999,0.0019097202649790502,1.4350236555620681,0.23811352909800002,3.42211378944,0.6979327389277844,nan,nan,nan,nan,33.431573372066666,31.2538122675,35.1133766356,1.285656833539949,nan,nan,nan,nan,58.0,15.0,101.0,60.81118318204309,78.11699653284637,78.11699653284637,78.11699653284637,1.8009581721930754,nan,nan,nan,nan,nan,nan,nan,nan,nan,nan,nan,nan,Walking,U9
81,,,12.135406271422918,7.3143670383899995,20.8470097199,3.774358623473414,9.80665041952,9.80665041952,9.80665041952,7.271461872381692e-07,4.0651312346,4.0651312346,4.0651312346,0.40034984125023615,219.14062388953846,178.187196515,272.426798152,32.013821461206945,nan,nan,nan,nan,nan,nan,nan,nan,0.9987137124936666,0.996516086957,0.9999702052889999,0.0019097202649790502,1.2519230730622157,0.28085521797400004,2.95906419788,0.608269697964652,nan,nan,nan,nan,37.14105275915,35.6090973278,38.6730081905,2.166512147966294,nan,nan,nan,nan,58.0,15.0,101.0,60.81118318204309,78.11699653284637,78.11699653284637,78.11699653284637,1.8009581721930754,nan,nan,nan,nan,nan,nan,nan,nan,nan,nan,nan,nan,Walking,U9
82,,,10.577091390822224,5.06327102892,15.0214312468,2.5104868618570695,9.80665043074,9.80665043074,9.80665043074,7.271461872381692e-07,1.780357285655,1.07490128966,2.48581328165,0.9976654371935488,202.5134773536,180.333215475,273.277529106,27.268688008083245,nan,nan,nan,nan,nan,nan,nan,nan,0.9981085987305001,0.997969233769,0.9982479636920001,0.00019709181867293453,1.7933465312434624,0.123555858672,5.0238728289,1.0929009698393048,nan,nan,nan,nan,35.01447328407143,30.805970403499998,37.442351521999996,2.2026404408885654,nan,nan,nan,nan,58.0,15.0,101.0,60.81118318204309,78.11699653284637,78.11699653284637,78.11699653284637,1.8009581721930754,nan,nan,nan,nan,nan,nan,nan,nan,nan,nan,nan,nan,Walking,U9
83,,,10.74580149583238,7.16323226488,15.0067246275,2.4401778514666033,9.806649753796666,9.80664893419,9.80665058913,8.275820787371896e-07,4.1604447699675,1.21235078662,6.33201658303,2.571269499449067,217.40278026683333,195.56217761,261.759517051,24.503295434268434,nan,nan,nan,nan,nan,nan,nan,nan,0.9752619900230001,0.9137581285140001,0.996478410593,0.04101287843185822,1.9174562401226072,0.325560008603,5.06473358071,1.107439340741944,nan,nan,nan,nan,41.183951147,39.1235023675,43.244399926499995,2.9139146085439855,nan,nan,nan,nan,58.0,15.0,101.0,60.81118318204309,78.11699653284637,78.11699653284637,78.11699653284637,1.8009581721930754,nan,nan,nan,nan,nan,nan,nan,nan,nan,nan,nan,nan,Walking,U9
84,,,11.785833018248,7.6427470069700005,19.2218741514,3.078361129568024,9.806651195403333,9.806650702619999,9.8066518815,6.127536602820707e-07,2.07613312374,2.07613312374,2.07613312374,2.571269499449067,205.4408491635455,174.916648677,263.173962044,25.292650653979656,nan,nan,nan,nan,nan,nan,nan,nan,0.9523760788200002,0.9523760788200002,0.9523760788200002,0.04101287843185822,1.4315015506086346,0.221813402295,4.81525895032,0.9641627159038315,nan,nan,nan,nan,41.81115670858571,36.9675216406,44.458020929899995,2.5957318035398007,nan,nan,nan,nan,58.0,15.0,101.0,60.81118318204309,78.11699653284637,78.11699653284637,78.11699653284637,1.8009581721930754,nan,nan,nan,nan,nan,nan,nan,nan,nan,nan,nan,nan,Walking,U9
85,,,10.962299212917998,7.613396508789999,15.5302656076,2.2116480484144247,9.806652016765,9.8066514637,9.80665256983,7.821520239016151e-07,6.18469075356,4.80034735742,7.5690341497,1.9577572058028183,191.8823554004,157.976144269,224.43311367099997,21.289145458693895,nan,nan,nan,nan,nan,nan,nan,nan,0.9968233359909999,0.9968233359909999,0.9968233359909999,0.04101287843185822,1.3137459900088335,0.179143565229,3.2074916329799996,0.706753232518549,nan,nan,nan,nan,43.032279374925,40.5745359647,46.762573509700005,2.329637790238923,nan,nan,nan,nan,58.0,15.0,101.0,60.81118318204309,78.11699653284637,78.11699653284637,78.11699653284637,1.8009581721930754,nan,nan,nan,nan,nan,nan,nan,nan,nan,nan,nan,nan,Walking,U9
86,,,10.954615474743811,7.16570224396,17.3049776828,2.7060021676327546,9.806650172632501,9.80664980227,9.80665059489,3.295809791459664e-07,6.18469075356,4.80034735742,7.5690341497,1.9577572058028183,189.06869498087502,157.24119206,212.81329901900003,15.350569334248549,nan,nan,nan,nan,nan,nan,nan,nan,0.9968233359909999,0.9968233359909999,0.9968233359909999,0.04101287843185822,1.6185526859336496,0.428069772729,4.69910583487,0.8885513343395527,nan,nan,nan,nan,39.129186073425,37.630502089400004,40.8418252224,1.5358393655416172,nan,nan,nan,nan,58.0,15.0,101.0,60.81118318204309,65.79623678235242,65.79623678235242,65.79623678235242,1.8009581721930754,nan,nan,nan,nan,nan,nan,nan,nan,nan,nan,nan,nan,Walking,U9
87,,,11.522730695342224,7.86070130543,15.8302055418,2.7685825996420723,9.806650172632501,9.80664980227,9.80665059489,3.295809791459664e-07,2.521442174016667,1.20884929463,4.5312633949,1.7675419043286844,220.33398235542856,203.645062051,256.748599013,18.122474722455355,nan,nan,nan,nan,nan,nan,nan,nan,0.9524850213160001,0.9524850213160001,0.9524850213160001,0.04101287843185822,2.0552051154356827,0.271862494548,5.06447868688,1.1402676797221118,nan,nan,nan,nan,40.486503815,36.4415735287,44.019615656000006,3.016887901443819,nan,nan,nan,nan,58.0,15.0,101.0,60.81118318204309,68.80243206375607,68.80243206375607,68.80243206375607,1.8009581721930754,nan,nan,nan,nan,nan,nan,nan,nan,nan,nan,nan,nan,Walking,U9
88,,,11.350743701674231,7.146780574530001,16.7536617316,2.8313973155387284,9.80665012627,9.80665012627,9.80665012627,3.295809791459664e-07,3.0800982974121998,0.221941373031,5.242405670219999,1.8627584714552603,247.79195308366667,220.185439534,298.433684531,26.046121000326945,nan,nan,nan,nan,nan,nan,nan,nan,0.94217426410825,0.926753743938,0.957135456601,0.014591901155046218,1.5384133977492611,0.20855782933699998,4.2546291932199996,0.9500776556424417,nan,nan,nan,nan,43.85248543466667,42.4535591853,45.6509771938,1.6357291730957035,nan,nan,nan,nan,58.0,15.0,101.0,60.81118318204309,78.49591991595824,78.49591991595824,78.49591991595824,1.8009581721930754,nan,nan,nan,nan,nan,nan,nan,nan,nan,nan,nan,nan,Walking,U9
89,,,11.083854625493125,7.968021905489999,18.1286314094,2.8140283652615294,9.806649745823334,9.80664895808,9.80665062525,8.373579448294725e-07,4.24076637253,4.24076637253,4.24076637253,1.8627584714552603,230.26604684716668,210.701091123,241.23563924200002,10.449215413638457,nan,nan,nan,nan,nan,nan,nan,nan,0.9385015796073334,0.9319743310100002,0.948888058652,0.009093337694221833,2.0448268972681287,0.515111829268,5.09005448139,1.087415434187371,nan,nan,nan,nan,45.309311641525,42.7939740939,51.6058529868,4.232634444739592,nan,nan,nan,nan,58.0,15.0,101.0,60.81118318204309,78.49591991595824,78.49591991595824,78.49591991595824,1.8009581721930754,nan,nan,nan,nan,nan,nan,nan,nan,nan,nan,nan,nan,Walking,U9
90,,,10.666907124882107,6.23727596871,16.386908537,2.8067309604414756,9.806650112532001,9.80664965351,9.8066507381,4.268607742086709e-07,4.24076637253,4.24076637253,4.24076637253,1.8627584714552603,237.01501977869998,225.884342212,261.279396615,10.227244407669572,nan,nan,nan,nan,nan,nan,nan,nan,0.9505239371856667,0.918880797887,0.966868219362,0.027408747269658324,1.934857831357037,0.133180110778,4.57684520596,1.0641316691560663,nan,nan,nan,nan,39.594345603933334,37.2085024726,42.090211896599996,2.4427137669229526,nan,nan,nan,nan,58.0,15.0,101.0,60.81118318204309,78.49591991595824,78.49591991595824,78.49591991595824,1.8009581721930754,nan,nan,nan,nan,nan,nan,nan,nan,nan,nan,nan,nan,Walking,U9
91,,,11.295760427242001,7.4226427495700005,16.3248187642,2.303299191931834,9.806651162165,9.80665114111,9.80665118322,2.977626587927994e-08,6.30781480067,5.20897892041,7.40665068093,1.5539886046858706,239.1286243476,216.22684781099997,262.808884691,12.134242060154202,nan,nan,nan,nan,nan,nan,nan,nan,0.9454136297169999,0.9454136297169999,0.9454136297169999,0.027408747269658324,1.9181438416964782,0.317724744848,5.94422771882,1.2790177244812422,nan,nan,nan,nan,42.7601566673,38.7569046268,45.0632368178,2.953118459233517,nan,nan,nan,nan,58.0,15.0,101.0,60.81118318204309,78.49591991595824,78.49591991595824,78.49591991595824,1.8009581721930754,nan,nan,nan,nan,nan,nan,nan,nan,nan,nan,nan,nan,Walking,U9
92,,,11.086965004203636,5.781500686699999,16.8395453161,2.793991675527918,9.80665013471,9.80665013471,9.80665013471,2.977626587927994e-08,3.0744631266900004,1.3015328343500001,5.412904039990001,1.8156230912267124,239.51409539433337,218.050225984,272.39439667700003,12.940751765952598,nan,nan,nan,nan,nan,nan,nan,nan,0.9275109170413334,0.903582385606,0.942717287324,0.02097479927196429,1.7647470046796,0.353733186464,5.2771187014,1.1707683733701997,nan,nan,nan,nan,47.05410193715,39.1688552137,54.939348660600004,11.151422858961004,nan,nan,nan,nan,58.0,15.0,101.0,60.81118318204309,78.49591991595824,78.49591991595824,78.49591991595824,1.8009581721930754,nan,nan,nan,nan,nan,nan,nan,nan,nan,nan,nan,nan,Walking,U9
93,,,11.8514413920485,7.513609048189999,16.08783231,2.7054576102470524,9.80665013471,9.80665013471,9.80665013471,2.977626587927994e-08,3.54673290621,3.54673290621,3.54673290621,1.8156230912267124,248.0689910962857,209.89948677400002,290.601954168,21.26320266165291,nan,nan,nan,nan,nan,nan,nan,nan,0.904598006301,0.904598006301,0.904598006301,0.02097479927196429,1.5270256660515384,0.110690739801,6.04380341146,1.116645596395352,nan,nan,nan,nan,45.498011799083336,31.044637721399997,65.0288998254,14.063052675230491,nan,nan,nan,nan,58.0,15.0,101.0,60.81118318204309,78.49591991595824,78.49591991595824,78.49591991595824,1.8009581721930754,nan,nan,nan,nan,nan,nan,nan,nan,nan,nan,nan,nan,Walking,U9
94,,,10.926160618285998,7.289184447210001,16.7339498614,2.61893862011991,9.806650003315,9.80664975797,9.80665021251,2.3877482700329734e-07,2.39688427249,2.39688427249,2.39688427249,1.8156230912267124,254.89949557737498,233.823791933,309.149025757,25.61455934635852,nan,nan,nan,nan,nan,nan,nan,nan,0.8761143194982499,0.817268295342,0.898847233535,0.03938896968203244,1.9861691268697728,0.268919093022,5.53508433944,1.1949492556315726,nan,nan,nan,nan,56.392858998280005,48.5674064445,74.4450562915,8.016567107786145,nan,nan,nan,nan,58.0,15.0,101.0,60.81118318204309,83.54553422517172,83.54553422517172,83.54553422517172,1.8009581721930754,nan,nan,nan,nan,nan,nan,nan,nan,nan,nan,nan,nan,Walking,U9
95,,,11.847062229043125,6.11960079164,17.6677403664,3.4729561993562923,9.80664937878,9.80664937878,9.80664937878,2.3877482700329734e-07,2.9213130872149997,1.7098633924200002,4.1327627820099995,1.7132485885118351,246.29725249386667,197.97785903,295.28952002200003,24.489660776874604,nan,nan,nan,nan,nan,nan,nan,nan,0.8503218414563335,0.8042573758689999,0.8786388951540001,0.04024152798257447,2.561804634360769,0.385885179714,6.10087575898,1.4405416612296742,nan,nan,nan,nan,48.883447145999995,46.3094634632,51.4574308288,3.640162633542809,nan,nan,nan,nan,58.0,15.0,101.0,60.81118318204309,85.67280777600735,85.67280777600735,85.67280777600735,1.8009581721930754,nan,nan,nan,nan,nan,nan,nan,nan,nan,nan,nan,nan,Walking,U9
96,,,12.170792349137999,6.720582288969999,21.6796441185,3.9120035423394337,9.80665076901,9.80665076901,9.80665076901,2.3877482700329734e-07,5.1630539683,3.50342431189,6.82268362471,2.347070768611622,254.35063000050002,220.910908681,311.508129424,23.63488962980961,nan,nan,nan,nan,nan,nan,nan,nan,0.864309558255,0.837590952945,0.894057908213,0.028355136638423085,1.7940119479460224,0.211949109901,6.3725686245099995,1.1629187696858625,nan,nan,nan,nan,45.000336498414285,42.3864752162,47.34943241479999,1.7730493489636392,nan,nan,nan,nan,58.0,15.0,101.0,60.81118318204309,85.67280777600735,85.67280777600735,85.67280777600735,1.8009581721930754,nan,nan,nan,nan,nan,nan,nan,nan,nan,nan,nan,nan,Walking,U9
97,,,11.558494180986333,7.861582253560001,18.1594156856,2.7299852783438094,9.806650606875,9.80664978454,9.80665142921,1.16295730994794e-06,6.4437319644899995,4.5660417473,8.32142218168,2.65545497108538,242.19398502209089,217.582658512,305.618371123,31.11335305412083,nan,nan,nan,nan,nan,nan,nan,nan,0.9608057001245001,0.959718993044,0.961892407205,0.0015368358915699928,1.8710822148451776,0.383586504019,4.573442465069999,0.9253800174666403,nan,nan,nan,nan,43.6855324462,42.091464767199994,45.279600125200005,2.2543521309824093,nan,nan,nan,nan,58.0,15.0,101.0,60.81118318204309,85.67280777600735,85.67280777600735,85.67280777600735,1.8009581721930754,nan,nan,nan,nan,nan,nan,nan,nan,nan,nan,nan,nan,Walking,U9
98,,,11.195455737017273,7.945976491960001,16.0997834934,2.4475226152708265,9.806650544850001,9.806650464439999,9.806650599600001,7.113988537850199e-08,8.838028167440001,6.946300508039999,12.521470376400002,3.19034646011935,251.2586863958823,206.86937886,299.487954475,22.551628865904597,nan,nan,nan,nan,nan,nan,nan,nan,0.929409844677,0.9115949704240001,0.9518568821150001,0.01750264946904971,1.9124914565620525,0.369979547157,4.11489679171,0.9773185083575676,nan,nan,nan,nan,42.73970757208572,37.5150490637,47.3726912366,3.1069033098322136,nan,nan,nan,nan,58.0,15.0,101.0,60.81118318204309,85.67280777600735,85.67280777600735,85.67280777600735,1.8009581721930754,nan,nan,nan,nan,nan,nan,nan,nan,nan,nan,nan,nan,Walking,U9
99,,,10.593429226449581,8.107389203610001,13.6144559228,1.6649543211074234,9.806651144673333,9.80665010287,9.80665209646,9.998387483964554e-07,3.2789993779499995,1.48251833146,4.84131447659,1.6915978110899776,270.4115878555556,210.953064241,331.708323972,34.966270285261785,nan,nan,nan,nan,nan,nan,nan,nan,0.856205237561,0.856205237561,0.856205237561,0.01750264946904971,1.8390176943979164,0.360797625991,6.21571231903,1.2531176223947231,nan,nan,nan,nan,43.531440881,41.6272991107,47.194494514700004,2.541320640640607,nan,nan,nan,nan,58.0,15.0,101.0,60.81118318204309,85.67280777600735,85.67280777600735,85.67280777600735,1.8009581721930754,nan,nan,nan,nan,nan,nan,nan,nan,nan,nan,nan,nan,Walking,U9
100,,,10.902792341741666,6.389361737840001,15.984923536300002,2.458492541023018,9.80665062339,9.806650100499999,9.80665097166,4.610846401302821e-07,3.2789993779499995,1.48251833146,4.84131447659,1.6915978110899776,228.591137678875,191.03737734,308.18550172700003,34.60727109731802,nan,nan,nan,nan,nan,nan,nan,nan,0.934991775222,0.896824687902,0.973158862542,0.05397641252422221,1.4457838812637958,0.305807839257,4.187413185950001,0.9815127774622343,nan,nan,nan,nan,50.60517781096667,33.4787129196,57.805269818199996,8.8699872867063,nan,nan,nan,nan,58.0,15.0,101.0,60.81118318204309,85.67280777600735,85.67280777600735,85.67280777600735,1.8009581721930754,nan,nan,nan,nan,nan,nan,nan,nan,nan,nan,nan,nan,Walking,U9
101,,,11.286367509299286,6.6769385562400005,22.4223844971,4.582727182807842,9.80665083145,9.80665083145,9.80665083145,4.610846401302821e-07,3.2789993779499995,1.48251833146,4.84131447659,1.6915978110899776,201.9787173889167,163.771255969,245.21871017599997,28.328425122634467,nan,nan,nan,nan,nan,nan,nan,nan,0.992232384076,0.992232384076,0.992232384076,0.05397641252422221,1.4485716741069814,0.207850244683,5.78119222326,0.947177803393295,nan,nan,nan,nan,30.22336998071818,21.5033609292,37.79162647,4.940343569430865,nan,nan,nan,nan,10.5,2.0,19.0,12.020815280171307,84.8284390342399,84.8284390342399,84.8284390342399,1.8009581721930754,nan,nan,nan,nan,nan,nan,nan,nan,nan,nan,nan,nan,Walking,U9
102,,,11.05851486692435,6.627786321139999,20.080149315299998,2.782546230468866,9.80665043083,9.80665031286,9.8066505488,1.6683477394031147e-07,0.8403401252689999,0.8403401252689999,0.8403401252689999,1.6915978110899776,236.72562324,181.66991228900002,268.701216957,24.674879373075093,nan,nan,nan,nan,nan,nan,nan,nan,0.941831958152,0.941831958152,0.941831958152,0.05397641252422221,1.692500299906361,0.0780785190157,7.4199695629399995,1.5053371871944854,nan,nan,nan,nan,41.1034036196,26.103460019699998,46.7013031804,10.009465308444556,nan,nan,nan,nan,4.666666666666667,3.0,6.0,1.5275252316519465,84.8284390342399,84.8284390342399,84.8284390342399,1.8009581721930754,nan,nan,nan,nan,nan,nan,nan,nan,nan,nan,nan,nan,Walking,U9
103,,,11.429017697599999,11.429017697599999,11.429017697599999,2.782546230468866,9.80665043083,9.80665031286,9.8066505488,1.6683477394031147e-07,0.8403401252689999,0.8403401252689999,0.8403401252689999,1.6915978110899776,236.72562324,181.66991228900002,268.701216957,24.674879373075093,nan,nan,nan,nan,nan,nan,nan,nan,0.941831958152,0.941831958152,0.941831958152,0.05397641252422221,0.570850641923,0.524698547601,0.617002736245,0.06526891772209473,nan,nan,nan,nan,41.1034036196,26.103460019699998,46.7013031804,10.009465308444556,nan,nan,nan,nan,4.666666666666667,3.0,6.0,1.5275252316519465,84.8284390342399,84.8284390342399,84.8284390342399,1.8009581721930754,nan,nan,nan,nan,nan,nan,nan,nan,nan,nan,nan,nan,Walking,U9
