time,activityrecognition#0,activityrecognition#1,android.sensor.accelerometer#mean,android.sensor.accelerometer#min,android.sensor.accelerometer#max,android.sensor.accelerometer#std,android.sensor.gravity#mean,android.sensor.gravity#min,android.sensor.gravity#max,android.sensor.gravity#std,android.sensor.linear_acceleration#mean,android.sensor.linear_acceleration#min,android.sensor.linear_acceleration#max,android.sensor.linear_acceleration#std,android.sensor.orientation#mean,android.sensor.orientation#min,android.sensor.orientation#max,android.sensor.orientation#std,android.sensor.gyroscope_uncalibrated#mean,android.sensor.gyroscope_uncalibrated#min,android.sensor.gyroscope_uncalibrated#max,android.sensor.gyroscope_uncalibrated#std,android.sensor.magnetic_field_uncalibrated#mean,android.sensor.magnetic_field_uncalibrated#min,android.sensor.magnetic_field_uncalibrated#max,android.sensor.magnetic_field_uncalibrated#std,android.sensor.rotation_vector#mean,android.sensor.rotation_vector#min,android.sensor.rotation_vector#max,android.sensor.rotation_vector#std,android.sensor.gyroscope#mean,android.sensor.gyroscope#min,android.sensor.gyroscope#max,android.sensor.gyroscope#std,android.sensor.game_rotation_vector#mean,android.sensor.game_rotation_vector#min,android.sensor.game_rotation_vector#max,android.sensor.game_rotation_vector#std,android.sensor.magnetic_field#mean,android.sensor.magnetic_field#min,android.sensor.magnetic_field#max,android.sensor.magnetic_field#std,android.sensor.pressure#mean,android.sensor.pressure#min,android.sensor.pressure#max,android.sensor.pressure#std,android.sensor.light#mean,android.sensor.light#min,android.sensor.light#max,android.sensor.light#std,sound#mean,sound#min,sound#max,sound#std,speed#mean,speed#min,speed#max,speed#std,android.sensor.proximity#mean,android.sensor.proximity#min,android.sensor.proximity#max,android.sensor.proximity#std,android.sensor.step_counter#mean,android.sensor.step_counter#min,android.sensor.step_counter#max,android.sensor.step_counter#std,target,user
1,,,9.061209646223636,6.245359605549999,13.3600885451,1.9732720855879087,9.806650010510001,9.806650010510001,9.806650010510001,1.3060191531938526e-06,1.0831635230299999,1.0831635230299999,1.0831635230299999,0.2042820411616045,104.15026222799999,104.15026222799999,104.15026222799999,nan,1.1011595621008001,0.223936893121,2.45230529655,0.8711236804544925,188.61325553950002,186.178114069,191.04839701,3.4438100938782616,0.7406232425570001,0.691877402272,0.7708357041830001,0.04261710869540033,2.1995464981062502,0.457374511944,6.817617382050001,3.084450216889994,0.140858695306,0.101730450977,0.179986939635,0.05533569380191995,42.87361709275791,40.940078927600005,47.6405305428,1.6172639681533598,996.0219999999999,996.0219999999999,996.0219999999999,nan,nan,nan,nan,nan,82.2440538146107,82.2440538146107,82.2440538146107,nan,nan,nan,nan,nan,nan,nan,nan,nan,nan,nan,nan,nan,Walking,U14
2,,,12.773670796029231,3.5952553211800002,34.9643924071,7.889269199002657,9.806650010510001,9.806650010510001,9.806650010510001,1.3060191531938526e-06,1.0831635230299999,1.0831635230299999,1.0831635230299999,0.2042820411616045,104.15026222799999,104.15026222799999,104.15026222799999,nan,2.645385285776,1.4115646169999998,4.50574357398,1.4284633633064545,188.61325553950002,186.178114069,191.04839701,3.4438100938782616,0.685981479953,0.685981479953,0.685981479953,0.04261710869540033,2.9432365757000003,2.01864265722,4.78607560931,1.2511940142184939,0.869004069314,0.799682575195,0.938325563433,0.09803539714705657,38.72489667101229,36.1885348363,42.083014892,1.9667635709368356,996.0219999999999,996.0219999999999,996.0219999999999,nan,nan,nan,nan,nan,82.2440538146107,82.2440538146107,82.2440538146107,nan,nan,nan,nan,nan,nan,nan,nan,nan,nan,nan,nan,nan,Walking,U14
3,,,12.113605129875264,3.4583183818800003,27.4731349161,5.722302753002993,9.806650010510001,9.806650010510001,9.806650010510001,1.3060191531938526e-06,3.1890119196900004,3.1890119196900004,3.1890119196900004,0.2042820411616045,307.674445977,299.406105061,315.942786893,11.693199861731578,1.679489620643077,1.02161947172,2.6745892755700003,0.5301462251903517,127.08081328200001,125.438590553,128.723036011,2.322453655789161,0.7797409841049999,0.719787948193,0.866255067284,0.06460544163675012,2.2909586461616667,1.09334845596,4.15284903356,1.4206296179622058,0.869004069314,0.799682575195,0.938325563433,0.09803539714705657,42.35267619491021,41.206068526399996,43.4912641067,0.4470339792321205,996.0219999999999,996.0219999999999,996.0219999999999,nan,nan,nan,nan,nan,82.2440538146107,82.2440538146107,82.2440538146107,nan,nan,nan,nan,nan,nan,nan,nan,nan,nan,nan,nan,nan,Walking,U14
4,,,11.834011385045908,5.31886179182,25.0118891122,4.883485781221098,9.806650010510001,9.806650010510001,9.806650010510001,1.3060191531938526e-06,3.1890119196900004,3.1890119196900004,3.1890119196900004,0.2042820411616045,307.674445977,299.406105061,315.942786893,11.693199861731578,3.0642642206990667,0.8631973511159999,4.95376624239,1.3453762388186568,127.858714904,127.858714904,127.858714904,2.322453655789161,0.8228989840905001,0.7559433829530001,0.8707951600030001,0.05185602159301933,2.362883664053,1.13563506958,5.839371689330001,1.5397836202018984,0.8924673458769999,0.8924673458769999,0.8924673458769999,0.09803539714705657,42.20676654625117,36.5362833359,43.7905240962,2.092400591718067,996.0183,996.0183,996.0183,nan,nan,nan,nan,nan,82.2440538146107,82.2440538146107,82.2440538146107,nan,nan,nan,nan,nan,nan,nan,nan,nan,nan,nan,nan,nan,Walking,U14
5,,,11.172498592100768,4.28946585865,19.0134556233,4.083936806648204,9.806630904483333,9.80662353174,9.8066367804,6.749971518770601e-06,7.428308607666668,2.9450710156800004,13.138315739500001,5.206177304687459,261.57965537,261.57965537,261.57965537,11.693199861731578,2.366673027945486,0.739666799155,4.9031178278,1.140475216020166,134.35955492600002,134.35955492600002,134.35955492600002,2.322453655789161,0.8228989840905001,0.7559433829530001,0.8707951600030001,0.05185602159301933,1.7555229313544,0.710423382974,2.73874983843,0.6121079178843979,0.8924673458769999,0.8924673458769999,0.8924673458769999,0.09803539714705657,34.321007791283336,32.2857559143,37.2915540036,1.5994672235933083,996.0183,996.0183,996.0183,nan,nan,nan,nan,nan,85.79652886743274,85.28974511561378,86.78226829542801,0.8537887709362416,nan,nan,nan,nan,nan,nan,nan,nan,nan,nan,nan,nan,Walking,U14
6,,,10.595389978055456,3.5092245096399997,30.884284780799998,5.683996365681659,9.80663546605,9.806631666760001,9.80663926534,5.373007444046847e-06,6.39994461834,2.7971778443799997,11.6253418202,4.63236623391887,261.57965537,261.57965537,261.57965537,11.693199861731578,2.5862810126150357,0.702847647118,5.65756524839,1.4496947532743467,139.23110684,139.23110684,139.23110684,2.322453655789161,0.670513863683,0.670513863683,0.670513863683,0.05185602159301933,2.1301977528752936,0.766953909544,4.20826581455,0.9807596043143204,0.635854438939,0.635854438939,0.635854438939,0.09803539714705657,47.3017447196,47.202012669,47.401476770200006,0.14104241856180497,996.0183,996.0183,996.0183,nan,nan,nan,nan,nan,85.26324929924435,85.26324929924435,85.26324929924435,0.8537887709362416,nan,nan,nan,nan,nan,nan,nan,nan,nan,nan,nan,nan,Walking,U14
7,,,9.223697671263125,3.54847367114,14.573960810099999,2.574424696457371,9.80664077627,9.80664077627,9.80664077627,5.373007444046847e-06,9.305392667304,2.0901859101599998,23.091532175999998,8.854824105474174,277.707182115,277.707182115,277.707182115,11.693199861731578,2.258292664426814,0.394289737954,4.48330182379,1.199130756069126,133.16847575633335,131.106524788,136.952331579,3.2813231332738213,0.709257003843,0.709257003843,0.709257003843,0.05185602159301933,2.4817448995754163,0.9297465442299999,5.37976504901,1.1287134802244225,0.635854438939,0.635854438939,0.635854438939,0.09803539714705657,47.3017447196,47.202012669,47.401476770200006,0.14104241856180497,996.0183,996.0183,996.0183,nan,nan,nan,nan,nan,85.26324929924435,85.26324929924435,85.26324929924435,0.8537887709362416,nan,nan,nan,nan,nan,nan,nan,nan,nan,nan,nan,nan,Walking,U14
8,,,11.301474951956088,4.0802073945599995,33.2051784731,6.164424077583956,9.80663302637,9.80663302637,9.80663302637,5.373007444046847e-06,4.0627522818332,0.5819763959359999,7.9151229246,2.603820775990758,302.201909334,302.201909334,302.201909334,11.693199861731578,2.4447649684820356,0.888214040627,6.7346329888300005,1.4995839287831196,133.16847575633335,131.106524788,136.952331579,3.2813231332738213,0.7859602733409999,0.7859602733409999,0.7859602733409999,0.05185602159301933,2.4076566648482425,0.8280214750120001,5.48760746538,1.2023201918738555,0.7943227366660001,0.7943227366660001,0.7943227366660001,0.09803539714705657,47.3017447196,47.202012669,47.401476770200006,0.14104241856180497,996.045775,996.02075,996.0708,0.035390694398345676,nan,nan,nan,nan,84.20315875306484,84.20315875306484,84.20315875306484,0.8537887709362416,nan,nan,nan,nan,nan,nan,nan,nan,nan,nan,nan,nan,Walking,U14
9,,,12.281349972822943,4.54549297305,21.033083000999998,5.037288547357782,9.80661976377,9.80661976377,9.80661976377,5.373007444046847e-06,8.942021211397499,3.20861442179,11.940206475,3.903511976714209,276.51934769,258.890461605,294.148233775,24.931009790937342,2.202950708986077,0.675071038192,4.589319997,0.9995635789859165,132.439646695,132.439646695,132.439646695,3.2813231332738213,0.7859602733409999,0.7859602733409999,0.7859602733409999,0.05185602159301933,2.2123951764176786,0.722844331522,4.61147595065,1.2237267477988742,0.888502384699,0.888502384699,0.888502384699,0.09803539714705657,38.2672183468,38.2672183468,38.2672183468,0.14104241856180497,996.045775,996.02075,996.0708,0.035390694398345676,nan,nan,nan,nan,84.20315875306484,84.20315875306484,84.20315875306484,0.8537887709362416,nan,nan,nan,nan,nan,nan,nan,nan,nan,nan,nan,nan,Walking,U14
10,,,11.788449179912272,4.06377561465,22.2873717157,4.117246153323796,9.80661976377,9.80661976377,9.80661976377,5.373007444046847e-06,4.82868490406,4.00002927181,5.6573405363100004,1.1718960336648023,292.26523888133335,276.18725690599996,308.800119212,16.311231223542254,2.668713459453811,0.5905168209489999,5.501470223609999,1.3567055722413404,132.439646695,132.439646695,132.439646695,3.2813231332738213,0.7859602733409999,0.7859602733409999,0.7859602733409999,0.05185602159301933,2.014885897256607,0.287254790993,5.16211213416,1.3142011155463005,0.888502384699,0.888502384699,0.888502384699,0.09803539714705657,39.9652348923,39.9652348923,39.9652348923,0.14104241856180497,996.045775,996.02075,996.0708,0.035390694398345676,nan,nan,nan,nan,84.20315875306484,84.20315875306484,84.20315875306484,0.8537887709362416,nan,nan,nan,nan,nan,nan,nan,nan,nan,nan,nan,nan,Walking,U14
11,,,10.243927563923599,3.9410272804300006,19.4328869606,4.439118505206535,9.806631554520001,9.806631554520001,9.806631554520001,5.373007444046847e-06,5.587049128805,2.1376565632299998,9.03644169438,4.878177748185092,265.855024382,265.855024382,265.855024382,16.311231223542254,2.5880301751065513,0.785485264375,6.387784931180001,1.3024589297224114,132.439646695,132.439646695,132.439646695,3.2813231332738213,0.7910563970213333,0.767930645248,0.8331878899140001,0.03654504948650207,2.165935607038871,0.412868993313,4.88315147764,1.1812477751532287,0.7654979358695,0.63397687978,0.8970189919589999,0.18599886125940343,39.9652348923,39.9652348923,39.9652348923,0.14104241856180497,996.045775,996.02075,996.0708,0.035390694398345676,nan,nan,nan,nan,84.20315875306484,84.20315875306484,84.20315875306484,0.8537887709362416,nan,nan,nan,nan,nan,nan,nan,nan,nan,nan,nan,nan,Walking,U14
12,,,11.6450886210324,3.96416496535,27.5338730576,5.434600489670008,9.80663390607,9.80663390607,9.80663390607,5.373007444046847e-06,3.2991151388200004,3.2991151388200004,3.2991151388200004,4.878177748185092,284.38724410133335,276.126584396,290.134402739,7.334371779197787,2.166079805174743,0.689135055814,4.06200372274,1.0173963657454415,132.439646695,132.439646695,132.439646695,3.2813231332738213,0.6165049900840001,0.6165049900840001,0.6165049900840001,0.03654504948650207,1.996127992752917,0.46746320096999994,3.6586625459199995,0.9748588599665228,0.7336159199180001,0.7070915620460001,0.76014027779,0.03751110663581993,39.9652348923,39.9652348923,39.9652348923,0.14104241856180497,996.045775,996.02075,996.0708,0.035390694398345676,nan,nan,nan,nan,84.20315875306484,84.20315875306484,84.20315875306484,0.8537887709362416,nan,nan,nan,nan,nan,nan,nan,nan,nan,nan,nan,nan,Walking,U14
13,,,10.602173306122667,5.1821450034300005,16.7268492819,3.8397927242898455,9.80663237744,9.80663237744,9.80663237744,5.373007444046847e-06,4.255548174527143,2.0166972929900004,8.15451069537,2.6960785788391908,284.38724410133335,276.126584396,290.134402739,7.334371779197787,2.099655217946324,0.581663062779,5.287478241840001,1.1437087953911917,134.838815076,134.36502528100002,135.312604871,0.6700399538029509,0.8687494681715,0.853715932778,0.883783003565,0.021260629643903642,2.167922160107033,0.6061088318860001,4.85659685166,1.1948336040801786,0.7336159199180001,0.7070915620460001,0.76014027779,0.03751110663581993,35.3558096669,35.3143030513,35.3973162825,0.05869921870972592,996.045775,996.02075,996.0708,0.035390694398345676,nan,nan,nan,nan,84.20315875306484,84.20315875306484,84.20315875306484,0.8537887709362416,nan,nan,nan,nan,nan,nan,nan,nan,nan,nan,nan,nan,Walking,U14
14,,,12.085079502430526,4.884191109740001,23.9694690237,4.674864257532913,9.80663237744,9.80663237744,9.80663237744,5.373007444046847e-06,7.0523183545375,2.18044931325,17.8959308883,7.318639611494573,260.423128779,260.423128779,260.423128779,7.334371779197787,1.9191395385222423,0.815301717636,4.04885987445,0.8999472190722987,134.838815076,134.36502528100002,135.312604871,0.6700399538029509,0.850181321778,0.850181321778,0.850181321778,0.021260629643903642,1.934225494843147,0.400052844501,4.33820113433,1.0216762601680718,0.7228824781100001,0.7228824781100001,0.7228824781100001,0.03751110663581993,38.63227329425,38.2482679346,39.016278653899995,0.5430655876409839,996.045775,996.02075,996.0708,0.035390694398345676,nan,nan,nan,nan,84.20315875306484,84.20315875306484,84.20315875306484,0.8537887709362416,nan,nan,nan,nan,nan,nan,nan,nan,nan,nan,nan,nan,Walking,U14
15,,,9.952072400418,5.20212554943,15.771447251300001,2.4150279587348606,9.80663470596,9.80663470596,9.80663470596,5.373007444046847e-06,1.8569280306799998,1.8569280306799998,1.8569280306799998,7.318639611494573,307.248847426,307.248847426,307.248847426,7.334371779197787,1.725723690712903,0.7756757037540001,4.663688877159999,0.892153917528061,131.98936228374998,131.326920317,132.642489496,0.7243323917964305,0.8798508041140001,0.8798508041140001,0.8798508041140001,0.021260629643903642,2.6229354198427064,0.623581805062,5.13264465464,1.286185383106822,0.7235522862249999,0.717318900472,0.7297856719779999,0.008815338671395794,38.63227329425,38.2482679346,39.016278653899995,0.5430655876409839,996.045775,996.02075,996.0708,0.035390694398345676,nan,nan,nan,nan,84.20315875306484,84.20315875306484,84.20315875306484,0.8537887709362416,nan,nan,nan,nan,nan,nan,nan,nan,nan,nan,nan,nan,Walking,U14
16,,,10.54236963621258,4.792589334330001,25.366567418600003,5.074375186704354,9.80663519777,9.80663184334,9.8066385522,4.743880400646528e-06,3.254569223455,2.12657751146,4.38256093545,1.5952211773477751,307.248847426,307.248847426,307.248847426,7.334371779197787,2.4269742060687927,0.656443422409,5.276469435869999,1.2518698087486015,135.22302554866667,133.659047101,136.38771938899998,1.4074744267889099,0.8640406760770001,0.8640406760770001,0.8640406760770001,0.021260629643903642,2.045414501838852,0.5801457918190001,3.66458091681,0.9159246909471576,0.7791640954250001,0.7791640954250001,0.7791640954250001,0.008815338671395794,38.63227329425,38.2482679346,39.016278653899995,0.5430655876409839,996.045775,996.02075,996.0708,0.035390694398345676,nan,nan,nan,nan,84.20315875306484,84.20315875306484,84.20315875306484,0.8537887709362416,nan,nan,nan,nan,nan,nan,nan,nan,nan,nan,nan,nan,Walking,U14
17,,,11.514790746770554,5.111467108769999,20.568310263900003,4.37049327720563,9.80663957154,9.80663957154,9.80663957154,4.743880400646528e-06,5.063615410783333,3.5672564057300002,6.96528366882,1.7348930840519132,307.248847426,307.248847426,307.248847426,7.334371779197787,2.0892138091905186,0.8916665937039999,3.8947151796,0.9763188270325442,132.436777369,132.436777369,132.436777369,1.4074744267889099,0.8441798839110001,0.8441798839110001,0.8441798839110001,0.021260629643903642,2.3345807920580257,0.6699573829609999,5.1235325118,1.2873159380715273,0.9079299252230001,0.9079299252230001,0.9079299252230001,0.008815338671395794,42.8165855715,42.8165855715,42.8165855715,0.5430655876409839,996.045775,996.02075,996.0708,0.035390694398345676,nan,nan,nan,nan,88.4712849553134,88.24416931763359,88.6984005929932,0.32119001503378963,nan,nan,nan,nan,nan,nan,nan,nan,nan,nan,nan,nan,Walking,U14
18,,,13.011623794311113,4.237142782699999,27.6288302025,6.140807377387409,9.80662865622,9.80662865622,9.80662865622,4.743880400646528e-06,5.492358974365,5.02116508616,5.963552862569999,0.6663687872068226,303.6408038105,290.033781077,317.247826544,19.243236093234728,2.0420493661048824,0.861918500024,5.07372971755,1.098248323237603,131.410999852,131.410999852,131.410999852,1.4074744267889099,0.724942867762,0.724942867762,0.724942867762,0.021260629643903642,2.2701913332733663,0.855680676471,4.43452616847,1.1458172217378302,0.73810934784475,0.638419018576,0.8364612981630001,0.08166535371423214,37.478126954299995,37.478126954299995,37.478126954299995,0.5430655876409839,996.045775,996.02075,996.0708,0.035390694398345676,nan,nan,nan,nan,85.03616997248093,85.03616997248093,85.03616997248093,0.32119001503378963,nan,nan,nan,nan,nan,nan,nan,nan,nan,nan,nan,nan,Walking,U14
19,,,9.960561602295833,3.61494435905,21.5558366636,5.410369429330182,9.80662865622,9.80662865622,9.80662865622,4.743880400646528e-06,9.424244129380002,9.424244129380002,9.424244129380002,0.6663687872068226,303.6408038105,290.033781077,317.247826544,19.243236093234728,2.2023333069069544,0.8513392616359999,4.7960132067500005,1.0531334299402826,133.492584064,133.492584064,133.492584064,1.4074744267889099,0.683921079412,0.683921079412,0.683921079412,0.021260629643903642,2.288804118793088,0.22155132242699999,4.4246110106800005,1.2167448174127458,0.73810934784475,0.638419018576,0.8364612981630001,0.08166535371423214,32.5147658764,32.5147658764,32.5147658764,0.5430655876409839,996.045775,996.02075,996.0708,0.035390694398345676,nan,nan,nan,nan,85.03616997248093,85.03616997248093,85.03616997248093,0.32119001503378963,nan,nan,nan,nan,nan,nan,nan,nan,nan,nan,nan,nan,Walking,U14
20,,,11.032469461038,5.63976558571,16.836819481,3.1174070228465673,9.80662815547,9.80662815547,9.80662815547,4.743880400646528e-06,4.71168690639,4.71168690639,4.71168690639,0.6663687872068226,298.23816591,298.23816591,298.23816591,19.243236093234728,2.0030838881510835,0.7991284732230001,4.35681880054,0.9563784705325646,134.246977702,134.246977702,134.246977702,1.4074744267889099,0.683921079412,0.683921079412,0.683921079412,0.021260629643903642,2.422404385342469,0.816588578887,4.923222524090001,1.2351942757827576,0.638394905461,0.638394905461,0.638394905461,0.08166535371423214,32.5147658764,32.5147658764,32.5147658764,0.5430655876409839,996.045775,996.02075,996.0708,0.035390694398345676,nan,nan,nan,nan,85.13435491954974,85.13435491954974,85.13435491954974,0.32119001503378963,nan,nan,nan,nan,nan,nan,nan,nan,nan,nan,nan,nan,Walking,U14
21,,,10.432104017611875,4.75041063427,16.6773034713,3.487621310367366,9.80662815547,9.80662815547,9.80662815547,4.743880400646528e-06,12.369186768075002,8.425787347250001,16.312586188900003,5.576808942784925,320.184173646,320.184173646,320.184173646,19.243236093234728,2.2686921797441055,0.323112484072,5.40747759916,1.2543202661162984,134.246977702,134.246977702,134.246977702,1.4074744267889099,0.5073705293140001,0.5073705293140001,0.5073705293140001,0.021260629643903642,2.3252502089897273,0.189383986564,5.1276494367300005,1.252873208124124,0.638394905461,0.638394905461,0.638394905461,0.08166535371423214,36.522107087500004,36.3330436325,36.7111705425,0.2673761022101146,996.045775,996.02075,996.0708,0.035390694398345676,nan,nan,nan,nan,85.13435491954974,85.13435491954974,85.13435491954974,0.32119001503378963,nan,nan,nan,nan,nan,nan,nan,nan,nan,nan,nan,nan,Walking,U14
22,,,10.582969899523333,6.8064682346700005,16.1184759119,2.8540972647757767,9.806635857889999,9.806635857889999,9.806635857889999,4.743880400646528e-06,2.19231931885,1.43852187865,2.9461167590499997,1.0660305632129619,320.168961452,320.168961452,320.168961452,19.243236093234728,2.1071772991191215,0.6315554882509999,5.095009006630001,1.0676926658493913,133.83034044425,130.586255019,136.316763459,2.601916354568203,0.5073705293140001,0.5073705293140001,0.5073705293140001,0.021260629643903642,2.5322159279903937,0.433550827241,5.05306659042,1.2939782503692097,0.638394905461,0.638394905461,0.638394905461,0.08166535371423214,35.3049578331,35.3049578331,35.3049578331,0.2673761022101146,996.045775,996.02075,996.0708,0.035390694398345676,0.0,0.0,0.0,nan,83.50965641549543,83.50965641549543,83.50965641549543,0.32119001503378963,nan,nan,nan,nan,nan,nan,nan,nan,nan,nan,nan,nan,Walking,U14
23,,,11.155835097686841,4.91708447259,22.8865759709,3.906987508588322,9.80663457124,9.80663457124,9.80663457124,4.743880400646528e-06,6.237282006384874,0.746265117418,20.39664241,4.835023949118901,289.61809766825,238.396917494,337.647552035,52.8574776143524,2.2447409047609996,0.504570278179,4.69739810716,1.2643055946837964,133.83034044425,130.586255019,136.316763459,2.601916354568203,0.9982154671089999,0.9982154671089999,0.9982154671089999,0.021260629643903642,2.387717683869697,1.19829531367,4.9587406754800005,1.0184049097576882,0.675660412212,0.675660412212,0.675660412212,0.08166535371423214,38.211649406999996,38.211649406999996,38.211649406999996,0.2673761022101146,996.0891,996.0891,996.0891,0.035390694398345676,0.0,0.0,0.0,nan,85.36069533999928,83.50617649171569,86.45513320155517,1.6147379815052119,nan,nan,nan,nan,nan,nan,nan,nan,nan,nan,nan,nan,Walking,U14
24,,,9.494194689994501,4.5830280956900005,16.0003234052,2.7381275189730636,9.806628427525,9.806625865360001,9.80663098969,3.6234484910134184e-06,5.0191987033466665,3.00656634981,6.73083991415,1.3965051168958662,274.06856703750003,249.533016655,298.60411742,34.69850811121989,2.128686865932393,0.479617531015,7.4242107503799994,1.4972145193843314,142.082440867,142.082440867,142.082440867,2.601916354568203,0.96807855125,0.96807855125,0.96807855125,0.021260629643903642,2.0840211310361725,0.38643007783100003,4.2891118959300005,1.0637592650615506,0.831150299118,0.806260245379,0.856040352857,0.03519985156588896,39.12068865813333,38.2958230177,40.5267812687,1.2237901260159034,996.0891,996.0891,996.0891,0.035390694398345676,0.0,0.0,0.0,nan,85.36069533999928,83.50617649171569,86.45513320155517,1.6147379815052119,nan,nan,nan,nan,nan,nan,nan,nan,nan,nan,nan,nan,Walking,U14
25,,,11.375006364277855,5.797878720419999,22.9126741318,4.069526199179502,9.806622204123332,9.80661560412,9.806634102610001,1.0324920209027206e-05,5.581933028556667,4.01805848576,7.612155259710001,1.8418721535318774,270.799736317,270.799736317,270.799736317,34.69850811121989,2.024852223459692,0.9060579134829999,4.07797788653,0.8495950926496578,134.93346476874999,133.16328322799998,137.527779012,1.8539477567754281,0.8182911227580001,0.8182911227580001,0.8182911227580001,0.021260629643903642,2.5116374163426665,1.01770664323,7.23310336642,1.3803316798284586,0.831150299118,0.806260245379,0.856040352857,0.03519985156588896,39.12068865813333,38.2958230177,40.5267812687,1.2237901260159034,996.0891,996.0891,996.0891,0.035390694398345676,0.0,0.0,0.0,nan,86.55085663865043,86.55085663865043,86.55085663865043,1.6147379815052119,nan,nan,nan,nan,nan,nan,nan,nan,nan,nan,nan,nan,Walking,U14
26,,,12.123017651180666,4.082205532250001,24.2273216369,6.285999793632342,9.80662664335,9.80661742766,9.80663585904,1.3032953784010001e-05,3.52739251574,3.52739251574,3.52739251574,1.8418721535318774,278.566781038,278.566781038,278.566781038,34.69850811121989,2.232937598458293,0.8329487476890001,5.9481133612,1.213304376034046,134.93346476874999,133.16328322799998,137.527779012,1.8539477567754281,0.8326836404060001,0.8326836404060001,0.8326836404060001,0.021260629643903642,2.589297050901867,0.9051505886460001,5.08595535598,1.227658954965474,0.813088925313,0.762707151182,0.863470699444,0.07125058827247813,37.9847497007,37.7757858952,38.2636903604,0.25136678755022435,996.0891,996.0891,996.0891,0.035390694398345676,0.0,0.0,0.0,nan,86.55085663865043,86.55085663865043,86.55085663865043,1.6147379815052119,nan,nan,nan,nan,nan,nan,nan,nan,nan,nan,nan,nan,Walking,U14
27,,,9.784679039185292,4.81080304434,16.1684263944,3.056200395984102,9.80662664335,9.80661742766,9.80663585904,1.3032953784010001e-05,9.472195827476666,4.36819179833,12.2646728833,4.426733682143443,278.566781038,278.566781038,278.566781038,34.69850811121989,2.5087411190147852,0.786032388914,6.62437493758,1.4241632364127605,124.50337344799999,124.50337344799999,124.50337344799999,1.8539477567754281,0.8326836404060001,0.8326836404060001,0.8326836404060001,0.021260629643903642,2.1875271657657582,0.537118362518,5.05307969398,1.1902791696712174,0.850192468336,0.850192468336,0.850192468336,0.07125058827247813,37.9847497007,37.7757858952,38.2636903604,0.25136678755022435,996.1423300000001,996.1423300000001,996.1423300000001,0.035390694398345676,0.0,0.0,0.0,nan,89.56411272023766,89.56411272023766,89.56411272023766,1.6147379815052119,nan,nan,nan,nan,nan,nan,nan,nan,nan,nan,nan,nan,Walking,U14
28,,,9.505209726064999,3.7902799238599996,16.617518115,3.175536924168714,9.80663198072,9.80663198072,9.80663198072,1.3032953784010001e-05,3.2994576520399996,2.12412165571,4.5919025932099995,1.1311195517024042,289.91666201099997,289.91666201099997,289.91666201099997,34.69850811121989,2.0398600737602335,0.5875532977179999,5.20935549862,1.1555266151580827,135.256571005,135.256571005,135.256571005,1.8539477567754281,0.826512749615,0.826512749615,0.826512749615,0.021260629643903642,2.007250733651517,0.375463040116,5.43783202084,1.200907452907358,0.992612103714,0.992612103714,0.992612103714,0.07125058827247813,37.913841080400005,37.6172832618,38.3071802878,0.3549851469209029,996.1423300000001,996.1423300000001,996.1423300000001,0.035390694398345676,0.0,0.0,0.0,nan,81.92176618769672,81.52333878689866,82.32019358849477,0.5634614338296716,nan,nan,nan,nan,nan,nan,nan,nan,nan,nan,nan,nan,Walking,U14
29,,,11.56533005465125,3.85859874388,25.6563740768,6.464106999566972,9.806631726423333,9.80662285586,9.80663664916,7.697582916563683e-06,5.632469644388928,0.843595675055,11.047425441600002,2.919632316284043,289.83844569949997,280.593418676,299.083472723,13.074442601139467,2.764991936330769,0.87403614131,4.87235018271,1.4503394938268412,134.39296394759998,133.220576016,135.67641982,0.9643421138861107,0.92902017295175,0.7890009317710001,0.995780967561,0.0973705057287057,2.5182852022856945,0.484529776175,6.49959016523,1.2620117903554564,0.8234846195804999,0.7889760124519999,0.857993226709,0.04880254021972966,37.913841080400005,37.6172832618,38.3071802878,0.3549851469209029,996.1423300000001,996.1423300000001,996.1423300000001,0.035390694398345676,0.0,0.0,0.0,nan,81.92176618769672,81.52333878689866,82.32019358849477,0.5634614338296716,nan,nan,nan,nan,nan,nan,nan,nan,nan,nan,nan,nan,Walking,U14
30,,,10.086422250072856,4.53456020137,18.5747678259,3.6491358476197613,9.806642472336668,9.80663900195,9.80664439707,3.0114138081246796e-06,8.51418248614,3.11335389305,17.9495690444,5.22769135610211,256.4818237755,250.069313335,262.894334216,9.06865923381417,2.3718287766979635,0.5227564578580001,5.64185352329,1.38361526770528,133.220456387,133.220456387,133.220456387,0.9643421138861107,0.81608492412,0.81608492412,0.81608492412,0.0973705057287057,1.9587080168895,0.714583908846,3.8508397150199998,0.9358994854114141,0.8735869451905001,0.789878007229,0.957295883152,0.11838231535700129,37.913841080400005,37.6172832618,38.3071802878,0.3549851469209029,996.1423300000001,996.1423300000001,996.1423300000001,0.035390694398345676,0.0,0.0,0.0,nan,81.92176618769672,81.52333878689866,82.32019358849477,0.5634614338296716,nan,nan,nan,nan,nan,nan,nan,nan,nan,nan,nan,nan,Walking,U14
31,,,11.317665553385334,4.87938938319,22.547511243000002,4.402459533367062,9.806642472336668,9.80663900195,9.80664439707,3.0114138081246796e-06,5.196940269195,2.22098795462,10.419907222400001,3.644695582900571,256.4818237755,250.069313335,262.894334216,9.06865923381417,2.36020797765159,0.7071582589830001,5.084060904919999,1.1403356671884761,133.220456387,133.220456387,133.220456387,0.9643421138861107,0.838849712023,0.8045189361789999,0.873180487867,0.04855104880537546,1.9976121458578517,0.7945541832999999,4.1126058712999995,1.040922472610736,0.7972562880559999,0.787728947999,0.806783628113,0.013473693521949872,37.913841080400005,37.6172832618,38.3071802878,0.3549851469209029,996.1423300000001,996.1423300000001,996.1423300000001,0.035390694398345676,0.0,0.0,0.0,nan,88.78875505490342,87.82258520835803,89.75492490144882,1.3663705005404239,nan,nan,nan,nan,nan,nan,nan,nan,nan,nan,nan,nan,Walking,U14
32,,,11.956580961898462,6.519172886880001,35.7659693139,7.406939358673978,9.806629252685,9.806620114700001,9.806638390669999,1.2923062318217821e-05,4.116889932602501,1.71633224787,8.64439209496,3.1967735486831956,302.49549144599996,294.203465579,310.78751731299997,11.726695440659892,1.4398158995166757,0.265385627637,4.17622616957,1.005269667629941,129.619446427,129.619446427,129.619446427,0.9643421138861107,0.776305386141,0.776305386141,0.776305386141,0.04855104880537546,1.7606317363193549,0.28300405083700003,4.32497190424,0.9767354172798424,0.817409525728,0.817409525728,0.817409525728,0.013473693521949872,33.341934442033335,31.6651227694,34.5399768384,1.4960319162484963,996.1423300000001,996.1423300000001,996.1423300000001,0.035390694398345676,0.0,0.0,0.0,nan,88.78875505490342,87.82258520835803,89.75492490144882,1.3663705005404239,nan,nan,nan,nan,nan,nan,nan,nan,nan,nan,nan,nan,Walking,U14
33,,,9.708139968561875,9.49171782494,10.4645817272,0.16034854203095075,9.806632040115002,9.8066271907,9.806636889530001,6.858108462900565e-06,0.6261125584114999,0.36633130738499997,0.885893809438,0.36738616845192584,302.49549144599996,294.203465579,310.78751731299997,11.726695440659892,0.2601836075114682,0.054746612260699996,0.972906394725,0.246191222544581,118.7491302475,118.577443049,118.920817446,0.24280236460454535,0.776305386141,0.776305386141,0.776305386141,0.04855104880537546,0.17605530337050002,0.0189663574239,0.587327128719,0.14331009123593097,0.705031489385,0.705031489385,0.705031489385,0.013473693521949872,29.663919143233333,29.6265084004,29.725073591199997,0.05340034512485893,996.1423300000001,996.1423300000001,996.1423300000001,0.035390694398345676,0.0,0.0,0.0,nan,80.70619280313602,80.70619280313602,80.70619280313602,1.3663705005404239,nan,nan,nan,nan,nan,nan,nan,nan,nan,nan,nan,nan,Walking,U14
34,,,9.8587068736924,9.527517156970001,11.707325163599998,0.42625942641184394,9.806640842036666,9.80663703303,9.80664500666,3.998692443050659e-06,0.2574627266903333,0.17829934895799998,0.298248840358,0.06856807507577076,302.49549144599996,294.203465579,310.78751731299997,11.726695440659892,0.13110945585109618,0.0329867228148,0.37603505453100006,0.08268589057326396,117.4406454565,116.313247908,118.568043005,1.5943809032748884,0.776305386141,0.776305386141,0.776305386141,0.04855104880537546,0.11756177540603237,0.019278581699900002,0.455523640622,0.09499415062948753,0.682049928992,0.679308305846,0.684791552138,0.003877240635989215,30.477766346099997,29.3819678,31.573564892199997,1.5496931655233357,996.1423300000001,996.1423300000001,996.1423300000001,0.035390694398345676,0.0,0.0,0.0,nan,80.70619280313602,80.70619280313602,80.70619280313602,1.3663705005404239,nan,nan,nan,nan,nan,nan,nan,nan,nan,nan,nan,nan,Walking,U14
35,,,10.030793445602608,8.464022595780001,14.3395020826,1.1664384099358627,9.806640842036666,9.80663703303,9.80664500666,3.998692443050659e-06,0.2574627266903333,0.17829934895799998,0.298248840358,0.06856807507577076,302.49549144599996,294.203465579,310.78751731299997,11.726695440659892,0.38486435570884064,0.024127244610099997,2.02510365375,0.43793760393160347,109.20376156450001,108.88209229200001,109.525430837,0.45490904776818103,0.6871949760555001,0.683084873994,0.691305078117,0.0058125620781109616,0.03495446202687,0.00559867249509,0.0697778197874,0.02051045332807843,0.6645814190685,0.649359012932,0.679803825205,0.021527733210189727,38.726348312199995,38.726348312199995,38.726348312199995,1.5496931655233357,996.1423300000001,996.1423300000001,996.1423300000001,0.035390694398345676,0.0,0.0,0.0,nan,61.81221415656814,61.81221415656814,61.81221415656814,1.3663705005404239,nan,nan,nan,nan,nan,nan,nan,nan,nan,nan,nan,nan,Walking,U14
36,,,10.74094975248111,6.317077905930001,15.402288928599999,2.4684450972917675,9.806639201989999,9.806639201989999,9.806639201989999,3.998692443050659e-06,0.87694285091975,0.37575578228,1.58982670074,0.5161097762927236,302.49549144599996,294.203465579,310.78751731299997,11.726695440659892,0.9075836102098432,0.052306618788999996,2.7388150756,0.5762319234861245,109.20376156450001,108.88209229200001,109.525430837,0.45490904776818103,0.6871949760555001,0.683084873994,0.691305078117,0.0058125620781109616,0.91845771883835,0.152368946614,3.2718621740400002,0.7914839842425242,0.6645814190685,0.649359012932,0.679803825205,0.021527733210189727,38.726348312199995,38.726348312199995,38.726348312199995,1.5496931655233357,996.1423300000001,996.1423300000001,996.1423300000001,0.035390694398345676,0.0,0.0,0.0,nan,83.55745100779554,79.71571235545208,86.29671846009148,3.4262213001389656,nan,nan,nan,nan,nan,nan,nan,nan,nan,nan,nan,nan,Walking,U14
37,,,9.931855943768946,6.08253874229,11.8715035949,1.3051259515258304,9.806639201989999,9.806639201989999,9.806639201989999,3.998692443050659e-06,0.8340709228315,0.769807492008,0.898334353655,0.0908822154352189,293.358386105,293.358386105,293.358386105,11.726695440659892,1.6589531423712063,0.0952479761198,4.070296399619999,1.0504448551516323,109.20376156450001,108.88209229200001,109.525430837,0.45490904776818103,0.7529803362755001,0.712342504541,0.8286507257250001,0.0516400624232396,1.1710274580104139,0.322154834624,3.2034790816400003,0.6555720856898307,0.6645814190685,0.649359012932,0.679803825205,0.021527733210189727,47.1288664684,47.1288664684,47.1288664684,1.5496931655233357,996.2107,996.2107,996.2107,0.035390694398345676,0.0,0.0,0.0,nan,83.55745100779554,79.71571235545208,86.29671846009148,3.4262213001389656,nan,nan,nan,nan,nan,nan,nan,nan,nan,nan,nan,nan,Walking,U14
38,,,10.744214008498668,7.78745724982,20.07355162,3.4652680160359566,9.806634276855,9.80662656158,9.80664199213,1.0911046542732975e-05,1.630619112848,0.24038576874099998,4.12710661953,1.5952080487389388,293.358386105,293.358386105,293.358386105,11.726695440659892,0.5965245509439189,0.092287163437,1.8523812092200003,0.438740650338153,142.19676705799998,142.057312444,142.336221672,0.1972186064543073,0.999612726218,0.999612726218,0.999612726218,0.0516400624232396,0.8540433044147306,0.161795132371,3.2613762734500003,0.6906386402768899,0.9806086300836667,0.971951592025,0.9950659201000001,0.012601596433349072,47.1288664684,47.1288664684,47.1288664684,1.5496931655233357,996.2107,996.2107,996.2107,0.035390694398345676,0.0,0.0,0.0,nan,83.55745100779554,79.71571235545208,86.29671846009148,3.4262213001389656,nan,nan,nan,nan,nan,nan,nan,nan,nan,nan,nan,nan,Walking,U14
39,,,9.6883305169828,8.2546424523,10.2865213792,0.37420626719924305,9.806634276855,9.80662656158,9.80664199213,1.0911046542732975e-05,0.950393373901,0.473332230232,1.42745451757,0.6746663394579193,293.358386105,293.358386105,293.358386105,11.726695440659892,0.3571797253969806,0.028364152376299998,1.41867162991,0.2967412595103981,142.19676705799998,142.057312444,142.336221672,0.1972186064543073,0.976889708444,0.976889708444,0.976889708444,0.0516400624232396,0.4076292747054324,0.0330996528887,1.25560855315,0.3062105877387052,0.9806086300836667,0.971951592025,0.9950659201000001,0.012601596433349072,47.1288664684,47.1288664684,47.1288664684,1.5496931655233357,996.2107,996.2107,996.2107,0.035390694398345676,0.0,0.0,0.0,nan,83.55745100779554,79.71571235545208,86.29671846009148,3.4262213001389656,nan,nan,nan,nan,nan,nan,nan,nan,nan,nan,nan,nan,Walking,U14
40,,,9.755599866550385,8.66892065349,10.811937758800001,0.5317062585342278,9.806634276855,9.80662656158,9.80664199213,1.0911046542732975e-05,1.1666352973095,0.256798850329,2.07647174429,1.2867030428611725,158.94326013399998,158.94326013399998,158.94326013399998,11.726695440659892,0.9803886533485172,0.051602747401,3.83105421649,1.0499756427836209,151.19713352674998,150.472090633,152.402365474,0.8540828337546947,0.976889708444,0.976889708444,0.976889708444,0.0516400624232396,0.9796578248348888,0.13238170051200002,2.8039874135900003,0.8703108941924084,0.9806086300836667,0.971951592025,0.9950659201000001,0.012601596433349072,33.48820677795,28.045320547600003,38.931093008299996,7.697403525414734,996.2107,996.2107,996.2107,0.035390694398345676,0.0,0.0,0.0,nan,83.55745100779554,79.71571235545208,86.29671846009148,3.4262213001389656,nan,nan,nan,nan,nan,nan,nan,nan,nan,nan,nan,nan,Walking,U14
41,,,11.521052250864738,6.0459878400800005,28.2855986209,5.195884578151576,9.80662855193,9.80662725328,9.80662985058,1.8365684427492241e-06,6.996206131255001,2.84183985551,11.150572407,5.875161130223984,299.228732245,299.228732245,299.228732245,11.726695440659892,2.205650615834323,0.7179504106899999,6.08865149954,1.4757213159265212,151.19713352674998,150.472090633,152.402365474,0.8540828337546947,0.8138471463530002,0.734726915412,0.907306905098,0.08904823195487682,2.0615011900009708,0.58645482471,5.0643214871,1.243756790527286,0.991166219505,0.985771823537,0.996560615473,0.007628827938756354,43.1223839786,43.1223839786,43.1223839786,7.697403525414734,996.2107,996.2107,996.2107,0.035390694398345676,0.0,0.0,0.0,nan,85.73047663631009,85.73047663631009,85.73047663631009,3.4262213001389656,nan,nan,nan,nan,nan,nan,nan,nan,nan,nan,nan,nan,Walking,U14
42,,,11.60095804637923,5.24249147615,22.869942066900002,4.799737646317151,9.80662855193,9.80662725328,9.80662985058,1.8365684427492241e-06,4.692533580549999,3.0042371336500002,7.237809750499999,2.243121699735589,299.228732245,299.228732245,299.228732245,11.726695440659892,2.109033491971159,0.5954529388,6.4558575413,1.231557327112567,124.22597535266668,123.826128099,124.529233635,0.36136743174487057,0.785667496336,0.785667496336,0.785667496336,0.08904823195487682,2.2535447385394707,0.6364277568460001,4.21539049091,1.0794632102560162,0.88728165315,0.88728165315,0.88728165315,0.007628827938756354,43.1223839786,43.1223839786,43.1223839786,7.697403525414734,996.2107,996.2107,996.2107,0.035390694398345676,0.0,0.0,0.0,nan,88.82761769833023,88.82761769833023,88.82761769833023,3.4262213001389656,nan,nan,nan,nan,nan,nan,nan,nan,nan,nan,nan,nan,Walking,U14
43,,,11.252140649109046,4.01211523971,19.0566628447,4.2069130321857475,9.80663438187,9.80663438187,9.80663438187,1.8365684427492241e-06,4.347976204609999,4.347976204609999,4.347976204609999,2.243121699735589,299.228732245,299.228732245,299.228732245,11.726695440659892,2.2921224905849,0.650654938338,4.938684338480001,1.0833777905308972,125.89142533200001,125.89142533200001,125.89142533200001,0.36136743174487057,0.786283413308,0.786283413308,0.786283413308,0.08904823195487682,2.2718700535668077,0.764969143496,5.29096332974,1.1543917979040597,0.88728165315,0.88728165315,0.88728165315,0.007628827938756354,43.4760853804,43.4760853804,43.4760853804,7.697403525414734,996.2107,996.2107,996.2107,0.035390694398345676,0.0,0.0,0.0,nan,83.82902028929793,83.82902028929793,83.82902028929793,3.4262213001389656,nan,nan,nan,nan,nan,nan,nan,nan,nan,nan,nan,nan,Walking,U14
44,,,10.85216351081,4.570008209519999,20.5363888158,3.526075146830001,9.80662233048,9.80662233048,9.80662233048,1.8365684427492241e-06,4.217829857588,2.70625027075,6.261813468080001,1.3409924507234054,299.228732245,299.228732245,299.228732245,11.726695440659892,2.4531789272582003,0.983623534098,5.62202681645,1.1157602644581495,125.89142533200001,125.89142533200001,125.89142533200001,0.36136743174487057,0.706411880137,0.706411880137,0.706411880137,0.08904823195487682,2.4059364574150526,0.839819511195,5.21844293924,1.261411240870279,0.920141938928,0.920141938928,0.920141938928,0.007628827938756354,48.5116543433,47.0686754336,51.010097273,2.172373069286383,996.2107,996.2107,996.2107,0.035390694398345676,0.0,0.0,0.0,nan,84.23842168617021,84.23842168617021,84.23842168617021,3.4262213001389656,nan,nan,nan,nan,nan,nan,nan,nan,nan,nan,nan,nan,Walking,U14
45,,,12.509824273711999,5.33668015047,25.6522510283,4.571133612095231,9.80664877267,9.80664877267,9.80664877267,1.8365684427492241e-06,5.306025248545,1.39930060477,11.5455001919,3.2413333789325964,148.37241181550002,104.664076612,357.855730079,75.58126468259026,2.3041460272411536,0.2703035642,6.295967635909999,1.508224453579772,163.987956875,163.987956875,163.987956875,0.36136743174487057,0.706411880137,0.706411880137,0.706411880137,0.08904823195487682,2.5301542408469415,0.962886438909,8.225464779520001,1.7344239051692207,0.920141938928,0.920141938928,0.920141938928,0.007628827938756354,44.1898113533,43.421308681300005,44.9583140253,1.0868269014623577,996.2107,996.2107,996.2107,0.035390694398345676,0.0,0.0,0.0,nan,73.02168178486023,73.02168178486023,73.02168178486023,3.4262213001389656,nan,nan,nan,nan,nan,nan,nan,nan,nan,nan,nan,nan,Walking,U14
46,,,10.236106442084763,8.68048386815,11.8870698599,0.8610043499503377,9.806650380495,9.80664991313,9.80665084786,6.609539216268567e-07,1.1094581565498236,0.145191565166,2.31874100443,0.5952283264197853,119.47819717322258,94.7758072558,141.844449793,11.018694453795383,0.48450822020640005,0.142754381871,1.2599738147,0.34437746946930653,182.0628828024,179.716971931,184.199918567,1.6374406870641234,0.865653058403,0.8321470735240001,0.899159043282,0.04738461823654961,0.3756906897304333,0.0785811104143,0.698514733919,0.31076574725293243,0.41984796468249996,0.416510293797,0.423185635568,0.004720179433011909,44.1898113533,43.421308681300005,44.9583140253,1.0868269014623577,996.2107,996.2107,996.2107,0.035390694398345676,0.0,0.0,0.0,nan,75.46916033204415,74.02272132185053,76.91559934223778,2.045573665361345,nan,nan,nan,nan,nan,nan,nan,nan,nan,nan,nan,nan,Walking,U14
47,,,10.46506591766889,5.06102714487,15.6263258698,2.546623915229972,9.80664966072,9.80664966072,9.80664966072,6.609539216268567e-07,2.17374451461,1.9038916610699999,2.44359736815,0.38162956532134845,102.7468027425,101.163868564,104.329736921,2.2386069835786193,0.8397162532332174,0.124897670371,2.21122619652,0.5627602638038337,177.747919223,177.747919223,177.747919223,1.6374406870641234,0.839437007256,0.839437007256,0.839437007256,0.04738461823654961,0.7753986306083637,0.290083170085,1.26195299516,0.333235211021704,0.34565681488899996,0.34565681488899996,0.34565681488899996,0.004720179433011909,37.8318667623,37.8318667623,37.8318667623,1.0868269014623577,996.2107,996.2107,996.2107,0.035390694398345676,0.0,0.0,0.0,nan,76.57835123233372,76.57835123233372,76.57835123233372,2.045573665361345,nan,nan,nan,nan,nan,nan,nan,nan,nan,nan,nan,nan,Walking,U14
48,,,9.752586880052272,7.495415839810001,13.1186799857,1.244287146083519,9.80665026795,9.80665026795,9.80665026795,6.609539216268567e-07,0.831765866292,0.831765866292,0.831765866292,0.38162956532134845,102.7468027425,101.163868564,104.329736921,2.2386069835786193,0.9050102020989019,0.132522569687,2.86980889393,0.6110794380749199,177.747919223,177.747919223,177.747919223,1.6374406870641234,0.49348070607999994,0.42130933423199995,0.565652077928,0.1020657328825134,0.6245831799899,0.31820861717300003,0.847554352881,0.18638072638029696,0.08989382357335,0.0669549435367,0.11283270361,0.032440475253479865,39.400636471999995,39.400636471999995,39.400636471999995,1.0868269014623577,996.2107,996.2107,996.2107,0.035390694398345676,0.0,0.0,0.0,nan,79.64089958142979,79.64089958142979,79.64089958142979,2.045573665361345,nan,nan,nan,nan,nan,nan,nan,nan,nan,nan,nan,nan,Walking,U14
49,,,9.57441345757625,8.57168815173,10.7350933128,0.7254980577825653,9.806650306989999,9.806650306989999,9.806650306989999,6.609539216268567e-07,1.91445118898,1.91445118898,1.91445118898,0.38162956532134845,334.65322060799997,334.65322060799997,334.65322060799997,2.2386069835786193,1.093208084213276,0.205954912377,2.8010284840499997,0.6675290886918794,177.747919223,177.747919223,177.747919223,1.6374406870641234,0.2490337498595,0.238697388264,0.259370111455,0.014617822753948502,1.0137152662935556,0.140477755619,2.59982721491,0.6834816602474993,0.08989382357335,0.0669549435367,0.11283270361,0.032440475253479865,41.281595758899996,41.281595758899996,41.281595758899996,1.0868269014623577,996.2107,996.2107,996.2107,0.035390694398345676,0.0,0.0,0.0,nan,79.64089958142979,79.64089958142979,79.64089958142979,2.045573665361345,nan,nan,nan,nan,nan,nan,nan,nan,nan,nan,nan,nan,Walking,U14
