time,activityrecognition#0,activityrecognition#1,android.sensor.accelerometer#mean,android.sensor.accelerometer#min,android.sensor.accelerometer#max,android.sensor.accelerometer#std,android.sensor.gravity#mean,android.sensor.gravity#min,android.sensor.gravity#max,android.sensor.gravity#std,android.sensor.linear_acceleration#mean,android.sensor.linear_acceleration#min,android.sensor.linear_acceleration#max,android.sensor.linear_acceleration#std,android.sensor.orientation#mean,android.sensor.orientation#min,android.sensor.orientation#max,android.sensor.orientation#std,android.sensor.gyroscope_uncalibrated#mean,android.sensor.gyroscope_uncalibrated#min,android.sensor.gyroscope_uncalibrated#max,android.sensor.gyroscope_uncalibrated#std,android.sensor.magnetic_field_uncalibrated#mean,android.sensor.magnetic_field_uncalibrated#min,android.sensor.magnetic_field_uncalibrated#max,android.sensor.magnetic_field_uncalibrated#std,android.sensor.rotation_vector#mean,android.sensor.rotation_vector#min,android.sensor.rotation_vector#max,android.sensor.rotation_vector#std,android.sensor.gyroscope#mean,android.sensor.gyroscope#min,android.sensor.gyroscope#max,android.sensor.gyroscope#std,android.sensor.game_rotation_vector#mean,android.sensor.game_rotation_vector#min,android.sensor.game_rotation_vector#max,android.sensor.game_rotation_vector#std,android.sensor.magnetic_field#mean,android.sensor.magnetic_field#min,android.sensor.magnetic_field#max,android.sensor.magnetic_field#std,android.sensor.pressure#mean,android.sensor.pressure#min,android.sensor.pressure#max,android.sensor.pressure#std,android.sensor.light#mean,android.sensor.light#min,android.sensor.light#max,android.sensor.light#std,sound#mean,sound#min,sound#max,sound#std,speed#mean,speed#min,speed#max,speed#std,android.sensor.proximity#mean,android.sensor.proximity#min,android.sensor.proximity#max,android.sensor.proximity#std,android.sensor.step_counter#mean,android.sensor.step_counter#min,android.sensor.step_counter#max,android.sensor.step_counter#std,target,user
1,,,9.84133413290923,6.6169915561599995,15.248312768499998,2.2094197761668752,9.81555617617,9.81555617617,9.81555617617,nan,1.49569765,1.49569765,1.49569765,nan,32.457093071100005,32.457093071100005,32.457093071100005,nan,nan,nan,nan,nan,nan,nan,nan,nan,nan,nan,nan,nan,nan,nan,nan,nan,nan,nan,nan,nan,42.03507070576079,36.3035201665,45.8372119571,2.314296962928366,nan,nan,nan,nan,2.0,2.0,2.0,nan,67.65834270175061,67.65834270175061,67.65834270175061,nan,nan,nan,nan,nan,nan,nan,nan,nan,nan,nan,nan,nan,Walking,U4
2,,,10.371531468987143,5.82060306966,14.3209451927,2.3423577008559473,9.81555617617,9.81555617617,9.81555617617,nan,3.6681494502099996,3.6681494502099996,3.6681494502099996,nan,32.457093071100005,32.457093071100005,32.457093071100005,nan,nan,nan,nan,nan,nan,nan,nan,nan,nan,nan,nan,nan,nan,nan,nan,nan,nan,nan,nan,nan,42.92125329283591,39.8676861631,47.262217468100005,1.6037304603412725,nan,nan,nan,nan,5.0,5.0,5.0,nan,60.256744494103444,60.256744494103444,60.256744494103444,nan,nan,nan,nan,nan,nan,nan,nan,nan,nan,nan,nan,nan,Walking,U4
3,,,9.882327306011819,6.11408425272,16.656798094000003,2.6134522094761543,9.81555617617,9.81555617617,9.81555617617,nan,3.27761151689,3.27761151689,3.27761151689,nan,32.457093071100005,32.457093071100005,32.457093071100005,nan,nan,nan,nan,nan,nan,nan,nan,nan,nan,nan,nan,nan,nan,nan,nan,nan,nan,nan,nan,nan,43.98799568566198,41.138696745,46.5255413725,1.4007710133769349,nan,nan,nan,nan,2.0,2.0,2.0,nan,60.256744494103444,60.256744494103444,60.256744494103444,nan,nan,nan,nan,nan,nan,nan,nan,nan,nan,nan,nan,nan,Walking,U4
4,,,9.5403779473275,7.27479948541,15.4676256174,2.2046124079823004,9.813476486619999,9.813476486619999,9.813476486619999,nan,3.94991182696,3.69490678072,4.2049168732,0.3606315948661865,32.457093071100005,32.457093071100005,32.457093071100005,nan,nan,nan,nan,nan,nan,nan,nan,nan,nan,nan,nan,nan,nan,nan,nan,nan,nan,nan,nan,nan,40.684475149600004,34.9629109286,46.2111415137,2.8622033037401655,nan,nan,nan,nan,2.0,2.0,2.0,nan,61.67721601733146,61.67721601733146,61.67721601733146,nan,nan,nan,nan,nan,nan,nan,nan,nan,nan,nan,nan,nan,Walking,U4
5,,,9.615892096956191,6.657017538080001,13.9977736019,2.262102893678,9.8121817939,9.8121817939,9.8121817939,nan,3.157461067275,3.03318145639,3.28174067816,0.17575791124001786,25.684061480500002,19.1819833784,30.186982397199998,5.768446319408683,nan,nan,nan,nan,nan,nan,nan,nan,nan,nan,nan,nan,nan,nan,nan,nan,nan,nan,nan,nan,40.38451298185507,38.4309714631,44.061490638900004,1.3052220780143713,nan,nan,nan,nan,2.0,2.0,2.0,nan,61.67721601733146,61.67721601733146,61.67721601733146,nan,nan,nan,nan,nan,nan,nan,nan,nan,nan,nan,nan,nan,Walking,U4
6,,,10.602618286415,5.92272694929,17.6198280752,3.2340715134537916,9.8121817939,9.8121817939,9.8121817939,nan,3.452904962295,2.6633613007,4.24244862389,1.116583354313362,26.706068810799998,26.706068810799998,26.706068810799998,5.768446319408683,nan,nan,nan,nan,nan,nan,nan,nan,nan,nan,nan,nan,nan,nan,nan,nan,nan,nan,nan,nan,44.687007431862966,38.7139509738,52.021280261099996,3.333460667698277,nan,nan,nan,nan,2.0,2.0,2.0,nan,74.27484956818165,74.27484956818165,74.27484956818165,nan,nan,nan,nan,nan,nan,nan,nan,nan,nan,nan,nan,nan,Walking,U4
7,,,10.374596505234816,7.28087428454,15.4895456849,2.075850220913955,9.8121817939,9.8121817939,9.8121817939,nan,3.452904962295,2.6633613007,4.24244862389,1.116583354313362,26.706068810799998,26.706068810799998,26.706068810799998,5.768446319408683,nan,nan,nan,nan,nan,nan,nan,nan,nan,nan,nan,nan,nan,nan,nan,nan,nan,nan,nan,nan,44.02899682903088,41.2647765958,48.6727231504,1.614370820760224,nan,nan,nan,nan,2.0,2.0,2.0,nan,63.901379929371814,63.901379929371814,63.901379929371814,nan,nan,nan,nan,nan,nan,nan,nan,nan,nan,nan,nan,nan,Walking,U4
8,,,10.127833030053447,6.82985474039,13.5317631655,2.1453432609849434,9.81714341735,9.81714341735,9.81714341735,nan,3.452904962295,2.6633613007,4.24244862389,1.116583354313362,26.706068810799998,26.706068810799998,26.706068810799998,5.768446319408683,nan,nan,nan,nan,nan,nan,nan,nan,nan,nan,nan,nan,nan,nan,nan,nan,nan,nan,nan,nan,43.34964443933787,39.8712974516,48.072882126,1.9225044380395857,nan,nan,nan,nan,2.0,2.0,2.0,nan,56.86465556196019,56.86465556196019,56.86465556196019,nan,nan,nan,nan,nan,nan,nan,nan,nan,nan,nan,nan,nan,Walking,U4
9,,,11.038446076828237,6.82960621344,16.2476560952,3.0795221389014196,9.81263546423,9.81263546423,9.81263546423,nan,3.452904962295,2.6633613007,4.24244862389,1.116583354313362,26.706068810799998,26.706068810799998,26.706068810799998,5.768446319408683,nan,nan,nan,nan,nan,nan,nan,nan,nan,nan,nan,nan,nan,nan,nan,nan,nan,nan,nan,nan,42.21788065669872,38.775322049,46.239448690699994,1.845436132787063,nan,nan,nan,nan,2.0,2.0,2.0,nan,62.44431756545654,62.44431756545654,62.44431756545654,nan,nan,nan,nan,nan,nan,nan,nan,nan,nan,nan,nan,nan,Walking,U4
10,,,9.806324035646364,8.728926867,12.0672515741,1.0034779090613777,9.81263546423,9.81263546423,9.81263546423,nan,1.63778664014,1.63778664014,1.63778664014,1.116583354313362,357.719901239,357.719901239,357.719901239,5.768446319408683,nan,nan,nan,nan,nan,nan,nan,nan,nan,nan,nan,nan,nan,nan,nan,nan,nan,nan,nan,nan,42.319594388358226,34.3540735523,53.833808748,5.922216660137425,nan,nan,nan,nan,0.0,0.0,0.0,nan,58.526375917868165,55.93148666420859,60.86724556042259,2.477664917318001,nan,nan,nan,nan,nan,nan,nan,nan,nan,nan,nan,nan,Walking,U4
11,,,10.276891662061429,7.95125306639,13.160054925699999,1.9560136687736411,9.81263546423,9.81263546423,9.81263546423,nan,1.63778664014,1.63778664014,1.63778664014,1.116583354313362,357.719901239,357.719901239,357.719901239,5.768446319408683,nan,nan,nan,nan,nan,nan,nan,nan,nan,nan,nan,nan,nan,nan,nan,nan,nan,nan,nan,nan,44.52616058956708,39.5472830925,50.5421922754,2.53200270111273,nan,nan,nan,nan,0.0,0.0,0.0,nan,61.4081464348024,61.4081464348024,61.4081464348024,2.477664917318001,nan,nan,nan,nan,nan,nan,nan,nan,nan,nan,nan,nan,Walking,U4
12,,,9.865239675850455,7.1327989605100015,13.8832751625,1.9532770692870571,9.81263546423,9.81263546423,9.81263546423,nan,2.5650313437600003,2.47339663252,2.656666055,0.1295910514197503,357.719901239,357.719901239,357.719901239,5.768446319408683,nan,nan,nan,nan,nan,nan,nan,nan,nan,nan,nan,nan,nan,nan,nan,nan,nan,nan,nan,nan,41.06691085427857,37.3465661072,46.529796904799994,2.4198723800243847,nan,nan,nan,nan,0.0,0.0,0.0,nan,58.40665547080397,56.701122034402324,60.11218890720561,2.411988516839996,nan,nan,nan,nan,nan,nan,nan,nan,nan,nan,nan,nan,Walking,U4
13,,,10.004989770239288,7.647000821689999,12.022379813699999,1.4519451000876007,9.81263546423,9.81263546423,9.81263546423,nan,4.142802925990001,4.142802925990001,4.142802925990001,0.1295910514197503,357.719901239,357.719901239,357.719901239,5.768446319408683,nan,nan,nan,nan,nan,nan,nan,nan,nan,nan,nan,nan,nan,nan,nan,nan,nan,nan,nan,nan,42.40950971220244,37.0203402915,47.99099895609999,2.873871075208409,nan,nan,nan,nan,0.0,0.0,0.0,nan,58.40665547080397,56.701122034402324,60.11218890720561,2.411988516839996,nan,nan,nan,nan,nan,nan,nan,nan,nan,nan,nan,nan,Walking,U4
14,,,9.562542561853888,6.99086571,14.8336979072,1.965848088609385,9.81263546423,9.81263546423,9.81263546423,nan,4.142802925990001,4.142802925990001,4.142802925990001,0.1295910514197503,357.719901239,357.719901239,357.719901239,5.768446319408683,nan,nan,nan,nan,nan,nan,nan,nan,nan,nan,nan,nan,nan,nan,nan,nan,nan,nan,nan,nan,43.73690915779079,41.0670521566,47.4411846395,1.6217580379988907,nan,nan,nan,nan,0.0,0.0,0.0,nan,54.518232645900966,54.518232645900966,54.518232645900966,2.411988516839996,nan,nan,nan,nan,nan,nan,nan,nan,nan,nan,nan,nan,Walking,U4
15,,,9.492938094475,5.68246930113,17.6100056418,2.5654964108806486,9.81263546423,9.81263546423,9.81263546423,nan,4.142802925990001,4.142802925990001,4.142802925990001,0.1295910514197503,357.719901239,357.719901239,357.719901239,5.768446319408683,nan,nan,nan,nan,nan,nan,nan,nan,nan,nan,nan,nan,nan,nan,nan,nan,nan,nan,nan,nan,43.69723856913077,40.0710169574,48.51039665020001,1.9684198114506197,nan,nan,nan,nan,0.0,0.0,0.0,nan,62.27218302146056,62.27218302146056,62.27218302146056,2.411988516839996,nan,nan,nan,nan,nan,nan,nan,nan,nan,nan,nan,nan,Walking,U4
16,,,9.644369617922223,7.145773863780001,12.5624565915,1.8058488542826696,9.81263546423,9.81263546423,9.81263546423,nan,5.21461888854,5.21461888854,5.21461888854,0.1295910514197503,357.719901239,357.719901239,357.719901239,5.768446319408683,nan,nan,nan,nan,nan,nan,nan,nan,nan,nan,nan,nan,nan,nan,nan,nan,nan,nan,nan,nan,43.94498244704605,40.6715920466,49.2770250596,2.404844863489156,nan,nan,nan,nan,0.0,0.0,0.0,nan,58.21840272649122,57.419776275211504,59.01702917777093,1.1294283586696656,nan,nan,nan,nan,nan,nan,nan,nan,nan,nan,nan,nan,Walking,U4
17,,,9.940080076207368,6.128355811880001,17.037244623099998,2.7860990291328127,9.816453855730002,9.816453855730002,9.816453855730002,nan,2.92850124227,2.92850124227,2.92850124227,0.1295910514197503,357.719901239,357.719901239,357.719901239,5.768446319408683,nan,nan,nan,nan,nan,nan,nan,nan,nan,nan,nan,nan,nan,nan,nan,nan,nan,nan,nan,nan,43.335109457049995,41.0340346542,47.2265560887,1.4729942755313943,nan,nan,nan,nan,0.0,0.0,0.0,nan,67.64034085149737,67.64034085149737,67.64034085149737,1.1294283586696656,nan,nan,nan,nan,nan,nan,nan,nan,nan,nan,nan,nan,Walking,U4
18,,,10.20249857924619,5.84246453648,15.870849968800002,2.9742901344396953,9.81123635919,9.81123635919,9.81123635919,nan,2.92850124227,2.92850124227,2.92850124227,0.1295910514197503,224.69309702406667,13.331311899200001,340.261770178,183.31154181721178,nan,nan,nan,nan,nan,nan,nan,nan,nan,nan,nan,nan,nan,nan,nan,nan,nan,nan,nan,nan,38.591889096368064,34.900303723600004,49.019520693900006,3.1333695745947883,nan,nan,nan,nan,0.0,0.0,0.0,nan,67.64034085149737,67.64034085149737,67.64034085149737,1.1294283586696656,nan,nan,nan,nan,nan,nan,nan,nan,nan,nan,nan,nan,Walking,U4
19,,,9.616902623032592,6.9015963224600005,14.237207816600002,1.8296752096547166,9.813494140509999,9.807917393039999,9.81907088798,0.007886711906005303,2.92850124227,2.92850124227,2.92850124227,0.1295910514197503,224.69309702406667,13.331311899200001,340.261770178,183.31154181721178,nan,nan,nan,nan,nan,nan,nan,nan,nan,nan,nan,nan,nan,nan,nan,nan,nan,nan,nan,nan,40.43111148038924,35.9710379133,44.7413343976,2.1524760599925123,nan,nan,nan,nan,0.0,0.0,0.0,nan,73.45865586986301,65.62066734495455,81.29664439477148,11.084589673650235,nan,nan,nan,nan,nan,nan,nan,nan,nan,nan,nan,nan,Walking,U4
20,,,10.103471557322667,7.6093136248899995,14.0763745244,1.832141170894935,9.813494140509999,9.807917393039999,9.81907088798,0.007886711906005303,2.35040786192,2.35040786192,2.35040786192,0.1295910514197503,224.69309702406667,13.331311899200001,340.261770178,183.31154181721178,nan,nan,nan,nan,nan,nan,nan,nan,nan,nan,nan,nan,nan,nan,nan,nan,nan,nan,nan,nan,39.59848943489102,36.1661167393,43.6497400336,1.7186439722278966,nan,nan,nan,nan,0.0,0.0,0.0,nan,53.72860473449255,50.65508757984995,56.80212188913516,4.346609644281937,nan,nan,nan,nan,nan,nan,nan,nan,nan,nan,nan,nan,Walking,U4
21,,,10.572139983721579,7.04490475505,14.378513085,2.416194089278293,9.81354337533,9.81354337533,9.81354337533,0.007886711906005303,2.35040786192,2.35040786192,2.35040786192,0.1295910514197503,224.69309702406667,13.331311899200001,340.261770178,183.31154181721178,nan,nan,nan,nan,nan,nan,nan,nan,nan,nan,nan,nan,nan,nan,nan,nan,nan,nan,nan,nan,37.76072541145526,34.6935955012,42.2250825932,1.721026643219664,nan,nan,nan,nan,0.0,0.0,0.0,nan,51.90992443651148,51.90992443651148,51.90992443651148,4.346609644281937,nan,nan,nan,nan,nan,nan,nan,nan,nan,nan,nan,nan,Walking,U4
22,,,10.0190316459288,6.61943717615,14.136641131900001,1.9505109297604455,9.81354337533,9.81354337533,9.81354337533,0.007886711906005303,1.59404623977,1.59404623977,1.59404623977,0.1295910514197503,224.69309702406667,13.331311899200001,340.261770178,183.31154181721178,nan,nan,nan,nan,nan,nan,nan,nan,nan,nan,nan,nan,nan,nan,nan,nan,nan,nan,nan,nan,35.425077958237146,33.434915881500004,37.2408641071,0.973063725365041,nan,nan,nan,nan,0.0,0.0,0.0,nan,51.90992443651148,51.90992443651148,51.90992443651148,4.346609644281937,nan,nan,nan,nan,nan,nan,nan,nan,nan,nan,nan,nan,Walking,U4
23,,,9.884759135018571,6.7935682987699995,12.914284291300001,1.7039733523748921,9.81907041751,9.81907041751,9.81907041751,0.007886711906005303,1.59404623977,1.59404623977,1.59404623977,0.1295910514197503,224.69309702406667,13.331311899200001,340.261770178,183.31154181721178,nan,nan,nan,nan,nan,nan,nan,nan,nan,nan,nan,nan,nan,nan,nan,nan,nan,nan,nan,nan,38.669027777896254,34.7907918852,43.522504523500004,2.0743484495995888,nan,nan,nan,nan,0.0,0.0,0.0,nan,58.79358556812716,57.46641203630797,60.120759099946355,1.876906808321301,nan,nan,nan,nan,nan,nan,nan,nan,nan,nan,nan,nan,Walking,U4
24,,,9.78912570702394,7.524823028239998,14.2335193348,1.7593919795650856,9.81907041751,9.81907041751,9.81907041751,0.007886711906005303,1.59404623977,1.59404623977,1.59404623977,0.1295910514197503,349.28815316,349.28815316,349.28815316,183.31154181721178,nan,nan,nan,nan,nan,nan,nan,nan,nan,nan,nan,nan,nan,nan,nan,nan,nan,nan,nan,nan,36.7199532848371,33.0210478332,40.560443784600004,2.2347749779881547,nan,nan,nan,nan,0.0,0.0,0.0,nan,62.463961500639975,62.463961500639975,62.463961500639975,1.876906808321301,nan,nan,nan,nan,nan,nan,nan,nan,nan,nan,nan,nan,Walking,U4
25,,,9.874945310342,7.29207029253,14.193052978399999,1.8788806954713895,9.809704452410001,9.809704452410001,9.809704452410001,0.007886711906005303,1.59404623977,1.59404623977,1.59404623977,0.1295910514197503,349.28815316,349.28815316,349.28815316,183.31154181721178,nan,nan,nan,nan,nan,nan,nan,nan,nan,nan,nan,nan,nan,nan,nan,nan,nan,nan,nan,nan,36.799092034986565,34.6853438628,40.011228424,1.0122392045669506,nan,nan,nan,nan,0.0,0.0,0.0,nan,69.57603360675475,61.64852601721543,77.50354119629408,11.211188748942154,nan,nan,nan,nan,nan,nan,nan,nan,nan,nan,nan,nan,Walking,U4
26,,,10.110781575687309,7.0863324941,13.1088885126,1.5840184093425105,9.81277767848,9.81277767848,9.81277767848,0.007886711906005303,1.59404623977,1.59404623977,1.59404623977,0.1295910514197503,357.4466148443333,356.406189719,358.013119473,0.9022229693613577,nan,nan,nan,nan,nan,nan,nan,nan,nan,nan,nan,nan,nan,nan,nan,nan,nan,nan,nan,nan,35.648848380573845,32.4375329047,39.7394816272,2.0470096329285554,nan,nan,nan,nan,0.0,0.0,0.0,nan,63.741046736237905,61.18369235262742,66.29840111984839,3.6166452530962383,nan,nan,nan,nan,nan,nan,nan,nan,nan,nan,nan,nan,Walking,U4
27,,,10.252950798846,8.00209688178,13.2705863703,1.6785003876661908,9.81277767848,9.81277767848,9.81277767848,0.007886711906005303,2.55906726626,2.55906726626,2.55906726626,0.1295910514197503,357.4466148443333,356.406189719,358.013119473,0.9022229693613577,nan,nan,nan,nan,nan,nan,nan,nan,nan,nan,nan,nan,nan,nan,nan,nan,nan,nan,nan,nan,31.81566724907436,24.323691426,38.3822302635,3.334737680751286,nan,nan,nan,nan,0.0,0.0,0.0,nan,59.12183781647944,57.88632125368878,60.357354379270106,1.747284279635147,nan,nan,nan,nan,nan,nan,nan,nan,nan,nan,nan,nan,Walking,U4
28,,,10.0066799635104,3.7966814716400004,14.6630884947,2.7478325417243603,9.81277767848,9.81277767848,9.81277767848,0.007886711906005303,3.8380873821599994,3.8380873821599994,3.8380873821599994,0.1295910514197503,355.259282377,355.259282377,355.259282377,0.9022229693613577,nan,nan,nan,nan,nan,nan,nan,nan,nan,nan,nan,nan,nan,nan,nan,nan,nan,nan,nan,nan,36.883657739347825,31.8903809949,43.2675305512,3.05143481139505,nan,nan,nan,nan,0.0,0.0,0.0,nan,59.12183781647944,57.88632125368878,60.357354379270106,1.747284279635147,nan,nan,nan,nan,nan,nan,nan,nan,nan,nan,nan,nan,Walking,U4
29,,,10.22507998567913,7.21953395234,18.2251354676,2.7791769657375207,9.82026992732,9.82026992732,9.82026992732,0.007886711906005303,3.8380873821599994,3.8380873821599994,3.8380873821599994,0.1295910514197503,348.91531674099997,348.91531674099997,348.91531674099997,0.9022229693613577,nan,nan,nan,nan,nan,nan,nan,nan,nan,nan,nan,nan,nan,nan,nan,nan,nan,nan,nan,nan,35.644974330212854,33.1157596941,40.5793444994,1.7294189094413697,nan,nan,nan,nan,0.0,0.0,0.0,nan,55.393546608098404,55.238556768410575,55.548536447786226,0.21918873331655464,nan,nan,nan,nan,nan,nan,nan,nan,nan,nan,nan,nan,Walking,U4
30,,,9.780585461747693,7.570343020469999,11.092526476500002,1.0559778886858908,9.81237084267,9.81237084267,9.81237084267,0.007886711906005303,3.0614287305000003,3.0614287305000003,3.0614287305000003,0.1295910514197503,341.391069092,341.391069092,341.391069092,0.9022229693613577,nan,nan,nan,nan,nan,nan,nan,nan,nan,nan,nan,nan,nan,nan,nan,nan,nan,nan,nan,nan,36.64403805500875,31.943562731799997,39.7303762515,1.987820125879965,nan,nan,nan,nan,0.0,0.0,0.0,nan,55.393546608098404,55.238556768410575,55.548536447786226,0.21918873331655464,nan,nan,nan,nan,nan,nan,nan,nan,nan,nan,nan,nan,Walking,U4
31,,,10.566700266669091,7.36586596898,14.1981996369,1.814199318540884,9.811916718320001,9.811916718320001,9.811916718320001,0.007886711906005303,2.999078179935,2.70603089992,3.29212545995,0.4144314378137589,341.391069092,341.391069092,341.391069092,0.9022229693613577,nan,nan,nan,nan,nan,nan,nan,nan,nan,nan,nan,nan,nan,nan,nan,nan,nan,nan,nan,nan,36.95355675299584,34.9245864342,39.1533446813,1.0532171970584376,nan,nan,nan,nan,0.0,0.0,0.0,nan,55.393546608098404,55.238556768410575,55.548536447786226,0.21918873331655464,nan,nan,nan,nan,nan,nan,nan,nan,nan,nan,nan,nan,Walking,U4
32,,,9.830625844772856,6.8968569554,16.1077817386,2.129299699773005,9.811916718320001,9.811916718320001,9.811916718320001,0.007886711906005303,2.999078179935,2.70603089992,3.29212545995,0.4144314378137589,341.391069092,341.391069092,341.391069092,0.9022229693613577,nan,nan,nan,nan,nan,nan,nan,nan,nan,nan,nan,nan,nan,nan,nan,nan,nan,nan,nan,nan,36.21068334145909,33.1013534466,40.1068459104,2.0560414657207033,nan,nan,nan,nan,0.0,0.0,0.0,nan,55.2255637916214,54.917103903474576,55.53402367976822,0.43622815726532216,nan,nan,nan,nan,nan,nan,nan,nan,nan,nan,nan,nan,Walking,U4
33,,,10.076719339910909,7.101433264450001,15.8142457729,2.016879303598758,9.811916718320001,9.811916718320001,9.811916718320001,0.007886711906005303,2.999078179935,2.70603089992,3.29212545995,0.4144314378137589,341.391069092,341.391069092,341.391069092,0.9022229693613577,nan,nan,nan,nan,nan,nan,nan,nan,nan,nan,nan,nan,nan,nan,nan,nan,nan,nan,nan,nan,38.14351875325891,34.8113754839,42.0582873246,1.83596100492651,nan,nan,nan,nan,0.0,0.0,0.0,nan,55.2389987309428,54.43621230425094,56.041785157634656,1.1353114523166628,nan,nan,nan,nan,nan,nan,nan,nan,nan,nan,nan,nan,Walking,U4
34,,,10.045690318903333,7.78723943472,11.7805196696,1.3121839969004325,9.811916718320001,9.811916718320001,9.811916718320001,0.007886711906005303,2.999078179935,2.70603089992,3.29212545995,0.4144314378137589,26.7021741346,26.7021741346,26.7021741346,0.9022229693613577,nan,nan,nan,nan,nan,nan,nan,nan,nan,nan,nan,nan,nan,nan,nan,nan,nan,nan,nan,nan,33.92481282209714,30.3789663935,37.5012479792,2.5032758874964665,nan,nan,nan,nan,0.0,0.0,0.0,nan,47.64034085149736,47.64034085149736,47.64034085149736,1.1353114523166628,nan,nan,nan,nan,nan,nan,nan,nan,nan,nan,nan,nan,Walking,U4
35,,,10.212679922250555,5.826202414480001,13.703061646199998,2.7131756249843644,9.81302343121,9.81302343121,9.81302343121,0.007886711906005303,2.999078179935,2.70603089992,3.29212545995,0.4144314378137589,26.7021741346,26.7021741346,26.7021741346,0.9022229693613577,nan,nan,nan,nan,nan,nan,nan,nan,nan,nan,nan,nan,nan,nan,nan,nan,nan,nan,nan,nan,37.42720592357142,33.25109923,42.2682008134,2.2020442347294615,nan,nan,nan,nan,0.0,0.0,0.0,nan,50.80658949581747,50.80658949581747,50.80658949581747,1.1353114523166628,nan,nan,nan,nan,nan,nan,nan,nan,nan,nan,nan,nan,Walking,U4
36,,,10.1486957484372,4.98480855241,16.5336328362,3.0255582851451552,9.81302343121,9.81302343121,9.81302343121,0.007886711906005303,2.999078179935,2.70603089992,3.29212545995,0.4144314378137589,26.7021741346,26.7021741346,26.7021741346,0.9022229693613577,nan,nan,nan,nan,nan,nan,nan,nan,nan,nan,nan,nan,nan,nan,nan,nan,nan,nan,nan,nan,37.756605730488566,34.042636615300005,41.550940347,1.8832937444705768,nan,nan,nan,nan,0.0,0.0,0.0,nan,61.19126835802536,61.19126835802536,61.19126835802536,1.1353114523166628,nan,nan,nan,nan,nan,nan,nan,nan,nan,nan,nan,nan,Walking,U4
37,,,10.010871910108108,5.80032784594,15.8925512399,2.480473935837342,9.8225756077,9.8225756077,9.8225756077,0.007886711906005303,2.999078179935,2.70603089992,3.29212545995,0.4144314378137589,26.7021741346,26.7021741346,26.7021741346,0.9022229693613577,nan,nan,nan,nan,nan,nan,nan,nan,nan,nan,nan,nan,nan,nan,nan,nan,nan,nan,nan,nan,37.9920238664125,33.2720964173,43.5202297788,2.5338812133661586,nan,nan,nan,nan,0.0,0.0,0.0,nan,57.336048770835745,56.675687493129566,57.996410048541925,0.9338918749981052,nan,nan,nan,nan,nan,nan,nan,nan,nan,nan,nan,nan,Walking,U4
38,,,9.100995880500909,6.8887134674,11.8704930115,1.2880126252222075,9.8225756077,9.8225756077,9.8225756077,0.007886711906005303,2.3773653357700004,2.3773653357700004,2.3773653357700004,0.4144314378137589,351.12043736,351.12043736,351.12043736,0.9022229693613577,nan,nan,nan,nan,nan,nan,nan,nan,nan,nan,nan,nan,nan,nan,nan,nan,nan,nan,nan,nan,36.50246216024246,30.6876966154,40.8962831123,3.029101715074076,nan,nan,nan,nan,0.0,0.0,0.0,nan,61.93505525937159,56.726482314135026,70.28829841160739,7.307354309085231,nan,nan,nan,nan,nan,nan,nan,nan,nan,nan,nan,nan,Walking,U4
39,,,11.587065879334762,5.45180279277,18.3878403884,3.3371474301113024,9.8225756077,9.8225756077,9.8225756077,0.007886711906005303,2.3773653357700004,2.3773653357700004,2.3773653357700004,0.4144314378137589,351.12043736,351.12043736,351.12043736,0.9022229693613577,nan,nan,nan,nan,nan,nan,nan,nan,nan,nan,nan,nan,nan,nan,nan,nan,nan,nan,nan,nan,36.364004265502665,30.8105111934,43.9629704247,3.2487673285849183,nan,nan,nan,nan,0.0,0.0,0.0,nan,67.20429226590704,67.20429226590704,67.20429226590704,7.307354309085231,nan,nan,nan,nan,nan,nan,nan,nan,nan,nan,nan,nan,Walking,U4
40,,,10.340316691762386,4.51454813004,17.995381069100002,3.2483738954984975,9.8225756077,9.8225756077,9.8225756077,0.007886711906005303,2.3773653357700004,2.3773653357700004,2.3773653357700004,0.4144314378137589,351.12043736,351.12043736,351.12043736,0.9022229693613577,nan,nan,nan,nan,nan,nan,nan,nan,nan,nan,nan,nan,nan,nan,nan,nan,nan,nan,nan,nan,37.813289658083335,33.792626391199995,41.633125238000005,2.1625759145813563,nan,nan,nan,nan,0.0,0.0,0.0,nan,67.20429226590704,67.20429226590704,67.20429226590704,7.307354309085231,nan,nan,nan,nan,nan,nan,nan,nan,nan,nan,nan,nan,Walking,U4
41,,,9.80027255592746,5.17321372115,16.3889353514,3.08625887989258,9.8225756077,9.8225756077,9.8225756077,0.007886711906005303,1.8589155020800001,1.8589155020800001,1.8589155020800001,0.4144314378137589,351.12043736,351.12043736,351.12043736,0.9022229693613577,nan,nan,nan,nan,nan,nan,nan,nan,nan,nan,nan,nan,nan,nan,nan,nan,nan,nan,nan,nan,29.947841473646875,25.5304745925,36.1164616207,3.0853300562474653,nan,nan,nan,nan,0.0,0.0,0.0,nan,67.20429226590704,67.20429226590704,67.20429226590704,7.307354309085231,nan,nan,nan,nan,nan,nan,nan,nan,nan,nan,nan,nan,Walking,U4
42,,,10.565155113313333,5.3031214163,16.5930381714,3.004204664715414,9.81449782337,9.81449782337,9.81449782337,0.007886711906005303,1.8589155020800001,1.8589155020800001,1.8589155020800001,0.4144314378137589,354.460921216,354.460921216,354.460921216,0.9022229693613577,nan,nan,nan,nan,nan,nan,nan,nan,nan,nan,nan,nan,nan,nan,nan,nan,nan,nan,nan,nan,34.12159552132647,30.3089689435,38.7916588972,2.1752972179681875,nan,nan,nan,nan,0.0,0.0,0.0,nan,67.20429226590704,67.20429226590704,67.20429226590704,7.307354309085231,nan,nan,nan,nan,nan,nan,nan,nan,nan,nan,nan,nan,Walking,U4
43,,,10.319332046042238,4.57472749476,17.5616959255,3.1285186254422976,9.814866533060002,9.814866533060002,9.814866533060002,0.007886711906005303,3.580898593305,3.36863439041,3.7931627962,0.3001869145404233,223.10787184135,86.79142365870001,359.424320024,192.78056979443286,nan,nan,nan,nan,nan,nan,nan,nan,nan,nan,nan,nan,nan,nan,nan,nan,nan,nan,nan,nan,32.64632940846521,27.766842713600003,37.9573384225,2.664454542813321,nan,nan,nan,nan,0.0,0.0,0.0,nan,67.20429226590704,67.20429226590704,67.20429226590704,7.307354309085231,nan,nan,nan,nan,nan,nan,nan,nan,nan,nan,nan,nan,Walking,U4
44,,,10.754643492051589,6.31184238138,17.0360096684,2.853685022912795,9.814866533060002,9.814866533060002,9.814866533060002,0.007886711906005303,3.580898593305,3.36863439041,3.7931627962,0.3001869145404233,223.10787184135,86.79142365870001,359.424320024,192.78056979443286,nan,nan,nan,nan,nan,nan,nan,nan,nan,nan,nan,nan,nan,nan,nan,nan,nan,nan,nan,nan,51.263336088990194,23.3692875373,66.4574146572,12.784081899643791,nan,nan,nan,nan,0.0,0.0,0.0,nan,67.20429226590704,67.20429226590704,67.20429226590704,7.307354309085231,nan,nan,nan,nan,9.0,9.0,9.0,nan,nan,nan,nan,nan,Walking,U4
45,,,9.714694396678,6.7768817962400005,14.2438085812,2.007667105540283,9.814866533060002,9.814866533060002,9.814866533060002,0.007886711906005303,3.580898593305,3.36863439041,3.7931627962,0.3001869145404233,223.10787184135,86.79142365870001,359.424320024,192.78056979443286,nan,nan,nan,nan,nan,nan,nan,nan,nan,nan,nan,nan,nan,nan,nan,nan,nan,nan,nan,nan,35.22853803780909,29.9981995648,41.4628214477,2.7226868770565513,nan,nan,nan,nan,0.0,0.0,0.0,nan,56.191194292705354,56.191194292705354,56.191194292705354,7.307354309085231,nan,nan,nan,nan,9.0,9.0,9.0,nan,nan,nan,nan,nan,Walking,U4
46,,,9.400442990876666,7.075633567939999,13.5151825029,1.9990683635654234,9.814866533060002,9.814866533060002,9.814866533060002,0.007886711906005303,7.763239638060001,7.763239638060001,7.763239638060001,0.3001869145404233,223.10787184135,86.79142365870001,359.424320024,192.78056979443286,nan,nan,nan,nan,nan,nan,nan,nan,nan,nan,nan,nan,nan,nan,nan,nan,nan,nan,nan,nan,37.015755302995004,31.877791617600003,41.1801977044,2.7113066769150223,nan,nan,nan,nan,0.0,0.0,0.0,nan,56.191194292705354,56.191194292705354,56.191194292705354,7.307354309085231,nan,nan,nan,nan,9.0,9.0,9.0,nan,nan,nan,nan,nan,Walking,U4
47,,,9.092009213396874,6.77411368904,14.233564283699998,1.9321255404255269,9.82240579246,9.82240579246,9.82240579246,0.007886711906005303,7.763239638060001,7.763239638060001,7.763239638060001,0.3001869145404233,43.8028252513,43.8028252513,43.8028252513,192.78056979443286,nan,nan,nan,nan,nan,nan,nan,nan,nan,nan,nan,nan,nan,nan,nan,nan,nan,nan,nan,nan,41.25822133367433,34.769881656399996,55.802612842100004,4.505026032776427,nan,nan,nan,nan,3.5,2.0,5.0,1.7320508075688772,56.191194292705354,56.191194292705354,56.191194292705354,7.307354309085231,nan,nan,nan,nan,9.0,9.0,9.0,nan,nan,nan,nan,nan,Walking,U4
48,,,10.266359834445455,5.54604635989,16.3782849222,2.5356186337956625,9.810905177230001,9.810905177230001,9.810905177230001,0.007886711906005303,3.62260294385,3.62260294385,3.62260294385,0.3001869145404233,43.8028252513,43.8028252513,43.8028252513,192.78056979443286,nan,nan,nan,nan,nan,nan,nan,nan,nan,nan,nan,nan,nan,nan,nan,nan,nan,nan,nan,nan,38.92970831979143,36.3996813173,43.6788869947,1.689959096599657,nan,nan,nan,nan,2.0,2.0,2.0,1.7320508075688772,69.66032840288264,69.66032840288264,69.66032840288264,7.307354309085231,nan,nan,nan,nan,9.0,9.0,9.0,nan,nan,nan,nan,nan,Walking,U4
49,,,10.1807802226745,5.28860034727,17.7909801659,3.778414222681957,9.810905177230001,9.810905177230001,9.810905177230001,0.007886711906005303,1.72693967947,1.72693967947,1.72693967947,0.3001869145404233,43.8028252513,43.8028252513,43.8028252513,192.78056979443286,nan,nan,nan,nan,nan,nan,nan,nan,nan,nan,nan,nan,nan,nan,nan,nan,nan,nan,nan,nan,36.71541582907334,33.8862445898,39.8589713866,1.4286642886046401,nan,nan,nan,nan,8.0,8.0,8.0,1.7320508075688772,52.58819198205438,52.58819198205438,52.58819198205438,7.307354309085231,nan,nan,nan,nan,9.0,9.0,9.0,nan,nan,nan,nan,nan,Walking,U4
50,,,10.097197432250416,6.47979784061,16.1342962414,2.6133801163819026,9.810905177230001,9.810905177230001,9.810905177230001,0.007886711906005303,1.9779539593400002,1.9779539593400002,1.9779539593400002,0.3001869145404233,338.42208810700004,338.42208810700004,338.42208810700004,192.78056979443286,nan,nan,nan,nan,nan,nan,nan,nan,nan,nan,nan,nan,nan,nan,nan,nan,nan,nan,nan,nan,36.61258151450001,32.687832213200004,40.9129608286,1.8188143272877728,nan,nan,nan,nan,8.0,8.0,8.0,1.7320508075688772,56.235987289432664,52.084521061689394,58.938865413956506,3.6495636375401994,nan,nan,nan,nan,9.0,9.0,9.0,nan,nan,nan,nan,nan,Walking,U4
51,,,10.477763131967599,4.52991048708,16.841514013599998,2.5208835091953756,9.810905177230001,9.810905177230001,9.810905177230001,0.007886711906005303,5.059807040215,1.07893443407,9.040679646360001,5.629804029689788,338.42208810700004,338.42208810700004,338.42208810700004,192.78056979443286,nan,nan,nan,nan,nan,nan,nan,nan,nan,nan,nan,nan,nan,nan,nan,nan,nan,nan,nan,nan,37.03103476901343,32.4425262561,44.325220262100004,2.9360041578779454,nan,nan,nan,nan,5.0,5.0,5.0,1.7320508075688772,81.1159731906496,81.1159731906496,81.1159731906496,3.6495636375401994,nan,nan,nan,nan,9.0,9.0,9.0,nan,nan,nan,nan,nan,Walking,U4
52,,,10.091521480418573,9.37294020348,11.132802252000001,0.5290845976737334,9.810905177230001,9.810905177230001,9.810905177230001,0.007886711906005303,5.059807040215,1.07893443407,9.040679646360001,5.629804029689788,115.657213902,110.50558858,120.808839224,7.285498398637064,nan,nan,nan,nan,nan,nan,nan,nan,nan,nan,nan,nan,nan,nan,nan,nan,nan,nan,nan,nan,36.14725047305999,33.8166408181,38.9791759436,1.0750257158970138,nan,nan,nan,nan,5.0,5.0,5.0,1.7320508075688772,81.1159731906496,81.1159731906496,81.1159731906496,3.6495636375401994,nan,nan,nan,nan,9.0,9.0,9.0,nan,nan,nan,nan,nan,Walking,U4
53,,,8.847158105844,7.5487415449,9.90452030791,1.1928364664889977,9.810905177230001,9.810905177230001,9.810905177230001,0.007886711906005303,5.059807040215,1.07893443407,9.040679646360001,5.629804029689788,88.4476211633,88.4476211633,88.4476211633,7.285498398637064,nan,nan,nan,nan,nan,nan,nan,nan,nan,nan,nan,nan,nan,nan,nan,nan,nan,nan,nan,nan,34.776682125919095,32.359585905900005,37.1646606333,1.142439943261635,nan,nan,nan,nan,5.0,5.0,5.0,1.7320508075688772,58.045496706647214,57.07396423552349,59.01702917777093,1.3739543969490113,nan,nan,nan,nan,9.0,9.0,9.0,nan,nan,nan,nan,nan,Walking,U4
54,,,9.773765362620717,8.95117973822,10.7260026555,0.3011482733815823,9.8186551691,9.8186551691,9.8186551691,0.007886711906005303,0.136882791575,0.136882791575,0.136882791575,5.629804029689788,108.237699801,108.237699801,108.237699801,7.285498398637064,nan,nan,nan,nan,nan,nan,nan,nan,nan,nan,nan,nan,nan,nan,nan,nan,nan,nan,nan,nan,34.990224229918425,32.7521968729,36.507916065399996,1.075046364916358,nan,nan,nan,nan,5.0,5.0,5.0,1.7320508075688772,58.045496706647214,57.07396423552349,59.01702917777093,1.3739543969490113,nan,nan,nan,nan,9.0,9.0,9.0,nan,nan,nan,nan,nan,Walking,U4
55,,,9.769457344863334,8.737665031719999,10.7735848852,0.32957125014860605,9.8186551691,9.8186551691,9.8186551691,0.007886711906005303,0.136882791575,0.136882791575,0.136882791575,5.629804029689788,108.237699801,108.237699801,108.237699801,7.285498398637064,nan,nan,nan,nan,nan,nan,nan,nan,nan,nan,nan,nan,nan,nan,nan,nan,nan,nan,nan,nan,35.91725004307727,34.519455383899995,37.4206199842,0.7763570730293985,nan,nan,nan,nan,5.0,5.0,5.0,1.7320508075688772,64.9986351326839,64.9986351326839,64.9986351326839,1.3739543969490113,nan,nan,nan,nan,9.0,9.0,9.0,nan,nan,nan,nan,nan,Walking,U4
56,,,10.146836613930876,6.68015043546,15.4990667762,1.2619864759050123,9.81157652164,9.81157652164,9.81157652164,0.007886711906005303,1.6505927602700001,1.6505927602700001,1.6505927602700001,5.629804029689788,82.5821087615,82.5821087615,82.5821087615,7.285498398637064,nan,nan,nan,nan,nan,nan,nan,nan,nan,nan,nan,nan,nan,nan,nan,nan,nan,nan,nan,nan,40.20591808917273,33.512188827399996,48.7297896568,6.164868651216777,nan,nan,nan,nan,5.0,5.0,5.0,1.7320508075688772,68.33470958241804,56.8271894090971,79.84222975573898,16.274091098392464,nan,nan,nan,nan,9.0,9.0,9.0,nan,nan,nan,nan,nan,Walking,U4
57,,,10.109207148953953,4.13281083249,18.8926251504,3.2975191122873144,9.81157652164,9.81157652164,9.81157652164,0.007886711906005303,1.6505927602700001,1.6505927602700001,1.6505927602700001,5.629804029689788,82.5821087615,82.5821087615,82.5821087615,7.285498398637064,nan,nan,nan,nan,nan,nan,nan,nan,nan,nan,nan,nan,nan,nan,nan,nan,nan,nan,nan,nan,38.63701530613208,32.8546982942,47.9009352727,5.053615604302862,nan,nan,nan,nan,5.0,5.0,5.0,1.7320508075688772,70.83906948916473,70.83906948916473,70.83906948916473,16.274091098392464,nan,nan,nan,nan,9.0,9.0,9.0,nan,nan,nan,nan,nan,Walking,U4
58,,,10.029298289250882,8.540063329810001,13.1108128041,0.8330956401235282,9.81823975617,9.81823975617,9.81823975617,0.007886711906005303,0.729292969637,0.729292969637,0.729292969637,5.629804029689788,265.061598979,265.061598979,265.061598979,7.285498398637064,nan,nan,nan,nan,nan,nan,nan,nan,nan,nan,nan,nan,nan,nan,nan,nan,nan,nan,nan,nan,48.45074872450377,44.6930726579,55.6564908225,2.9975877460811007,nan,nan,nan,nan,5.0,5.0,5.0,1.7320508075688772,65.754866134607,62.43119688375002,73.20212443446488,5.024169886952672,nan,nan,nan,nan,9.0,9.0,9.0,nan,nan,nan,nan,nan,Walking,U4
59,,,9.797337824586572,8.95357691407,10.668429554400001,0.21342242414921983,9.8141293453,9.81237124848,9.81588744212,0.0024863243668086163,0.729292969637,0.729292969637,0.729292969637,5.629804029689788,265.061598979,265.061598979,265.061598979,7.285498398637064,nan,nan,nan,nan,nan,nan,nan,nan,nan,nan,nan,nan,nan,nan,nan,nan,nan,nan,nan,nan,51.324201131849996,45.4482078535,53.120335089300006,2.4839673801105984,nan,nan,nan,nan,5.0,5.0,5.0,1.7320508075688772,65.754866134607,62.43119688375002,73.20212443446488,5.024169886952672,nan,nan,nan,nan,9.0,9.0,9.0,nan,nan,nan,nan,nan,Walking,U4
60,,,10.755976147940759,0.7586257854170001,20.9019564999,4.107620089903253,9.80916545432,9.807463148330001,9.81086776031,0.0024074242183661533,0.729292969637,0.729292969637,0.729292969637,5.629804029689788,129.14846372899999,129.14846372899999,129.14846372899999,7.285498398637064,nan,nan,nan,nan,nan,nan,nan,nan,nan,nan,nan,nan,nan,nan,nan,nan,nan,nan,nan,nan,45.40400023759666,43.993788550699996,46.5316529687,0.5481109625966212,nan,nan,nan,nan,5.0,5.0,5.0,1.7320508075688772,65.754866134607,62.43119688375002,73.20212443446488,5.024169886952672,nan,nan,nan,nan,9.0,9.0,9.0,nan,nan,nan,nan,nan,Walking,U4
61,,,10.24710673683651,0.552972480057,19.4890589557,5.076853305928931,9.80916545432,9.807463148330001,9.81086776031,0.0024074242183661533,0.729292969637,0.729292969637,0.729292969637,5.629804029689788,129.14846372899999,129.14846372899999,129.14846372899999,7.285498398637064,nan,nan,nan,nan,nan,nan,nan,nan,nan,nan,nan,nan,nan,nan,nan,nan,nan,nan,nan,nan,44.6342326201745,42.9244965026,46.5023590561,0.7536287037443998,nan,nan,nan,nan,5.0,5.0,5.0,1.7320508075688772,78.4545638940844,76.54221374932023,79.69234626473497,1.6799151697549295,nan,nan,nan,nan,9.0,9.0,9.0,nan,nan,nan,nan,nan,Walking,U4
62,,,10.478457205875,9.421615844089999,12.8476381703,1.2676300487236274,9.8127111931,9.8127111931,9.8127111931,0.0024074242183661533,1.12604936162,1.12604936162,1.12604936162,5.629804029689788,129.14846372899999,129.14846372899999,129.14846372899999,7.285498398637064,nan,nan,nan,nan,nan,nan,nan,nan,nan,nan,nan,nan,nan,nan,nan,nan,nan,nan,nan,nan,42.45348154703333,39.6099514988,44.6224562271,1.0738918350877336,nan,nan,nan,nan,5.0,5.0,5.0,1.7320508075688772,78.52273142134898,78.52273142134898,78.52273142134898,1.6799151697549295,nan,nan,nan,nan,9.0,9.0,9.0,nan,nan,nan,nan,nan,Walking,U4
63,,,10.51696375810081,7.25437242343,16.0797801135,2.0623725363299377,9.8127111931,9.8127111931,9.8127111931,0.0024074242183661533,1.12604936162,1.12604936162,1.12604936162,5.629804029689788,129.14846372899999,129.14846372899999,129.14846372899999,7.285498398637064,nan,nan,nan,nan,nan,nan,nan,nan,nan,nan,nan,nan,nan,nan,nan,nan,nan,nan,nan,nan,43.2080754269375,41.7186432834,44.5627555867,0.5492471831627582,nan,nan,nan,nan,5.0,5.0,5.0,1.7320508075688772,78.52273142134898,78.52273142134898,78.52273142134898,1.6799151697549295,nan,nan,nan,nan,9.0,9.0,9.0,nan,nan,nan,nan,nan,Walking,U4
64,,,9.93865421949207,7.104893248989999,12.786593706500001,1.05085106515643,9.8127111931,9.8127111931,9.8127111931,0.0024074242183661533,1.167479307395,1.16005069561,1.17490791918,0.010505643535951584,260.16724075900004,260.16724075900004,260.16724075900004,7.285498398637064,nan,nan,nan,nan,nan,nan,nan,nan,nan,nan,nan,nan,nan,nan,nan,nan,nan,nan,nan,nan,43.51343565400937,42.2780368513,44.9443255595,0.5741459661711809,nan,nan,nan,nan,5.0,5.0,5.0,1.7320508075688772,70.13101852877398,64.55259299142017,75.70944406612777,7.889085051614167,nan,nan,nan,nan,9.0,9.0,9.0,nan,nan,nan,nan,nan,Walking,U4
65,,,9.63226499293345,7.06109466382,11.8402373761,1.0931802062562876,9.8127111931,9.8127111931,9.8127111931,0.0024074242183661533,1.167479307395,1.16005069561,1.17490791918,0.010505643535951584,242.704536285,242.704536285,242.704536285,7.285498398637064,nan,nan,nan,nan,nan,nan,nan,nan,nan,nan,nan,nan,nan,nan,nan,nan,nan,nan,nan,nan,43.39078595229723,41.8400525812,44.5709934347,0.6191191302223131,nan,nan,nan,nan,5.0,5.0,5.0,1.7320508075688772,70.13101852877398,64.55259299142017,75.70944406612777,7.889085051614167,nan,nan,nan,nan,9.0,9.0,9.0,nan,nan,nan,nan,nan,Walking,U4
66,,,10.24767150598857,6.5427815224699994,14.6036283774,1.4443373601156715,9.8127111931,9.8127111931,9.8127111931,0.0024074242183661533,1.167479307395,1.16005069561,1.17490791918,0.010505643535951584,242.704536285,242.704536285,242.704536285,7.285498398637064,nan,nan,nan,nan,nan,nan,nan,nan,nan,nan,nan,nan,nan,nan,nan,nan,nan,nan,nan,nan,43.68502161114999,41.9846110922,44.481450828,0.7539214711251642,nan,nan,nan,nan,5.0,5.0,5.0,1.7320508075688772,70.13101852877398,64.55259299142017,75.70944406612777,7.889085051614167,nan,nan,nan,nan,9.0,9.0,9.0,nan,nan,nan,nan,nan,Walking,U4
67,,,9.870035519974063,7.60512432483,12.024217457699999,0.870341741288366,9.80961958653,9.80961958653,9.80961958653,0.0024074242183661533,1.76781408664,1.76781408664,1.76781408664,0.010505643535951584,242.704536285,242.704536285,242.704536285,7.285498398637064,nan,nan,nan,nan,nan,nan,nan,nan,nan,nan,nan,nan,nan,nan,nan,nan,nan,nan,nan,nan,44.13973314586897,43.1671124816,44.982276509799995,0.39139135101012784,nan,nan,nan,nan,0.0,0.0,0.0,1.7320508075688772,70.13101852877398,64.55259299142017,75.70944406612777,7.889085051614167,nan,nan,nan,nan,9.0,9.0,9.0,nan,nan,nan,nan,nan,Walking,U4
68,,,9.84707478040115,8.557770059680001,15.2805655541,0.8189697470360523,9.80801173185,9.80801173185,9.80801173185,0.0024074242183661533,0.431358767662,0.431358767662,0.431358767662,0.010505643535951584,298.642104904,298.642104904,298.642104904,7.285498398637064,nan,nan,nan,nan,nan,nan,nan,nan,nan,nan,nan,nan,nan,nan,nan,nan,nan,nan,nan,nan,44.68095696086206,44.076360968,45.424319477,0.3931004894703772,nan,nan,nan,nan,0.0,0.0,0.0,1.7320508075688772,68.20831484858934,64.88059178060044,71.53603791657825,4.706111094571716,nan,nan,nan,nan,9.0,9.0,9.0,nan,nan,nan,nan,nan,Walking,U4
69,,,9.815397073434847,9.08318600767,11.774854597400001,0.37406060232593624,9.80801173185,9.80801173185,9.80801173185,0.0024074242183661533,0.431358767662,0.431358767662,0.431358767662,0.010505643535951584,330.46765183900004,330.46765183900004,330.46765183900004,7.285498398637064,nan,nan,nan,nan,nan,nan,nan,nan,nan,nan,nan,nan,nan,nan,nan,nan,nan,nan,nan,nan,44.371826562,43.515429538,45.0061195839,0.3901839773785383,nan,nan,nan,nan,0.0,0.0,0.0,1.7320508075688772,68.20831484858934,64.88059178060044,71.53603791657825,4.706111094571716,nan,nan,nan,nan,9.0,9.0,9.0,nan,nan,nan,nan,nan,Walking,U4
70,,,10.415798631282032,4.0771786032,21.3982159073,2.3131299741974325,9.80801173185,9.80801173185,9.80801173185,0.0024074242183661533,0.431358767662,0.431358767662,0.431358767662,0.010505643535951584,97.9314497373,97.9314497373,97.9314497373,7.285498398637064,nan,nan,nan,nan,nan,nan,nan,nan,nan,nan,nan,nan,nan,nan,nan,nan,nan,nan,nan,nan,44.5302438461,43.228698800699995,45.6007491596,0.5757966425799579,nan,nan,nan,nan,0.0,0.0,0.0,1.7320508075688772,76.13580543168133,76.13580543168133,76.13580543168133,4.706111094571716,nan,nan,nan,nan,9.0,9.0,9.0,nan,nan,nan,nan,nan,Walking,U4
71,,,10.028355743649179,8.07567326772,13.3857589544,1.1004961560100373,9.815045005930001,9.815045005930001,9.815045005930001,0.0024074242183661533,0.431358767662,0.431358767662,0.431358767662,0.010505643535951584,296.908075112,296.908075112,296.908075112,7.285498398637064,nan,nan,nan,nan,nan,nan,nan,nan,nan,nan,nan,nan,nan,nan,nan,nan,nan,nan,nan,nan,44.603359574255165,43.781338490299994,45.538891174899994,0.3915807626764739,nan,nan,nan,nan,0.0,0.0,0.0,1.7320508075688772,66.79224693754368,56.15070056137706,77.4337933137103,15.049419209797096,nan,nan,nan,nan,9.0,9.0,9.0,nan,nan,nan,nan,nan,Walking,U4
72,,,9.816372584098678,8.98209475172,10.8812968539,0.4910687541864813,9.8137041315,9.8137041315,9.8137041315,0.0024074242183661533,0.431358767662,0.431358767662,0.431358767662,0.010505643535951584,300.625960268,300.625960268,300.625960268,7.285498398637064,nan,nan,nan,nan,nan,nan,nan,nan,nan,nan,nan,nan,nan,nan,nan,nan,nan,nan,nan,nan,44.455308216787806,43.5190303201,45.8017379583,0.47123628256756583,nan,nan,nan,nan,0.0,0.0,0.0,1.7320508075688772,66.79224693754368,56.15070056137706,77.4337933137103,15.049419209797096,nan,nan,nan,nan,9.0,9.0,9.0,nan,nan,nan,nan,nan,Walking,U4
73,,,9.836296011762165,8.53250491291,11.1178680184,0.4481759940985642,9.8137041315,9.8137041315,9.8137041315,0.0024074242183661533,0.431358767662,0.431358767662,0.431358767662,0.010505643535951584,300.625960268,300.625960268,300.625960268,7.285498398637064,nan,nan,nan,nan,nan,nan,nan,nan,nan,nan,nan,nan,nan,nan,nan,nan,nan,nan,nan,nan,44.507909145167645,43.5614038768,45.6171283621,0.5116375617665434,nan,nan,nan,nan,1.0,0.0,2.0,1.4142135623730951,66.79224693754368,56.15070056137706,77.4337933137103,15.049419209797096,nan,nan,nan,nan,9.0,9.0,9.0,nan,nan,nan,nan,nan,Walking,U4
74,,,10.150405968912098,5.90696481836,15.763313286199999,1.8000256702834638,9.8137041315,9.8137041315,9.8137041315,0.0024074242183661533,1.8458459914200003,1.8458459914200003,1.8458459914200003,0.010505643535951584,324.527566293,324.527566293,324.527566293,7.285498398637064,nan,nan,nan,nan,nan,nan,nan,nan,nan,nan,nan,nan,nan,nan,nan,nan,nan,nan,nan,nan,44.91265590275172,43.70747699100001,47.2299481262,0.8962574776094935,nan,nan,nan,nan,5.0,5.0,5.0,1.4142135623730951,72.56777860100622,72.56777860100622,72.56777860100622,15.049419209797096,nan,nan,nan,nan,9.0,9.0,9.0,nan,nan,nan,nan,nan,Walking,U4
75,,,9.95163040650791,7.053192983230001,13.6451554878,1.0998449702837374,9.810857773150001,9.806886854530001,9.81482869177,0.005615726967483049,1.8458459914200003,1.8458459914200003,1.8458459914200003,0.010505643535951584,324.527566293,324.527566293,324.527566293,7.285498398637064,nan,nan,nan,nan,nan,nan,nan,nan,nan,nan,nan,nan,nan,nan,nan,nan,nan,nan,nan,nan,45.622409389047995,45.040381610699995,46.117872221599995,0.3026233288230997,nan,nan,nan,nan,0.0,0.0,0.0,1.4142135623730951,72.3295102777713,72.3295102777713,72.3295102777713,15.049419209797096,nan,nan,nan,nan,9.0,9.0,9.0,nan,nan,nan,nan,nan,Walking,U4
76,,,10.038314530512155,8.37083597126,13.7696064823,0.9227499370534739,9.807312378695,9.80613044214,9.80849431525,0.0016715107059450413,1.8458459914200003,1.8458459914200003,1.8458459914200003,0.010505643535951584,357.522963225,354.876231405,360.169695045,3.7430440358084445,nan,nan,nan,nan,nan,nan,nan,nan,nan,nan,nan,nan,nan,nan,nan,nan,nan,nan,nan,nan,45.36672815227036,43.796794403199996,46.8464739454,0.6841511008955102,nan,nan,nan,nan,0.0,0.0,0.0,1.4142135623730951,72.3295102777713,72.3295102777713,72.3295102777713,15.049419209797096,nan,nan,nan,nan,9.0,9.0,9.0,nan,nan,nan,nan,nan,Walking,U4
77,,,9.914675820349999,5.0532698393099995,13.238823030299999,1.550746832265095,9.820459897380001,9.820459897380001,9.820459897380001,0.0016715107059450413,1.8458459914200003,1.8458459914200003,1.8458459914200003,0.010505643535951584,357.522963225,354.876231405,360.169695045,3.7430440358084445,nan,nan,nan,nan,nan,nan,nan,nan,nan,nan,nan,nan,nan,nan,nan,nan,nan,nan,nan,nan,45.93263171882457,44.327982133199995,48.6832601792,0.7289601676053887,nan,nan,nan,nan,8.333333333333334,0.0,14.0,7.371114795831994,72.3295102777713,72.3295102777713,72.3295102777713,15.049419209797096,nan,nan,nan,nan,9.0,9.0,9.0,nan,nan,nan,nan,nan,Walking,U4
78,,,9.867611321671053,9.53136679706,10.2514693171,0.18652674330969657,9.81607604671,9.81607604671,9.81607604671,0.0016715107059450413,0.44365552115400003,0.44365552115400003,0.44365552115400003,0.010505643535951584,357.522963225,354.876231405,360.169695045,3.7430440358084445,nan,nan,nan,nan,nan,nan,nan,nan,nan,nan,nan,nan,nan,nan,nan,nan,nan,nan,nan,nan,45.906943201915155,44.5587144561,47.8597696469,0.6187153427461423,nan,nan,nan,nan,8.333333333333334,0.0,14.0,7.371114795831994,77.66754979496679,77.66754979496679,77.66754979496679,15.049419209797096,nan,nan,nan,nan,9.0,9.0,9.0,nan,nan,nan,nan,nan,Walking,U4
79,,,9.85440999513,9.84198502393,9.86683496633,0.01757156278313475,9.80900492797,9.80900492797,9.80900492797,0.0016715107059450413,0.44365552115400003,0.44365552115400003,0.44365552115400003,0.010505643535951584,77.9819753312,77.9819753312,77.9819753312,3.7430440358084445,nan,nan,nan,nan,nan,nan,nan,nan,nan,nan,nan,nan,nan,nan,nan,nan,nan,nan,nan,nan,45.527607415975,45.0271917845,46.0940993883,0.3786605473066916,nan,nan,nan,nan,8.333333333333334,0.0,14.0,7.371114795831994,77.66754979496679,77.66754979496679,77.66754979496679,15.049419209797096,nan,nan,nan,nan,9.0,9.0,9.0,nan,nan,nan,nan,nan,Walking,U4
