time,activityrecognition#0,activityrecognition#1,android.sensor.accelerometer#mean,android.sensor.accelerometer#min,android.sensor.accelerometer#max,android.sensor.accelerometer#std,android.sensor.gravity#mean,android.sensor.gravity#min,android.sensor.gravity#max,android.sensor.gravity#std,android.sensor.linear_acceleration#mean,android.sensor.linear_acceleration#min,android.sensor.linear_acceleration#max,android.sensor.linear_acceleration#std,android.sensor.orientation#mean,android.sensor.orientation#min,android.sensor.orientation#max,android.sensor.orientation#std,android.sensor.gyroscope_uncalibrated#mean,android.sensor.gyroscope_uncalibrated#min,android.sensor.gyroscope_uncalibrated#max,android.sensor.gyroscope_uncalibrated#std,android.sensor.magnetic_field_uncalibrated#mean,android.sensor.magnetic_field_uncalibrated#min,android.sensor.magnetic_field_uncalibrated#max,android.sensor.magnetic_field_uncalibrated#std,android.sensor.rotation_vector#mean,android.sensor.rotation_vector#min,android.sensor.rotation_vector#max,android.sensor.rotation_vector#std,android.sensor.gyroscope#mean,android.sensor.gyroscope#min,android.sensor.gyroscope#max,android.sensor.gyroscope#std,android.sensor.game_rotation_vector#mean,android.sensor.game_rotation_vector#min,android.sensor.game_rotation_vector#max,android.sensor.game_rotation_vector#std,android.sensor.magnetic_field#mean,android.sensor.magnetic_field#min,android.sensor.magnetic_field#max,android.sensor.magnetic_field#std,android.sensor.pressure#mean,android.sensor.pressure#min,android.sensor.pressure#max,android.sensor.pressure#std,android.sensor.light#mean,android.sensor.light#min,android.sensor.light#max,android.sensor.light#std,sound#mean,sound#min,sound#max,sound#std,speed#mean,speed#min,speed#max,speed#std,android.sensor.proximity#mean,android.sensor.proximity#min,android.sensor.proximity#max,android.sensor.proximity#std,android.sensor.step_counter#mean,android.sensor.step_counter#min,android.sensor.step_counter#max,android.sensor.step_counter#std,target,user
1,,,9.852136625038542,9.7638640051,9.90288013449,0.016811061806527555,9.8066501408908,9.806648974169999,9.806651404,4.3712181925933917e-07,0.0493091062100203,0.0155173937533,0.0955328984851,0.015315153719206841,139.89600710716542,137.232316341,141.751924597,1.133240443299507,0.014651867606410919,0.0117662304833,0.018109495882400004,0.0009693387461993818,47.502802248326624,46.4850513606,48.9743810579,0.6350607824312935,0.9393721485153463,0.9312033880949999,0.9448563778560001,0.0034252841466180647,0.0018611297831335096,0.0,0.00499653327126,0.0008607346954798847,0.39886940107202234,0.398500765088,0.39907336097400004,0.0001699668588357429,47.031544649181974,46.2697531396,47.5241003092,0.29652402096717295,1007.2776664285715,1007.2124,1007.3254400000001,0.038223194743522496,2.7857142857142856,2.0,3.0,0.4178554470186725,nan,nan,nan,nan,0.23538618600000003,0.0,0.7801984000000001,0.3235955470654363,8.0,8.0,8.0,0.0,7862.0,7862.0,7862.0,nan,Still,U12
2,,,9.850634828112376,9.79401978241,9.912551721760002,0.016823334213510833,9.80665015407604,9.80664898985,9.806651283019999,4.4111525683212333e-07,0.045795760158393185,0.010659256865299999,0.10624405057900001,0.01616836086066438,140.3925275560388,138.16888318600002,142.003419179,0.891426894585817,0.014882783947094485,0.0117662304833,0.017504081343099998,0.0009454754612762512,47.172486213311416,46.336594609399995,48.37199642979999,0.4628193259252713,0.9408320523909962,0.934135718874,0.945560283742,0.0026860201942306874,0.0017689545715704404,0.0,0.004519534510239999,0.000729219544182273,0.39815789512940625,0.397751926395,0.39860201783699994,0.0002516346873778152,47.192517795613625,46.5025805736,47.6346512531,0.21303289905067874,1007.3100189285714,1007.2878400000001,1007.3279,0.009495411109719439,3.0,3.0,3.0,0.0,nan,nan,nan,nan,0.0,0.0,0.0,0.0,8.0,8.0,8.0,0.0,7862.0,7862.0,7862.0,nan,Still,U12
3,,,9.852410667690233,9.79472494012,9.90881707014,0.0170665199907322,9.806650122533263,9.806648979039998,9.806651390589998,4.6618914850786603e-07,0.04892229274158994,0.00897754468598,0.10442018605699999,0.01646372229748622,140.26448242717137,138.091045562,141.157929053,0.6204366631502016,0.014911968559883004,0.011473249624299998,0.017568791847099998,0.0009339621571591058,47.17422398718189,46.6307838236,48.612243071099996,0.4060294473792001,0.940492910173921,0.933893996929,0.943125111614,0.0018623928552793181,0.0015576164840251337,0.0,0.00398585470511,0.0007705250334998996,0.3974202059224474,0.397012968341,0.397758846413,0.00020001388337316487,47.449184463947546,46.7861090496,47.80763591310001,0.2178905522422145,1007.3102399999999,1007.28735,1007.3308,0.010330895769843721,3.0,3.0,3.0,0.0,nan,nan,nan,nan,0.0,0.0,0.0,0.0,8.0,8.0,8.0,0.0,7862.0,7862.0,7862.0,nan,Still,U12
4,,,9.849259322430738,9.78512599378,9.906156801939998,0.015882166593446944,9.806650086361326,9.80664884777,9.80665152364,4.833554756359204e-07,0.045103698953282916,0.0043285573152700004,0.0999468048113,0.015256873784501418,140.09348001423317,138.054819305,141.27246921399998,0.7931482594000584,0.014948865916356907,0.0119100189296,0.017888832354099996,0.0009308310025791489,47.44974078320804,46.824459447200006,48.7757129768,0.48884930999649695,0.9399663688323278,0.9337756347849999,0.943451353743,0.002385500170243537,0.0015375198285766153,0.0,0.0036901844750000003,0.0006944202514326892,0.39660251281648085,0.39628627514799997,0.397017591901,0.0001932672592994094,47.2533989321808,46.682545524,47.6958080988,0.224125857973837,1007.3153855555555,1007.2995599999999,1007.3352,0.010737563229283254,2.9615384615384617,2.0,3.0,0.19611613513818402,nan,nan,nan,nan,0.0,0.0,0.0,0.0,8.0,8.0,8.0,0.0,7862.0,7862.0,7862.0,nan,Still,U12
5,,,9.851076715795152,9.8072735636,9.90141267952,0.016162614145837438,9.80665009768901,9.80664886651,9.8066513618,4.5905148213163035e-07,0.047717019523043004,0.00417994850202,0.09560124883339999,0.014782239928929138,140.23662110244405,139.88803362,140.66230938299998,0.1872510567669949,0.015091605184661565,0.0119100189296,0.0179205218077,0.0009846685528983625,47.36507125242289,47.0660174648,47.6797651001,0.1289952688896083,0.9404103591374707,0.939375197735,0.941669886189,0.00055808213789036,0.0015640225209634468,0.0,0.004261058,0.0007456839272291055,0.39569344753149904,0.395267635462,0.39628395831299995,0.00028420582429686465,47.490076599777574,47.2170525721,47.9096023778,0.1253753755040111,1007.3376370370371,1007.3203,1007.35596,0.010330217368633944,3.0,3.0,3.0,0.0,nan,nan,nan,nan,0.0,0.0,0.0,0.0,8.0,8.0,8.0,0.0,7862.0,7862.0,7862.0,nan,Still,U12
6,,,9.851006977865703,9.80551139915,9.90590438994,0.01689955265377554,9.806650116766347,9.806648921519999,9.80665132529,4.453961056043778e-07,0.04683549414281532,0.0100592080418,0.09528986575619999,0.015352798686056317,140.2045470232249,138.195451194,141.165585633,0.6158980569412529,0.015078231369671556,0.011172587731700002,0.018109495882400004,0.0009457011829957218,47.37530615904281,46.7641957326,48.6112126983,0.36501101065804803,0.9403024565737229,0.934204474061,0.9431332184669999,0.0018603213945376112,0.0016122378453306762,0.0,0.00439219805272,0.0007720544075419516,0.39477956071441883,0.394422987361,0.395274607116,0.00024705437024879877,47.599725797928805,47.0723910589,47.8587511183,0.15605600003740344,1007.3060585714285,1007.2671,1007.3439999999999,0.022313486490565245,3.0,3.0,3.0,0.0,nan,nan,nan,nan,0.0,0.0,0.0,0.0,8.0,8.0,8.0,0.0,7862.0,7862.0,7862.0,nan,Still,U12
7,,,9.847901676594967,9.786936992560001,9.90095010664,0.017013777330457877,9.806650132047269,9.806648822669999,9.806651428430001,4.649446431183458e-07,0.04477441897470474,0.006299447248119999,0.0951664573261,0.01532168557537992,140.27775487934696,137.256201474,141.814859097,1.2018316303600276,0.015008882228578551,0.011373912238300001,0.018109495882400004,0.0009373228986005108,47.34722533591707,46.512901436099995,48.9540600972,0.6615193432943558,0.9404869657516917,0.9312515244930001,0.9450008060189999,0.003612565517990935,0.0015329146559254472,0.0,0.0036901844750000003,0.0007253001767207267,0.39413519551572096,0.39377700486999995,0.394439295603,0.00018258820359321796,47.53058642128553,46.896695540299994,48.0380057871,0.27812533122026506,1007.3428807142857,1007.28296,1007.3823,0.03356661126869816,3.0,3.0,3.0,0.0,nan,nan,nan,nan,0.0,0.0,0.0,0.0,8.0,8.0,8.0,0.0,7862.0,7862.0,7862.0,nan,Still,U12
8,,,9.852302895801019,9.80415821141,9.90187644343,0.01612679300170833,9.806650101351966,9.80664900132,9.80665142598,4.595719026382379e-07,0.04838743359857366,0.009209810512610002,0.0953655423787,0.014991206242813446,140.3231196537463,139.713531168,140.97607819799998,0.23518673563409984,0.015081117627825092,0.0121925089195,0.0176332642137,0.0009547893820555129,47.30482542506411,46.8770732875,47.7549997382,0.14426760723645288,0.9406609805205378,0.9388457497139999,0.942580869483,0.0006966247040416557,0.0015603632961545292,0.0,0.004643380165989999,0.0007353822632328104,0.3934025291494568,0.392958983692,0.393781673499,0.00024757817949558407,47.72728182647668,47.1212272081,48.0824298013,0.161100478389116,1007.3686837037037,1007.3528,1007.38916,0.007365212487472455,3.0,3.0,3.0,0.0,nan,nan,nan,nan,0.0,0.0,0.0,0.0,8.0,8.0,8.0,0.0,7862.0,7862.0,7862.0,nan,Still,U12
9,,,9.850754726803727,9.76379363401,9.917930061939998,0.01769721692393901,9.8066501327783,9.80664897081,9.80665140896,4.464665824319221e-07,0.047529368834939446,0.00976828123448,0.111879403867,0.01568891502880349,139.87713923453038,137.559331585,140.693073682,0.7239370097301651,0.014970473648862954,0.0121925089195,0.018604044213,0.0009598322073968361,47.666550196433455,47.1267443985,49.295537323400005,0.47096286466402454,0.9392984784699521,0.932207992924,0.941750624452,0.0022036858763150747,0.0015428089946885803,0.0,0.0054318044138,0.0007502676245836725,0.39271282136648145,0.39249766749799997,0.39296834388499996,0.00012799211919288227,47.292541704514605,46.009347491599996,47.9096023778,0.46191396785725874,1007.343565,1007.2949,1007.36865,0.01976251324172588,2.962962962962963,2.0,3.0,0.19245008972987523,nan,nan,nan,nan,0.0,0.0,0.0,0.0,8.0,8.0,8.0,0.0,7862.0,7862.0,7862.0,nan,Still,U12
10,,,9.848118961104127,9.79050401925,9.89760231496,0.0176699488014162,9.806650106428002,9.80664893506,9.80665137144,4.5142424013018656e-07,0.044690387738976725,0.00473137102823,0.094812292461,0.016269265857151306,140.51179122065736,137.690288997,143.06760711,1.213119213285213,0.014898083037838235,0.011473249624299998,0.017888832354099996,0.0010218032915225077,47.22747898392112,45.9580243266,48.800204917600006,0.6691205685900743,0.9411658106288698,0.932610711146,0.948513401503,0.0035896295106439377,0.0017360476281884196,0.0,0.00398585470511,0.000785493067173156,0.39218658909300563,0.391887840882,0.39249766749799997,0.00018321760422075083,47.16689311094523,46.4160532575,47.71593025399999,0.3100383298083263,1007.3389282142858,1007.28516,1007.3752400000001,0.023669576042394735,2.9285714285714284,2.0,3.0,0.26226526415648105,nan,nan,nan,nan,0.0,0.0,0.0,0.0,8.0,8.0,8.0,0.0,7862.0,7862.0,7862.0,nan,Still,U12
11,,,9.853451391735499,9.79531753587,9.900140912560001,0.016335090735350676,9.80665011286957,9.80664883865,9.80665130545,4.573029633246302e-07,0.04917612888094963,0.013200409746100001,0.096021908148,0.015251994653061129,139.96550829216483,137.421900601,141.575173811,0.8095304458841011,0.014999854173839384,0.0120990786109,0.0176332642137,0.0009788164193457144,47.444841451729886,46.3730525198,49.0622058167,0.5209501874544268,0.9395565745091246,0.931765372977,0.9439763873270001,0.002466624597551342,0.00174798484044306,0.0,0.00398585470511,0.0007527050123451525,0.391519493608581,0.39121102924,0.391899578892,0.00019425479066465673,47.46516102718533,46.6658333259,47.9612349257,0.30663887344141233,1007.3708289285714,1007.35156,1007.39087,0.009895793846207172,2.642857142857143,2.0,3.0,0.4879500364742666,nan,nan,nan,nan,0.0,0.0,0.0,0.0,8.0,8.0,8.0,0.0,7862.0,7862.0,7862.0,nan,Still,U12
12,,,9.851726007906215,9.79550121329,9.90487160651,0.01617274198275724,9.80665011337184,9.80664889287,9.80665126268,4.510599206494084e-07,0.048814302883738156,0.0106863503938,0.09821834664319999,0.015354197223624393,140.48519165592887,139.69822460700001,142.151443857,0.5886079940375962,0.014971777652198835,0.0119100189296,0.018358435589,0.0009484167112972171,47.19704069926592,46.1935060371,47.6440990512,0.32635856894228304,0.9411224619478624,0.938788519297,0.945948799959,0.0017207571151705552,0.0015615332145939445,0.0,0.00398585470511,0.0007074846328220682,0.39084956243843905,0.390495113894,0.391218086489,0.00020969801889612007,47.6090221553362,47.269864158900006,47.9701990823,0.1512887706135948,1007.3775374074074,1007.3474,1007.3974599999999,0.011845992698782415,2.814814814814815,2.0,3.0,0.3958473906635696,nan,nan,nan,nan,0.0,0.0,0.0,0.0,8.0,8.0,8.0,0.0,7862.0,7862.0,7862.0,nan,Still,U12
13,,,9.850687798709053,9.80296076158,9.91116094022,0.016564116487528837,9.806650098553906,9.806648921989998,9.80665146363,4.651964075380157e-07,0.04642973712051248,0.0112644589366,0.10759137395,0.015883085429962373,140.26439721184877,138.14461436,141.057475,0.5395808906238381,0.014991479011449645,0.010915712786600001,0.017888832354099996,0.0009919233765712512,47.30067464949792,46.742913901499996,48.5425590446,0.3372861362126113,0.9404699404212787,0.934033658802,0.9428080987690001,0.0016195173153901847,0.0015711493379442604,0.0,0.00439219805272,0.0007411934889947061,0.3902624490706931,0.38998077218099997,0.390513973618,0.000132416912004375,47.63408119092201,47.181670169700006,48.0253058293,0.18689473625626524,1007.38444,1007.3662,1007.40234,0.010682666472512219,2.7142857142857144,2.0,3.0,0.4600437062282362,nan,nan,nan,nan,0.0,0.0,0.0,0.0,8.0,8.0,8.0,0.0,7862.0,7862.0,7862.0,nan,Still,U12
14,,,9.847208314073635,9.79223975077,9.90048581713,0.016882123246763553,9.80665008034177,9.80664868102,9.80665109538,4.601196653083041e-07,0.04354601120260684,0.00510917853262,0.08781055764810002,0.015408268655704103,139.87335591574484,137.333155931,141.422122863,1.098615839972765,0.015103265078211707,0.012331327350099999,0.0186345173069,0.0009288002424807468,47.60891275733907,46.5846559545,49.274538845100004,0.6571317182547282,0.9392509920806568,0.931479428417,0.943862354943,0.0033247579030345354,0.0015973323663218892,0.0,0.00439219797996,0.0006923685414217612,0.38966911730229425,0.38943015402500003,0.389983133374,0.0001548126104185109,47.355090839469796,46.50301121,47.8549892906,0.2895039524689419,1007.3601096296296,1007.34546,1007.38086,0.009760856473093738,2.75,2.0,3.0,0.44095855184409843,nan,nan,nan,nan,0.0,0.0,0.0,0.0,8.0,8.0,8.0,0.0,7862.0,7862.0,7862.0,nan,Still,U12
15,,,9.844983682938027,9.79527991755,9.90504558403,0.0167061069489233,9.80665011046251,9.80664881981,9.806651220560001,4.6946589610503147e-07,0.04205404473388422,0.00685573776971,0.0910431930842,0.015326890445781064,140.2554225443706,138.291305699,142.540758447,1.1821505931208878,0.014965918027110992,0.0119100189296,0.018109495882400004,0.0009459190921358806,47.382029031715824,45.9312529766,48.6364061172,0.6985618784846088,0.94041222906875,0.9344870978190001,0.947035800599,0.003494658065848016,0.0016283439055481568,0.0,0.0038408656934799997,0.0007175253139121626,0.38898892573354915,0.388561005598,0.389463264296,0.00026417233489755117,46.95668720905595,46.3601121655,47.7586653415,0.31757910051845645,1007.3488128571428,1007.3198,1007.3662,0.012990178015247877,2.9642857142857144,2.0,3.0,0.18898223650461363,nan,nan,nan,nan,0.0,0.0,0.0,0.0,8.0,8.0,8.0,0.0,7862.0,7862.0,7862.0,nan,Still,U12
16,,,9.849146145140235,9.79851180308,9.90306977335,0.016866876823727124,9.806650100961571,9.80664903892,9.80665136332,4.656250497133119e-07,0.04576336970536451,0.0058175102562,0.0954277636172,0.015759445512370587,140.15446714801882,137.706706349,142.089014368,1.2027978933475805,0.015073529700263462,0.0119100189296,0.017888832354099996,0.0009653585539909927,47.400546068189094,46.330659395299996,48.8309328193,0.6959538083313127,0.9400850841203564,0.93265675078,0.9457638336149999,0.0036148360166614072,0.0017216715736066306,0.0,0.004519534510239999,0.0007233727740736767,0.3882321936213296,0.38785120177199994,0.38857523352799994,0.00020251782397214777,47.14655084430945,46.6198455596,47.5510257576,0.2346074323694167,1007.3422774999999,1007.3081,1007.36475,0.01773691392944648,2.9285714285714284,2.0,3.0,0.26226526415648105,nan,nan,nan,nan,0.0,0.0,0.0,0.0,8.0,8.0,8.0,0.0,7862.0,7862.0,7862.0,nan,Still,U12
17,,,9.849202958219475,9.79394145278,9.90570493791,0.015626429813241784,9.806650138104953,9.80664896892,9.80665148552,4.2868630252864516e-07,0.045156485291120756,0.00935200872546,0.100637866548,0.014473996348520436,139.97616618824296,138.025945019,141.289771675,0.8384894602973014,0.015079576294522133,0.0121925089195,0.0183275025305,0.0009504751651866488,47.373112661310714,46.4169168558,48.4355241532,0.4662081225771377,0.9395952297497603,0.9336575389890001,0.9434759475040001,0.0025207815436543027,0.001680832100176762,0.0,0.004881655206399999,0.0007613710764600389,0.3875622245543665,0.387170825265,0.38787258943,0.0002041497647596583,47.471803683761095,46.7218364365,48.111746125,0.24058849109838717,1007.3361351851852,1007.3003,1007.3755,0.02510501196825199,2.7777777777777777,2.0,3.0,0.4236592728681617,nan,nan,nan,nan,0.0,0.0,0.0,0.0,8.0,8.0,8.0,0.0,7862.0,7862.0,7862.0,nan,Still,U12
18,,,9.84566543778921,9.79246314433,9.9094527667,0.016665706894133794,9.806650108241469,9.806648847369999,9.80665127835,4.3765107496935317e-07,0.04268701741537405,0.0061274968840400006,0.08884041324179999,0.01508296696911303,140.27710870384385,138.088821215,142.309824808,1.146987324624337,0.015004817066719838,0.0122852289799,0.017888832354099996,0.000917100760246734,47.1689239407436,46.067884692,48.606688597399994,0.6666262821753809,0.9404528496814786,0.933853023956,0.946386677159,0.0034188283490089225,0.0016208532726568407,0.0,0.004519534510239999,0.000735336107969184,0.386904336171473,0.386610720171,0.38717320665399996,0.0001823654920004039,47.307581323622486,46.498710225100005,47.914611550100005,0.3517589224153607,1007.3055939285715,1007.2651400000001,1007.3362,0.020254707059558587,2.7142857142857144,2.0,3.0,0.4600437062282362,nan,nan,nan,nan,0.0,0.0,0.0,0.0,8.0,8.0,8.0,0.0,7862.0,7862.0,7862.0,nan,Still,U12
19,,,9.846674184210565,9.79695549375,9.90010711089,0.016865209029900845,9.806650129047005,9.80664897133,9.8066515822,4.6843764360530304e-07,0.0435493119276107,0.00545196516695,0.09489515761669999,0.016057965375042706,140.30403885497202,137.818890795,142.173446475,1.3308784730255574,0.01507694544372957,0.0119100189296,0.018725640050400002,0.0010390408818191706,47.22885563738576,46.079281732700004,48.7497692302,0.7610735706018433,0.9405256812864523,0.933008241644,0.946001584436,0.003973963279507611,0.0017364557829391528,0.0,0.00476400767203,0.0007758560409862098,0.38627630776419286,0.385894303082,0.386660810939,0.00022598470328719713,47.2571011861103,46.665405308400004,47.862929826700004,0.2997399049312571,1007.2835889285715,1007.23926,1007.31104,0.02229068653533491,2.7857142857142856,2.0,3.0,0.41785544701867255,nan,nan,nan,nan,0.0,0.0,0.0,0.0,8.0,8.0,8.0,0.0,7862.0,7862.0,7862.0,nan,Still,U12
20,,,9.850032191248083,9.79868393831,9.897821520499999,0.01590078403223235,9.80665010143369,9.806648999339998,9.80665129688,4.487136965992813e-07,0.045884253440937564,0.00924968351923,0.09215405519889999,0.014973805221402604,140.24355758320266,137.578434627,142.489586674,1.2415309774098744,0.015065999252749335,0.0119100189296,0.018109495882400004,0.0009388026496402978,47.226451346675326,45.9365867256,48.823355067,0.7135540103637342,0.9403360590091849,0.932249527833,0.9468671286799999,0.003699190980459567,0.0016889181617107528,0.0,0.00398585470511,0.0007364440953758728,0.3855682186355909,0.385303277822,0.385906256176,0.00019710223305585155,47.30742161100794,46.7764909885,47.856243061899995,0.21265693294846733,1007.2792728571429,1007.24805,1007.3115,0.018497802243258882,2.7142857142857144,2.0,3.0,0.4600437062282362,nan,nan,nan,nan,0.0,0.0,0.0,0.0,8.0,8.0,8.0,0.0,7862.0,7862.0,7862.0,nan,Still,U12
21,,,9.852839070535248,9.79272146035,9.91090550147,0.016481712014913958,9.806650121958295,9.80664884481,9.806651266889999,4.432965614001652e-07,0.04881878062731093,0.009593995415590001,0.0949386578417,0.015293143747810453,140.3435988413464,140.047268665,140.789422315,0.1514412014229541,0.015007389610217825,0.011373912238300001,0.0174065645293,0.0009504451017880112,47.18188980585989,46.9351680513,47.5084203063,0.10677423544356024,0.9407024004876648,0.939827259394,0.9420177668340001,0.00044575528862689153,0.0015879009948445008,0.0,0.0038408656934799997,0.0007049998339082204,0.3849999098011728,0.384768764105,0.385332016209,0.00015595989515520398,47.51774155741418,47.1601538293,47.7881784545,0.10808554334604528,1007.275812142857,1007.2532,1007.313,0.01806094832773412,2.8076923076923075,2.0,3.0,0.40191847623425025,nan,nan,nan,nan,0.0,0.0,0.0,0.0,8.0,8.0,8.0,0.0,7862.0,7862.0,7862.0,nan,Still,U12
22,,,9.852292703900906,9.80291921791,9.89929936775,0.0162912682409144,9.806650129368656,9.80664885753,9.80665126385,4.663180373548066e-07,0.04851032530782208,0.00537752384468,0.0934345905204,0.01545078530740719,140.32570620822162,138.166300666,141.102358339,0.5071613663585329,0.015016170805181852,0.0122852289799,0.017888832354099996,0.0009351922106133901,47.212359117842965,46.79861112060001,48.514327780600006,0.2938891171439776,0.9406496246614603,0.934092535587,0.9429300047820001,0.0015026409819361558,0.0015044344739371619,0.0,0.00398585470511,0.0006994685810140421,0.3844481390736711,0.38411561901999997,0.384787954561,0.0001777864694058046,47.65516561581027,47.17891535,47.9169072458,0.13276335077251888,1007.3066625925925,1007.2771,1007.33325,0.018922545281835842,2.857142857142857,2.0,3.0,0.35634832254989923,nan,nan,nan,nan,0.0,0.0,0.0,0.0,8.0,8.0,8.0,0.0,7862.0,7862.0,7862.0,nan,Still,U12
23,,,9.848258235737836,9.796669249410002,9.90361579297,0.016068635555205404,9.80665013846671,9.80664892285,9.80665136388,4.694573413267219e-07,0.04419752484526556,0.00408951397719,0.09046160218720001,0.015093410240120179,140.18334739278785,137.383012819,141.786277329,0.7786240603216305,0.015125105565372887,0.012331327350099999,0.0184201443301,0.0009728709395158618,47.28247965607307,46.441576200600004,48.7694576554,0.4266541759955101,0.9402062429337792,0.9316300905060001,0.944898653947,0.0023549494293216393,0.0016062143883967374,0.0,0.00398585470511,0.0007251947910754872,0.3837518539283849,0.383410586599,0.38411561901999997,0.00020010025722709174,47.73130794198186,47.05751856609999,48.1399002907,0.2054560241644989,1007.3143478571429,1007.29346,1007.3349599999999,0.010232638542134515,2.8518518518518516,2.0,3.0,0.36201399289824565,nan,nan,nan,nan,0.0,0.0,0.0,0.0,8.0,8.0,8.0,0.0,7862.0,7862.0,7862.0,nan,Still,U12
24,,,9.848424329996675,9.79655917366,9.890768073130001,0.016751171755869817,9.806650104249117,9.806649052060001,9.80665132677,4.344488109099935e-07,0.0446791939172436,0.00584249690079,0.08429718284110001,0.015242421773431328,140.50954014048216,137.661563419,141.932196334,1.022251158158543,0.014928432196779556,0.011373911770000002,0.0176332642137,0.0009159342647080694,47.144080541663584,46.1488895047,48.783706691899994,0.5594093318985744,0.941163853668656,0.932510059605,0.945311819336,0.00306100764310054,0.0015239076998248152,0.0,0.00398585470511,0.0007504138598297468,0.3831813670386968,0.383012884837,0.383410586599,0.0001198583055532256,47.56199792124887,46.8902980967,48.0876283466,0.23687692329152754,1007.3197875,1007.2971,1007.3386,0.0112288697445845,2.75,2.0,3.0,0.44095855184409843,nan,nan,nan,nan,0.0,0.0,0.0,0.0,8.0,8.0,8.0,0.0,7862.0,7862.0,7862.0,nan,Still,U12
25,,,9.850874683670744,9.80654038254,9.90462893014,0.016506324159402116,9.806650114084151,9.80664900369,9.80665124855,4.5057507982804114e-07,0.04721569673810285,0.007776102259310001,0.0958691950286,0.015331618821899387,139.9839412869888,139.108125234,140.573047769,0.2857439136056534,0.015108724009922084,0.0119100189296,0.0184201443301,0.0009504651397285723,47.41653848035591,47.0495505717,47.94976538,0.21851914945791295,0.9396337741035481,0.936990812486,0.941380370303,0.0008592771487425258,0.0015492270848524205,0.0,0.00439219805272,0.0007587589094372942,0.3827265241705338,0.382435960229,0.38303217851099997,0.00017138472358632718,47.64866220730641,47.317967545100004,48.0253058293,0.15900337558411318,1007.3096364285715,1007.27954,1007.34204,0.017020372806620037,2.75,2.0,3.0,0.44095855184409843,nan,nan,nan,nan,0.0,0.0,0.0,0.0,8.0,8.0,8.0,0.0,7862.0,7862.0,7862.0,nan,Still,U12
26,,,9.84861673994695,9.79041978157,9.902061345660002,0.016160638689729907,9.806650149929652,9.80664892788,9.80665147763,4.338825327747722e-07,0.04521209235798575,0.0105612340231,0.0960925000081,0.015071069220427814,140.25285073695176,137.42650783,141.324081482,0.8540449490147191,0.015052847407334008,0.0122852289799,0.018358435589,0.0009819365634028908,47.26329257476016,46.524081618000004,48.9658066103,0.4875180057958144,0.9404034646302796,0.9317665419169999,0.9435697015719999,0.0025765811881695933,0.0015780397381560318,0.0,0.00398585470511,0.0007391764945323333,0.38214408488706153,0.381756344847,0.382464951466,0.00021100083618685192,47.625125066095194,47.0596435877,48.0253058293,0.21049618283639354,1007.3164542307693,1007.2925,1007.3313,0.012763132271704312,2.8461538461538463,2.0,3.0,0.36794648440311994,nan,nan,nan,nan,0.0,0.0,0.0,0.0,8.0,8.0,8.0,0.0,7862.0,7862.0,7862.0,nan,Still,U12
27,,,9.849808694544135,9.80028070366,9.9049882474,0.016796028041145532,9.806650138880094,9.80664896411,9.80665124693,4.367703975527328e-07,0.04587996975971542,0.00386134756468,0.0858590890157,0.01554055549864135,140.2146973634954,138.190009905,140.861831177,0.4756053543047503,0.015066947685179521,0.012514024021,0.017888832354099996,0.0009009241033946925,47.31794920218152,46.9686065367,48.35741967479999,0.24427726704266217,0.940325971804757,0.9341632257179999,0.942226660323,0.0014166297212126742,0.0015363563067795835,0.0,0.0035330825585300004,0.0007096917712286249,0.38149133139090685,0.38115778871699996,0.38177329197300003,0.00016793936226368095,47.76913946757684,47.464091690500005,48.137822967,0.11735439945572905,1007.3332189285713,1007.3096,1007.3552,0.011609292363435886,2.9285714285714284,2.0,3.0,0.26226526415648105,nan,nan,nan,nan,0.0,0.0,0.0,0.0,8.0,8.0,8.0,0.0,7862.0,7862.0,7862.0,nan,Still,U12
28,,,9.847707327624738,9.804848024530001,9.90417511373,0.01602080442565104,9.806650080251709,9.80664899005,9.806651231430001,4.5990457649033044e-07,0.04437255093163102,0.00419287440802,0.09674406357989998,0.015369196655684987,140.19222898951014,137.808499738,140.647907345,0.6139956013569179,0.015165740464351605,0.012514024021,0.017888832354099996,0.0009287818452207344,47.30026280402494,46.755641751599995,48.7595122884,0.3981916145896787,0.9402296150510588,0.932970051976,0.9416008887200001,0.0018637234498766868,0.0015873226906879807,0.0,0.0035330825585300004,0.0007277364596660553,0.38099105587763515,0.380708756105,0.381179617764,0.00013463087822829527,47.69492109548005,47.175100521400005,48.0922031103,0.21022569940352745,1007.3208805263158,1007.2854,1007.3489,0.020390205293960902,3.0,3.0,3.0,0.0,nan,nan,nan,nan,0.0,0.0,0.0,0.0,8.0,8.0,8.0,0.0,7862.0,7862.0,7862.0,nan,Still,U12
