time,activityrecognition#0,activityrecognition#1,android.sensor.accelerometer#mean,android.sensor.accelerometer#min,android.sensor.accelerometer#max,android.sensor.accelerometer#std,android.sensor.gravity#mean,android.sensor.gravity#min,android.sensor.gravity#max,android.sensor.gravity#std,android.sensor.linear_acceleration#mean,android.sensor.linear_acceleration#min,android.sensor.linear_acceleration#max,android.sensor.linear_acceleration#std,android.sensor.orientation#mean,android.sensor.orientation#min,android.sensor.orientation#max,android.sensor.orientation#std,android.sensor.gyroscope_uncalibrated#mean,android.sensor.gyroscope_uncalibrated#min,android.sensor.gyroscope_uncalibrated#max,android.sensor.gyroscope_uncalibrated#std,android.sensor.magnetic_field_uncalibrated#mean,android.sensor.magnetic_field_uncalibrated#min,android.sensor.magnetic_field_uncalibrated#max,android.sensor.magnetic_field_uncalibrated#std,android.sensor.rotation_vector#mean,android.sensor.rotation_vector#min,android.sensor.rotation_vector#max,android.sensor.rotation_vector#std,android.sensor.gyroscope#mean,android.sensor.gyroscope#min,android.sensor.gyroscope#max,android.sensor.gyroscope#std,android.sensor.game_rotation_vector#mean,android.sensor.game_rotation_vector#min,android.sensor.game_rotation_vector#max,android.sensor.game_rotation_vector#std,android.sensor.magnetic_field#mean,android.sensor.magnetic_field#min,android.sensor.magnetic_field#max,android.sensor.magnetic_field#std,android.sensor.pressure#mean,android.sensor.pressure#min,android.sensor.pressure#max,android.sensor.pressure#std,android.sensor.light#mean,android.sensor.light#min,android.sensor.light#max,android.sensor.light#std,sound#mean,sound#min,sound#max,sound#std,speed#mean,speed#min,speed#max,speed#std,android.sensor.proximity#mean,android.sensor.proximity#min,android.sensor.proximity#max,android.sensor.proximity#std,android.sensor.step_counter#mean,android.sensor.step_counter#min,android.sensor.step_counter#max,android.sensor.step_counter#std,target,user
1,,,9.636283330020525,9.38132275969,9.74173588716,0.08417394522023927,9.806649954026469,9.80664913697,9.80665049714,3.667977032919651e-07,0.09420035511395,0.0824245832489,0.105976126979,0.016653456278965226,66.7532201253,66.7532201253,66.7532201253,40.12871905406459,0.039039412635899995,0.0368709687231,0.041207856548699996,0.003066642790727138,144.462954767,144.462954767,144.462954767,4.717168127389274,0.5463811464433334,0.54311147733,0.549472807576,0.0025077043536385047,0.009426447280272856,0.0019071044333099998,0.019993264427599997,0.004771441751523691,0.7152502311152001,0.71498443552,0.7161627669399999,0.00038391522591518464,37.64344452322,34.8501624155,39.910116534299995,2.1196374264977944,nan,nan,nan,nan,22.0,22.0,22.0,12.020815280171307,87.01968287372055,87.01968287372055,87.01968287372055,nan,nan,nan,nan,nan,nan,nan,nan,nan,nan,nan,nan,nan,Train,U1
2,,,9.7155970095875,9.50400592191,9.84120232106,0.11837281345240377,9.806650136229333,9.806649613010002,9.80665079472,3.6207952907052016e-07,0.16476930191874287,0.0764384987159,0.273171753872,0.07187437933066447,66.35822988305,66.0473203607,66.6691394054,0.4396924631783138,0.0398591331478,0.031412784681099995,0.0450219492459,0.007374857873185421,145.14971323700001,145.14971323700001,145.14971323700001,4.717168127389274,0.5464848597013333,0.543029761513,0.5479042388359999,0.0014178613373165127,0.008701602587413449,0.00318104583038,0.0233563468053,0.004931323316680779,0.71505746572775,0.715020388847,0.715096057683,4.228175327555057e-05,28.1754206383625,25.6006097446,36.6540836783,3.6045960532447734,nan,nan,nan,nan,50.0,50.0,50.0,12.020815280171307,87.01968287372055,87.01968287372055,87.01968287372055,nan,nan,nan,nan,nan,nan,nan,nan,nan,nan,nan,nan,nan,Train,U1
3,,,9.606311753443332,9.417705249039999,9.99295085696,0.1597936583888806,9.806650202472,9.80664976651,9.80665127569,6.120153631242449e-07,0.16507850704566665,0.12903179993,0.235304733554,0.06082486140303186,66.621695518525,66.41255202640001,66.8362248336,0.21031926332053547,0.035333040511633336,0.0316742177272,0.042060804626900004,0.005833875000831588,147.09085164299998,147.09085164299998,147.09085164299998,4.717168127389274,0.5487006628498,0.546716319804,0.550504948881,0.0015032725077019546,0.012670159780767777,0.0019071044333099998,0.025495801602500003,0.00628977815505343,0.7152911555648751,0.715119165673,0.715417711684,0.00013624520971161204,26.150899030333335,24.238415831199998,28.0030681173,1.4123289812190092,nan,nan,nan,nan,50.0,50.0,50.0,12.020815280171307,89.72265635691406,89.72265635691406,89.72265635691406,nan,nan,nan,nan,nan,nan,nan,nan,nan,nan,nan,nan,nan,Train,U1
4,,,9.658462707005453,9.48953913457,9.883890144330001,0.10543652471453613,9.806650156971248,9.80664939012,9.80665073548,4.6153365774362934e-07,0.17499166089638332,0.061251407754300005,0.303438372119,0.08210510843112676,66.5236766503,66.4887531723,66.55617819060001,0.036111861839656915,0.034098936921,0.0210860513577,0.045974378985,0.008321072167101491,147.09085164299998,147.09085164299998,147.09085164299998,4.717168127389274,0.5470420824452222,0.54376667586,0.549080847845,0.0021517591080896827,0.009075735301181937,0.0020600495469100004,0.029296410009499996,0.00590184885111534,0.7154239346063335,0.715320621363,0.7155363518369999,0.00010815299945947497,31.77077790448572,30.448052929,33.348694950100004,0.920751707319215,nan,nan,nan,nan,56.0,56.0,56.0,12.020815280171307,89.72265635691406,89.72265635691406,89.72265635691406,nan,nan,nan,nan,nan,nan,nan,nan,nan,nan,nan,nan,nan,Train,U1
5,,,9.640385153708001,9.42482377634,9.866083314800001,0.128043969931937,9.806650112964666,9.80664966558,9.80665085008,3.067966510444834e-07,0.2557349473255,0.10286008511499999,0.46449206558899997,0.15188335035772274,65.8735267658,65.8735267658,65.8735267658,0.036111861839656915,0.0325088023622,0.0309356891506,0.0346294579981,0.0016221679282612852,144.26276368033334,142.619021976,147.310075929,2.64178055526558,0.5457689149789091,0.542657606492,0.548398176769,0.001958473515176892,0.01187688428459,0.00180118353222,0.0337313261912,0.008031233977340554,0.7177072875143334,0.715897004607,0.718608652205,0.0009729009560509294,32.790100329783336,28.723163034099997,39.0142250108,3.9115994812966757,nan,nan,nan,nan,59.0,47.0,68.0,8.755950357709132,89.721238321935,89.721238321935,89.721238321935,nan,nan,nan,nan,nan,nan,nan,nan,nan,nan,nan,nan,nan,Train,U1
6,,,9.640979153354614,9.3937109942,9.8069175438,0.13271568761066824,9.806650151578,9.80664955024,9.806650937899999,4.0210266471207536e-07,0.103958180849475,0.0732242202324,0.141967578214,0.02870359141906773,65.22535795443333,65.1716006684,65.2939801391,0.0625292541194705,0.0378371408849,0.03342263157,0.041168947858300005,0.0028783932033966822,144.668043208,144.668043208,144.668043208,2.64178055526558,0.5395059186122223,0.537237986648,0.544689335937,0.0023711000666643556,0.007611867358891141,0.0016192300514699999,0.0156542830103,0.003116271311947774,0.7188273181670001,0.7187118929970001,0.718942743337,0.00016323584085316478,61.597660140375,59.6735141804,64.4339776664,2.1855090585665313,nan,nan,nan,nan,62.0,62.0,62.0,0.0,89.721238321935,89.721238321935,89.721238321935,nan,nan,nan,nan,nan,nan,nan,nan,nan,nan,nan,nan,nan,Train,U1
7,,,9.657800714545555,9.53735092023,9.73389017521,0.06407279834914757,9.806650203484615,9.8066492979,9.806650895510002,4.2401136891271536e-07,0.163544157636,0.133873469221,0.19321484605099998,0.04196068996143926,65.72760099780001,65.70058967840001,65.7546123172,0.03819977423306602,0.03771549542476666,0.03209389114859999,0.0418303532128,0.005040078086352241,144.668043208,144.668043208,144.668043208,2.64178055526558,0.5419760275231429,0.538148611511,0.5454352687590001,0.002623607319240533,0.0065784609833184375,0.0017518392851099997,0.013433446690200001,0.003431133863876437,0.7189207581167777,0.718601974847,0.719150638422,0.00021619302998038823,40.498267718570006,33.9337852585,49.7042850058,5.364297126948275,nan,nan,nan,nan,62.0,62.0,62.0,0.0,89.69112137371404,89.69112137371404,89.69112137371404,nan,nan,nan,nan,nan,nan,nan,nan,nan,nan,nan,nan,nan,Train,U1
8,,,9.612686865083,9.51697720245,9.82291898834,0.09293011126434,9.806650057239287,9.80664918467,9.806650959330002,4.813764339678923e-07,0.08496112358273333,0.0431997268068,0.148797204768,0.05615314422870974,66.28427699299999,66.1163333456,66.4522206404,0.23750818386748687,0.036063848244599996,0.029869947695400002,0.046332323419599995,0.007542971442374209,144.668043208,144.668043208,144.668043208,2.64178055526558,0.5469727616145,0.544909136715,0.54809101278,0.001146299882355916,0.006646469370947727,0.00229699264133,0.0129629408411,0.002543221645759039,0.7185015739799091,0.718439452905,0.718535678169,3.4619569373241184e-05,38.011014977957146,34.8004439018,40.120390191300004,1.9063249212846944,nan,nan,nan,nan,29.0,29.0,29.0,0.0,89.69112137371404,89.69112137371404,89.69112137371404,nan,nan,nan,nan,nan,nan,nan,nan,nan,nan,nan,nan,nan,Train,U1
9,,,9.53790734704769,9.22282781127,9.74261778772,0.16115289884671155,9.806650096105,9.80664936589,9.80665068615,4.1598384915698145e-07,0.13833998589822,0.0630855755123,0.291351342922,0.09702617432743406,66.210927271125,66.14220391890001,66.2798884118,0.07547175156767119,0.032995679012025,0.025616558174,0.0373182877239,0.0051125742710551435,132.618375295,132.164679966,133.072070624,0.6416220874571213,0.5458325251388333,0.542449053951,0.547649346212,0.001921545933358596,0.0069877085588304156,0.0022756068682800003,0.015206920192400001,0.004049922731160844,0.718976034673,0.718596168344,0.71931273147,0.0003239564327117636,36.5580197668,23.7981449578,49.5833721093,11.694145818971684,nan,nan,nan,nan,29.0,29.0,29.0,0.0,89.69112137371404,89.69112137371404,89.69112137371404,nan,nan,nan,nan,nan,nan,nan,nan,nan,nan,nan,nan,nan,Train,U1
10,,,9.578341721022221,9.34617919233,9.80607973667,0.16215414517354,9.806649965847855,9.806649080680002,9.806650538060001,3.87025706585871e-07,0.15725608051475,0.049597327315999994,0.268211133855,0.09266283866538476,66.210927271125,66.14220391890001,66.2798884118,0.07547175156767119,0.0331431400932,0.029417908950299998,0.039343644927199994,0.005406042319032528,131.1515097185,130.37377688200002,131.929242555,1.099880325281187,0.5386135725390587,0.536998338881,0.540549285207,0.00101213466471211,0.009711197133840712,0.00243734967651,0.019953782789900003,0.0037620190305180864,0.7195517469972499,0.719234978755,0.7197817757070001,0.000233533445317657,37.152396144375004,27.6538766031,45.769296869399994,6.584418193139324,nan,nan,nan,nan,36.5,29.0,44.0,10.606601717798213,89.69112137371404,89.69112137371404,89.69112137371404,nan,nan,nan,nan,nan,nan,nan,nan,nan,nan,nan,nan,nan,Train,U1
11,,,9.646634704962143,9.38875636208,9.81649216821,0.1221967524561958,9.806650038209092,9.80664932755,9.80665060932,4.0964205982380663e-07,0.204777300541,0.204777300541,0.204777300541,0.09266283866538476,65.84362171675,65.7482321337,65.9390112998,0.13490124205842502,0.032318737971199996,0.0269986242725,0.037172474073699995,0.0035938258611859677,129.95346541900003,126.69648583700001,134.106288072,3.785260017006335,0.5428902423315385,0.540344579066,0.544638369709,0.0011471502182727094,0.007626009110033847,0.0038906022995000003,0.0166865724464,0.0028176142485593033,0.7195914726226667,0.719457227985,0.719715318079,8.9646199065059e-05,30.14441685885,18.2802494791,39.0154329321,8.65038740204511,nan,nan,nan,nan,50.666666666666664,49.0,52.0,1.5275252316519465,89.69112137371404,89.69112137371404,89.69112137371404,nan,nan,nan,nan,nan,nan,nan,nan,nan,nan,nan,nan,nan,Train,U1
12,,,9.651699207193332,9.455444140180001,9.89931475119,0.13162761123855285,9.806650283197273,9.80664963115,9.80665127869,5.09934345668924e-07,0.062216193035350004,0.05764752995419999,0.06678485611650001,0.006461065291275593,65.43387040280001,65.3365785176,65.531162288,0.13759150355868713,0.03340854188498572,0.0258397353236,0.038314922783800005,0.0040326612145181575,132.229197256,132.229197256,132.229197256,3.785260017006335,0.5403566608133571,0.538061160396,0.544007814168,0.0022369305870541846,0.006836660056598965,0.0026932519678300004,0.014946402854,0.0034235397450660047,0.7199388895625001,0.7197034527509999,0.7201858994600001,0.00021242982542987585,53.0037021172,48.282738138,58.290131231400004,4.398560210786053,nan,nan,nan,nan,48.333333333333336,44.0,55.0,5.8594652770823155,89.71925268395614,89.71925268395614,89.71925268395614,nan,nan,nan,nan,nan,nan,nan,nan,nan,nan,nan,nan,nan,Train,U1
13,,,9.695986709361112,9.48074691863,9.99065844016,0.14613909532056096,9.806650428674999,9.806649856860002,9.80665089492,3.4402580326473725e-07,0.13500573990599998,0.105211172726,0.160365727372,0.027843407612566307,65.02918114287499,64.9505958579,65.0873569776,0.05921748031209977,0.03739788009067142,0.0315580241855,0.042588484120699995,0.004763766886101196,132.229197256,132.229197256,132.229197256,3.785260017006335,0.5367292295139999,0.535640221059,0.5376428163520001,0.0006151136216117128,0.0090263051336075,0.0033822578736,0.018830229961200002,0.00348968661512688,0.7204482014646668,0.7202121975399999,0.720604832265,0.0001377052122953178,46.6814423412,35.745916219899996,73.62144372819999,12.895105908779245,nan,nan,nan,nan,25.75,19.0,30.0,4.7871355387816905,89.71925268395614,89.71925268395614,89.71925268395614,nan,nan,nan,nan,nan,nan,nan,nan,nan,nan,nan,nan,nan,Train,U1
14,,,9.681393918953637,9.37869906011,9.8523955967,0.14025849175642474,9.80665013140375,9.80664982722,9.8066505774,2.581134771328496e-07,0.10093063115990002,0.07221870046310001,0.137584763346,0.03339894410868836,64.04435372345,64.0127755784,64.061681264,0.022160693626924074,0.031406325097733334,0.0244620423657,0.037298317736300005,0.006482513183794857,134.9296175605,131.80406916299998,138.055165958,4.420192933598011,0.5317994866852501,0.528764581342,0.533888640258,0.0017792629359388258,0.010098705644305945,0.00435573630196,0.0288329139241,0.004849392939283032,0.7211444652432,0.720777691486,0.721448302718,0.0002645979471586265,57.65037388655,56.4916237356,58.8091240375,1.6387201788753591,nan,nan,nan,nan,22.666666666666668,20.0,26.0,3.0550504633038935,89.71925268395614,89.71925268395614,89.71925268395614,nan,nan,nan,nan,nan,nan,nan,nan,nan,nan,nan,nan,nan,Train,U1
15,,,9.611527825350834,9.373503533210002,9.8078824334,0.15365374269071283,9.806650169435263,9.80664951688,9.80665064731,3.771621097316809e-07,0.08558900530329999,0.0696769403116,0.101501070295,0.022503058116624265,64.4697506438,64.4243146897,64.5151865979,0.06425614250758176,0.03736298282585,0.033663953299500005,0.0409209739836,0.003174559046436255,145.33160398150002,128.872681954,149.75558100799998,8.117943882285426,0.5330274929137777,0.532221256633,0.534196495267,0.0006414915225202881,0.01127843370278963,0.005758146279590001,0.0242551016462,0.00459836601339087,0.7213747170488333,0.7213022240289999,0.721460492355,6.580507479586575e-05,66.95980852675001,53.1012389999,78.4586516888,10.451425294664988,nan,nan,nan,nan,25.0,25.0,25.0,3.0550504633038935,89.56642287408299,89.56642287408299,89.56642287408299,nan,nan,nan,nan,nan,nan,nan,nan,nan,nan,nan,nan,nan,Train,U1
16,,,9.683025642439999,9.49603038604,9.894212256589999,0.10038403586498484,9.806650370264444,9.8066497177,9.806651059930001,4.342408219142391e-07,0.08558900530329999,0.0696769403116,0.101501070295,0.022503058116624265,64.4697506438,64.4243146897,64.5151865979,0.06425614250758176,0.03430291493879999,0.028773941825099996,0.0380240790236,0.003933742304912647,149.466029464,148.035196453,150.896862475,2.023503449647338,0.5463805779041,0.534065553457,0.556563759273,0.007938768472001473,0.012519686490587717,0.00445794344024,0.0200966708146,0.004277384671146219,0.721876988391,0.721434096931,0.722175894742,0.00032474623327036884,59.37760228824,56.1839194084,61.528663853199994,2.1259346226753286,nan,nan,nan,nan,50.5,42.0,59.0,12.020815280171307,89.56642287408299,89.56642287408299,89.56642287408299,nan,nan,nan,nan,nan,nan,nan,nan,nan,nan,nan,nan,nan,Train,U1
17,,,9.607933240964375,9.431683755189999,9.780155453099999,0.09973606704047415,9.806650323627,9.806649287989998,9.80665101347,4.6720017946766623e-07,0.0966937308441,0.0748530401701,0.139262915492,0.02939477426466643,68.76517291638,68.2027279087,69.5272753359,0.5818134407671227,0.036962633145416667,0.0339042534723,0.0426094382475,0.0037815400602370765,149.466029464,148.035196453,150.896862475,2.023503449647338,0.572329980152143,0.561753062439,0.579315358236,0.006690888294552414,0.009720439458128751,0.0036642067969099995,0.0227045554607,0.004764123331945574,0.7217440514860001,0.7214320811980001,0.7220528992440001,0.0002314135775494347,54.682570794073335,49.2339150049,62.3309243365,3.9052022082670605,nan,nan,nan,nan,50.5,42.0,59.0,12.020815280171307,89.56642287408299,89.56642287408299,89.56642287408299,nan,nan,nan,nan,nan,nan,nan,nan,nan,nan,nan,nan,nan,Train,U1
18,,,9.62093565894778,9.46855262611,9.70301415371,0.07175881307131443,9.806650152245332,9.80664949232,9.80665051115,3.064872360775806e-07,0.08294374151302727,0.0297897171117,0.124631848768,0.030866047828585964,71.95281556260001,70.8181543185,72.76789012100001,0.9369415176588093,0.03199590913366667,0.0317255617863,0.0321697651288,0.00023730168175532847,139.333196808,139.333196808,139.333196808,2.023503449647338,0.5872406995963847,0.580063498578,0.593228049078,0.0035927260580409523,0.0079771804007655,0.00125651287167,0.0169567579916,0.0031468017651419913,0.7230001509547501,0.7228664193690001,0.723056495467,8.95447425280532e-05,52.01356132842001,49.569812957399996,53.03610578600001,1.4250318489159617,nan,nan,nan,nan,62.0,48.0,70.0,12.165525060596439,87.3716874471497,87.3716874471497,87.3716874471497,nan,nan,nan,nan,nan,nan,nan,nan,nan,nan,nan,nan,nan,Train,U1
19,,,9.638180746147647,9.51903510971,9.789373794,0.06964361596943172,9.806650239921002,9.80664933692,9.80665095568,4.840382171217693e-07,0.167162931855,0.167162931855,0.167162931855,0.030866047828585964,74.0319903759,73.6827588193,74.561313785,0.3271240536008612,0.03787421085382,0.026098779659700002,0.0431879752508,0.00492014227868637,141.57413735,141.57413735,141.57413735,2.023503449647338,0.6025248140245556,0.597125845985,0.609623571764,0.004661583001825246,0.008517822105415416,0.00203096716544,0.015276738118700001,0.0033842332435534577,0.7237219420118334,0.723439893387,0.723933081957,0.00016760316091125698,48.31465111061429,45.9451369663,50.9454013623,1.918601267389657,nan,nan,nan,nan,62.0,48.0,70.0,12.165525060596439,87.3716874471497,87.3716874471497,87.3716874471497,nan,nan,nan,nan,nan,nan,nan,nan,nan,nan,nan,nan,nan,Train,U1
20,,,9.63371635157,9.5119774128,9.776827938839999,0.06234962188932514,9.80665023866125,9.80664957984,9.80665083256,5.535640681605522e-07,0.167162931855,0.167162931855,0.167162931855,0.030866047828585964,75.621347278,75.621347278,75.621347278,0.3271240536008612,0.04019464861134,0.03930746113730001,0.0413792308348,0.0008691594070538444,141.57413735,141.57413735,141.57413735,2.023503449647338,0.6134902673557142,0.610881866438,0.615112438931,0.0015053538106582515,0.009013466615714054,0.00250862102192,0.0183152069413,0.0037832238834384544,0.724141821958857,0.7239600779009999,0.724329851274,0.00012303079461218106,44.410180697025,42.8422070035,45.083238846099995,1.0523734677552465,nan,nan,nan,nan,62.0,48.0,70.0,12.165525060596439,87.3716874471497,87.3716874471497,87.3716874471497,nan,nan,nan,nan,nan,nan,nan,nan,nan,nan,nan,nan,nan,Train,U1
21,,,9.595463806545833,9.482595164520001,9.6868505995,0.06509204158409311,9.806650225161667,9.80664967444,9.80665069271,2.6536915531724804e-07,0.09097989768306,0.0172120580844,0.136079368957,0.0502030909686641,75.87110491359999,75.7703797957,75.9308556788,0.08773426040361681,0.03807967627371667,0.0329753415867,0.0411232886992,0.0028417719507914246,141.57413735,141.57413735,141.57413735,2.023503449647338,0.6157781482758125,0.615214506341,0.6165868447249999,0.0003413408906374694,0.005084347523070385,0.0015044423472400001,0.0110656100972,0.0024134478451327207,0.724433560335,0.724413356494,0.7244738361149999,2.7542108477496752e-05,43.4290744326,41.2978733487,44.878284094399994,1.443849639418589,nan,nan,nan,nan,66.0,56.0,76.0,14.142135623730951,87.3716874471497,87.3716874471497,87.3716874471497,nan,nan,nan,nan,nan,nan,nan,nan,nan,nan,nan,nan,nan,Train,U1
22,,,9.646570504506668,9.57215619757,9.73202863106,0.05331578677827498,9.806650353052143,9.80664971839,9.80665105587,4.595879609366948e-07,0.125580717877175,0.0861292076707,0.155047942543,0.03271877552271604,75.5341900169,75.4120230042,75.68007084119999,0.13558823465015132,0.04226405898176001,0.0367669476412,0.048356876616,0.004733722264153777,141.618945571,141.618945571,141.618945571,2.023503449647338,0.6154173481162727,0.613410747646,0.6161788788270001,0.0007498581263388602,0.00694635016804871,0.00119730458455,0.0125786021652,0.002708257703089189,0.7244834156248334,0.72444300768,0.724528064624,3.497958019192963e-05,47.136475020249996,45.430566900500004,48.2695327196,1.0380887106928145,nan,nan,nan,nan,66.0,56.0,76.0,14.142135623730951,87.3716874471497,87.3716874471497,87.3716874471497,nan,nan,nan,nan,nan,nan,nan,nan,nan,nan,nan,nan,nan,Train,U1
23,,,9.605993466225714,9.47464968582,9.690924248930001,0.06799861574342941,9.806650158984167,9.8066495446,9.80665064352,3.7683185891477164e-07,0.09717738482028,0.0655449647061,0.127175483171,0.024100651605127758,75.31257524968,75.23528964890001,75.3886813531,0.058527049220066296,0.037871263349825005,0.0338507048392,0.0403745080068,0.0028359057644843258,139.60069670299998,139.60069670299998,139.60069670299998,2.023503449647338,0.6123720775498889,0.611918995938,0.612696486594,0.00027274015469589406,0.008660525066933636,0.0030935101646,0.0232733002999,0.004666610720448929,0.7245650476519091,0.724500570886,0.724686866946,5.6506616776954194e-05,42.393100690299995,32.9748357154,48.7978535183,6.604912064995263,nan,nan,nan,nan,76.66666666666667,71.0,81.0,5.131601439446884,87.3716874471497,87.3716874471497,87.3716874471497,nan,nan,nan,nan,nan,nan,nan,nan,nan,nan,nan,nan,nan,Train,U1
24,,,9.632605801481429,9.57105088947,9.72420499247,0.04568999532411694,9.806650214758333,9.80664942682,9.806651161960001,5.493185387658244e-07,0.147200706915,0.147200706915,0.147200706915,0.024100651605127758,75.3738420357,75.27176201510001,75.5581892842,0.11444714555501397,0.0400998132229,0.0361327185605,0.0428377178844,0.0031884382355718394,129.834596922,129.101686908,130.567506936,1.0364912817978522,0.6128780219465,0.611772136961,0.614250830032,0.0008147570624310968,0.006539889545038395,0.000582837811529,0.012571066342,0.0028739287176735087,0.7247855292291666,0.724693551452,0.724874164604,5.88120244962938e-05,45.050220829000004,38.8246128364,48.752998013900005,3.9598016184130502,nan,nan,nan,nan,76.66666666666667,71.0,81.0,5.131601439446884,87.3716874471497,87.3716874471497,87.3716874471497,nan,nan,nan,nan,nan,nan,nan,nan,nan,nan,nan,nan,nan,Train,U1
25,,,9.650999541624001,9.56927715795,9.763373304269999,0.060211868023052485,9.806650175656156,9.806649551980001,9.8066508312,4.371963693702505e-07,0.051781644211671425,0.0213885179849,0.0830251701906,0.023496175204696622,75.88670094300001,75.8127945153,75.9644289788,0.05852489428326089,0.0380592950268,0.033246141998799994,0.041168947858300005,0.0033987348675380688,141.782331712,141.782331712,141.782331712,1.0364912817978522,0.615673983365,0.6145242517930001,0.616751650098,0.0006636157001863313,0.0067339659075499984,0.0026584471633200003,0.0140149216728,0.002783390652318402,0.7249628897161999,0.724903719097,0.725020676757,5.041765892302065e-05,62.63440495143333,62.2294568231,63.3431672926,0.6158855895441397,nan,nan,nan,nan,76.66666666666667,71.0,81.0,5.131601439446884,87.3716874471497,87.3716874471497,87.3716874471497,nan,nan,nan,nan,nan,nan,nan,nan,nan,nan,nan,nan,nan,Train,U1
26,,,9.622280069608887,9.439761981739998,9.681876258139999,0.08246606312332722,9.806650309670001,9.80664948435,9.80665094408,5.496675728074374e-07,0.07851180360184999,0.0440130593436,0.149194964767,0.03660591492947844,76.07452253335,76.0511802646,76.0978648021,0.03301095304280705,0.040939016384325,0.0397074502902,0.042518431382999995,0.0012696783172100178,140.156278668,135.940628067,144.371929269,5.961830254160479,0.617149990924,0.616445471647,0.617711048997,0.00041541532207594006,0.006271121833284063,0.00250778557786,0.0139148779503,0.0024742159968807473,0.7251919960372858,0.7251079652860001,0.725293163925,8.404204832040396e-05,55.956273984080006,52.512576601199996,61.785226350200006,3.843379086639459,nan,nan,nan,nan,76.66666666666667,71.0,81.0,5.131601439446884,85.88623761804027,85.88623761804027,85.88623761804027,nan,nan,nan,nan,nan,nan,nan,nan,nan,nan,nan,nan,nan,Train,U1
27,,,9.614552335526923,9.539990683380001,9.70142033092,0.053168544698814955,9.806650139767141,9.80664943128,9.80665101374,4.959607739978215e-07,0.09525963497153334,0.0640517124585,0.12413726574799999,0.030110481949139723,76.11616230907143,76.0758396785,76.1617916373,0.03154616379288423,0.0386437321332,0.0368998191085,0.0406936796789,0.0019153556726993898,134.3022532945,134.029184335,134.57532225399999,0.38617782598800154,0.6174440633451249,0.616927738401,0.6180539306449999,0.00036231120507154897,0.006575453015208214,0.00113890274844,0.013083929136,0.003009403678832741,0.7252851588911667,0.7252455208390001,0.725343410307,3.742438061190181e-05,54.09037213907778,50.249940279899995,55.8067301501,1.7695720149857992,nan,nan,nan,nan,76.66666666666667,71.0,81.0,5.131601439446884,82.56281366259984,82.56281366259984,82.56281366259984,nan,nan,nan,nan,nan,nan,nan,nan,nan,nan,nan,nan,nan,Train,U1
28,,,9.646051706889999,9.54737224727,9.714438786830002,0.056308465429800295,9.80665003063588,9.80664918394,9.806650750880001,4.4761608022120536e-07,0.08863095397663334,0.0733045415848,0.115144687402,0.023054643012452882,75.6297424018,75.6297424018,75.6297424018,0.03154616379288423,0.0383862670323,0.0336641708439,0.0409864678966,0.0040964421583641174,142.26114056939997,138.467776494,144.285694928,2.2385457691783657,0.6146595690941429,0.613284616598,0.616208199849,0.001207652162853332,0.007225210149234286,0.00152786127571,0.0158732259194,0.0033371251799921317,0.7254251033025999,0.7253445871269999,0.7255192812190001,6.427974904284863e-05,55.57731842082499,50.0719043099,58.551974385600005,2.5148718636121754,nan,nan,nan,nan,76.66666666666667,71.0,81.0,5.131601439446884,82.56281366259984,82.56281366259984,82.56281366259984,nan,nan,nan,nan,nan,nan,nan,nan,nan,nan,nan,nan,nan,Train,U1
29,,,9.628792827112779,9.570575801310001,9.67707938668,0.0274008391191189,9.806650194827856,9.80664921685,9.806650713589999,4.1684623609187193e-07,0.06591543452476667,0.0428895058844,0.090721174892,0.023965452996980253,75.31897504068,75.2268817538,75.4450051964,0.09574082889540926,0.0380926099523,0.0358890647713,0.0405331256052,0.0015761738304755875,142.26114056939997,138.467776494,144.285694928,2.2385457691783657,0.6107104114148751,0.6084081446280001,0.613105360439,0.001781048610721919,0.008300072212165834,0.0025519612152,0.017455221032200003,0.004204160510521648,0.7255471315195,0.725466242884,0.725761307558,0.00010832633086777818,49.843478848000004,49.5315551708,50.1554025252,0.4411266947215315,nan,nan,nan,nan,76.66666666666667,71.0,81.0,5.131601439446884,82.56281366259984,82.56281366259984,82.56281366259984,nan,nan,nan,nan,nan,nan,nan,nan,nan,nan,nan,nan,nan,Train,U1
30,,,9.647749253503573,9.61395343493,9.68008827745,0.019451626681966552,9.806650067581666,9.806649501219999,9.80665054958,3.8277134103180527e-07,0.0165871608557,0.0165871608557,0.0165871608557,0.023965452996980253,75.9985977409,75.9985977409,75.9985977409,0.09574082889540926,0.0362658720782,0.0339255457727,0.0373189712964,0.001357422961377755,140.694459635,140.694459635,140.694459635,2.2385457691783657,0.6137370650773334,0.607153974796,0.6176525457800001,0.004729627360541097,0.007862875731957425,0.00270704851469,0.0171403751495,0.003399785009670153,0.72617990300175,0.725878637101,0.7264165315629999,0.0002216686169153818,48.242095549320005,41.217489847399996,51.759901778599996,3.9281375910844765,nan,nan,nan,nan,76.66666666666667,71.0,81.0,5.131601439446884,82.56281366259984,82.56281366259984,82.56281366259984,nan,nan,nan,nan,nan,nan,nan,nan,nan,nan,nan,nan,nan,Train,U1
31,,,9.641613039176,9.61753053132,9.65714396375,0.012835928167828838,9.80665024415,9.80664982265,9.80665081293,3.3702608868376305e-07,0.0186214040409,0.0186214040409,0.0186214040409,0.023965452996980253,76.119677202225,76.06421622810001,76.1856585912,0.0499697047225635,0.03670224721418571,0.0330187150227,0.0399202641099,0.0022958524715535524,141.323137722,141.323137722,141.323137722,2.2385457691783657,0.6174542543370001,0.617202682157,0.617951270224,0.00021719027054781798,0.005843457916136666,0.00208761198316,0.013519786137,0.0029398564827987977,0.7271259612173333,0.7270586084460001,0.727251318128,0.00010866285252552093,51.508006369600004,49.938939741599995,52.847509244899996,1.0132341372372964,nan,nan,nan,nan,76.66666666666667,71.0,81.0,5.131601439446884,80.81679189370679,80.81679189370679,80.81679189370679,nan,nan,nan,nan,nan,nan,nan,nan,nan,nan,nan,nan,nan,Train,U1
32,,,9.638039279109167,9.62348636262,9.65010003285,0.009031393509165342,9.806649871793999,9.80664920127,9.80665061901,5.354225706461922e-07,0.025034778854225,0.010708010015,0.0342485371785,0.010065056827637371,76.1163899211,76.1128800555,76.1198997867,0.004963699533629129,0.0403780441844,0.0395108305025,0.041920126589599996,0.0013389409076188796,139.95705592533332,138.92208346799998,140.561768032,0.9005466919443117,0.6177132405986427,0.617411346639,0.617994220493,0.0002152616599180045,0.006824708948236207,0.00333040330579,0.0129125873802,0.002635720064485724,0.7275877357516666,0.727562541895,0.727604301768,1.6095116547913858e-05,47.79523202118333,39.8531217592,52.1564762541,5.052183740106915,nan,nan,nan,nan,76.66666666666667,71.0,81.0,5.131601439446884,80.81679189370679,80.81679189370679,80.81679189370679,nan,nan,nan,nan,nan,nan,nan,nan,nan,nan,nan,nan,nan,Train,U1
33,,,9.636325309051875,9.62326042193,9.650783726950001,0.009353242612656472,9.806650037392,9.80664927087,9.806650898420001,5.751199258674185e-07,0.01666939057816667,0.0121784498199,0.023231699198400003,0.005810465047697899,76.14391531909999,76.1073455996,76.1804850386,0.05171739328908123,0.03621552607438334,0.0332542267887,0.0422582321847,0.003242432071885836,140.6925195,140.410013956,140.975025044,0.39952317177039315,0.6175107343261667,0.61734657892,0.617827455842,0.0001871659651506532,0.005766460187760133,0.0007656811104339999,0.0130220154133,0.002830247372506558,0.7276117392914001,0.7275935723520001,0.7276323965360001,1.4390295964232308e-05,39.32860609675,37.8518102361,40.4660711524,0.9794232583260588,nan,nan,nan,nan,76.66666666666667,71.0,81.0,5.131601439446884,81.82982188535902,81.82982188535902,81.82982188535902,nan,nan,nan,nan,nan,nan,nan,nan,nan,nan,nan,nan,nan,Train,U1
34,,,9.631661749109998,9.56356134952,9.6544191673,0.021233568611463197,9.80665008496625,9.806649371339999,9.80665077848,4.565876293806789e-07,0.022423893669700004,0.0215757526877,0.023272034651700003,0.0011994524795488366,76.11209914485,76.08776831760001,76.1364299721,0.03440898588070314,0.03743643324261429,0.033029995090400006,0.04902845086490001,0.005570358070400654,140.155942755,140.155942755,140.155942755,0.39952317177039315,0.617449745608625,0.617128354634,0.617746948603,0.00023346507421300448,0.006409160228855172,0.00177743610221,0.0152050291731,0.0029412557103246396,0.7276992798774288,0.727651731562,0.7277617818350001,4.752523991558879e-05,40.790349194600005,39.437210852,41.972802083299996,0.8362261494492202,nan,nan,nan,nan,76.66666666666667,71.0,81.0,5.131601439446884,81.82982188535902,81.82982188535902,81.82982188535902,nan,nan,nan,nan,nan,nan,nan,nan,nan,nan,nan,nan,nan,Train,U1
35,,,9.633073052098334,9.61040881278,9.66651708127,0.014430355047450813,9.806650050745,9.80664936085,9.806650893110001,4.3135008689688777e-07,0.013156875975776668,0.006284228756180001,0.0247149770805,0.006821123890599155,76.07027052622499,76.0122772644,76.1077619304,0.04118941371763395,0.0345018287973,0.0313801553105,0.0376235022841,0.004414712982333066,140.385412914,140.385412914,140.385412914,0.39952317177039315,0.6173500952738462,0.616991646039,0.617577630757,0.00018183164018411804,0.006190428339943704,0.00222746966388,0.0157608297644,0.0032218042900430763,0.7278109027865715,0.727749370432,0.727882008731,6.0729287919834114e-05,41.98456274992222,40.3693639659,43.7967304195,1.2142576074123324,nan,nan,nan,nan,76.66666666666667,71.0,81.0,5.131601439446884,81.82982188535902,81.82982188535902,81.82982188535902,nan,nan,nan,nan,nan,nan,nan,nan,nan,nan,nan,nan,nan,Train,U1
36,,,9.627223075135,9.55332748861,9.6534807075,0.026409487153075017,9.806650209778462,9.80664984333,9.80665067541,3.1966890656194527e-07,0.013156875975776668,0.006284228756180001,0.0247149770805,0.006821123890599155,76.07197208283333,76.05873176909999,76.0875104651,0.014526326965308497,0.034093382030537495,0.023888685344599998,0.0386773462186,0.004894377113001034,139.7221146903333,139.278638667,140.046516486,0.39754633692044195,0.6169780860152307,0.61664295802,0.617172723403,0.00016692266944765233,0.006764472347302332,0.00201929765962,0.013593089036700002,0.0026200776909865785,0.7278808980051666,0.7278558186949999,0.727913660201,2.351580958817361e-05,41.66601369526,40.3320963344,42.7495543343,0.8834079252620468,nan,nan,nan,nan,76.66666666666667,71.0,81.0,5.131601439446884,81.82982188535902,81.82982188535902,81.82982188535902,nan,nan,nan,nan,nan,nan,nan,nan,nan,nan,nan,nan,nan,Train,U1
37,,,9.639737586084285,9.60103205644,9.67511537871,0.019113613305265665,9.806650240978666,9.80664951021,9.80665083215,4.19181174083761e-07,0.016877314757350003,0.0107640161491,0.0193174463314,0.0032889421546216614,76.10912938255001,76.1041996303,76.1140591348,0.006971722491089009,0.036933227512475006,0.0330171141874,0.044561237078,0.00528068930543267,139.611273586,139.611273586,139.611273586,0.39754633692044195,0.617416711393125,0.6171918462830001,0.617644727697,0.00018445869265879003,0.006064580539558334,0.00232860320967,0.010701253311000001,0.002452100588435699,0.7279254501040001,0.7279147905560001,0.727938998107,1.2359561503922797e-05,43.20508573051251,41.257388518,43.922996697200006,0.9109481081303332,nan,nan,nan,nan,76.66666666666667,71.0,81.0,5.131601439446884,82.48095038220059,82.48095038220059,82.48095038220059,nan,nan,nan,nan,nan,nan,nan,nan,nan,nan,nan,nan,nan,Train,U1
38,,,9.64080866316,9.616851956769999,9.66996229415,0.013762854457223563,9.806650043594999,9.806649865339999,9.80665024011,1.6022678294396176e-07,0.017377807564966666,0.011481364898999999,0.0263451255734,0.007893386590886533,76.05750220403333,76.0444565319,76.06778553689999,0.011907287988478317,0.0366568969396375,0.0345467718383,0.0418398610681,0.0026086844969596397,138.59461087,138.59461087,138.59461087,0.39754633692044195,0.6170172847332221,0.61688364738,0.617131707971,9.567829101565508e-05,0.006167817853029412,0.0011163970818099998,0.0170999494025,0.003124242468023874,0.7279047301696666,0.727896327616,0.727915318054,9.681990314508376e-06,35.47693539892666,33.8831091486,37.9071440622,1.1878687991865973,nan,nan,nan,nan,76.66666666666667,71.0,81.0,5.131601439446884,82.48095038220059,82.48095038220059,82.48095038220059,nan,nan,nan,nan,nan,nan,nan,nan,nan,nan,nan,nan,nan,Train,U1
39,,,9.638743660687275,9.602513701869999,9.66255530626,0.01838381086186369,9.806650313316668,9.80664947364,9.80665088477,3.41751486367375e-07,0.026988928268350004,0.024375399784800002,0.029602456751900003,0.0036960874270847996,76.12719132465,76.02278234100001,76.1704138131,0.07059911240032758,0.0351962005488,0.0332286718665,0.037052807755699996,0.0015691401079588492,138.77924327899999,138.77924327899999,138.77924327899999,0.39754633692044195,0.6174552194413,0.616922890678,0.61812165615,0.00041406518655277857,0.008007144240078213,0.00263941771132,0.0263595256675,0.005712465792729659,0.7279203915464999,0.7279036375519999,0.727960095898,2.014296054244089e-05,37.8255308240875,30.906122933899997,48.8830088731,6.014772325067114,nan,nan,nan,nan,97.0,97.0,97.0,5.131601439446884,82.48095038220059,82.48095038220059,82.48095038220059,nan,nan,nan,nan,nan,nan,nan,nan,nan,nan,nan,nan,nan,Train,U1
40,,,9.66083530238,9.6096917332,9.8879980665,0.07282807531222675,9.806650314058182,9.80664989654,9.80665083965,3.5192750390513035e-07,0.017297857429685714,0.0065186935651000005,0.0309763052519,0.007663697542076148,60.0113187292,60.0113187292,60.0113187292,0.07059911240032758,0.037055842389342855,0.0316758864299,0.043482175728400005,0.0037886175324232446,138.77924327899999,138.77924327899999,138.77924327899999,0.39754633692044195,0.5725684871883749,0.410433415239,0.6178549453369999,0.08492930752818706,0.006257493503149032,0.00311649327438,0.013181385966299999,0.002882644808933925,0.7284096208061667,0.72828045288,0.7287558690970001,0.00019811188218937749,52.33215754077143,51.6869146318,53.2699215347,0.5926066798049637,nan,nan,nan,nan,90.5,90.0,91.0,0.7071067811865476,82.15301652292973,82.15301652292973,82.15301652292973,nan,nan,nan,nan,nan,nan,nan,nan,nan,nan,nan,nan,nan,Train,U1
41,,,9.630335581059168,9.61231022712,9.647482228360001,0.011065149124795622,9.806650041069286,9.80664918719,9.80665118465,4.774139270196762e-07,0.0158213345728,0.0108636957858,0.028854978449,0.008700841790671349,43.137109327275,43.0780270543,43.2461235853,0.07458161287699615,0.03356830539477143,0.0267942165785,0.0384069025223,0.0037299198677118815,139.048668342,139.048668342,139.048668342,0.39754633692044195,0.3738449606825714,0.36852055478100004,0.40460420763300003,0.013564318605991287,0.005711825105837719,0.0007030643389670001,0.0116182728765,0.0028302769355735766,0.7287859386184,0.7287397725570001,0.728817880202,3.7343667278228994e-05,53.710224280333335,50.852889025699994,58.914676102799994,3.787150472457311,nan,nan,nan,nan,90.5,90.0,91.0,0.7071067811865476,80.7405575951155,80.7405575951155,80.7405575951155,nan,nan,nan,nan,nan,nan,nan,nan,nan,nan,nan,nan,nan,Train,U1
42,,,9.637338870979999,9.62471469616,9.65058226646,0.009380357758747612,9.806650020782666,9.80664943499,9.8066505554,3.504912631685777e-07,0.01650768031795,0.0121484883489,0.020866872287000002,0.0061648284036183885,43.09952068402,43.089956224,43.127150702200005,0.015648909267814492,0.03932065095605,0.036007234859300005,0.0417449626834,0.0026016267764240315,140.25155462200001,140.25155462200001,140.25155462200001,0.39754633692044195,0.36878540214111766,0.36861448150700005,0.36900225390600006,0.00012700141096428898,0.006374520320081852,0.00263941771132,0.013366864747799998,0.0024674440132862953,0.7288821697847142,0.728855692057,0.7289273117399999,2.5705959736875837e-05,61.911751210800006,61.2529361045,62.41057663270001,0.46933977918405617,nan,nan,nan,nan,92.0,92.0,92.0,0.7071067811865476,80.7405575951155,80.7405575951155,80.7405575951155,nan,nan,nan,nan,nan,nan,nan,nan,nan,nan,nan,nan,nan,Train,U1
43,,,9.633290297528571,9.60165674938,9.663990253180001,0.015679506164051532,9.806650086710999,9.80664924005,9.80665080091,5.337680075014661e-07,0.018325888061745003,0.00839853093428,0.0334912239497,0.010960805618185077,43.099334249133335,43.0875593261,43.116890755600004,0.015496877729914278,0.037807185032575005,0.0343573385104,0.040671668838999996,0.0026076616675313607,140.52495154333334,139.43114309999999,141.34560676799998,0.986028546581678,0.368853719581125,0.368705254385,0.369123383296,0.00010810390214465171,0.005718999071393668,0.0022114192202800005,0.011652940405,0.0025349701431867776,0.7289893990190001,0.72896116736,0.729022390086,2.534807949958835e-05,59.18024723215555,54.9030315753,61.6607430333,2.4550775782490124,nan,nan,nan,nan,92.0,92.0,92.0,0.7071067811865476,80.7405575951155,80.7405575951155,80.7405575951155,nan,nan,nan,nan,nan,nan,nan,nan,nan,nan,nan,nan,nan,Train,U1
44,,,9.635287192794003,9.61251294338,9.67301009885,0.016583791781110777,9.806650102586667,9.80664959601,9.806650607869999,4.1434548864643764e-07,0.018325888061745003,0.00839853093428,0.0334912239497,0.010960805618185077,43.12434320106,43.112252572399996,43.1419031338,0.013320072142243962,0.034951881164212495,0.024312197622700003,0.0397950390114,0.004572309196984232,140.52495154333334,139.43114309999999,141.34560676799998,0.986028546581678,0.36892209316985713,0.368635311126,0.369166560714,0.00016502872960932045,0.006426865512857587,0.0020624780388399998,0.0135657244144,0.0026592972263938894,0.7291120719181429,0.729036276353,0.729203787174,6.273074925559559e-05,55.04545300146666,53.003555874899995,56.666796398100004,1.2160245240069736,nan,nan,nan,nan,92.0,92.0,92.0,0.7071067811865476,84.4314142433292,84.4314142433292,84.4314142433292,nan,nan,nan,nan,nan,nan,nan,nan,nan,nan,nan,nan,nan,Train,U1
45,,,9.6289975482175,9.61264238945,9.66029624155,0.015195616682429474,9.806650142001,9.80664926361,9.80665085249,4.4105725142512556e-07,0.020542604068083333,0.010985580763999999,0.0307675454878,0.007272614840070752,43.14048983243333,43.1371838187,43.1452391486,0.004217158567683865,0.035311764343925,0.031446631793,0.0373760542566,0.0026856832855596357,139.7839754495,139.346643189,140.22130771,0.6184812140623832,0.3689332801366,0.368805477937,0.369159813841,0.00011980434412974967,0.0055397171863103235,0.00193648400135,0.0124555469404,0.002663296689454299,0.7291833430558333,0.729176290474,0.72920120652,9.514110992194914e-06,53.22946345425555,52.1594636075,54.2691899984,0.6929271444427124,nan,nan,nan,nan,92.0,92.0,92.0,0.7071067811865476,84.4314142433292,84.4314142433292,84.4314142433292,nan,nan,nan,nan,nan,nan,nan,nan,nan,nan,nan,nan,nan,Train,U1
46,,,9.629398164345,9.59773516388,9.642115324319999,0.01456015310325489,9.806650157718,9.806649655660001,9.80665066089,4.35031068459072e-07,0.013419944825581667,0.007301679690149999,0.0193672663681,0.0049547475467874415,43.114489424960006,43.0927262622,43.1276349067,0.013530473572855794,0.03651980655834001,0.035552261347,0.0379576783493,0.0010176803045468072,141.124401866,141.124401866,141.124401866,0.6184812140623832,0.3687619006438,0.36858066199699996,0.368822111593,0.00010239347786840432,0.005698080727791714,0.0012150633949500002,0.011791835793700002,0.0021077564844104195,0.7291725646242,0.7291640898639999,0.729176478172,3.615739242776585e-06,53.05276865811666,51.8954725717,53.9969358555,0.6598675988079749,nan,nan,nan,nan,92.0,92.0,92.0,0.7071067811865476,84.4314142433292,84.4314142433292,84.4314142433292,nan,nan,nan,nan,nan,nan,nan,nan,nan,nan,nan,nan,nan,Train,U1
47,,,9.636411167730667,9.613722091869999,9.65613487015,0.012611231689587875,9.806650216443845,9.806649684260002,9.806650737130001,3.2831871910487647e-07,0.0207672066938,0.010938487618,0.030595925769599998,0.01389990781775151,43.115961431500004,43.103252821800005,43.1259982293,0.011605702249625751,0.03648952108381428,0.0318447894939,0.0439504327692,0.003910642577839969,139.494498757,139.494498757,139.494498757,0.6184812140623832,0.36887572044830763,0.368717128589,0.368955905333,6.689267790447786e-05,0.0047990271990388895,0.00171129883176,0.00822622812165,0.0014085899050881078,0.7292044769080002,0.729174319636,0.729232248149,2.3128183962559287e-05,52.111744408375,50.5464235826,53.0646618774,1.0906404809936268,nan,nan,nan,nan,92.0,92.0,92.0,0.7071067811865476,84.4314142433292,84.4314142433292,84.4314142433292,nan,nan,nan,nan,nan,nan,nan,nan,nan,nan,nan,nan,nan,Train,U1
48,,,9.640408184392498,9.617098262899999,9.66724146672,0.013811720598591062,9.8066503361975,9.806649836830001,9.80665085459,3.514946898520911e-07,0.016637137054450003,0.011396956402200002,0.0218773177067,0.007410734547697041,43.160931525950005,43.1520114901,43.1698515618,0.012614835675924385,0.03398373233865999,0.025670584982,0.040749009420199996,0.004885944595593913,138.50113418700002,138.50113418700002,138.50113418700002,0.6184812140623832,0.36910066874041664,0.368916604524,0.369224180242,8.106885839523737e-05,0.005275865425244828,0.00144580549424,0.0125326126266,0.0025351974237586635,0.7293242255975,0.729309811734,0.729334642993,1.0412241279590254e-05,52.89306387391999,51.9487444712,53.727358387200006,0.7190145658377319,nan,nan,nan,nan,92.0,92.0,92.0,0.7071067811865476,82.62916520213052,82.62916520213052,82.62916520213052,nan,nan,nan,nan,nan,nan,nan,nan,nan,nan,nan,nan,nan,Train,U1
49,,,9.636127388093334,9.615725317839999,9.65535954966,0.010935018399765947,9.806650232741765,9.80664919588,9.8066509887,4.961110603711737e-07,0.026727428703471428,0.015913059966200002,0.0407606195577,0.009551270379390816,43.12868384313333,43.1128121675,43.1449523185,0.013712227659676557,0.03397890991033334,0.023137838829900004,0.042990007455400006,0.010051803427192975,140.03311434850002,140.02486259,140.04136610700002,0.011669748784140241,0.3688559214865556,0.368729002352,0.36897152354,8.120223391808137e-05,0.006779653761544001,0.0019413473309300002,0.015822666205799998,0.003336665063429973,0.7293613007658,0.7293185924690001,0.7293867292990001,2.5357384369858812e-05,53.136802086375,51.8983246863,54.144857109600004,0.9341056157572655,nan,nan,nan,nan,92.0,92.0,92.0,0.7071067811865476,80.27864241422408,80.27864241422408,80.27864241422408,nan,nan,nan,nan,nan,nan,nan,nan,nan,nan,nan,nan,nan,Train,U1
50,,,9.6512187261,9.63765932766,9.68086079029,0.010773773961460259,9.806650139943637,9.8066494654,9.8066509285,4.687308322495971e-07,0.01212329469801,0.00627730090862,0.0179692884874,0.00826748370250422,43.1074287273,43.092006095,43.117580369799995,0.013577495460878495,0.035946057086075,0.0331770963542,0.038212419157,0.0020951912554109287,139.449026434,138.73705059,140.16100227799998,1.0068858946668227,0.36880542800277777,0.368504662181,0.36908964293499996,0.00021409987519082184,0.006318717572526765,0.0022467756746599996,0.014428748411100001,0.0027200716887340252,0.7295364889718,0.729439295298,0.729566104992,5.459819152502138e-05,51.93609479065833,50.688737345,52.9838857138,0.7463353717801325,nan,nan,nan,nan,92.0,92.0,92.0,0.7071067811865476,80.27864241422408,80.27864241422408,80.27864241422408,nan,nan,nan,nan,nan,nan,nan,nan,nan,nan,nan,nan,nan,Train,U1
51,,,9.64187057039643,9.62080078256,9.66240103389,0.011693866880058633,9.80665022990375,9.80664955908,9.80665079461,3.6063020428434e-07,0.01735295463875,0.0127628934066,0.0219430158709,0.006491326846629491,43.1009850157,43.09175561,43.1088514659,0.008629038649214856,0.037541154105633336,0.0338996419401,0.0398734112183,0.002281941392906102,139.697741952,138.189917294,140.605195734,1.3148103959293802,0.36881471871609095,0.36856293116899996,0.36910752073499997,0.00015404687484385057,0.006468432636742941,0.00139265184582,0.0127585556408,0.002817636927939903,0.7296162445892,0.7295669486699999,0.729652580459,3.2290943306554326e-05,50.652991228285714,49.231626155200004,52.3183709296,0.9555860917852894,nan,nan,nan,nan,92.0,92.0,92.0,0.7071067811865476,81.52333878689866,81.52333878689866,81.52333878689866,nan,nan,nan,nan,nan,nan,nan,nan,nan,nan,nan,nan,nan,Train,U1
52,,,9.63944178261,9.6227250958,9.660747439460001,0.010949464457953246,9.806649958331176,9.80664931842,9.8066507735,4.679473066373184e-07,0.020572487679025,0.009873730149399998,0.047713393260300004,0.018137827201285945,43.093476511540004,43.0874248199,43.1035559493,0.0062324649288862935,0.037456452659962496,0.029415494276299997,0.0427063898061,0.004781409437588094,139.092196399,138.125142747,139.848895374,0.7228885680889747,0.36872133908450005,0.368596979539,0.36885940814999996,6.390747729392637e-05,0.005307046202817728,0.0015220594014300002,0.0113788118746,0.0026120878194201605,0.729684231154625,0.729617884178,0.72974328772,5.251904171084057e-05,49.86603768753333,48.9022560087,50.7344229163,0.9198012047938002,nan,nan,nan,nan,92.0,92.0,92.0,0.7071067811865476,81.52333878689866,81.52333878689866,81.52333878689866,nan,nan,nan,nan,nan,nan,nan,nan,nan,nan,nan,nan,nan,Train,U1
53,,,9.644452487610716,9.60667792052,9.67006054241,0.01665048696071752,9.806650089935001,9.806649724389999,9.806650630650001,2.9856478944957603e-07,0.013643702269265,0.00426464245516,0.0301301297153,0.01137444485123199,43.126631747750004,43.12245868310001,43.1308048124,0.005901604624685654,0.0372242133124,0.0356382664279,0.0382964146076,0.0014015665643145536,141.40248725966669,141.189650216,141.753679655,0.30641304560311455,0.3687741069066666,0.368654979492,0.368930461132,0.00011316963581166945,0.005881662827712187,0.0015220594014300002,0.014542618456899999,0.002820457086993281,0.729767929127857,0.7297436062780001,0.729790262353,1.791610686281639e-05,60.83238309084166,56.0737858638,62.6315680945,1.9612880261721017,nan,nan,nan,nan,92.0,92.0,92.0,0.7071067811865476,81.17610973351815,81.17610973351815,81.17610973351815,nan,nan,nan,nan,nan,nan,nan,nan,nan,nan,nan,nan,nan,Train,U1
54,,,9.639514575717143,9.62345904658,9.6534391074,0.010900735579520916,9.80665045028,9.80665002709,9.80665098519,2.7919131279788126e-07,0.012844514054366667,0.0113508991137,0.015648595597899998,0.0024301318494061035,43.124230945200004,43.124230945200004,43.124230945200004,0.005901604624685654,0.03780402001868,0.032660816942500004,0.040853033223999996,0.0033165820787938926,141.21232987475003,140.716797766,141.875778905,0.4840873776868005,0.369495735002,0.368905367633,0.37075136544799997,0.0007813086029888695,0.0059014969518854056,0.0019413473309300002,0.012116073884,0.002731504899242327,0.7297769686366666,0.7297622132610001,0.729792604357,1.2647892105927712e-05,61.97667862375714,61.4702809671,62.7681946809,0.48426188613408727,nan,nan,nan,nan,92.0,92.0,92.0,0.7071067811865476,81.17610973351815,81.17610973351815,81.17610973351815,nan,nan,nan,nan,nan,nan,nan,nan,nan,nan,nan,nan,nan,Train,U1
55,,,9.641495543710668,9.56501989697,9.68466035757,0.02939926502873854,9.806650201796428,9.80664948471,9.8066510635,4.722863569983821e-07,0.037598589381599996,0.037598589381599996,0.037598589381599996,0.0024301318494061035,43.9073357205,43.8153212196,43.9993502214,0.13012815510777068,0.03780199985529999,0.0338507048392,0.0420763008954,0.0033206107762737956,141.734539525,141.734539525,141.734539525,0.4840873776868005,0.3755030702101333,0.37132489681,0.37748843187,0.0018264344896556533,0.0067922108052213045,0.0026514313844299997,0.0157602017761,0.0028398716342414444,0.729949081969,0.729859672534,0.7300023826880001,5.711327182195706e-05,60.609299222125,58.9356796263,61.55681153850001,1.0692232242306512,nan,nan,nan,nan,67.0,67.0,67.0,0.7071067811865476,81.17610973351815,81.17610973351815,81.17610973351815,nan,nan,nan,nan,nan,nan,nan,nan,nan,nan,nan,nan,nan,Train,U1
56,,,9.643378426584,9.59021661741,9.671578473130001,0.022531583751655017,9.806650142782999,9.806649500239999,9.80665071495,3.915865720181927e-07,0.11057901762675001,0.0984193283945,0.12273870685900001,0.017196397426490043,44.335409341224995,44.2793779201,44.371148529399996,0.04371638924347872,0.03760533145044,0.035620737335099996,0.040723861788800005,0.0018887829385843577,141.734539525,141.734539525,141.734539525,0.4840873776868005,0.37812019995500007,0.37768878757200003,0.378616116014,0.00028767904492129075,0.007028192690366786,0.0026514313844299997,0.0157465602109,0.0027901592014704366,0.73008634976875,0.730037957285,0.730135113189,3.9667917324485386e-05,56.250688255366676,48.7814054233,59.2368955133,3.378396711384921,nan,nan,nan,nan,67.0,67.0,67.0,0.7071067811865476,81.17610973351815,81.17610973351815,81.17610973351815,nan,nan,nan,nan,nan,nan,nan,nan,nan,nan,nan,nan,nan,Train,U1
57,,,9.62941477321,9.53664120897,9.70433612027,0.05368938723959529,9.806650166694546,9.80664971173,9.80665073428,3.418986252120696e-07,0.048752289413033334,0.0215645933477,0.0654377614836,0.023747342002789013,44.5487170929,44.5487170929,44.5487170929,0.04371638924347872,0.04054814413762,0.0337162654106,0.045103393630999994,0.00428135768549986,141.734539525,141.734539525,141.734539525,0.4840873776868005,0.3792963207468,0.378181032937,0.380351660989,0.0007180958869102616,0.008305557914653528,0.0032467534029899997,0.0163841387039,0.003114863361792285,0.7299020007036001,0.729615822159,0.7300725921410001,0.00019111304692579834,43.712060762975,41.8160755532,45.1150588625,1.5046147069524145,nan,nan,nan,nan,62.0,24.0,100.0,53.74011537017761,89.00066895185057,89.00066895185057,89.00066895185057,nan,nan,nan,nan,nan,nan,nan,nan,nan,nan,nan,nan,nan,Train,U1
58,,,9.650879788130624,9.54910742633,9.81687604628,0.0632868423615707,9.806650103051817,9.806649547760001,9.80665087894,4.951384588753362e-07,0.07826711019999999,0.07826711019999999,0.07826711019999999,0.023747342002789013,44.5893922192,44.5893922192,44.5893922192,0.04371638924347872,0.0411720761492,0.0374873232861,0.0438554403614,0.0026031893920527953,140.77889289433332,139.807524131,142.530953557,1.5203212952741911,0.379103789217,0.378038928384,0.380217022834,0.0008785921856882184,0.007189151263966207,0.0012865430762599999,0.024569744830400003,0.004405445622872183,0.7295253675121249,0.7293621550830001,0.7295973196709999,7.103588437291866e-05,35.94064997042223,31.4748549364,41.9456546165,3.2460489854869876,nan,nan,nan,nan,98.0,98.0,98.0,53.74011537017761,86.36544160423254,86.36544160423254,86.36544160423254,nan,nan,nan,nan,nan,nan,nan,nan,nan,nan,nan,nan,nan,Train,U1
59,,,9.637394453129167,9.53957525951,9.73989344075,0.06296268113890231,9.806650239676001,9.80664981652,9.80665094825,3.371322612308124e-07,0.0650106318633,0.019493934270599998,0.110527329456,0.06437033105003113,44.2648902964,44.231515246099995,44.338422767299996,0.04997858397786435,0.04009205784462223,0.0343771576129,0.045466337535600004,0.0042095996526457175,140.77889289433332,139.807524131,142.530953557,1.5203212952741911,0.37731509642636357,0.375921876206,0.37806415135,0.0006635744562821245,0.008226058953635356,0.0022923760016300004,0.0166659302065,0.003306649683848313,0.7285037769086666,0.728307174961,0.72878518484,0.00019615958635452914,31.915931521071425,30.068837894899996,35.706341136199995,2.212185222976596,nan,nan,nan,nan,98.0,98.0,98.0,53.74011537017761,86.36544160423254,86.36544160423254,86.36544160423254,nan,nan,nan,nan,nan,nan,nan,nan,nan,nan,nan,nan,nan,Train,U1
60,,,9.633713730378666,9.52236426487,9.75829969463,0.06677335064366642,9.806649984858572,9.806649451030001,9.80665041542,2.950080224267853e-07,0.046129737654450005,0.0143902615986,0.0778692137103,0.04488639750079919,44.4665708631,44.4537402666,44.4794014596,0.018145203583635135,0.04321863822826666,0.0392327235437,0.04741084772009999,0.00331302053002127,143.01467758,142.25216135600002,143.777193804,1.0783607855103141,0.37498277382300005,0.372578947338,0.376569179657,0.0015269266110912352,0.008316168974687392,0.00280284477963,0.0135227056269,0.00266120893613038,0.7258288066742222,0.7242208471610001,0.726973203021,0.0008305396445337041,31.32392789181,24.9717898504,34.0103417254,3.0649367706550303,nan,nan,nan,nan,80.0,80.0,80.0,53.74011537017761,89.2847222042606,89.2847222042606,89.2847222042606,nan,nan,nan,nan,nan,nan,nan,nan,nan,nan,nan,nan,nan,Train,U1
61,,,9.64827948486077,9.5145641017,9.7382981056,0.06783380804025209,9.806650205159999,9.80664938524,9.80665097011,5.600307855063568e-07,0.1112692689981,0.0775005951182,0.14503794287799998,0.04775611658430865,43.188266741300005,42.9841471813,43.5756550355,0.3356500515366025,0.04406918389385,0.03819631240580001,0.0467069140359,0.0032147712691524655,133.5503761806667,132.750125099,134.76255638,1.0675833052614958,0.36953930324466666,0.36683251986599996,0.372737817766,0.002215929037587715,0.009225103454387916,0.00119272595012,0.015949470968,0.003055279263800854,0.7225052761473,0.722077340888,0.723345909479,0.0004845897913986896,39.3458912794,31.553202164,45.3683333523,5.192464895481218,nan,nan,nan,nan,83.5,68.0,99.0,21.920310216782973,89.2847222042606,89.2847222042606,89.2847222042606,nan,nan,nan,nan,nan,nan,nan,nan,nan,nan,nan,nan,nan,Train,U1
62,,,9.679611114279002,9.546315107829999,9.80035642038,0.07358365223856203,9.806650348949002,9.806649898669999,9.80665110975,4.2236894212388086e-07,0.16339115768735002,0.0644463271584,0.261076695513,0.08715756964849253,43.05152095955,43.047365901199996,43.0556760179,0.005876139871023249,0.04403239765665,0.039883439229699995,0.0481813560836,0.005867513277114833,133.5503761806667,132.750125099,134.76255638,1.0675833052614958,0.3679766320198462,0.36746487533,0.368642296057,0.0003636069293682516,0.007329676589706,0.0024026657964499997,0.0167854863375,0.003822283880404295,0.7222228205025454,0.7221830399529999,0.722240981583,1.7585683703153844e-05,44.241901186837495,41.3830293511,48.6318773729,2.7547251958550953,nan,nan,nan,nan,63.0,63.0,63.0,21.920310216782973,89.66232755548708,89.66232755548708,89.66232755548708,nan,nan,nan,nan,nan,nan,nan,nan,nan,nan,nan,nan,nan,Train,U1
63,,,9.621260966124167,9.49174454545,9.70494155258,0.08963535254464884,9.80665013374091,9.80664951498,9.80665077635,3.987995266443316e-07,0.05628238843905,0.0490455798842,0.0635191969939,0.010234392806566513,43.03587951943334,42.9566201888,43.0758647153,0.06864151456156015,0.04314894740344285,0.0357823061204,0.0490696276824,0.005065571341572861,137.777996046,137.777996046,137.777996046,1.0675833052614958,0.36799801044009095,0.367669816682,0.368280921206,0.00021331696289909744,0.007374389767160356,0.00255059227682,0.0179751970078,0.004001238058672218,0.7222837162904999,0.7222215123639999,0.72235176191,3.760963659725628e-05,43.80423525563333,42.1866135013,46.7965307748,1.6975868272150458,nan,nan,nan,nan,65.33333333333333,60.0,75.0,8.386497083606084,89.66232755548708,89.66232755548708,89.66232755548708,nan,nan,nan,nan,nan,nan,nan,nan,nan,nan,nan,nan,nan,Train,U1
64,,,9.648811645699412,9.54165451416,9.76560840204,0.057675283134528084,9.806649968086315,9.806649398380001,9.80665057423,3.323970792948024e-07,0.18244139572100002,0.12073344879100001,0.247660507975,0.06353633448448222,42.996647474899994,42.996647474899994,42.996647474899994,0.06864151456156015,0.04487256235708,0.040159211242999995,0.0539126165082,0.005562216035425053,137.777996046,137.777996046,137.777996046,1.0675833052614958,0.3677849136927777,0.367358557401,0.368179825328,0.00024987154656320104,0.007671507309207619,0.0025997322939299997,0.0201810164464,0.0038016364425191456,0.722552635836,0.722472526561,0.722608803882,5.685392858250042e-05,42.181441571449994,41.0891827045,43.3100074441,0.7221326161428442,nan,nan,nan,nan,50.0,43.0,57.0,9.899494936611665,89.72605869662321,89.72605869662321,89.72605869662321,nan,nan,nan,nan,nan,nan,nan,nan,nan,nan,nan,nan,nan,Train,U1
65,,,9.668260983128667,9.463775269700001,9.827751837989998,0.08926396834790677,9.806650240061876,9.80664969143,9.80665085122,3.441371742279747e-07,0.14857914688594284,0.0700927385396,0.27271290306999996,0.0671287340140744,42.993183847500006,42.9289133978,43.048714501400006,0.06037685093571808,0.039957125015739996,0.033055925810000004,0.0476544336424,0.005640957520550444,135.00024454,135.00024454,135.00024454,1.0675833052614958,0.36731002019466663,0.3658699173800001,0.368810770558,0.001151165519270594,0.007840587378045938,0.00163753187615,0.0146756312997,0.0029613596613144388,0.722526118092,0.722506000481,0.722546235703,2.8450598318766704e-05,31.8013245632,26.5895792954,38.4922710364,5.28270255773906,nan,nan,nan,nan,50.0,43.0,57.0,9.899494936611665,89.72605869662321,89.72605869662321,89.72605869662321,nan,nan,nan,nan,nan,nan,nan,nan,nan,nan,nan,nan,nan,Train,U1
66,,,9.596740736341816,9.434938585660001,9.72731102647,0.10016309895608656,9.806650224158332,9.80664957132,9.80665078629,3.698229399432878e-07,0.12719392056045,0.0865305866678,0.184703911034,0.043439903296736235,42.13404452736666,41.8405079437,42.6821504697,0.47507336714646947,0.04683268446543332,0.0397982974024,0.052208677316800005,0.00505511611439328,137.610479856,137.48769597,137.73326374200002,0.17364263682208284,0.36040242122408334,0.35624836629,0.36560933461999995,0.0034187932999067165,0.010418638897488076,0.0018863590920200001,0.0187206623887,0.0044084583066256,0.7219605066700769,0.721683429323,0.7223006752410001,0.00023170005419588437,34.35756678883333,30.9328716731,39.8925752306,3.860889737272531,nan,nan,nan,nan,29.0,29.0,29.0,9.899494936611665,89.72605869662321,89.72605869662321,89.72605869662321,nan,nan,nan,nan,nan,nan,nan,nan,nan,nan,nan,nan,nan,Train,U1
67,,,9.638416838442001,9.525596226880001,9.71287986858,0.05790591704368803,9.806650236316665,9.80664945411,9.80665061269,3.9916065535426674e-07,0.132595094608,0.099312765009,0.164140840671,0.03244890815255004,40.7747259033,40.4038346013,41.096007371700004,0.30931667104110155,0.04748442337006,0.043341274683999995,0.054785045723400004,0.004647158891423103,141.308112881,141.308112881,141.308112881,0.17364263682208284,0.3480107486844444,0.34273973151,0.35309466538900003,0.003842575003964289,0.00910309380585643,0.0025624318867399996,0.025443983990799997,0.0047672437471425275,0.722101501537,0.7215564299539999,0.7223904835580001,0.000324726384208185,45.7593970799625,40.6547327596,50.0250910852,4.30052310015839,nan,nan,nan,nan,89.75,48.0,105.0,27.849296819369307,86.95401430544695,86.95401430544695,86.95401430544695,nan,nan,nan,nan,nan,nan,nan,nan,nan,nan,nan,nan,nan,Train,U1
68,,,9.646368155309,9.60843030964,9.70617153555,0.029815600427863232,9.806649947262667,9.80664944794,9.806650513220001,3.028431908295156e-07,0.132595094608,0.099312765009,0.164140840671,0.03244890815255004,39.2554117066,39.2554117066,39.2554117066,0.30931667104110155,0.039350541947766667,0.0348871784461,0.0440217992284,0.004570857586559281,137.92028504200002,137.92028504200002,137.92028504200002,0.17364263682208284,0.331108074153,0.32325449134100004,0.339986268481,0.005696762194661594,0.007702687909803666,0.00232239571403,0.0117081357506,0.0024626354739533686,0.7223750303232727,0.722013085654,0.722843381417,0.00024782456551516183,48.59872926367999,44.5346880196,55.265733831599995,4.668939961353284,nan,nan,nan,nan,85.33333333333333,81.0,90.0,4.509249752822894,86.95401430544695,86.95401430544695,86.95401430544695,nan,nan,nan,nan,nan,nan,nan,nan,nan,nan,nan,nan,nan,Train,U1
69,,,9.650117228057693,9.53863459693,9.76656927133,0.055284322771805665,9.806650038643637,9.806649563639999,9.80665044863,3.040633776351879e-07,0.14699239937431427,0.0832248226677,0.293834783612,0.0713002248134571,37.25043411455,36.9069232192,37.5939450099,0.48579776702689076,0.040971293847466665,0.0365896376524,0.0442141383079,0.003937755920144606,137.92028504200002,137.92028504200002,137.92028504200002,0.17364263682208284,0.31649002777230006,0.313842886332,0.32264514501200003,0.0026282501332003457,0.01089013208161875,0.00348037562398,0.018848502367400002,0.003470107531937616,0.7255079714073333,0.724337504066,0.726744998274,0.0007924858953749082,48.236796334266664,46.282309778599995,49.7938380522,1.0299930546798193,nan,nan,nan,nan,18.666666666666668,14.0,22.0,4.163331998932266,87.94484487939405,87.26659757774321,88.62309218104488,0.9591865326375663,nan,nan,nan,nan,nan,nan,nan,nan,nan,nan,nan,nan,Train,U1
70,,,9.640423321284999,9.53998722882,9.80667820099,0.07609576112165362,9.806650454101666,9.806649733430001,9.80665107241,4.178496589909691e-07,0.068729565413,0.068729565413,0.068729565413,0.0713002248134571,37.41921253196667,37.089766777600005,37.7750039314,0.3433774293652159,0.039411814250999995,0.032345055519699996,0.04260700375609999,0.004108558492571166,142.06788053100001,140.89699891200002,143.119347709,0.9173397613471486,0.32173596272444444,0.318895743176,0.327362982529,0.0028119714494114433,0.011452225502464348,0.005250863942600001,0.0182092405054,0.0034222455640941403,0.7292682106369999,0.7274060361489999,0.7319323103309999,0.0014723402393610112,46.03557569577778,42.8546188363,48.3138558995,1.850828831815445,nan,nan,nan,nan,74.4,22.0,96.0,30.253925365148902,87.94484487939405,87.26659757774321,88.62309218104488,0.9591865326375663,nan,nan,nan,nan,nan,nan,nan,nan,nan,nan,nan,nan,Train,U1
71,,,9.655928476251667,9.62023851245,9.735808750750001,0.032520570940218506,9.806650200675,9.80664970431,9.806651049860001,3.9854585867015615e-07,0.0866152187691,0.0452319278998,0.142731822935,0.05039206558071005,38.87779830635,38.8518658707,38.903730742,0.03667400220159586,0.035572047211075,0.0303997554489,0.0407011828496,0.005317387760240331,142.06788053100001,140.89699891200002,143.119347709,0.9173397613471486,0.3314518931970588,0.32879102821199996,0.332603383533,0.0012013231292129646,0.011102638883597221,0.00462673557598,0.0179442974348,0.003851254575478676,0.7352931202895999,0.7331136413480001,0.7363306352719999,0.0014410916014553465,46.839003227099994,44.811726475,49.84961611,1.31260201237595,nan,nan,nan,nan,76.0,60.0,92.0,22.627416997969522,87.94484487939405,87.26659757774321,88.62309218104488,0.9591865326375663,nan,nan,nan,nan,nan,nan,nan,nan,nan,nan,nan,nan,Train,U1
72,,,9.634547615114707,9.54314228233,9.708637595119999,0.0442676518496592,9.806650065065,9.80664944472,9.8066507412,3.7363501369169136e-07,0.06155726504174001,0.025846358723800002,0.10380365667000001,0.03589937637246901,38.90846555905,38.8985092656,38.9184218525,0.014080325227960398,0.0312108672887,0.0254691181383,0.0354281418973,0.005151558553440782,145.45432166,145.45432166,145.45432166,0.9173397613471486,0.33291650120899996,0.332583818561,0.333186449466,0.00023778983742914087,0.007858497462534583,0.00229476160402,0.015185071472499999,0.003776865437496183,0.738987260873,0.7377847915919999,0.739302880423,0.0005188950850348826,50.131216771066676,32.8637971082,60.7754233632,7.670719424819903,nan,nan,nan,nan,51.0,39.0,63.0,16.97056274847714,87.94484487939405,87.26659757774321,88.62309218104488,0.9591865326375663,nan,nan,nan,nan,nan,nan,nan,nan,nan,nan,nan,nan,Train,U1
73,,,9.625937791891335,9.540347559439999,9.719575782849999,0.05686342121294267,9.806650158755454,9.806649567860001,9.80665113236,4.0813186647790216e-07,0.07465783155136667,0.0500813854611,0.10255817124700001,0.026395822834866457,38.8865598577,38.86824072,38.9048789954,0.025907172986316247,0.038739883431325006,0.0362333946663,0.0403984555466,0.0017752390784834436,162.089119329,162.089119329,162.089119329,0.9173397613471486,0.3325414525995,0.33204504660100004,0.33320812517,0.00038155253280938224,0.006058266534367036,0.00246007455871,0.0129853459024,0.0030382578365371017,0.739346987228,0.7393199761079999,0.7394065523209999,3.4041816433635035e-05,48.70320776521819,43.019914458100004,61.827259132200005,6.4399487145106615,nan,nan,nan,nan,58.0,47.0,74.0,11.40175425099138,87.94484487939405,87.26659757774321,88.62309218104488,0.9591865326375663,nan,nan,nan,nan,nan,nan,nan,nan,nan,nan,nan,nan,Train,U1
74,,,9.648264794385385,9.58025075444,9.708500160449999,0.03942907436590642,9.806649956546666,9.80664945345,9.806650588239998,2.7348377086675357e-07,0.108808978645725,0.07178429479380001,0.146227789931,0.03933496153554835,38.815920589550004,38.7969640437,38.8348771354,0.02680860423681624,0.0344800836637,0.0275358074927,0.0404763016011,0.006522132147780076,142.85289619899999,137.20608239799998,148.49971000000002,7.985800661569798,0.33190326812349996,0.331504891876,0.332087740285,0.00016480880265303332,0.005374218528342923,0.000930410860146,0.00962083319891,0.00221455354288377,0.7393765196543333,0.739329420714,0.7394193633730001,3.71319326636437e-05,47.8494123519125,41.911719543800004,55.372067655200006,4.324390769488626,nan,nan,nan,nan,58.0,47.0,74.0,11.40175425099138,87.81269762303751,87.81269762303751,87.81269762303751,0.9591865326375663,nan,nan,nan,nan,nan,nan,nan,nan,nan,nan,nan,nan,Train,U1
75,,,9.648278222909411,9.56845430288,9.70889181381,0.04019891480589178,9.806650084622,9.80664940849,9.80665079141,4.827779792629273e-07,0.0564116068395,0.052065467211,0.060757746468,0.006146369606591866,38.815920589550004,38.7969640437,38.8348771354,0.02680860423681624,0.03588763353756667,0.030912732483099996,0.039068379424199995,0.004363815856754928,125.283714805,125.283714805,125.283714805,7.985800661569798,0.33190842488738465,0.33149948448100003,0.332228191072,0.0002106138998634366,0.006093966600442299,0.0007915474048989999,0.011677570362299999,0.0026283657315064116,0.7394202329035,0.739419254113,0.7394212116940001,1.3842187998772787e-06,51.219302150454546,45.368830251599995,56.117297957,3.1502849007267217,nan,nan,nan,nan,34.666666666666664,6.0,90.0,47.93050524804984,85.68455279186962,85.68455279186962,85.68455279186962,0.9591865326375663,nan,nan,nan,nan,nan,nan,nan,nan,nan,nan,nan,nan,Train,U1
76,,,9.6496230888425,9.613102129089999,9.70562396581,0.022392157362209387,9.806649878986365,9.806649351319999,9.80665054333,3.545443096769112e-07,0.053664913986359995,0.0196430144884,0.08151468083039999,0.023325358615014793,38.9047072583,38.8960819991,38.9133325175,0.01219795853962647,0.0392559307623,0.035908518677,0.0417124222763,0.0030027701952973396,136.563222521,135.943109811,136.881739541,0.5371000024947877,0.33249138294700004,0.332335457781,0.33267661309700003,0.00010112544866170085,0.00643398545492,0.0027704263539299998,0.0108506196365,0.0023572738465165656,0.7394790297043334,0.7394357793790001,0.7395648305179999,5.935483378382862e-05,47.495183621,46.1821729822,49.0713387381,0.8358073095887658,nan,nan,nan,nan,67.0,59.0,75.0,11.313708498984761,82.7255400804564,81.67363494548603,83.77744521542678,1.4876185082050066,nan,nan,nan,nan,nan,nan,nan,nan,nan,nan,nan,nan,Train,U1
77,,,9.648234842782667,9.58363104216,9.731247120710002,0.045912931346808114,9.806650375705,9.80664965361,9.80665093588,4.38660339386177e-07,0.038600994155600005,0.0340077972842,0.041018400379900004,0.003979659237468138,38.899057330450006,38.871516435100006,38.9265982258,0.03894870772386377,0.0377302081809,0.0344673483487,0.04193260942219999,0.003108954827582051,135.75870056933334,130.57072407200002,138.403122283,4.493202492327053,0.332488992929625,0.3323036707,0.332832027647,0.00014292892613606593,0.005738293155702499,0.0028873403409000005,0.00996225982111,0.0019319798290746402,0.7396238110332499,0.7395865814399999,0.739648086134,2.665436730706244e-05,45.65329840583333,41.7930430331,49.0828852661,2.350055833524778,nan,nan,nan,nan,31.0,31.0,31.0,11.313708498984761,82.7255400804564,81.67363494548603,83.77744521542678,1.4876185082050066,nan,nan,nan,nan,nan,nan,nan,nan,nan,nan,nan,nan,Train,U1
78,,,9.649272051016428,9.60428513047,9.685597749780001,0.025194257911692414,9.806650337612501,9.80664994375,9.80665093768,2.66284084333177e-07,0.042538583799450004,0.032347198462700004,0.0564478088325,0.010958078389946321,38.972134771987506,38.9310631356,39.0131526892,0.02570754272806331,0.03793401530853333,0.034394931492,0.0418398610681,0.003735991145655368,135.75870056933334,130.57072407200002,138.403122283,4.493202492327053,0.3332955951058889,0.333145470695,0.333409808608,0.00010121739259349149,0.005658897253859713,0.000986643277542,0.010667825218,0.002413267981821904,0.7396198239193333,0.73961549251,0.739626102619,5.566646924256142e-06,47.59553939713,45.1710518884,49.0954987492,1.0866245165764172,nan,nan,nan,nan,49.5,36.0,63.0,19.091883092036785,82.7255400804564,81.67363494548603,83.77744521542678,1.4876185082050066,nan,nan,nan,nan,nan,nan,nan,nan,nan,nan,nan,nan,Train,U1
79,,,9.642636134900556,9.59773908947,9.713054528119999,0.030787293584320582,9.806650190004287,9.80664976552,9.8066504157,2.1089994454258077e-07,0.0355554789737,0.0100722844157,0.0610386735317,0.03603867935651585,38.972134771987506,38.9310631356,39.0131526892,0.02570754272806331,0.0342177975861,0.024365476679,0.0386703299241,0.0057701786568951745,135.75870056933334,130.57072407200002,138.403122283,4.493202492327053,0.33236659296737503,0.331791626481,0.333419422623,0.0005681746252181798,0.006376033989738964,0.000986643277542,0.017743065386099998,0.0037178419059576825,0.7400680992914286,0.739588210427,0.740385861858,0.0003294210095855668,47.09330762928572,45.0306720133,48.49947542100001,1.1625115151015026,nan,nan,nan,nan,72.0,69.0,76.0,3.605551275463989,86.57981710898856,86.57981710898856,86.57981710898856,1.4876185082050066,nan,nan,nan,nan,nan,nan,nan,nan,nan,nan,nan,nan,Train,U1
80,,,9.64921189791,9.605871456360001,9.6857036565,0.025591454704385074,9.806650292886921,9.80664959907,9.8066513525,5.544362932296892e-07,0.048050865763634994,0.009427898357209998,0.09946155163519999,0.03622570063949068,38.8856944534,38.8738758485,38.8975130583,0.016714031337909392,0.038279267354249996,0.036607469884,0.0399510648245,0.0023642786559685777,134.213140272,134.213140272,134.213140272,4.493202492327053,0.33285738529175,0.331988481459,0.333773679486,0.0005966455759940117,0.006240335021021786,0.00241812093903,0.013608744050300001,0.002828155997053376,0.7404303653066251,0.740412770363,0.740447955141,1.1640109706184101e-05,47.54232196352222,46.6699705407,48.792398239300006,0.6812088958142162,nan,nan,nan,nan,53.0,53.0,53.0,3.605551275463989,86.57981710898856,86.57981710898856,86.57981710898856,1.4876185082050066,nan,nan,nan,nan,nan,nan,nan,nan,nan,nan,nan,nan,Train,U1
81,,,9.653861954934118,9.60158462251,9.68612767819,0.025250149909487464,9.806650026011,9.80664937076,9.80665039244,2.713605448992273e-07,0.04443165014666667,0.037322776157400005,0.048670229186,0.006194361741437159,38.8856944534,38.8738758485,38.8975130583,0.016714031337909392,0.03372198934554,0.0315273536471,0.0360271293061,0.002048293814684006,132.13706263,131.761995319,132.512129941,0.5304252780190207,0.33298572145755556,0.33223738931999997,0.33355172502700003,0.0004245008932207102,0.007099630320831111,0.00129277160594,0.018449926886,0.0032360155258044756,0.7404260487435,0.740377654515,0.74048961654,4.553619905893647e-05,44.78428618055,38.9079166341,48.8647006792,4.060317568718813,nan,nan,nan,nan,53.0,53.0,53.0,3.605551275463989,82.34409972185566,82.34409972185566,82.34409972185566,1.4876185082050066,nan,nan,nan,nan,nan,nan,nan,nan,nan,nan,nan,nan,Train,U1
82,,,9.64749611348389,9.56862636799,9.68134158054,0.025842463128742884,9.806650309570909,9.8066498091,9.80665062636,2.953161241698028e-07,0.0719611790385,0.0313310754138,0.142746452946,0.03738446216758828,38.98738652083333,38.9559274441,39.0060734595,0.02740440381069817,0.0368559889632,0.0351844056396,0.038768295347099996,0.0015449552782457938,132.13706263,131.761995319,132.512129941,0.5304252780190207,0.3340059452273077,0.332964111189,0.334892335922,0.0007402545680252546,0.006746975864734545,0.00139790832777,0.0142258401845,0.0035035517330484654,0.7405459672666667,0.7404626597570001,0.74063557202,7.484417077011988e-05,49.86773758677142,47.700512122,53.291570978900005,1.8060033560996163,nan,nan,nan,nan,32.0,32.0,32.0,3.605551275463989,82.34409972185566,82.34409972185566,82.34409972185566,1.4876185082050066,nan,nan,nan,nan,nan,nan,nan,nan,nan,nan,nan,nan,Train,U1
83,,,9.64506005403909,9.61047895195,9.67488845774,0.021474275445255948,9.806650126467499,9.806649496910001,9.80665077084,3.7200428376131376e-07,0.0406789898311,0.0406789898311,0.0406789898311,0.03738446216758828,39.0970891204,39.0877564501,39.106421790700004,0.013198388911417934,0.03658012433451111,0.030325525717099996,0.0440217992284,0.003717003276489234,132.1721284756,130.716284161,133.375057916,1.115113473612509,0.33442185986882356,0.334250985409,0.334936787636,0.0001929708950326777,0.008558366059903332,0.00503412864092,0.0216417076218,0.0035041477966839293,0.7410232239536001,0.74061534985,0.7412134957790001,0.00027200143697077983,45.9302850647,45.9302850647,45.9302850647,1.8060033560996163,nan,nan,nan,nan,57.0,57.0,57.0,3.605551275463989,84.0210815697428,83.881402152422,84.16076098706361,0.1975365263594559,nan,nan,nan,nan,nan,nan,nan,nan,nan,nan,nan,nan,Train,U1
84,,,9.646481839817143,9.61364858236,9.68735061958,0.022451147390435702,9.806650182976922,9.80664962226,9.806651017150001,4.586943363653796e-07,0.04935110949930001,0.0178330908892,0.0905610964076,0.023307525738805773,38.983296455200005,38.9752136258,38.9913792846,0.011430846959826952,0.03875677401035,0.029818239103599996,0.042962285018699996,0.006101338920636592,133.2915976616,131.402164965,134.746189046,1.2369009800191069,0.33283027725479997,0.33254428769600003,0.333426491552,0.0003540640111059768,0.008125097110236129,0.0017151042054000002,0.0189930984063,0.003358828093680079,0.7412762848738333,0.7412084785199999,0.741319709948,3.774743973741771e-05,51.19383616849999,49.81541562939999,53.0662712493,1.294476926156424,nan,nan,nan,nan,45.8,35.0,58.0,8.5848704125339,82.38841726884174,82.38841726884174,82.38841726884174,0.1975365263594559,nan,nan,nan,nan,nan,nan,nan,nan,nan,nan,nan,nan,Train,U1
85,,,9.653895679647501,9.5986282786,9.692619538099999,0.0304898403223737,9.806650162359999,9.80664934495,9.806651165089999,4.5599300809070617e-07,0.05471569472793334,0.034898387647800004,0.08365063576830001,0.02562311185190626,38.73640230575,38.7246656049,38.7481390066,0.016598201519587408,0.0355949906501,0.0243871633812,0.0452188616058,0.006860202799185256,135.24786761000001,134.532052294,135.963682926,1.0123157280415684,0.33171191155908336,0.33107939699,0.332253741055,0.0003512372591458053,0.007712521803474446,0.00236811293399,0.0140740393042,0.0034886462643804067,0.741679748393,0.7416268074429999,0.7417304939980001,5.0862561103851155e-05,59.31605480632,56.7737551226,61.829030618199994,1.9686659844734309,nan,nan,nan,nan,29.5,27.0,32.0,3.5355339059327378,82.38841726884174,82.38841726884174,82.38841726884174,0.1975365263594559,nan,nan,nan,nan,nan,nan,nan,nan,nan,nan,nan,nan,Train,U1
86,,,9.646749730820716,9.56205732582,9.70538634906,0.0366681853324975,9.806650124325456,9.8066494262,9.80665092143,4.535553686870336e-07,0.0752966963729,0.0347725453185,0.0975555125918,0.028863265413298013,38.863079665233336,38.5720439184,39.0144739744,0.16613825896951068,0.03179082814346667,0.025446037956699998,0.0365896376524,0.00573040101011062,140.1470293655,139.567932171,140.72612656,0.8189671063941215,0.3323797749871,0.328626971175,0.333961826412,0.0017395328422267376,0.010016495879696071,0.0041217093554099995,0.018848687639799997,0.003581814540172815,0.74241726177425,0.742178467132,0.742556076873,0.00017418371784959157,66.2177487271,65.1311360058,67.4894970817,0.9031372455321595,nan,nan,nan,nan,37.0,37.0,37.0,3.5355339059327378,87.5715915223155,87.5715915223155,87.5715915223155,0.1975365263594559,nan,nan,nan,nan,nan,nan,nan,nan,nan,nan,nan,nan,Train,U1
87,,,9.629508882141666,9.58922534196,9.68202386792,0.027902339649577352,9.806650254159333,9.80664964516,9.80665084518,3.3810364315364926e-07,0.06872255771358333,0.0183149700243,0.114673014209,0.034606646629162935,38.847096521800005,38.3381693342,39.3356538034,0.5302683102194009,0.035385683279875,0.032664548803900004,0.039571883107500004,0.0032159733210071046,141.1874508045,139.770840013,142.604061596,2.0033901939433925,0.33310735201275005,0.328035488999,0.340683895058,0.005073309900917644,0.008956102303306665,0.0037765425772399996,0.0134179601406,0.0028803371632470697,0.742957807523625,0.7429036426360001,0.7430012758399999,4.127247120993873e-05,68.26887316486666,65.5597799645,71.5228565545,3.0186502933133537,nan,nan,nan,nan,38.25,24.0,53.0,15.903353943953666,87.7751637569821,87.7751637569821,87.7751637569821,0.1975365263594559,nan,nan,nan,nan,nan,nan,nan,nan,nan,nan,nan,nan,Train,U1
88,,,9.645860330296667,9.61002392868,9.68997864312,0.026392918443221742,9.806650091129445,9.8066493876,9.80665077144,4.134294800646033e-07,0.0802051215236,0.0787984317402,0.081611811307,0.001989359769735952,40.212818026775,39.919442832899996,40.6029250176,0.28960306732675517,0.03584235697660001,0.0351390569769,0.0366577883245,0.0007655496757118964,138.972627199,137.234166711,140.711087687,2.458554399779351,0.34473125833174995,0.34118105456500003,0.34778126282099997,0.002512755792856964,0.006172999515670967,0.00175860445078,0.0128118959414,0.002648745192392134,0.7433587317465999,0.743150683778,0.743467019772,0.00013115917461471548,70.00711509928001,67.9157122089,72.4624853599,2.1932491531004707,nan,nan,nan,nan,38.25,24.0,53.0,15.903353943953666,87.7751637569821,87.7751637569821,87.7751637569821,0.1975365263594559,nan,nan,nan,nan,nan,nan,nan,nan,nan,nan,nan,nan,Train,U1
89,,,9.49478657821,8.17109709729,10.2102246262,0.5281318782375263,9.806650252104737,9.80664963015,9.80665087509,3.539219948315768e-07,0.7839297956750001,0.27235860086999997,1.61307336882,0.7245813852585496,77.2533590605,40.107766313,114.39895180799999,52.53180104590218,0.21254272048174996,0.0340859246997,1.08594389474,0.4278852119792603,138.972627199,137.234166711,140.711087687,2.458554399779351,0.5413982422683333,0.338584192952,0.8644950104000001,0.2134403110044384,0.4381631251004361,0.00377694326222,1.48367990759,0.5240301838217759,0.4944868309070625,0.0779560063995,0.7436418428820001,0.3283455274401058,59.269025922325,55.51934040770001,65.1330954802,4.211466505815205,nan,nan,nan,nan,114.33333333333333,104.0,120.0,8.962886439832502,86.6293557658206,86.6293557658206,86.6293557658206,0.1975365263594559,nan,nan,nan,nan,nan,nan,nan,nan,nan,nan,nan,nan,Train,U1
90,,,9.642778106345714,9.585218321360001,9.71309691221,0.04074528233844113,9.806650009493751,9.806649445780002,9.806650752100001,4.1938619149822335e-07,0.061521893970000005,0.061521893970000005,0.061521893970000005,0.7245813852585496,106.92469546500001,104.07401073,109.77538020000001,4.031477014286965,0.053133149829619995,0.032907948293499995,0.11831529101399998,0.03652811957980602,174.202609593,174.202609593,174.202609593,2.458554399779351,0.7935606562873333,0.78298723661,0.817288051575,0.01072844271710009,0.01382137375870269,0.00331804115321,0.0458250906358,0.009727067839360422,0.07681050184335714,0.0735327890683,0.07852226741010002,0.002080994065875768,57.36930519662,56.0008434614,58.8021150184,0.9165065360834208,nan,nan,nan,nan,29.0,14.0,43.0,11.726039399558575,86.6293557658206,86.6293557658206,86.6293557658206,0.1975365263594559,nan,nan,nan,nan,nan,nan,nan,nan,nan,nan,nan,nan,Train,U1
91,,,9.685276883209445,9.62066208249,9.8095142278,0.04818107221678931,9.806650254819,9.80664946428,9.80665098129,4.5863864204394855e-07,0.0893355507872,0.0893355507872,0.0893355507872,0.7245813852585496,101.37626817399999,101.37626817399999,101.37626817399999,4.031477014286965,0.041279707000959995,0.037034750062300004,0.0454083024276,0.0030643054507109146,177.33463553066667,175.245738257,178.601808922,1.8226972269732862,0.7769198662514001,0.767817645782,0.783030109598,0.005801348217161738,0.011897785398115335,0.00369659713054,0.06328918030809999,0.011659447969933876,0.091668380854875,0.0827179283529,0.09642090259680001,0.0049794548042762414,61.498041094,61.3890333912,61.6070487968,0.15416017170289506,nan,nan,nan,nan,37.0,31.0,41.0,4.546060565661952,86.6293557658206,86.6293557658206,86.6293557658206,0.1975365263594559,nan,nan,nan,nan,nan,nan,nan,nan,nan,nan,nan,nan,Train,U1
92,,,9.639771988173,9.20219808266,9.7350971396,0.15924252027463523,9.80665012747,9.80664941768,9.806650905269999,5.582095546147033e-07,0.0448076426468,0.0448076426468,0.0448076426468,0.7245813852585496,101.37626817399999,101.37626817399999,101.37626817399999,4.031477014286965,0.04468851083548,0.029968067050099998,0.0654224728762,0.01348834385208524,177.33463553066667,175.245738257,178.601808922,1.8226972269732862,0.7709496541235,0.7646040902719999,0.77839356401,0.006647266403927032,0.019050340572254,0.00474356952266,0.0532634548857,0.015172334863362983,0.08758629802661999,0.07400594799850001,0.09861460946280001,0.010594333933835789,62.815197854320004,61.796749566,63.8350645458,0.8815657038629764,nan,nan,nan,nan,47.0,47.0,47.0,0.0,86.6293557658206,86.6293557658206,86.6293557658206,0.1975365263594559,nan,nan,nan,nan,nan,nan,nan,nan,nan,nan,nan,nan,Train,U1
