time,activityrecognition#0,activityrecognition#1,android.sensor.accelerometer#mean,android.sensor.accelerometer#min,android.sensor.accelerometer#max,android.sensor.accelerometer#std,android.sensor.gravity#mean,android.sensor.gravity#min,android.sensor.gravity#max,android.sensor.gravity#std,android.sensor.linear_acceleration#mean,android.sensor.linear_acceleration#min,android.sensor.linear_acceleration#max,android.sensor.linear_acceleration#std,android.sensor.orientation#mean,android.sensor.orientation#min,android.sensor.orientation#max,android.sensor.orientation#std,android.sensor.gyroscope_uncalibrated#mean,android.sensor.gyroscope_uncalibrated#min,android.sensor.gyroscope_uncalibrated#max,android.sensor.gyroscope_uncalibrated#std,android.sensor.magnetic_field_uncalibrated#mean,android.sensor.magnetic_field_uncalibrated#min,android.sensor.magnetic_field_uncalibrated#max,android.sensor.magnetic_field_uncalibrated#std,android.sensor.rotation_vector#mean,android.sensor.rotation_vector#min,android.sensor.rotation_vector#max,android.sensor.rotation_vector#std,android.sensor.gyroscope#mean,android.sensor.gyroscope#min,android.sensor.gyroscope#max,android.sensor.gyroscope#std,android.sensor.game_rotation_vector#mean,android.sensor.game_rotation_vector#min,android.sensor.game_rotation_vector#max,android.sensor.game_rotation_vector#std,android.sensor.magnetic_field#mean,android.sensor.magnetic_field#min,android.sensor.magnetic_field#max,android.sensor.magnetic_field#std,android.sensor.pressure#mean,android.sensor.pressure#min,android.sensor.pressure#max,android.sensor.pressure#std,android.sensor.light#mean,android.sensor.light#min,android.sensor.light#max,android.sensor.light#std,sound#mean,sound#min,sound#max,sound#std,speed#mean,speed#min,speed#max,speed#std,android.sensor.proximity#mean,android.sensor.proximity#min,android.sensor.proximity#max,android.sensor.proximity#std,android.sensor.step_counter#mean,android.sensor.step_counter#min,android.sensor.step_counter#max,android.sensor.step_counter#std,target,user
1,,,11.403175815322856,3.42608956438,23.358542758200002,3.9155596304264657,9.80665018136,9.80665018136,9.80665018136,2.1764372074238616e-07,2.77035158861,2.77035158861,2.77035158861,0.387321759572754,99.21305881014,62.9049748281,115.12601458799999,21.457620071454414,1.5861162309842,0.429513060514,3.0107650901,1.0080251390812016,92.52818128195,91.8934717825,93.1628907814,0.8976147822892241,0.7117682826695,0.490250816597,0.933285748742,0.31327300482225146,2.6817423782828,0.639013856354,8.148082922839999,1.9995106759412882,0.594483882574,0.36513342163199997,0.823834343516,0.3243505324006973,44.66045170651201,19.6053473577,66.865515485,13.725032572580652,nan,nan,nan,nan,nan,nan,nan,nan,73.7022893809308,73.7022893809308,73.7022893809308,nan,1.25,1.25,1.25,nan,nan,nan,nan,nan,nan,nan,nan,nan,Walking,U3
2,,,11.053910009713334,3.9887907416400004,18.4055395905,4.343611529023424,9.806651109343333,9.806649217,9.80665249455,1.6966066721031098e-06,5.9240290457024996,2.83219263553,8.42068946621,2.595537987283363,277.48492721957143,255.305159093,311.430882182,19.686154827400603,0.8530767857505713,0.291986958614,1.7524732701499999,0.5190835101568556,89.0647587433,89.0647587433,89.0647587433,0.8976147822892241,0.9993109534554,0.9988407926999999,0.999872318712,0.0004567829046976927,0.7757170745744999,0.333590243256,1.24807961759,0.3581276220571742,0.96422943537,0.96422943537,0.96422943537,0.3243505324006973,54.802402280732,45.6777686075,65.1861786219,5.5644209062306915,nan,nan,nan,nan,nan,nan,nan,nan,73.7022893809308,73.7022893809308,73.7022893809308,nan,1.25,1.25,1.25,nan,nan,nan,nan,nan,nan,nan,nan,nan,Walking,U3
3,,,10.376570955042272,4.12149195675,17.063062313499998,4.372576188332328,9.806651031075,9.806650836160001,9.80665122599,2.7565143608008557e-07,4.287340148626,2.21582186379,5.41941774712,1.2492673881183387,277.48492721957143,255.305159093,311.430882182,19.686154827400603,1.2521614464455,0.43176248942100004,3.35779000932,1.0981554582641857,91.6769975239,91.6769975239,91.6769975239,0.8976147822892241,0.9795058427369999,0.968653765259,0.9912060068690001,0.011300014983993334,1.2017934215727,0.528166629792,2.0614258079099996,0.5000366422306866,0.9985665287550001,0.9971359483390001,0.9999971091709999,0.002023146226372425,70.15766912484644,63.4980996996,75.02084179970001,2.6839188580316615,nan,nan,nan,nan,nan,nan,nan,nan,73.7022893809308,73.7022893809308,73.7022893809308,nan,1.25,1.25,1.25,nan,nan,nan,nan,nan,nan,nan,nan,nan,Walking,U3
4,,,11.061394622899474,4.34245567022,16.7454873625,4.1247060434804625,9.806651031075,9.806650836160001,9.80665122599,2.7565143608008557e-07,6.094710919090001,6.094710919090001,6.094710919090001,1.2492673881183387,295.6965262536,267.593244643,316.71275430599997,19.121551396361205,1.414528704415,0.460342802063,2.6534383634,0.9746612663595536,92.4623694802,91.7522777306,93.5645874851,0.9676977377444216,0.9947122364932499,0.991079658018,0.997206421517,0.0024733110196163838,1.1871372515248124,0.225734127349,1.96524563532,0.4884033555440075,0.9947830762809999,0.991367059666,0.998199092896,0.004830977026224777,63.53361819444401,56.204636559899996,72.733747906,4.4082012663539825,nan,nan,nan,nan,nan,nan,nan,nan,73.7022893809308,73.7022893809308,73.7022893809308,nan,1.25,1.25,1.25,nan,nan,nan,nan,nan,nan,nan,nan,nan,Walking,U3
5,,,9.987156153388334,3.18586754345,15.7418466135,4.492538598412769,9.806651031075,9.806650836160001,9.80665122599,2.7565143608008557e-07,7.402191081605,5.66559349773,9.13878866548,2.455919855500374,291.3039459865,277.290495813,305.31739616,19.818011291003288,1.0591829861639166,0.353080997642,2.36944720958,0.6033048812573997,92.75283084739999,90.93273183379999,94.572929861,2.5740087098950224,0.9869305154570001,0.978443747007,0.998402750361,0.009702962113747354,1.4007996883309093,0.232600251819,2.60530067552,0.8818220977450483,0.9968979471818332,0.991638572071,0.999900544704,0.003023911164369675,61.11072262351482,53.153802021400004,68.4243418608,4.546799683788833,nan,nan,nan,nan,nan,nan,nan,nan,73.7022893809308,73.7022893809308,73.7022893809308,nan,1.25,1.25,1.25,nan,nan,nan,nan,nan,nan,nan,nan,nan,Walking,U3
6,,,10.335784030550869,3.33216261865,17.743662445,4.272021763089212,9.806653277130001,9.806653277130001,9.806653277130001,2.7565143608008557e-07,8.8239176427,5.9708920321,11.6769432533,4.0347875123083,299.86105860949993,265.714551724,321.658940222,20.349665542699544,1.3315658420804,0.23527518369699998,2.8187522029100003,0.9859878409897739,91.66588072644998,90.11873677959998,93.2130246733,2.1879919525787184,0.9856582686398571,0.97612123705,0.993053389134,0.006250457226633072,1.7342936553065,0.628764586108,3.6891653447800006,1.4002488474509347,0.9914089996175,0.988797893044,0.994020106191,0.0036926623290452396,58.05137616716923,51.054702953900005,64.4484984655,3.9299004448030983,nan,nan,nan,nan,nan,nan,nan,nan,73.7022893809308,73.7022893809308,73.7022893809308,nan,1.25,1.25,1.25,nan,nan,nan,nan,nan,nan,nan,nan,nan,Walking,U3
7,,,8.944267378010666,3.5110701309800003,16.7044443357,3.87879854264419,9.80664972398,9.80664972398,9.80664972398,2.7565143608008557e-07,8.003092836510001,3.6179817892000004,13.4261580819,4.985789028343909,324.8457777135,295.566867361,356.496945305,24.9993133941694,1.4940744113965,0.251619865567,2.77974183196,0.8866127841030574,91.3361964462,91.3361964462,91.3361964462,2.1879919525787184,0.9090259033475,0.837448727414,0.989032716521,0.05069702196987279,1.674226736391286,0.35375137293000003,3.31385430499,1.0117476322752974,0.9939875984930001,0.988239997855,0.9991993380740001,0.005499285845748946,68.40228601217918,53.584298105500004,84.9626562762,8.843967582316125,nan,nan,nan,nan,nan,nan,nan,nan,73.7022893809308,73.7022893809308,73.7022893809308,nan,1.25,1.25,1.25,nan,nan,nan,nan,nan,nan,nan,nan,nan,Walking,U3
8,,,11.01810977737231,3.4879586322400002,17.9013816718,4.614700045273236,9.80665129699,9.80665129699,9.80665129699,2.7565143608008557e-07,7.3607739716,7.3607739716,7.3607739716,4.985789028343909,252.96986748750004,131.380863201,372.96484456800005,136.08149540465644,1.8848089057076363,0.310068864916,4.2118528053699995,1.171672541137656,83.37048559295,78.5265440424,88.2144271435,6.850367836130368,0.80722325260425,0.7895211909990001,0.8161803695700001,0.012354947457611282,1.2522880757288155,0.08667536514260002,2.6764659378,0.7857383472605586,0.9283003055260001,0.915937175336,0.9406634357160001,0.01748410638808228,83.00536362417499,76.8840972875,87.6678003275,2.7488296248630095,1011.2043,1011.2043,1011.2043,nan,nan,nan,nan,nan,73.7022893809308,73.7022893809308,73.7022893809308,nan,1.25,1.25,1.25,nan,nan,nan,nan,nan,nan,nan,nan,nan,Walking,U3
9,,,10.864251881694376,3.6947677626699997,18.7383997878,4.587479682875357,9.80665011331,9.80665011331,9.80665011331,2.7565143608008557e-07,4.69450077321,3.8177719321699994,6.89805779515,1.4726258105793364,139.15735192399998,139.15735192399998,139.15735192399998,136.08149540465644,1.5686167677003997,0.37448189814099997,3.97781518318,1.1232556061518153,85.2512728464,84.7514979587,85.7510477341,0.7067884243188295,0.8675834140745,0.840165238968,0.895001589181,0.038775155091132704,1.4273860909495624,0.213927487401,3.2495189320200004,1.045125133190844,0.9441810609475001,0.932207876451,0.9561542454440001,0.016932639899745625,83.0275502862625,78.49693926329999,88.028998426,2.6139201686405547,1011.2043,1011.2043,1011.2043,nan,nan,nan,nan,nan,73.7022893809308,73.7022893809308,73.7022893809308,nan,1.25,1.25,1.25,nan,nan,nan,nan,nan,nan,nan,nan,nan,Walking,U3
10,,,8.079407672144116,2.34598242235,15.058940335299999,4.1926420261709625,9.80665205675,9.80665129946,9.80665315372,7.866776500475438e-07,4.69450077321,3.8177719321699994,6.89805779515,1.4726258105793364,127.0384953665,126.03891192100001,128.038078812,1.4136244653497285,1.2441871621810001,0.49404359193400005,2.7299565667900003,0.807872058253935,85.76675211023333,84.4270672681,87.7053171492,1.7192218263948313,0.8275454937786666,0.810144988864,0.852642875808,0.022269913261280604,1.466494724181923,0.24632899943599998,2.98318385032,0.9660410211956045,0.9490402837930001,0.9391658576530001,0.960080768702,0.011178965365727565,81.81803775300416,77.5978916455,88.896321877,3.04942412499029,1011.1507,1011.1507,1011.1507,nan,nan,nan,nan,nan,73.7022893809308,73.7022893809308,73.7022893809308,nan,1.25,1.25,1.25,nan,nan,nan,nan,nan,nan,nan,nan,nan,Walking,U3
11,,,9.573858608304118,1.81601408887,15.376087565999999,4.497110134598452,9.80665216085,9.80665195087,9.80665238513,2.174828832060862e-07,5.462008423032501,3.03443695168,6.87097573528,1.686323192626742,362.682414144,362.682414144,362.682414144,1.4136244653497285,1.3523906497766667,0.37086201786600004,3.1887632180799996,0.8104260007815952,81.61664539895,80.2210081977,83.01228260020001,1.9737290581601843,0.8315093294366249,0.795295448461,0.872733273676,0.029390375368712165,2.3473817525453997,0.485085687777,3.5524107214699994,1.2725318511868404,0.9208983495886667,0.908409963658,0.9361265906730001,0.01405997716817008,82.47879781631156,77.7285065642,88.184708291,2.9992948683088123,1011.1507,1011.1507,1011.1507,nan,nan,nan,nan,nan,73.7022893809308,73.7022893809308,73.7022893809308,nan,1.25,1.25,1.25,nan,nan,nan,nan,nan,nan,nan,nan,nan,Walking,U3
12,,,10.01106839241316,4.49259574691,16.0422612548,4.175548006588996,9.806650632982,9.806649945439998,9.806651848560001,8.224086213235907e-07,5.514132217226667,3.41756769098,9.13812837405,3.1513471994904254,245.60493447,129.906537397,361.303331543,163.6222422854642,1.226604936308182,0.316237482141,2.3751490182099997,0.7656013401361571,78.3917493895,77.1713039688,79.61219481020001,1.7259704660900814,0.778098627191,0.767903919465,0.788046983785,0.011075248004837107,1.7944119448205,0.36890818753399995,3.25949705265,1.028925955406367,0.9171109379919999,0.912289459274,0.92193241671,0.006818600593688898,81.28913708967693,73.1383874584,88.18922279610001,3.906340525995089,1011.1507,1011.1507,1011.1507,nan,nan,nan,nan,nan,73.7022893809308,73.7022893809308,73.7022893809308,nan,1.25,1.25,1.25,nan,nan,nan,nan,nan,nan,nan,nan,nan,Walking,U3
13,,,11.28793587667647,3.4199556141400005,16.2538780944,3.8767652374500297,9.806651405630001,9.80665107445,9.806651736810002,4.683592486567205e-07,6.43743594538,5.62074772592,7.52561976999,0.7297931974145128,179.0117217085,108.83195963,357.420592441,119.28367695049103,1.7104049278468998,0.278490061218,3.83921502685,1.1030930881667949,76.8055834966,76.8055834966,76.8055834966,1.7259704660900814,0.7962405315458,0.771397388066,0.828594449227,0.024917525512710977,0.9176462941329998,0.381190659374,1.3671397056999999,0.40199945331456477,0.9204638404271428,0.915407744136,0.9332086896230001,0.006907122207616492,78.52833319351538,73.5028806915,83.3829050125,2.627912784666899,1011.0861,1011.0861,1011.0861,nan,nan,nan,nan,nan,73.7022893809308,73.7022893809308,73.7022893809308,nan,1.25,1.25,1.25,nan,nan,nan,nan,nan,nan,nan,nan,nan,Walking,U3
14,,,11.417801139687915,3.3533096103299997,24.3500615815,5.695486646071498,9.806650959626001,9.80664963477,9.80665222286,1.0889932474400671e-06,4.365598727831999,0.304085322168,8.59417595645,3.959644454764269,286.05122792366666,131.107174622,371.899264907,134.446652205447,2.5651208958666665,2.08495464384,2.8537818567799995,0.4186639800992841,76.8055834966,76.8055834966,76.8055834966,1.7259704660900814,0.7809255677768572,0.718781154535,0.8199748433409999,0.03616173729520438,1.5021650436909166,0.328620590144,3.21093781516,0.8523531882879951,0.91356954480775,0.9085571884260001,0.9207594044399999,0.0053249306260293484,80.67172196937858,74.01805899,85.7766486512,2.7742114384204117,1011.13,1011.13,1011.13,nan,nan,nan,nan,nan,73.7022893809308,73.7022893809308,73.7022893809308,nan,1.25,1.25,1.25,nan,nan,nan,nan,nan,nan,nan,nan,nan,Walking,U3
15,,,13.035531033214374,3.28387847194,22.1323573197,5.187835307798884,9.806651255135002,9.806650855060001,9.80665180296,4.010126643114624e-07,6.186998146403334,2.03906181263,8.16629212539,2.1450346076957256,115.387617498,114.431554135,116.34368086100001,1.3520777744426393,2.0804351238741248,0.453153760653,2.88666281585,0.80274156092481,81.8388756185,81.8388756185,81.8388756185,1.7259704660900814,0.7684997432028333,0.7345440276559999,0.8154997682070001,0.032941288246382525,1.977261846285,1.0579413099700001,3.5047599985300004,0.9492267154091089,0.9093423562299999,0.9093423562299999,0.9093423562299999,0.0053249306260293484,81.78141565747408,78.6181874494,87.70258970559999,2.6107374070411655,1011.13,1011.13,1011.13,nan,nan,nan,nan,nan,73.7022893809308,73.7022893809308,73.7022893809308,nan,1.25,1.25,1.25,nan,nan,nan,nan,nan,nan,nan,nan,nan,Walking,U3
16,,,9.590456475400625,2.6637485822499998,16.4032399489,4.126642206004288,9.806651111139999,9.806651111139999,9.806651111139999,4.010126643114624e-07,4.608460743855,1.5969459299899997,7.619975557719999,4.258925093055369,176.27373018667498,98.0641501357,370.467393966,129.92287021704053,1.619233504024333,0.549582442838,2.9475313133200003,0.7561145349318555,76.21501095670001,75.7744906779,76.6555312355,0.6229897527793387,0.7307772856485,0.727819545011,0.733735026286,0.004182876923534521,1.4967800625327856,0.27575333915600003,4.4140329315599995,1.3561056436715528,0.8866709980681999,0.860673092276,0.909097604298,0.017370850530341327,84.49180043290434,78.6858001942,90.6174586639,3.0781985485399166,1011.13,1011.13,1011.13,nan,nan,nan,nan,nan,73.7022893809308,73.7022893809308,73.7022893809308,nan,1.25,1.25,1.25,nan,nan,nan,nan,nan,nan,nan,nan,nan,Walking,U3
17,,,9.736486730612608,4.4030552538,21.9460370879,4.38896684042485,9.8066505295,9.80664981131,9.806651247689999,1.0156740369849502e-06,3.294226391865,2.15052132368,4.4365675871,1.0542546179802652,139.529985184,139.529985184,139.529985184,129.92287021704053,1.2340699201135,0.484117199599,3.16379283065,0.8657948555436614,83.9827456237,83.9827456237,83.9827456237,0.6229897527793387,0.772509811067,0.759705323427,0.7971949239149999,0.021382924909543688,1.5318072032186667,0.331254225792,2.52498060995,0.7669946178651845,0.9219101547135,0.9111857986499999,0.935770597439,0.010200659873569115,82.45365996879667,77.5625246822,87.88453375350001,2.744416889973338,1011.13,1011.13,1011.13,nan,nan,nan,nan,nan,73.7022893809308,73.7022893809308,73.7022893809308,nan,1.25,1.25,1.25,nan,nan,nan,nan,nan,nan,nan,nan,nan,Walking,U3
18,,,10.091158784966666,4.54832395271,15.7791105412,3.7696150303285463,9.806650979732002,9.806649807460001,9.80665175332,8.074273960951221e-07,6.511777735727999,4.32831629068,11.9853480197,3.113014794238166,120.53953994525001,104.255735505,143.177462434,16.704692273372363,0.9609766440408573,0.37053939390199997,1.8561521127400002,0.4934568493024295,83.9827456237,83.9827456237,83.9827456237,0.6229897527793387,0.8072900893589999,0.755697695971,0.850787917589,0.043786866608504005,1.4177652752516363,0.608647184932,3.02406972036,0.8340687126895671,0.934670737587,0.910560490378,0.9587809847959999,0.034097038595135805,82.40936747328846,74.30706444350001,90.051300279,3.7902409099708745,1011.13,1011.13,1011.13,nan,nan,nan,nan,nan,73.7022893809308,73.7022893809308,73.7022893809308,nan,1.25,1.25,1.25,nan,nan,nan,nan,nan,nan,nan,nan,nan,Walking,U3
19,,,10.644630319011764,4.7643563791000005,16.528599411,3.958762602248175,9.806650697173332,9.80664971715,9.806652321469999,1.4166639543206842e-06,3.7647286690039996,2.67640882864,4.7024233117300005,0.7964457463911908,120.53953994525001,104.255735505,143.177462434,16.704692273372363,1.091500835742,0.162958495162,1.90958286012,0.6617203913689222,83.9827456237,83.9827456237,83.9827456237,0.6229897527793387,0.8149776145873333,0.7773902014890001,0.8541645555699999,0.026575888805048468,0.899250139201625,0.197399445781,1.85784716896,0.5754409828753316,0.9194887094036668,0.892742817929,0.944005896221,0.025704107499194433,80.70761805036538,64.8996711371,91.7192800216,7.225523278384658,1011.0433300000001,1011.0433300000001,1011.0433300000001,nan,nan,nan,nan,nan,73.7022893809308,73.7022893809308,73.7022893809308,nan,1.25,1.25,1.25,nan,nan,nan,nan,nan,nan,nan,nan,nan,Walking,U3
20,,,10.120932086805263,4.40172705183,16.0261170722,3.4066253213758952,9.806649894232502,9.806649239430001,9.8066509359,7.277084848552748e-07,5.8100232944700005,5.8100232944700005,5.8100232944700005,0.7964457463911908,133.681103409,117.7442809,158.787298303,17.828802755425738,1.8964495877445,0.762619922516,2.73990376935,0.7024664738848108,83.9827456237,83.9827456237,83.9827456237,0.6229897527793387,0.8051904303501667,0.7729731793160001,0.848066694187,0.02963807919176519,1.5511772993434543,0.314571543143,3.8049632121800006,0.9317139820049323,0.920830318758,0.9142768756370001,0.927501291095,0.005800634044463853,37.150798178355,8.44128460632,108.24115401600001,34.29876263630995,1011.0433300000001,1011.0433300000001,1011.0433300000001,nan,nan,nan,nan,nan,73.7022893809308,73.7022893809308,73.7022893809308,nan,1.25,1.25,1.25,nan,nan,nan,nan,nan,nan,nan,nan,nan,Walking,U3
21,,,9.714294550762856,4.69746504099,17.885450066199997,4.205701319913196,9.806652064846,9.80665171339,9.80665258368,3.376087038693592e-07,5.00532773717,2.1135431132,9.23413242012,2.605025319966839,146.65612550375,119.92554837899999,162.873633285,19.566199738821012,1.3655190166655835,0.523893093613,2.40113660134,0.55120887938211,77.44625053693333,76.41470428689999,78.50420470430001,1.0450004938525748,0.8257533169078,0.7788473697830001,0.8627446270640001,0.03155010542356965,1.7062053958794003,0.560511432179,3.3572694184900005,0.955075468411205,0.9013597719976666,0.8983141579070001,0.905355673398,0.003615663090040792,14.274165279915998,3.9655781903099996,46.5460371637,9.45179178634002,1011.0433300000001,1011.0433300000001,1011.0433300000001,nan,nan,nan,nan,nan,73.7022893809308,73.7022893809308,73.7022893809308,nan,1.25,1.25,1.25,nan,nan,nan,nan,nan,nan,nan,nan,nan,Walking,U3
22,,,12.029247368654781,6.67359759059,19.061323069300002,2.900397529531247,9.806650382896667,9.80665012579,9.80665054923,2.258433237543949e-07,4.5179038419960005,2.6047403022599998,6.408610501159999,1.5928858163195423,224.227591199,221.63979789099997,226.815384507,3.659692392791959,1.470350683015,1.1116808962,1.8290204698299999,0.5072356769272396,77.44625053693333,76.41470428689999,78.50420470430001,1.0450004938525748,0.8300082219338002,0.596169631043,0.9501099977490001,0.15424505874635253,1.328818947947857,0.273395852878,2.88225506319,0.7566095567250567,0.9866726180434999,0.961996473565,0.9981071618089999,0.01687642351318479,69.579289813228,52.6129694476,74.7767910164,5.314061121165878,1010.96075,1010.96075,1010.96075,nan,nan,nan,nan,nan,73.7022893809308,73.7022893809308,73.7022893809308,nan,1.25,1.25,1.25,nan,nan,nan,nan,nan,nan,nan,nan,nan,Walking,U3
23,,,11.258526478815716,7.377673605589999,15.2274543043,2.554621603998472,9.80665027389,9.80665014109,9.806650406689998,1.8780756029345274e-07,1.54490557256,1.54490557256,1.54490557256,1.5928858163195423,211.53026973575,205.010481638,215.60058000700002,4.92702681806853,0.8662456749833333,0.300865194049,1.23705485186,0.3088123393610798,67.1434439372,67.1434439372,67.1434439372,1.0450004938525748,0.978381388318,0.969978538999,0.985170313826,0.0052804402556874165,0.6871449904505833,0.381346764112,1.08971406826,0.24696316807639607,0.9932846250030001,0.9932846250030001,0.9932846250030001,0.01687642351318479,70.9826212028,66.7336369305,73.3608207575,1.7698822180323375,1010.9556,1010.9493,1010.9619,0.008909545442964904,nan,nan,nan,nan,73.7022893809308,73.7022893809308,73.7022893809308,nan,1.0001999,1.0001999,1.0001999,nan,nan,nan,nan,nan,nan,nan,nan,nan,Walking,U3
24,,,10.120637443327647,5.876205670650001,16.2615896312,3.084026116258628,9.80664981716,9.80664981716,9.80664981716,1.8780756029345274e-07,2.882880886781667,1.01644378628,4.24926289293,1.2477944077249965,206.3965508535,205.286674127,207.50642758,1.5696027191785613,0.94589842750575,0.549797939677,1.5325338089899998,0.33386171540999754,68.2100673013,68.2100673013,68.2100673013,1.0450004938525748,0.9744471965511666,0.963183498616,0.9796579366320001,0.005984299631127394,0.8117770800869167,0.330071420417,1.3655310041600002,0.32674065951207465,0.996997736944,0.996997736944,0.996997736944,0.01687642351318479,73.77172284913637,70.1983264604,75.5878400751,1.380154667643424,1010.9450699999999,1010.9450699999999,1010.9450699999999,0.008909545442964904,nan,nan,nan,nan,73.7022893809308,73.7022893809308,73.7022893809308,nan,1.0001999,1.0001999,1.0001999,nan,nan,nan,nan,nan,nan,nan,nan,nan,Walking,U3
25,,,10.831580560742001,6.80756498694,14.311377119600001,2.8640825538890504,9.806649727669999,9.806649727669999,9.806649727669999,1.8780756029345274e-07,2.882880886781667,1.01644378628,4.24926289293,1.2477944077249965,212.240732033,212.240732033,212.240732033,1.5696027191785613,0.496493248598,0.32145861141800003,0.7958015280349999,0.2079261518971616,65.85818597939999,65.85818597939999,65.85818597939999,1.0450004938525748,0.9885232252705001,0.9854223349150001,0.9916241156260001,0.004385321196180008,0.8117770800869167,0.330071420417,1.3655310041600002,0.32674065951207465,0.996997736944,0.996997736944,0.996997736944,0.01687642351318479,71.22122884705001,69.8849885613,72.4530198971,0.8918041590018972,1010.9559300000001,1010.9559300000001,1010.9559300000001,0.008909545442964904,nan,nan,nan,nan,73.7022893809308,73.7022893809308,73.7022893809308,nan,1.0001999,1.0001999,1.0001999,nan,nan,nan,nan,nan,nan,nan,nan,nan,Walking,U3
