time,activityrecognition#0,activityrecognition#1,android.sensor.accelerometer#mean,android.sensor.accelerometer#min,android.sensor.accelerometer#max,android.sensor.accelerometer#std,android.sensor.gravity#mean,android.sensor.gravity#min,android.sensor.gravity#max,android.sensor.gravity#std,android.sensor.linear_acceleration#mean,android.sensor.linear_acceleration#min,android.sensor.linear_acceleration#max,android.sensor.linear_acceleration#std,android.sensor.orientation#mean,android.sensor.orientation#min,android.sensor.orientation#max,android.sensor.orientation#std,android.sensor.gyroscope_uncalibrated#mean,android.sensor.gyroscope_uncalibrated#min,android.sensor.gyroscope_uncalibrated#max,android.sensor.gyroscope_uncalibrated#std,android.sensor.magnetic_field_uncalibrated#mean,android.sensor.magnetic_field_uncalibrated#min,android.sensor.magnetic_field_uncalibrated#max,android.sensor.magnetic_field_uncalibrated#std,android.sensor.rotation_vector#mean,android.sensor.rotation_vector#min,android.sensor.rotation_vector#max,android.sensor.rotation_vector#std,android.sensor.gyroscope#mean,android.sensor.gyroscope#min,android.sensor.gyroscope#max,android.sensor.gyroscope#std,android.sensor.game_rotation_vector#mean,android.sensor.game_rotation_vector#min,android.sensor.game_rotation_vector#max,android.sensor.game_rotation_vector#std,android.sensor.magnetic_field#mean,android.sensor.magnetic_field#min,android.sensor.magnetic_field#max,android.sensor.magnetic_field#std,android.sensor.pressure#mean,android.sensor.pressure#min,android.sensor.pressure#max,android.sensor.pressure#std,android.sensor.light#mean,android.sensor.light#min,android.sensor.light#max,android.sensor.light#std,sound#mean,sound#min,sound#max,sound#std,speed#mean,speed#min,speed#max,speed#std,android.sensor.proximity#mean,android.sensor.proximity#min,android.sensor.proximity#max,android.sensor.proximity#std,android.sensor.step_counter#mean,android.sensor.step_counter#min,android.sensor.step_counter#max,android.sensor.step_counter#std,target,user
1,,,9.877498645579655,5.473496355650001,14.580066578599999,1.2027453242856105,9.80664864523149,9.80664472004,9.80665086996,9.034830163290264e-07,1.4117697461431633,0.116650961223,7.479041112360001,0.9922634788718051,337.5730514458418,30.1072831377,361.14646973099997,43.97590845950636,0.4364912307445993,0.0105455803926,3.18386242522,0.4993135983852501,67.42466272144169,62.7582663878,73.640817486,3.346494981499029,0.2834336825512967,0.19534292865400002,0.626971739583,0.08250389030079197,0.4352946797947285,0.0200428324137,3.17300806157,0.4970344280746891,0.3697113709593444,0.283767888513,0.430748522013,0.030551733204914774,47.40001599937899,45.0575187954,48.8215116521,0.9934145871989266,1010.2283946153847,1010.1448,1010.34375,0.05562938491343141,3.423076923076923,2.0,6.0,1.4191004734852828,nan,nan,nan,nan,nan,nan,nan,nan,5.333333333333333,0.0,8.0,4.618802153517007,13877.0,13877.0,13877.0,nan,Bus,U12
2,,,9.798801714966615,6.44308545893,13.2641629726,1.0024257525180267,9.806649159614045,9.80664739665,9.80665093346,6.584154265180709e-07,0.8843584510445374,0.0448532868922,3.52112196834,0.6380725363128763,350.99044353640465,346.64149025800003,358.602313314,2.675114130942681,0.12109578982378695,0.006119478481310001,0.5893531844659999,0.09925065018522104,65.24520887206988,63.30197469270001,68.36994953930001,1.284228664945795,0.21441664450116146,0.188573912615,0.24111319539,0.01246967845560495,0.11976177302450895,0.0038408656934799997,0.594534037769,0.09947961507418417,0.3705154452316128,0.358829819819,0.38455999531900004,0.005854519529672175,48.71145000703442,46.1912329344,51.2221646985,1.2574736663506274,1010.1720410714287,1010.0669,1010.6775,0.13685185676055772,2.6296296296296298,2.0,3.0,0.4921028776234113,nan,nan,nan,nan,nan,nan,nan,nan,5.333333333333333,0.0,8.0,4.618802153517007,13877.0,13877.0,13877.0,nan,Bus,U12
3,,,9.771194242558705,6.61844524056,14.0891131974,1.0885563224643653,9.806649010781165,9.8066470605,9.80665051784,6.804301220708027e-07,0.9730010015072755,0.0184899664699,4.38338606395,0.7497453200686083,351.14818949722655,344.819881193,360.218762196,3.078524699654171,0.14886296714201344,0.008319981447,0.861651445498,0.13079280528336454,64.77444692435583,63.6202797905,65.9634747423,0.546751263217269,0.22732191317815728,0.2101832861,0.260814260881,0.01284012258726079,0.1475470865666593,0.00150651150341,0.8672770245870001,0.13178535313624642,0.3789845347323611,0.36991148875200003,0.40595740212,0.007741983712134846,48.34288858746466,47.19894066609999,49.2966530304,0.5375961303928238,1010.1341437037037,1009.9949,1010.5617699999999,0.14729772192994464,2.4074074074074074,2.0,3.0,0.5007117441325405,nan,nan,nan,nan,nan,nan,nan,nan,5.333333333333333,0.0,8.0,4.618802153517007,13877.0,13877.0,13877.0,nan,Bus,U12
4,,,9.806123440937823,5.64311324871,14.778825616099999,1.1848454984106946,9.80664833748202,9.80664537737,9.8066506491,1.0228538897160352e-06,1.042613358077112,0.0666133071411,5.0794413682699995,0.8022346129815149,333.47960708496197,33.3066612025,361.71455616599997,82.31834845246222,0.17595711800171498,0.006821020658109999,1.1445739881,0.1678284111691739,64.63760774264466,63.628452755,65.3876135065,0.3805610980733437,0.2689012680718198,0.218656023919,0.32425999286999996,0.026117524533375926,0.1753844350233138,0.0026093544660999997,1.1491043813200001,0.1689054584697609,0.4024592328654655,0.37557501079800004,0.43752550733,0.014706260286615366,47.147206733904866,45.944749428,49.005509894300005,0.7661647755576321,1010.0996196296297,1009.99316,1010.34375,0.10416071695965565,2.4444444444444446,2.0,3.0,0.5063696835418333,nan,nan,nan,nan,nan,nan,nan,nan,5.333333333333333,0.0,8.0,4.618802153517007,13877.0,13877.0,13877.0,nan,Bus,U12
5,,,9.808082312693559,7.789498861439999,12.0239424122,0.5901853763890004,9.806648946055674,9.80664661205,9.80665077602,7.826678252520845e-07,0.6302527005636317,0.0655413937401,2.39326208635,0.40570176753663206,346.75656096434113,339.760348571,361.05229422,4.922256439262469,0.10304991298063482,0.00782806292201,0.413521621209,0.0733090269334299,63.1843689980932,61.730464699399995,65.34669081140001,0.8398730800680474,0.2445213019166673,0.191215908585,0.274062089783,0.018704526949357123,0.09885358084655987,0.0018450922375000001,0.41889958295,0.07595256525966602,0.3768301838019235,0.36172201233,0.424055934405,0.012830687294998182,44.51234996952456,38.0905507127,47.825202561000005,2.8750872566856565,1010.1901625925925,1010.0344,1010.6775,0.16006223211836512,2.074074074074074,1.0,3.0,0.3849001794597505,nan,nan,nan,nan,nan,nan,nan,nan,5.333333333333333,0.0,8.0,4.618802153517007,13877.0,13877.0,13877.0,nan,Bus,U12
6,,,9.828687663257043,4.8187502727,14.7517270794,1.579143373792717,9.806648505397582,9.80664642847,9.80665098505,8.342595261684262e-07,1.448503903516833,0.160963015596,5.40521701285,1.0361310948120932,272.60871624872243,26.261072710900002,361.27314855099996,142.08022044968186,0.2541670702977147,0.0166740264688,1.2137253211,0.20523435993392683,61.773071479741326,60.0197469322,63.69631072520001,0.8233204853343121,0.2519932288754608,0.21615979236699998,0.345626951519,0.02112429264601244,0.25303757075267685,0.0194100420758,1.20614845802,0.20512773787797478,0.40676656019057617,0.378935708361,0.444110543914,0.015216793578811248,44.83648771008657,41.3865920317,47.736254566099994,1.5949286776604632,1010.1871066666666,1010.1221,1010.4658,0.08520847985066513,1.8148148148148149,0.0,2.0,0.48334070138798946,nan,nan,nan,nan,nan,nan,nan,nan,5.333333333333333,0.0,8.0,4.618802153517007,13877.0,13877.0,13877.0,nan,Bus,U12
7,,,9.822064895911868,8.43325849866,11.2107517742,0.3321134229855432,9.80664846878111,9.80664560155,9.80665095269,1.009994020676927e-06,0.45795139568657073,0.0345880478012,1.7141129196,0.3471907165275584,81.32981444496068,23.408775481,360.825900725,115.45032654278846,0.09212043659265301,0.00621150583184,0.6947565999330001,0.09368412318833609,59.39773269143772,58.31937928399999,61.413760673,0.9144919588239042,0.2799903652673246,0.185257560979,0.356005131626,0.052932619394955645,0.09012383138946523,0.0018450922375000001,0.687637041746,0.0936321453896434,0.4220884685382857,0.36993409228699997,0.454971497969,0.025104298992864548,44.0879308769501,43.394700137200005,45.1469826633,0.33822580418524295,1010.1624632142857,1010.0774,1010.34375,0.08387039900958349,0.18518518518518517,0.0,1.0,0.3958473906635696,nan,nan,nan,nan,nan,nan,nan,nan,5.333333333333333,0.0,8.0,4.618802153517007,13877.0,13877.0,13877.0,nan,Bus,U12
8,,,9.775784154095225,9.45905919519,10.144168610700001,0.16807279387807345,9.806649111410273,9.80664737962,9.80665077753,6.487747190187631e-07,0.19232771967370507,0.0250391514671,0.358164767982,0.07203774361736684,47.338046014022225,24.1396733782,360.818050981,84.88034976094164,0.024169692134082335,0.00656673118978,0.161319876349,0.017170899632975366,58.49579251613767,58.2076455459,58.8510834208,0.15354226658290743,0.21146283099782226,0.209138640629,0.218061632973,0.0012347628012579662,0.01876612775374855,0.0,0.16577103772500001,0.018479042068576045,0.38897231381930475,0.388167122615,0.393802681523,0.0006648254596194467,44.11943533139283,43.601146773900005,44.673705913,0.2115729067110453,1010.2493578571429,1010.14624,1010.6775,0.13324561876910254,0.42857142857142855,0.0,1.0,0.5039526306789696,nan,nan,nan,nan,nan,nan,nan,nan,5.333333333333333,0.0,8.0,4.618802153517007,13877.0,13877.0,13877.0,nan,Bus,U12
9,,,9.774967912293693,9.42536531685,10.1669908989,0.14554040375099175,9.80664912302535,9.806647355,9.806650911739998,6.898195369439926e-07,0.1813884117768504,0.0340465355213,0.53765577009,0.07322165733811428,198.1717037868671,23.5327883526,360.83825023800006,167.7442111129731,0.03442654403119566,0.004643380165989999,0.143940838174,0.02156177419271508,58.77573975016615,58.1393154414,59.4119516596,0.383506692369503,0.21109753939537085,0.203764176439,0.22627698078000003,0.005320509299033254,0.029423500302512357,0.0031957934000000003,0.138012403241,0.02182268096386952,0.3907362909188207,0.385781922723,0.398671036274,0.0035216117611334224,43.4859418723609,42.5341039638,44.2995485304,0.3428818638876788,1010.2017174074073,1010.1406,1010.355,0.05625774808810756,0.4074074074074074,0.0,1.0,0.5007117441325405,nan,nan,nan,nan,nan,nan,nan,nan,5.333333333333333,0.0,8.0,4.618802153517007,13877.0,13877.0,13877.0,nan,Bus,U12
10,,,9.786174072904174,9.25038359235,10.2079630011,0.1547380017857098,9.806649465072113,9.806647732070001,9.8066511447,5.650859036056144e-07,0.16872389287801337,0.0139815287765,0.57610491685,0.0984522669043136,355.1519174800039,350.61485521300006,360.299630149,2.6676874873285943,0.022908567593595913,0.00238200383602,0.0838857752235,0.011811826420520586,58.96405326118599,58.087692328100005,60.46023486560001,0.6510287244747374,0.18847127754825777,0.178460923429,0.209091877375,0.007836482225572277,0.020648292326796113,0.0010652645,0.0796957380001,0.012134230349435934,0.3696985119852418,0.360078521875,0.388757770855,0.00885454618197871,45.128220731203264,43.23355178560001,46.2936284147,0.8360690976892902,1010.2422114285715,1010.18384,1010.34375,0.049236978704594744,0.0,0.0,0.0,0.0,nan,nan,nan,nan,nan,nan,nan,nan,5.333333333333333,0.0,8.0,4.618802153517007,13877.0,13877.0,13877.0,nan,Bus,U12
11,,,9.784042182949774,9.29309641388,10.3275644962,0.17176144945212063,9.806649239350097,9.806647296760001,9.80665118869,6.462823077444128e-07,0.2005791486460651,0.017217260201,0.68023942252,0.11669627087646683,198.24342263923074,24.4645710872,360.835982161,164.30990264462645,0.03024814125088812,0.00150651150341,0.0936948439889,0.017393411602233212,61.670546662161556,60.2113796421,63.031579528,0.936065047122149,0.20796026572381215,0.185744906783,0.22637596692200002,0.012489967759310468,0.02686091158198517,0.00150651150341,0.094520837227,0.017542011565863283,0.3676007043181406,0.34798796674500004,0.38222327911799997,0.011948845276029579,46.335984058879376,45.1763212314,47.4304754351,0.6151937615169379,1010.2570266666668,1010.1531,1010.6775,0.13159565991205988,0.1111111111111111,0.0,1.0,0.32025630761017426,nan,nan,nan,nan,nan,nan,nan,nan,5.333333333333333,0.0,8.0,4.618802153517007,13877.0,13877.0,13877.0,nan,Bus,U12
12,,,9.843472630941157,6.72312371395,12.2886461057,0.8809087672214904,9.806649601279046,9.8066480354,9.80665127195,5.404247991635046e-07,0.8372488448727408,0.058038091467,3.1931186831200002,0.5702404016596069,347.89763620069846,339.695078115,354.378566803,3.4390835253766574,0.13295657319599125,0.0035330825585300004,0.48672212100100004,0.09564822489705563,62.28827089058521,60.2202643501,65.7645089867,1.3963559415243443,0.18789697118729243,0.163212127978,0.22657380246599998,0.012590461341963101,0.13194385257452135,0.005736624839979999,0.493737166633,0.09472824189914783,0.32894972392992006,0.296099823288,0.358131908323,0.014308764189748859,45.60769100510852,43.7179602864,46.7492245925,0.7999238904543,1010.2571617857144,1010.1958,1010.355,0.04411386957961402,0.14285714285714285,0.0,1.0,0.35634832254989923,nan,nan,nan,nan,nan,nan,nan,nan,5.333333333333333,0.0,8.0,4.618802153517007,13877.0,13877.0,13877.0,nan,Bus,U12
13,,,9.770933127612471,4.33451875025,13.994494814300001,1.4873073641976617,9.806649357263911,9.80664763943,9.80665074096,5.768544577893704e-07,1.3411212562240624,0.15885512983300001,5.4746664737,0.919317458051272,338.5857840384881,22.8154465508,360.492076671,56.71963928914018,0.20215864474873138,0.0134746480477,0.9319961944830001,0.15916647796032066,58.47498370289105,56.8832138689,61.7613167314,1.2421750531246276,0.20995320427051659,0.175575325271,0.23077560085700002,0.012744429638974531,0.20262210414631374,0.00818245138981,0.9244070928210001,0.1590187886732525,0.36104633863215535,0.34883004659,0.37660484877899997,0.0057846695921503054,45.303640361458555,43.4038020984,47.4927362867,1.0610997893782184,1010.2178085185186,1010.1653,1010.34375,0.05367808417592492,0.0,0.0,0.0,0.0,nan,nan,nan,nan,nan,nan,nan,nan,5.333333333333333,0.0,8.0,4.618802153517007,13877.0,13877.0,13877.0,nan,Bus,U12
14,,,9.978779484242514,0.33716617358,24.1784928028,3.0303311182584842,9.806649060360543,9.806646942410001,9.80665076059,6.946613589123367e-07,2.7252476002104205,0.17816048144299998,16.8565926408,2.568020642602453,306.94769097000176,24.6862189602,360.809267891,108.05252564362112,0.40014600741766937,0.0073803689500000005,1.8721536775,0.35130762290400974,59.12727245419523,57.253648331499996,60.9459596692,0.9749554047336274,0.23232918651945822,0.185347713962,0.338053205681,0.020874070087093705,0.39976738584446747,0.0165373515194,1.86142738911,0.3514771098572339,0.3428171316979497,0.265237897954,0.38796287757299996,0.02077256605209025,44.43256718106302,42.298699743600004,48.0371731058,1.6364313948594433,1010.2133953571429,1010.1221,1010.6775,0.1497292750385407,0.2857142857142857,0.0,1.0,0.46004370622823615,nan,nan,nan,nan,nan,nan,nan,nan,5.333333333333333,0.0,8.0,4.618802153517007,13877.0,13877.0,13877.0,nan,Bus,U12
15,,,9.776293215827698,4.64771532455,15.7444481122,1.3370045670073052,9.806649144626588,9.806647639780001,9.8066510618,6.09795413529289e-07,1.1098921333752372,0.0640224908696,6.505386843180001,0.9709945512816799,345.6119323292172,334.302144016,357.67048870599996,5.489721091843688,0.17691303541000084,0.010161975161100002,1.22321077855,0.1718243880181076,56.07872364911468,54.154131883000005,58.9409876331,1.410656675348656,0.2380979912321179,0.209740909102,0.286647907203,0.016624799519884062,0.1740266111436659,0.0074568512,1.21426598225,0.17218071456386116,0.37733769559065355,0.331127559415,0.411950998984,0.01881933240199886,44.10401873474863,42.8282616972,46.084814770200005,0.8512020783109256,1010.1624164285714,1010.0991,1010.355,0.08008016202367445,0.03571428571428571,0.0,1.0,0.18898223650461363,nan,nan,nan,nan,nan,nan,nan,nan,5.333333333333333,0.0,8.0,4.618802153517007,13877.0,13877.0,13877.0,nan,Bus,U12
16,,,9.99914575812034,1.46627753951,27.5862678237,3.3662433794166917,9.806648739725393,9.8066454114,9.80665064631,8.039511564647368e-07,2.875171174257185,0.0911909288996,24.2457125758,2.8345818200000172,308.9372626562238,26.152648254000002,361.228069264,105.87364622278346,0.4465644846510275,0.0158720832055,3.02467059137,0.43400963280612975,54.6923355257181,53.506261510200005,56.0519403928,0.5585418926990565,0.2572305977428063,0.205462448576,0.507322970566,0.035651097997312385,0.44647142916909194,0.013724972398200001,3.0334954876099998,0.4337689289035321,0.38842272008192763,0.292652052853,0.43931721770900006,0.02614727179034597,44.07155185584526,42.923536667,45.0949002638,0.5640048558087873,1010.1387477777779,1010.0669,1010.34375,0.08024521151940654,0.8148148148148148,0.0,2.0,0.681459803941116,nan,nan,nan,nan,nan,nan,nan,nan,5.333333333333333,0.0,8.0,4.618802153517007,13877.0,13877.0,13877.0,nan,Bus,U12
17,,,9.847616263473343,3.41723672476,20.4311336001,2.252669490797725,9.806648772019262,9.8066467424,9.8066507226,7.492274848735148e-07,1.8739527774242668,0.0685873750413,12.4052345728,1.702099129695535,340.0967764522787,28.028091445999998,359.677676541,50.12032746375369,0.27917973809061714,0.00940816081386,1.66613417368,0.2732764629756141,54.69221910918203,53.9496988233,55.5332332932,0.42994295919236025,0.2577886914935107,0.22003490163199999,0.324735125872,0.013735447248949895,0.2779500296154764,0.006903702845420001,1.6749708216499999,0.27318284767862294,0.33423504839968154,0.302564223528,0.377039941108,0.011133049853273408,45.4892116555397,44.130828687,47.2629892876,0.9468798132369887,1010.1782996428572,1010.0515,1010.6775,0.16989960433066836,1.8571428571428572,1.0,2.0,0.35634832254989923,nan,nan,nan,nan,nan,nan,nan,nan,5.333333333333333,0.0,8.0,4.618802153517007,13877.0,13877.0,13877.0,nan,Bus,U12
18,,,9.925656058887515,0.608633673021,23.0174122285,2.6260687560010436,9.806648560537411,9.80664498387,9.806650789739999,1.0265180305150858e-06,2.350487344424085,0.107738043224,13.2936162218,1.8444850732700484,246.8720113626489,27.6833277019,361.205384604,149.2035190983219,0.3436991806551601,0.0266529074841,1.98223622318,0.2870223536091633,55.33672505991439,53.2857391804,58.534092629899995,1.0157657239032838,0.26757685754980315,0.212399116079,0.52928355536,0.04774721995135329,0.34224467136887826,0.0181407992256,1.9748387520599997,0.28709674688381986,0.3528394440337874,0.314679450864,0.42412853900200004,0.025997735063176427,44.780495277582645,41.2477882874,46.177918878999996,1.0303464269729345,1010.0899548148147,1009.9907,1010.355,0.10909257449771956,2.074074074074074,1.0,3.0,0.6155626523087466,nan,nan,nan,nan,nan,nan,nan,nan,5.333333333333333,0.0,8.0,4.618802153517007,13877.0,13877.0,13877.0,nan,Bus,U12
19,,,9.845641129133188,4.079443227980001,17.729835753699998,2.393327734469885,9.806647626493774,9.80664403129,9.80665067508,1.3243557171413092e-06,2.1495059353412223,0.07395046284139999,8.148632814539999,1.4799299361626643,145.5695245396354,32.1172543562,361.35957338,146.7935283693828,0.2825428972387273,0.010161975161100002,1.2210904545899999,0.22561440203282293,54.25628506388023,52.573567527,55.4867551763,0.680540083386227,0.33632182742917904,0.24658172908000003,0.449009465681,0.05528345178621272,0.2829482583038194,0.013390166832,1.21198302518,0.22617229992319654,0.38291940825960896,0.328166201185,0.41461263849,0.021782418653296394,43.02634370540886,41.4934934658,44.5679256865,0.7986904551154709,1010.0908185185185,1009.9861,1010.48315,0.14431505174187623,1.2222222222222223,0.0,2.0,0.5773502691896257,nan,nan,nan,nan,nan,nan,nan,nan,5.333333333333333,0.0,8.0,4.618802153517007,13877.0,13877.0,13877.0,nan,Bus,U12
20,,,9.887406563591266,8.547708244430002,11.213194984600001,0.3884935761358554,9.806647382221378,9.80664273923,9.806650698510001,1.4905531943436766e-06,0.4922005584779333,0.041628107251199996,1.41805206407,0.2914464175016919,136.5051330992338,32.4905590644,361.53488001,139.18724287119048,0.0697868500944834,0.00439219797996,0.256330606855,0.052288067144321305,54.533426700651646,53.9060295681,55.6846480262,0.4975588261169788,0.373222471083124,0.257658674032,0.552646153469,0.08855929303762194,0.06768625263127873,0.002130529,0.248834470847,0.05270937888695416,0.3858055407688898,0.319153605324,0.431221701082,0.033448246092264614,42.850307136260895,42.0439056226,44.0936503365,0.536069006741005,1010.0980828571428,1009.9580000000001,1010.6775,0.19081705863366835,1.4285714285714286,0.0,2.0,0.6900655593423543,nan,nan,nan,nan,nan,nan,nan,nan,5.333333333333333,0.0,8.0,4.618802153517007,13877.0,13877.0,13877.0,nan,Bus,U12
21,,,9.745266071952168,9.40902491361,10.174831383899999,0.20962205259056924,9.806648347263181,9.8066469827,9.80665014229,8.666098051066864e-07,0.25359044866345304,0.0898672583539,0.44019660116099996,0.08745588856757393,353.33230631989557,351.98230989300004,354.235414241,0.5093292778988019,0.027756281038154085,0.00858843662182,0.0673984978069,0.011346205751734926,54.02252906716417,53.94599151,54.0926079674,0.035222073515410374,0.2644605557753485,0.261667795183,0.268764211836,0.0016954021780315619,0.022750672268175207,0.0010652645,0.0584052557259,0.009953104283247603,0.33728545022053846,0.335862573204,0.339358819468,0.0010031010289764809,42.70932947068235,42.3465464944,43.0098825853,0.19731477979512252,1010.182375,1010.11816,1010.355,0.11520487648822923,2.0,2.0,2.0,0.0,nan,nan,nan,nan,nan,nan,nan,nan,5.333333333333333,0.0,8.0,4.618802153517007,13877.0,13877.0,13877.0,nan,Bus,U12
