time,activityrecognition#0,activityrecognition#1,android.sensor.accelerometer#mean,android.sensor.accelerometer#min,android.sensor.accelerometer#max,android.sensor.accelerometer#std,android.sensor.gravity#mean,android.sensor.gravity#min,android.sensor.gravity#max,android.sensor.gravity#std,android.sensor.linear_acceleration#mean,android.sensor.linear_acceleration#min,android.sensor.linear_acceleration#max,android.sensor.linear_acceleration#std,android.sensor.orientation#mean,android.sensor.orientation#min,android.sensor.orientation#max,android.sensor.orientation#std,android.sensor.gyroscope_uncalibrated#mean,android.sensor.gyroscope_uncalibrated#min,android.sensor.gyroscope_uncalibrated#max,android.sensor.gyroscope_uncalibrated#std,android.sensor.magnetic_field_uncalibrated#mean,android.sensor.magnetic_field_uncalibrated#min,android.sensor.magnetic_field_uncalibrated#max,android.sensor.magnetic_field_uncalibrated#std,android.sensor.rotation_vector#mean,android.sensor.rotation_vector#min,android.sensor.rotation_vector#max,android.sensor.rotation_vector#std,android.sensor.gyroscope#mean,android.sensor.gyroscope#min,android.sensor.gyroscope#max,android.sensor.gyroscope#std,android.sensor.game_rotation_vector#mean,android.sensor.game_rotation_vector#min,android.sensor.game_rotation_vector#max,android.sensor.game_rotation_vector#std,android.sensor.magnetic_field#mean,android.sensor.magnetic_field#min,android.sensor.magnetic_field#max,android.sensor.magnetic_field#std,android.sensor.pressure#mean,android.sensor.pressure#min,android.sensor.pressure#max,android.sensor.pressure#std,android.sensor.light#mean,android.sensor.light#min,android.sensor.light#max,android.sensor.light#std,sound#mean,sound#min,sound#max,sound#std,speed#mean,speed#min,speed#max,speed#std,android.sensor.proximity#mean,android.sensor.proximity#min,android.sensor.proximity#max,android.sensor.proximity#std,android.sensor.step_counter#mean,android.sensor.step_counter#min,android.sensor.step_counter#max,android.sensor.step_counter#std,target,user
1,,,11.949461248422779,2.67761377733,28.9514477444,5.590194207557987,9.80663837615,9.80663837615,9.80663837615,nan,12.961197201665,5.91478668633,20.007607717,9.965129316835146,141.99793949902372,68.02403111,205.363300628,38.71180080514781,2.11337937768825,0.991451103019,4.71946824719,0.9676469799518629,nan,nan,nan,nan,0.9024463151959999,0.803710893046,0.9648476065680001,0.08649501087179759,3.1126003182125,2.56061861642,4.13041137622,0.7243321677885527,0.7356458767724999,0.6918012144079999,0.779490539137,0.062005716153545144,44.432557187,44.12765608229999,44.7374582917,0.43119527744928515,1016.6877400000001,1016.6877400000001,1016.6877400000001,nan,nan,nan,nan,nan,nan,nan,nan,nan,nan,nan,nan,nan,nan,nan,nan,nan,nan,nan,nan,nan,Walking,U12
2,,,10.230882222604375,3.01033059568,17.1942585388,4.191243617173848,9.80663837615,9.80663837615,9.80663837615,nan,12.961197201665,5.91478668633,20.007607717,9.965129316835146,151.68178125255557,64.8654657039,213.999952816,44.80657802531259,2.2219600747171113,0.47379844819399997,3.31616166329,0.809631901897813,84.6050242858,84.6050242858,84.6050242858,nan,0.962065662456,0.962065662456,0.962065662456,0.08649501087179759,1.5283501204352499,0.190205642743,3.3865105515900003,1.1609095854066525,0.9208187367425,0.875062466285,0.9665750072,0.06470913824460792,43.3164586332,43.001162775,43.6317544914,0.44589567882650777,1016.6877400000001,1016.6877400000001,1016.6877400000001,nan,nan,nan,nan,nan,nan,nan,nan,nan,nan,nan,nan,nan,nan,nan,nan,nan,nan,nan,nan,nan,Walking,U12
3,,,12.468619927916572,2.7981061172799997,28.104907274499997,5.342517388075213,9.80663041293,9.80663041293,9.80663041293,nan,12.961197201665,5.91478668633,20.007607717,9.965129316835146,152.8004814368387,69.9141798046,218.464148143,40.74255568661801,2.5888372208512505,1.4838828278799998,3.7703719662800004,0.775214949620545,97.4954878669,97.4954878669,97.4954878669,nan,0.962065662456,0.962065662456,0.962065662456,0.08649501087179759,1.5652102917345558,0.6324998059220001,3.02247590046,0.7876582553410413,0.9464658354019999,0.9464658354019999,0.9464658354019999,0.06470913824460792,43.893486912600004,43.530334251000006,44.2566395742,0.5135754192466033,1016.6877400000001,1016.6877400000001,1016.6877400000001,nan,nan,nan,nan,nan,nan,nan,nan,nan,nan,nan,nan,nan,nan,nan,nan,nan,nan,nan,nan,nan,Walking,U12
4,,,11.710113635902498,3.7419743098000002,21.8245782777,4.907335823911464,9.80663041293,9.80663041293,9.80663041293,nan,12.961197201665,5.91478668633,20.007607717,9.965129316835146,156.5275896390925,76.8257199577,209.78235813900002,36.23233679842107,2.442970872732,1.33136921633,4.11156890546,0.9118306114038045,90.7320237779,90.6327203608,90.831327195,0.14043623925281706,0.962065662456,0.962065662456,0.962065662456,0.08649501087179759,2.140956318048,0.9171988478399999,3.78243269988,1.3913060743656978,0.9464658354019999,0.9464658354019999,0.9464658354019999,0.06470913824460792,43.893486912600004,43.530334251000006,44.2566395742,0.5135754192466033,1016.6877400000001,1016.6877400000001,1016.6877400000001,nan,nan,nan,nan,nan,nan,nan,nan,nan,nan,nan,nan,nan,nan,nan,nan,nan,nan,nan,nan,nan,Walking,U12
5,,,11.292287572549757,3.7066530341500004,28.4693764691,4.916740444907086,9.806637491245,9.806634148330001,9.80664083416,4.727595729500365e-06,3.12436149632,3.12436149632,3.12436149632,9.965129316835146,155.8326788287212,72.241817185,212.486338016,37.966187422029016,2.2135019142642998,0.647208458333,3.7056033311300003,1.0515656726760243,93.85645138736668,87.7863926642,97.47148762280001,5.288725522347719,0.962065662456,0.962065662456,0.962065662456,0.08649501087179759,1.5938233177833332,1.39348722787,1.75089401659,0.1825892212221064,0.8896243610369999,0.8896243610369999,0.8896243610369999,0.06470913824460792,44.379691273700004,43.1621378572,44.9703239993,0.8291334978946109,1016.6877400000001,1016.6877400000001,1016.6877400000001,nan,nan,nan,nan,nan,nan,nan,nan,nan,nan,nan,nan,nan,nan,nan,nan,nan,nan,nan,nan,nan,Walking,U12
6,,,12.484885727576287,3.00936823559,20.5858473583,4.382285551707219,9.80662839309,9.806625402689999,9.80663138349,4.229064237646285e-06,3.12436149632,3.12436149632,3.12436149632,9.965129316835146,145.33673864197576,82.4666293089,216.729734407,35.07920898772688,2.344108084483267,0.838299553078,4.32152694167,1.1856441876075068,79.0310065734,79.0310065734,79.0310065734,5.288725522347719,0.963518430605,0.943335684897,0.983701176313,0.028542712706180966,1.4855964977025,1.09455548696,2.2811726066299998,0.5410166809038008,0.855679071477,0.8515730246459999,0.859785118308,0.0058068271161392975,44.3642879195,44.3642879195,44.3642879195,0.8291334978946109,1016.6877400000001,1016.6877400000001,1016.6877400000001,nan,nan,nan,nan,nan,nan,nan,nan,nan,nan,nan,nan,nan,nan,nan,nan,nan,nan,nan,nan,nan,Walking,U12
7,,,10.28103412844333,3.04115907467,19.1516699364,4.623095140666994,9.806630952105,9.80662848574,9.80663341847,3.4879668330890128e-06,4.82961319857,4.82961319857,4.82961319857,9.965129316835146,148.1559476764949,72.9247242049,215.907172923,38.85831119914684,1.9424823052953333,0.906889859542,2.5943351772599996,0.6008027805258378,86.7803078541,82.5983700323,90.96224567590001,5.914153184590567,0.8565073384340001,0.8283600917380001,0.88465458513,0.0398062180209444,1.6084880492933333,0.43342651212,2.34206881628,0.6462999766018954,0.9706494285889999,0.9415336358509999,0.999765221327,0.0411759489693237,45.991130073300006,45.10177380100001,46.880486345600005,1.2577397020682377,1016.6877400000001,1016.6877400000001,1016.6877400000001,nan,nan,nan,nan,nan,nan,nan,nan,nan,nan,nan,nan,nan,nan,nan,nan,nan,nan,nan,nan,nan,Walking,U12
8,,,12.370301663785863,3.37425372174,25.8452519428,4.716014070803781,9.80661735489,9.80661735489,9.80661735489,3.4879668330890128e-06,3.07542283739,3.07542283739,3.07542283739,9.965129316835146,158.27100362235998,65.85485292199999,235.43847502,40.381586031174535,2.059453854925,1.43243842613,3.43895901684,0.5270246256996515,92.568004756025,80.795853854,97.3843416572,7.879266318814768,0.8565073384340001,0.8283600917380001,0.88465458513,0.0398062180209444,2.142254353972857,1.3186123551,2.94247803667,0.6192096436720929,0.996635875233,0.993453065786,0.9998186846799999,0.0045011722863965336,44.8646854789,44.8646854789,44.8646854789,1.2577397020682377,1016.6877400000001,1016.6877400000001,1016.6877400000001,nan,nan,nan,nan,nan,nan,nan,nan,nan,nan,nan,nan,nan,nan,nan,nan,nan,nan,nan,nan,nan,Walking,U12
9,,,10.240274106974518,3.0887257033099997,25.3067588706,5.197692235299575,9.80661735489,9.80661735489,9.80661735489,3.4879668330890128e-06,6.3293047407300005,6.3293047407300005,6.3293047407300005,9.965129316835146,160.65667914814526,77.3881038252,219.85229312,36.22315498784281,2.226194517054286,0.55366293825,4.2773777794,0.9428282760017848,82.5436854035,82.5436854035,82.5436854035,7.879266318814768,0.8565073384340001,0.8283600917380001,0.88465458513,0.0398062180209444,1.5319450662999998,1.36858460864,1.7314057288999998,0.18408479004038547,0.9012438878256668,0.7999699984370001,0.9853284185690001,0.09386714822788735,43.3851899978,41.2685114779,45.501868517700004,2.9934354700263923,1016.6877400000001,1016.6877400000001,1016.6877400000001,nan,nan,nan,nan,nan,nan,nan,nan,nan,nan,nan,nan,nan,nan,nan,nan,nan,nan,nan,nan,nan,Walking,U12
10,,,12.044654505248126,4.617132229069999,20.6284120658,4.013168739192846,9.80661735489,9.80661735489,9.80661735489,3.4879668330890128e-06,6.3293047407300005,6.3293047407300005,6.3293047407300005,9.965129316835146,154.56313203269707,78.9114607255,212.408339725,42.23395751109911,2.2678665108872997,0.920164079993,3.6829776696300005,0.9454873841744481,89.0156300223,79.1671653124,95.6004707101,8.68917791806222,0.865565923529,0.865565923529,0.865565923529,0.0398062180209444,1.9009581770347777,0.9274991825130001,2.9858047016200002,0.603778028738986,0.7906235601203333,0.7400080610340001,0.8823631997310001,0.07959046788880794,43.42071779573333,42.826393730999996,44.378936735799996,0.8378019191066276,1016.6877400000001,1016.6877400000001,1016.6877400000001,nan,nan,nan,nan,nan,nan,nan,nan,nan,nan,nan,nan,nan,nan,nan,nan,nan,nan,nan,nan,nan,Walking,U12
11,,,10.940683872146764,3.2678734366500004,27.311535522899998,5.371000091579849,9.80661735489,9.80661735489,9.80661735489,3.4879668330890128e-06,20.7166992481,20.7166992481,20.7166992481,9.965129316835146,149.20348313102858,70.27997219529999,205.497257806,32.74312755843178,1.8983896374861,0.388384946361,3.20131340222,0.7938054807856388,95.5441782633,95.5441782633,95.5441782633,8.68917791806222,0.96548421127,0.935277969699,0.995690452841,0.042718076498026177,1.6392120252365003,0.972892691359,2.02626208497,0.3749279016284195,0.8077245857350001,0.8077245857350001,0.8077245857350001,0.07959046788880794,45.4577843543,45.4577843543,45.4577843543,0.8378019191066276,1016.6877400000001,1016.6877400000001,1016.6877400000001,nan,nan,nan,nan,nan,nan,nan,nan,nan,nan,nan,nan,nan,nan,nan,nan,nan,nan,nan,nan,nan,Walking,U12
12,,,12.838312591970556,3.34264791899,27.4013302408,5.313311266339989,9.80663429392,9.80663429392,9.80663429392,3.4879668330890128e-06,20.7166992481,20.7166992481,20.7166992481,9.965129316835146,158.8778989867457,84.1972824219,211.797278204,37.20337099078086,2.51853792815625,1.44995950625,4.49120876117,0.942392089080954,92.26375793540001,87.22345031469999,95.562021745,4.433844928997601,0.8266332723280001,0.8266332723280001,0.8266332723280001,0.042718076498026177,2.0264106996657145,0.9961794770100001,4.130022244119999,1.2112113958002717,0.9594416331016667,0.90862683381,0.989627974687,0.04426563177398905,44.8737121888,44.8737121888,44.8737121888,0.8378019191066276,1016.6877400000001,1016.6877400000001,1016.6877400000001,nan,nan,nan,nan,nan,nan,nan,nan,nan,nan,nan,nan,nan,nan,nan,nan,nan,nan,nan,nan,nan,Walking,U12
13,,,10.587105478140272,3.30259898366,26.077211211999998,5.603432019574452,9.80664011832,9.80664011832,9.80664011832,3.4879668330890128e-06,20.7166992481,20.7166992481,20.7166992481,9.965129316835146,166.92180759627297,91.619232716,219.968363162,40.22551712181538,1.8906765702449164,0.510678486306,3.2667704768199997,0.7871252691549618,82.84138983144999,82.3083231429,83.37445652,0.7538701405967259,0.8266332723280001,0.8266332723280001,0.8266332723280001,0.042718076498026177,3.13249864903,1.67980219683,4.34843422914,1.1201940419627525,0.852743014116,0.787798539927,0.917687488305,0.09184535619927323,45.89326976215,45.8402665525,45.946272971800006,0.0749578579363407,1016.6877400000001,1016.6877400000001,1016.6877400000001,nan,nan,nan,nan,nan,nan,nan,nan,nan,nan,nan,nan,nan,nan,nan,nan,nan,nan,nan,nan,nan,Walking,U12
14,,,12.43892941674436,3.1156131746099995,30.4568217669,4.882660204480438,9.80662633309,9.80662633309,9.80662633309,3.4879668330890128e-06,8.602530394336666,1.59410725912,17.5707695027,8.166645155619857,157.01625195700322,61.9128979026,215.389677185,45.61310943118142,2.5329795931662002,0.7964517266590001,4.060696481080001,1.070480290267822,90.32701820125,89.40766186409999,91.2463745384,1.3001662006511905,0.8357171337963334,0.6917030857790001,0.9993456876569999,0.1547563867896088,1.6973824554399999,1.0471029176100002,3.1160420471599997,0.8063735244801041,0.8638671061284999,0.760921456961,0.966812755296,0.14558713323998101,45.89326976215,45.8402665525,45.946272971800006,0.0749578579363407,1016.6877400000001,1016.6877400000001,1016.6877400000001,nan,nan,nan,nan,nan,nan,nan,nan,nan,nan,nan,nan,nan,nan,nan,nan,nan,3009.0,3009.0,3009.0,nan,Walking,U12
15,,,11.668385193905365,2.8199704352999997,32.0555399328,6.403981465753163,9.8066405446,9.80663787601,9.806643213189998,3.7739561686532594e-06,4.69488156872,2.65563358563,6.73412955181,2.883932154727858,162.18480429889615,89.6498995482,224.58328072900002,40.42557138790714,2.2386725951329285,0.389295490907,4.26611731625,1.3006967238039913,89.525712391,81.868007561,93.89259938040001,5.588942385006894,0.8190538059489999,0.7371776321879999,0.963603374374,0.12555126435107045,1.6703886017166667,1.48584919976,1.95083659854,0.2468849209308286,0.8638671061284999,0.760921456961,0.966812755296,0.14558713323998101,37.26013547705,36.6750598882,37.8452110659,0.8274218327650943,1016.6877400000001,1016.6877400000001,1016.6877400000001,nan,nan,nan,nan,nan,nan,nan,nan,nan,nan,nan,nan,nan,nan,nan,nan,nan,3009.0,3009.0,3009.0,nan,Walking,U12
16,,,9.681803940467272,3.93058554926,15.9193552292,3.693557997034145,9.8066405446,9.80663787601,9.806643213189998,3.7739561686532594e-06,11.7213457003,11.7213457003,11.7213457003,2.883932154727858,155.8461943769023,66.13903254600001,215.390004353,44.19550547315166,2.4860426429971434,1.419116571,3.6795444097400005,0.9794571168153354,93.05315991293332,91.74252013110001,93.8846111479,1.1486316766700901,0.978471074965,0.978471074965,0.978471074965,0.12555126435107045,2.2058344081843333,0.555807791316,3.49028914756,1.0305401968480712,0.772516245768,0.772516245768,0.772516245768,0.14558713323998101,42.039902294133334,40.521352396,42.820205858899996,1.3152709027112355,1016.6877400000001,1016.6877400000001,1016.6877400000001,nan,nan,nan,nan,nan,nan,nan,nan,nan,nan,nan,nan,nan,nan,nan,nan,nan,3009.0,3009.0,3009.0,nan,Walking,U12
17,,,11.314985356266112,3.72644700304,27.379545311100003,4.6034607020710565,9.8066405446,9.80663787601,9.806643213189998,3.7739561686532594e-06,11.7213457003,11.7213457003,11.7213457003,2.883932154727858,160.4428509824816,75.87942803909999,230.92591249400002,45.524581883636635,2.521395232748,1.36926476315,4.19221292633,0.9312098895974281,94.58107742610001,81.9939022123,101.10276949700001,10.90319983049346,0.9191026629135,0.8394078722499999,0.998797453577,0.11270545380680648,2.61863566821,1.44846045324,3.4210465663200003,0.9364784674229042,0.7651786607559999,0.7651786607559999,0.7651786607559999,0.14558713323998101,44.87665210496667,43.173139827,46.347060873400004,1.5997489293050926,1016.6877400000001,1016.6877400000001,1016.6877400000001,nan,nan,nan,nan,nan,nan,nan,nan,nan,nan,nan,nan,nan,nan,nan,nan,nan,3009.0,3009.0,3009.0,nan,Walking,U12
18,,,11.160944933804359,3.78144798557,23.079527920700002,4.050345553422934,9.8066405446,9.80663787601,9.806643213189998,3.7739561686532594e-06,9.000214105695,7.37093654999,10.6294916614,2.3041464161480967,166.87339873835896,76.324997727,229.204662921,40.13884426843353,2.565722706565,1.67173965998,4.04110940063,0.9246853671483399,100.145893575,100.145893575,100.145893575,10.90319983049346,0.953798511317,0.953798511317,0.953798511317,0.11270545380680648,1.4819080907457998,0.429049069958,3.45447259134,1.3307877608650682,0.94926144863,0.94926144863,0.94926144863,0.14558713323998101,46.0810173976,46.0810173976,46.0810173976,1.5997489293050926,1016.7656,1016.7656,1016.7656,nan,nan,nan,nan,nan,nan,nan,nan,nan,nan,nan,nan,nan,nan,nan,nan,nan,3009.0,3009.0,3009.0,nan,Walking,U12
19,,,10.394285623090624,3.7639951873400004,19.8885729814,3.7685599214603016,9.80663150615,9.80663150615,9.80663150615,3.7739561686532594e-06,7.50114419523,7.50114419523,7.50114419523,2.3041464161480967,162.41815591671622,80.9714361404,226.28429882700001,40.547068320799276,2.0764170188653335,0.9390993139980001,3.4635686887599997,0.8166683122273103,100.08907143246667,94.1211984624,103.705789361,5.2069226223727565,0.953798511317,0.953798511317,0.953798511317,0.11270545380680648,2.3261752815024996,1.2300889484,3.9420987478699994,0.9692157247736266,0.8664805937106667,0.7870917031100001,0.939087553062,0.07622454030206237,47.43516878485,46.4504036581,48.4199339116,1.3926681980019078,1016.7656,1016.7656,1016.7656,nan,0.0,0.0,0.0,nan,nan,nan,nan,nan,nan,nan,nan,nan,nan,nan,nan,nan,3009.0,3009.0,3009.0,nan,Walking,U12
20,,,11.577397744356002,3.4589318126699995,27.913513905300004,4.548952169234217,9.806641917210001,9.806641917210001,9.806641917210001,3.7739561686532594e-06,7.50114419523,7.50114419523,7.50114419523,2.3041464161480967,163.05596543248717,72.676823585,220.123434994,37.984419414079476,1.6950813446968336,0.864152748611,3.04934161435,0.7591847443448182,85.686135965,78.353621841,98.7492314502,11.341291588074194,0.9213780569234999,0.8662441089890001,0.9765120048579999,0.0779711769161419,1.8054716856033333,1.14584632042,2.197562717,0.5746371111621765,0.7745383575204999,0.7395369162819999,0.809539798759,0.04949951290209167,47.43516878485,46.4504036581,48.4199339116,1.3926681980019078,1016.7656,1016.7656,1016.7656,nan,0.0,0.0,0.0,nan,nan,nan,nan,nan,nan,nan,nan,nan,nan,nan,nan,nan,3077.0,3077.0,3077.0,nan,Walking,U12
21,,,12.507604079726315,3.9018519071900006,22.0869085016,3.594170814371573,9.806641917210001,9.806641917210001,9.806641917210001,3.7739561686532594e-06,3.7436816306200003,1.9671290694799999,5.52023419176,2.5124247262328456,145.6882985955895,75.5917353824,229.79762984599998,39.51578985825908,2.230073726686667,1.32166017331,3.6073053928199994,0.7860483108917699,89.3775147808,89.3775147808,89.3775147808,11.341291588074194,0.8911331497165,0.8586967740379999,0.923569525395,0.04587196239876357,1.532612050905,1.22548247161,1.8397416302,0.434346816444932,0.9821576232893333,0.9553826313889999,0.996153180168,0.02319579447960249,44.09365066310001,44.09365066310001,44.09365066310001,1.3926681980019078,1016.7656,1016.7656,1016.7656,nan,0.0,0.0,0.0,nan,nan,nan,nan,nan,nan,nan,nan,nan,nan,nan,nan,nan,3077.0,3077.0,3077.0,nan,Walking,U12
22,,,12.929863993327693,3.20580144978,22.5361988934,4.166657735242302,9.806641917210001,9.806641917210001,9.806641917210001,3.7739561686532594e-06,3.7436816306200003,1.9671290694799999,5.52023419176,2.5124247262328456,152.17230640877438,72.4675252016,228.04278110299998,40.61909305987902,1.7225282528726251,0.928935088291,2.2696083422999997,0.4835453358231221,95.93888857389999,95.93888857389999,95.93888857389999,11.341291588074194,0.8911331497165,0.8586967740379999,0.923569525395,0.04587196239876357,1.96146912274125,1.0547780378,2.8101307015400003,0.5714820011008501,0.8657793128299999,0.8657793128299999,0.8657793128299999,0.02319579447960249,45.063183883600004,44.125389516700004,46.000978250500005,1.3262415123870708,1016.7656,1016.7656,1016.7656,nan,0.0,0.0,0.0,nan,nan,nan,nan,nan,nan,nan,nan,nan,nan,nan,nan,nan,3077.0,3077.0,3077.0,nan,Walking,U12
23,,,11.56236576856026,3.3573335147900005,22.5691683843,5.045613125857048,9.806641917210001,9.806641917210001,9.806641917210001,3.7739561686532594e-06,3.7436816306200003,1.9671290694799999,5.52023419176,2.5124247262328456,162.32761672479768,95.1293298773,223.084685563,33.68054961758158,1.9250269337659998,1.03192243571,4.126762709059999,0.8945355223987322,95.93888857389999,95.93888857389999,95.93888857389999,11.341291588074194,0.964368971471,0.9517669149089999,0.976971028033,0.017821999303773303,1.602583492951,0.7175440033939999,2.07332596341,0.6254090821368247,0.8657793128299999,0.8657793128299999,0.8657793128299999,0.02319579447960249,44.7600268096,44.7600268096,44.7600268096,1.3262415123870708,1016.7656,1016.7656,1016.7656,nan,0.0,0.0,0.0,nan,nan,nan,nan,nan,nan,nan,nan,nan,nan,nan,nan,nan,3077.0,3077.0,3077.0,nan,Walking,U12
24,,,10.140860164016189,2.44848591903,30.1299660364,4.962913227488239,9.806641917210001,9.806641917210001,9.806641917210001,3.7739561686532594e-06,3.7436816306200003,1.9671290694799999,5.52023419176,2.5124247262328456,173.15988152680288,78.2889932602,225.887129278,36.63372122077254,2.5856020581888886,1.16849412941,3.7730642064599995,1.012770481590659,95.74032458906667,91.1282063908,99.6747711309,4.3133944138729,0.8894116682706666,0.8072534038179999,0.971922790143,0.08233526024390758,2.25431891495475,0.623602969549,4.56110229935,1.6658395833437947,0.9887278310150001,0.9887278310150001,0.9887278310150001,0.02319579447960249,46.0189096461,46.0189096461,46.0189096461,1.3262415123870708,1016.7656,1016.7656,1016.7656,nan,0.0,0.0,0.0,nan,nan,nan,nan,nan,nan,nan,nan,nan,nan,nan,nan,nan,3077.0,3077.0,3077.0,nan,Walking,U12
25,,,12.342338195101622,3.27552589552,22.253151586399998,4.498429650964955,9.806641917210001,9.806641917210001,9.806641917210001,3.7739561686532594e-06,5.7745755509566665,2.98385581132,10.651946760700001,4.238571748863596,168.1200998941892,58.4348365043,247.694880365,52.516764114722044,1.5464551565220002,1.04919408122,2.29332430848,0.5806147614804922,96.27450337450001,96.27450337450001,96.27450337450001,4.3133944138729,0.8670241757444999,0.7498578286579999,0.984190522831,0.16569823710344173,2.0485604046700003,1.38288478831,3.4834059841000005,0.7744190272068772,0.958992227965,0.9228982165240001,0.9950862394059999,0.05104464050031178,42.53503894205,41.367257583699995,43.590482475,1.0475448737292867,1016.7656,1016.7656,1016.7656,nan,0.0,0.0,0.0,nan,nan,nan,nan,nan,nan,nan,nan,nan,nan,nan,nan,nan,3077.0,3077.0,3077.0,nan,Walking,U12
26,,,10.095039090979707,3.0096791382099997,28.9168488534,6.522271796551925,9.8066351679,9.80663471342,9.80663562238,6.427317802520836e-07,2.85679292981,2.85679292981,2.85679292981,4.238571748863596,170.35584949095954,84.3230424231,228.955231728,45.21948146213813,1.7178726166299998,1.7178726166299998,1.7178726166299998,0.5806147614804922,87.1635822082,86.43986348899999,87.7055300423,0.6521184302242274,0.9774095295415,0.970688520443,0.9841305386399999,0.009504942219931572,2.190670507556375,0.920552487851,3.15183539102,0.7242636244648328,0.915768687805,0.915768687805,0.915768687805,0.05104464050031178,39.3958119602,39.3958119602,39.3958119602,1.0475448737292867,1016.7656,1016.7656,1016.7656,nan,0.0,0.0,0.0,nan,nan,nan,nan,nan,nan,nan,nan,nan,nan,nan,nan,nan,3077.0,3077.0,3077.0,nan,Walking,U12
27,,,11.384334311762052,3.37427385329,30.160716063600002,5.471793464983788,9.80663893651,9.80663893651,9.80663893651,6.427317802520836e-07,2.85679292981,2.85679292981,2.85679292981,4.238571748863596,163.31334830929714,67.2259420353,227.638612163,44.29554179453771,2.2785980526352727,0.665023706148,4.68560732417,1.1845284178875986,89.70165502885001,76.5847896126,94.7876046749,8.763225059595037,0.959630121924,0.920345214879,0.998915028969,0.05555724833960533,1.380471932515,1.19839079937,1.5625530656600002,0.25750160794592036,0.8921765296409999,0.7845962783179999,0.9997567809639999,0.15214145046449268,39.67331690025,39.3940350815,39.952598719,0.39496413580047507,1016.7656,1016.7656,1016.7656,nan,0.0,0.0,0.0,nan,nan,nan,nan,nan,nan,nan,nan,nan,nan,nan,nan,nan,3077.0,3077.0,3077.0,nan,Walking,U12
28,,,11.836097508525,3.6308353257199997,27.359780817199997,5.193249833841318,9.80663893651,9.80663893651,9.80663893651,6.427317802520836e-07,2.37920106106,2.37920106106,2.37920106106,4.238571748863596,173.57707912513888,65.3572604203,253.63363842299998,55.51816883466428,1.9979499960800002,0.868273524754,3.2011359745499997,0.9011473521084745,91.84946295829998,89.4630699473,95.428769247,3.156687124137426,0.999825308001,0.999825308001,0.999825308001,0.05555724833960533,2.1450123447166667,1.9268820813799998,2.39796262015,0.23746272009258085,0.998181084589,0.998181084589,0.998181084589,0.15214145046449268,44.96707668985,37.9959208337,51.938232546,9.858703157183957,1016.7656,1016.7656,1016.7656,nan,0.0,0.0,0.0,nan,nan,nan,nan,nan,nan,nan,nan,nan,nan,nan,nan,nan,3077.0,3077.0,3077.0,nan,Walking,U12
29,,,12.72853859309625,3.68046543239,26.055027755,5.260921819742519,9.80663893651,9.80663893651,9.80663893651,6.427317802520836e-07,2.37920106106,2.37920106106,2.37920106106,4.238571748863596,156.2044458441044,70.05341489029999,303.000601221,50.17900663028169,2.3902221753028177,0.9434184077009999,3.9854677887800003,1.307245653694336,70.2260635377,70.2260635377,70.2260635377,3.156687124137426,0.999825308001,0.999825308001,0.999825308001,0.05555724833960533,1.737671147125,1.28168622944,2.19365606481,0.6448600548277063,0.998181084589,0.998181084589,0.998181084589,0.15214145046449268,38.40047693232,30.619764858699998,41.3480350198,4.433309118795646,1016.7656,1016.7656,1016.7656,nan,0.0,0.0,0.0,nan,nan,nan,nan,nan,nan,nan,nan,nan,nan,nan,nan,nan,3077.0,3077.0,3077.0,nan,Walking,U12
30,,,10.770492964328529,3.55512607886,24.712493563000002,4.835550694749971,9.80663893651,9.80663893651,9.80663893651,6.427317802520836e-07,2.37920106106,2.37920106106,2.37920106106,4.238571748863596,168.75022929885642,68.8665392518,226.99824340700002,44.179025956010285,2.4873358460224444,0.299460586172,4.34586722997,1.3241516989394795,107.28385554100001,104.50177121200001,110.06593987,3.9344613897374416,0.9801995688105,0.979613395343,0.980785742278,0.0008289744676417736,2.3948812032683335,1.4540161040000001,4.21959807219,1.1255316372939315,0.9420649807329999,0.94083860942,0.943291352046,0.0017343509433499263,58.4535362296,50.4208290293,67.4390836237,8.549045308462507,1016.7656,1016.7656,1016.7656,nan,0.0,0.0,0.0,nan,nan,nan,nan,nan,nan,nan,nan,nan,nan,nan,nan,nan,3077.0,3077.0,3077.0,nan,Walking,U12
31,,,11.852687642550288,3.5121955702,29.412724547699998,5.39375886885741,9.80663893651,9.80663893651,9.80663893651,6.427317802520836e-07,2.37920106106,2.37920106106,2.37920106106,4.238571748863596,157.22561481573948,66.6159412087,237.397298752,45.727909884182225,2.349750507421429,1.31797796809,4.3605847641,1.0890538242936714,87.8108197069,87.8108197069,87.8108197069,3.9344613897374416,0.8234220940104999,0.6475064141770001,0.9993377738439999,0.2487823402546188,2.6441712758876,0.575953532688,4.01227001691,1.373929605393543,0.7144682468154999,0.567854426204,0.861082067427,0.20734325354011937,44.369074847625,32.0703913291,63.8235849824,13.70852280752724,1016.66455,1016.66455,1016.66455,nan,0.0,0.0,0.0,nan,nan,nan,nan,nan,1.8401512,1.8401512,1.8401512,nan,nan,nan,nan,nan,3077.0,3077.0,3077.0,nan,Walking,U12
32,,,12.578279174998158,3.5829028735300006,28.922916888299998,5.271973168181353,9.80663893651,9.80663893651,9.80663893651,6.427317802520836e-07,2.37920106106,2.37920106106,2.37920106106,4.238571748863596,157.82439866473516,69.5466081693,244.034378717,44.732679728972755,2.178014696487778,1.33728838165,4.4062735147300005,1.0115577203166464,92.16529016930001,92.16529016930001,92.16529016930001,3.9344613897374416,0.8607810133225,0.7826579761910001,0.9389040504539999,0.1104826586451441,2.222901763802,1.18433889828,4.25384465431,1.2047626664217073,0.987012687652,0.9840283165929999,0.989997058711,0.004220538026791574,35.189595858775,33.394760068000004,38.8508687162,2.547510583104564,1016.66455,1016.66455,1016.66455,nan,0.0,0.0,0.0,nan,nan,nan,nan,nan,1.8401512,1.8401512,1.8401512,nan,nan,nan,nan,nan,3077.0,3077.0,3077.0,nan,Walking,U12
33,,,12.039817618649211,3.19255743707,27.163444864200002,4.765926723363758,9.80663893651,9.80663893651,9.80663893651,6.427317802520836e-07,4.8534760282,4.8534760282,4.8534760282,4.238571748863596,141.11448620141945,81.659100751,244.697781596,40.70038697492444,2.35763970801,1.31979605058,3.56673163257,0.7668025547062322,99.2814672264,81.1623681271,113.553951935,15.025448338644647,0.8345930435310001,0.8345930435310001,0.8345930435310001,0.1104826586451441,1.4413972720750001,1.11949151576,1.7509811374900002,0.26185936165159146,0.987012687652,0.9840283165929999,0.989997058711,0.004220538026791574,49.80878146636667,45.7355441642,57.3897203339,6.571372250326234,1016.66455,1016.66455,1016.66455,nan,0.0,0.0,0.0,nan,nan,nan,nan,nan,1.6972605,1.6972605,1.6972605,nan,nan,nan,nan,nan,3077.0,3077.0,3077.0,nan,Walking,U12
34,,,11.629457296256112,3.9814707640599996,28.489691231,5.347257780148066,9.80663893651,9.80663893651,9.80663893651,6.427317802520836e-07,2.91253615576,2.91253615576,2.91253615576,4.238571748863596,144.23858780390478,68.9133822017,235.757507209,45.55109892125949,2.3252996964722223,1.0902413521799998,3.9804611609199996,1.1077518967688371,97.355020415,97.355020415,97.355020415,15.025448338644647,0.8345930435310001,0.8345930435310001,0.8345930435310001,0.1104826586451441,2.478184909738,1.9242306710900003,3.49932190857,0.6197021849697392,0.9281320870515,0.856281157039,0.9999830170640001,0.10161255969279762,39.54757008755,39.3030533165,39.7920868586,0.3457989338465892,1016.66455,1016.66455,1016.66455,nan,0.0,0.0,0.0,nan,nan,nan,nan,nan,1.6972605,1.6972605,1.6972605,nan,nan,nan,nan,nan,3077.0,3077.0,3077.0,nan,Walking,U12
35,,,10.734485869423638,3.1516482844200002,20.6304091415,4.84687469102178,9.80663893651,9.80663893651,9.80663893651,6.427317802520836e-07,6.1031213922,6.1031213922,6.1031213922,4.238571748863596,163.17213402310225,63.239481569300004,238.34093810299998,41.04677422881955,2.275925696774286,1.48808715737,3.5534388428900003,0.6830869852713277,91.650184820025,78.81890636140001,99.9504877427,9.335503211574489,0.8345930435310001,0.8345930435310001,0.8345930435310001,0.1104826586451441,2.016627421095,1.49315953329,2.5400953089,0.7402953864006285,0.9638188795810001,0.9638188795810001,0.9638188795810001,0.10161255969279762,41.74836888243333,41.4114718405,42.0410517328,0.3171102036343841,1016.66455,1016.66455,1016.66455,nan,0.0,0.0,0.0,0.0,nan,nan,nan,nan,1.6972605,1.6972605,1.6972605,nan,nan,nan,nan,nan,3077.0,3077.0,3077.0,nan,Walking,U12
36,,,11.278901503749474,3.16724489142,17.9997997203,4.294422240267431,9.80663893651,9.80663893651,9.80663893651,6.427317802520836e-07,5.33192338523,5.33192338523,5.33192338523,4.238571748863596,153.8682318561278,64.8368063153,223.69056668599998,47.556194574816345,2.6820275328499994,0.42516865648,4.71026116042,1.3216075032605314,90.26772133374999,88.1955263344,92.33991633309999,2.9305262719624716,0.8345930435310001,0.8345930435310001,0.8345930435310001,0.1104826586451441,2.360661471726,1.127432845,5.089080893359999,1.598072267090283,0.9172114582209999,0.878762679521,0.9535543556389999,0.03744028253252585,43.46413663169999,42.827444471999996,43.8473488366,0.5551939245404167,1016.66455,1016.66455,1016.66455,nan,0.0,0.0,0.0,0.0,nan,nan,nan,nan,1.6972605,1.6972605,1.6972605,nan,nan,nan,nan,nan,3077.0,3077.0,3077.0,nan,Walking,U12
37,,,11.0494049315175,3.67055991126,25.3117905275,4.529139209108881,9.806634022745,9.80662303384,9.80664501165,1.554065848687766e-05,5.33192338523,5.33192338523,5.33192338523,4.238571748863596,146.40931648696514,67.88840482399999,223.30583028599997,38.066602352081276,2.2851491667809087,1.10408586955,3.89182636547,0.9087332476968645,90.26772133374999,88.1955263344,92.33991633309999,2.9305262719624716,0.602605803556,0.602605803556,0.602605803556,0.1104826586451441,2.2229033234098,0.8762963720389999,3.6728045364199997,1.039966593142636,0.9961704816745001,0.994241034212,0.998099929137,0.002728650769353791,46.8415413922,46.8415413922,46.8415413922,0.5551939245404167,1016.66455,1016.66455,1016.66455,nan,0.0,0.0,0.0,0.0,nan,nan,nan,nan,1.8519700000000001,1.8519700000000001,1.8519700000000001,nan,nan,nan,nan,nan,3077.0,3077.0,3077.0,nan,Walking,U12
38,,,12.08442529792129,3.7633838847900005,29.4497757412,6.315300179520232,9.806629705689998,9.806629705689998,9.806629705689998,1.554065848687766e-05,5.33192338523,5.33192338523,5.33192338523,4.238571748863596,141.2513742773587,68.2484379512,214.564160182,35.075285639274725,2.1321013839595717,0.331023118307,4.78120949934,1.365769834482912,98.1176853498,98.1176853498,98.1176853498,2.9305262719624716,0.983676921979,0.967421544498,0.9999322994600001,0.022988575295124443,1.8750877409499997,1.31129723566,2.4371564993,0.469119693064715,0.857867129422,0.8476123291600001,0.868121929684,0.014502477609947549,42.1451064775,42.1451064775,42.1451064775,0.5551939245404167,1016.66455,1016.66455,1016.66455,nan,0.0,0.0,0.0,0.0,nan,nan,nan,nan,2.0647986,2.0647986,2.0647986,nan,nan,nan,nan,nan,3077.0,3077.0,3077.0,nan,Walking,U12
39,,,11.640065277872703,3.94382662742,23.3662373937,4.426143101235623,9.806629705689998,9.806629705689998,9.806629705689998,1.554065848687766e-05,5.23061945559,5.23061945559,5.23061945559,4.238571748863596,169.63552228100968,73.0840214235,224.086856763,37.150425827177195,2.0513827250846153,1.11758781859,4.30468014221,0.7710942878803273,104.2619442065,103.21671866700001,105.307169746,1.4781721336996283,0.84636720427,0.8081228296520001,0.895449553817,0.04466078216700551,2.6376743807345,0.585299603107,4.8437624028099995,1.4661018950189972,0.969042492755,0.969042492755,0.969042492755,0.014502477609947549,42.1451064775,42.1451064775,42.1451064775,0.5551939245404167,1016.66455,1016.66455,1016.66455,nan,0.0,0.0,0.0,0.0,nan,nan,nan,nan,1.9676799999999999,1.9214411,2.0139188999999997,0.06539167948921311,nan,nan,nan,nan,3077.0,3077.0,3077.0,nan,Walking,U12
40,,,10.514059327563448,4.49056955115,16.3424335671,3.392904765726102,9.80663457156,9.80663090357,9.80663823955,5.187321205528547e-06,5.23061945559,5.23061945559,5.23061945559,4.238571748863596,182.42395038316062,82.0688391719,255.49104690299998,45.68416516226552,1.8528582030655,0.563859081761,6.22797628184,2.1984745982231213,58.63010974944999,28.690416518400003,88.56980298049999,42.341120220640846,0.9267623805045,0.854600520831,0.9989242401780001,0.10205228063632786,1.29080980265325,0.805162372122,1.7017109182299999,0.4605431032739827,0.861522280248,0.858754657764,0.864289902732,0.003914009252401559,42.1451064775,42.1451064775,42.1451064775,0.5551939245404167,1016.66455,1016.66455,1016.66455,nan,0.0,0.0,0.0,0.0,nan,nan,nan,nan,1.9676799999999999,1.9214411,2.0139188999999997,0.06539167948921311,nan,nan,nan,nan,3077.0,3077.0,3077.0,nan,Walking,U12
