time,activityrecognition#0,activityrecognition#1,android.sensor.accelerometer#mean,android.sensor.accelerometer#min,android.sensor.accelerometer#max,android.sensor.accelerometer#std,android.sensor.gravity#mean,android.sensor.gravity#min,android.sensor.gravity#max,android.sensor.gravity#std,android.sensor.linear_acceleration#mean,android.sensor.linear_acceleration#min,android.sensor.linear_acceleration#max,android.sensor.linear_acceleration#std,android.sensor.orientation#mean,android.sensor.orientation#min,android.sensor.orientation#max,android.sensor.orientation#std,android.sensor.gyroscope_uncalibrated#mean,android.sensor.gyroscope_uncalibrated#min,android.sensor.gyroscope_uncalibrated#max,android.sensor.gyroscope_uncalibrated#std,android.sensor.magnetic_field_uncalibrated#mean,android.sensor.magnetic_field_uncalibrated#min,android.sensor.magnetic_field_uncalibrated#max,android.sensor.magnetic_field_uncalibrated#std,android.sensor.rotation_vector#mean,android.sensor.rotation_vector#min,android.sensor.rotation_vector#max,android.sensor.rotation_vector#std,android.sensor.gyroscope#mean,android.sensor.gyroscope#min,android.sensor.gyroscope#max,android.sensor.gyroscope#std,android.sensor.game_rotation_vector#mean,android.sensor.game_rotation_vector#min,android.sensor.game_rotation_vector#max,android.sensor.game_rotation_vector#std,android.sensor.magnetic_field#mean,android.sensor.magnetic_field#min,android.sensor.magnetic_field#max,android.sensor.magnetic_field#std,android.sensor.pressure#mean,android.sensor.pressure#min,android.sensor.pressure#max,android.sensor.pressure#std,android.sensor.light#mean,android.sensor.light#min,android.sensor.light#max,android.sensor.light#std,sound#mean,sound#min,sound#max,sound#std,speed#mean,speed#min,speed#max,speed#std,android.sensor.proximity#mean,android.sensor.proximity#min,android.sensor.proximity#max,android.sensor.proximity#std,android.sensor.step_counter#mean,android.sensor.step_counter#min,android.sensor.step_counter#max,android.sensor.step_counter#std,target,user
1,,,9.672658046061112,9.588690841130001,9.7221833101,0.04498674917721807,9.806650142421176,9.8066495087,9.80665075253,3.623613397532792e-07,0.10155022931563333,0.07287340954239999,0.147033057511,0.03983396523094684,142.95455093200002,142.953742423,142.955359441,0.001143404393113994,0.0384189398058,0.0359484183704,0.0399510648245,0.002160031373681034,149.4946638485,149.08138049299998,149.907947204,0.58447092645118,0.9482377875964,0.948119822209,0.948449820054,0.0001414326718087087,0.007533475242752778,0.0024401662335799996,0.014773849456200002,0.0035067620489276177,0.7143835067893333,0.7143054685920001,0.7144481093289999,5.8882225359542384e-05,27.988991098779998,26.835222281300002,29.9453325181,1.27934503898906,nan,nan,nan,nan,9.0,9.0,9.0,nan,87.02006997132686,87.02006997132686,87.02006997132686,nan,nan,nan,nan,nan,nan,nan,nan,nan,nan,nan,nan,nan,Train,U1
2,,,9.74857400820381,9.52592311758,9.974687694610001,0.11977258109588763,9.806650278199,9.80664948,9.80665111901,4.7260527601731156e-07,0.21067315634893335,0.09251479866080001,0.434431280555,0.19388193098947676,143.16896043333332,142.92462294799998,143.566039989,0.3469172237848504,0.0283822267721,0.0208534281617,0.0345977491455,0.0065362557631067665,149.4946638485,149.08138049299998,149.907947204,0.58447092645118,0.949190150629,0.947960518763,0.9500028003200001,0.000743547543261331,0.01244612447060826,0.004461545778770001,0.0266275834479,0.005614950702761872,0.7159089905495,0.7147478844480001,0.7163875221930001,0.000666583694114623,28.9269198906625,26.1170782321,30.2770139669,1.3151936096883,nan,nan,nan,nan,10.0,10.0,10.0,nan,87.02006997132686,87.02006997132686,87.02006997132686,nan,nan,nan,nan,nan,nan,nan,nan,nan,nan,nan,nan,nan,Train,U1
3,,,9.644403965603573,9.411258214110001,9.87055925652,0.14654528875960238,9.806650210707858,9.80664928702,9.806651061030001,4.88287650595398e-07,0.13215576652518,0.07574079648639999,0.22447092806699998,0.05964620905381282,143.56690913066666,143.429436522,143.708507073,0.1395810047687557,0.03659440479396667,0.0324184203501,0.039068379424199995,0.0036370478380245903,152.466506382,152.466506382,152.466506382,0.58447092645118,0.9496797722931819,0.948783300632,0.9502084202509999,0.0004379195167782414,0.013746545493160345,0.00336036510359,0.029656641038,0.007342702332572437,0.7147294261821429,0.713834631561,0.7159384518940001,0.0008091312095278029,33.88342047140001,28.201893608600002,41.6392686817,5.982959694763416,nan,nan,nan,nan,22.0,22.0,22.0,nan,87.90792588000231,87.90792588000231,87.90792588000231,nan,nan,nan,nan,nan,nan,nan,nan,nan,nan,nan,nan,nan,Train,U1
4,,,9.67133597545091,9.53600400845,9.81245662523,0.09972027884795275,9.806650247926667,9.806648995669999,9.80665107194,5.720534069872398e-07,0.0882485252274,0.0882485252274,0.0882485252274,0.05964620905381282,142.6568633195,142.629301441,142.68442519799999,0.03897838237917223,0.03357824530904286,0.0317842485642,0.035972539524500004,0.001502676635041856,152.466506382,152.466506382,152.466506382,0.58447092645118,0.9474670716375,0.9469814636730001,0.948067311837,0.0003493868625530704,0.010065669334134443,0.00258265999619,0.024266282614,0.005212535632332712,0.7136892421371428,0.713411539385,0.714035455703,0.00023664540112691031,31.8567979044,30.075635872800003,36.2951353942,2.3763936056305983,nan,nan,nan,nan,21.5,21.0,22.0,0.7071067811865476,88.5738671531594,87.3370473902453,89.81068691607351,1.7491272829241993,nan,nan,nan,nan,nan,nan,nan,nan,nan,nan,nan,nan,Train,U1
5,,,9.65250362809125,9.076985789470001,10.2542918287,0.2892803455149014,9.806650174492,9.80664940178,9.80665095122,4.013055085066631e-07,0.3496764378245,0.316503665747,0.382849209902,0.046913384173512,142.799792795,142.798192828,142.801392762,0.0022626950307553318,0.03760058799911667,0.023898167509900002,0.048363491554699996,0.010230474487293657,154.694512636,154.694512636,154.694512636,0.58447092645118,0.9416917062142002,0.9146011098350001,0.947838935619,0.011460633016288727,0.01494854956925143,0.00397821531347,0.034350408030500004,0.008438291373990622,0.7141416336238334,0.713940569964,0.7144613008059999,0.00021015300940629823,54.8853680423,33.6872785804,87.1325384918,26.7330871610331,nan,nan,nan,nan,29.666666666666668,27.0,34.0,3.7859388972001824,88.5738671531594,87.3370473902453,89.81068691607351,1.7491272829241993,nan,nan,nan,nan,nan,nan,nan,nan,nan,nan,nan,nan,Train,U1
6,,,9.579022471706923,8.992812644430002,9.91832297981,0.24796648829082285,9.806650291121429,9.80664955077,9.8066507882,3.762207857068277e-07,0.1996383963726,0.120088568071,0.41927282922,0.1254966104213539,144.109150194,144.109150194,144.109150194,0.0022626950307553318,0.0334292703268,0.0272649925175,0.0395935481361,0.00871760528014757,154.694512636,154.694512636,154.694512636,0.58447092645118,0.9427445933617274,0.919861465198,0.951952311692,0.011735140266854436,0.015195268428599168,0.00183442125338,0.0513655108832,0.010811796914427893,0.7213621233256666,0.719187932321,0.723307333062,0.0013603593656125853,29.28819762265,19.3212654433,33.8675628352,4.435964649706577,nan,nan,nan,nan,34.0,30.0,41.0,6.082762530298219,89.63887998560133,89.63887998560133,89.63887998560133,1.7491272829241993,nan,nan,nan,nan,nan,nan,nan,nan,nan,nan,nan,nan,Train,U1
7,,,9.625680624355883,9.17595811122,9.98124438818,0.2245312914971564,9.806650014973334,9.80664931392,9.80665076717,3.7214199145077724e-07,0.19225405856408,0.0592683744649,0.33802300332400004,0.12384884365574436,144.0829345845,143.920720622,144.245148547,0.22940518577378705,0.039242144693050006,0.021246213717,0.0473822277199,0.009829617981886314,157.429751418,157.429751418,157.429751418,0.58447092645118,0.951514579579,0.9501925464000001,0.952082336262,0.0006164798647262511,0.0148644468122776,0.007146719015319999,0.025557182842399998,0.00485526850122769,0.7266608849235,0.7249166424500001,0.7296558043539999,0.001973328370508416,48.429580288775,29.2437252136,65.593403622,19.632527097086736,nan,nan,nan,nan,39.57142857142857,30.0,59.0,10.341778423094404,89.63887998560133,89.63887998560133,89.63887998560133,1.7491272829241993,nan,nan,nan,nan,nan,nan,nan,nan,nan,nan,nan,nan,Train,U1
8,,,9.633504349465882,9.46242198334,9.76837417866,0.07471116304730967,9.806650218364545,9.80664967605,9.80665106449,4.0005451630958335e-07,0.0650906077058,0.037287587568099995,0.0810650865204,0.024167191520817435,143.255145131,143.073391056,143.436899206,0.2570390778815776,0.032915400016079996,0.0206178313515,0.0460020803209,0.009827943201540458,157.429751418,157.429751418,157.429751418,0.58447092645118,0.9488151859562858,0.9482051337799999,0.9499360620080001,0.0006394028824913061,0.020941966102128572,0.014033914154,0.0286448927434,0.004040417168706649,0.7435402321675555,0.731361963661,0.753259187075,0.0077092348647471755,72.29529991953333,67.9863801087,75.1376850181,2.427696447873456,nan,nan,nan,nan,30.0,23.0,37.0,9.899494936611665,89.63887998560133,89.63887998560133,89.63887998560133,1.7491272829241993,nan,nan,nan,nan,nan,nan,nan,nan,nan,nan,nan,nan,Train,U1
9,,,9.656013468283572,9.49257953694,9.864472751889998,0.12396485998950153,9.806650062887693,9.80664939611,9.80665115277,5.336395420501448e-07,0.18779309606568,0.0883005853984,0.47692603880500006,0.16276020312911657,143.248399791,143.178768157,143.318031425,0.09847400117298484,0.023304173900500002,0.0228981610373,0.0240970771605,0.0006867409278390759,157.429751418,157.429751418,157.429751418,0.58447092645118,0.9490855921694615,0.948632960041,0.949593703545,0.00024391215651895903,0.025231081712939134,0.0168285765223,0.0323059411136,0.004576981246097605,0.7767326893665834,0.762854746603,0.7876996207060001,0.008774398176512656,74.8866930826,74.6630542079,75.07888106109999,0.20968991896223493,nan,nan,nan,nan,37.5,23.0,52.0,20.506096654409877,89.63887998560133,89.63887998560133,89.63887998560133,1.7491272829241993,nan,nan,nan,nan,nan,nan,nan,nan,nan,nan,nan,nan,Train,U1
10,,,9.713312798692726,9.51414763917,9.82325450508,0.08853804332739051,9.8066501332,9.80664937924,9.80665099707,4.857826471311812e-07,0.06903886849999999,0.033528242195,0.10454949480499999,0.05021960932889378,143.51280230266667,143.43507948299998,143.554624935,0.04638601067066795,0.037114660823250004,0.0367749949005,0.037454326746,0.00048036015462902317,188.775613476,188.775613476,188.775613476,0.58447092645118,0.9495324167576001,0.949413073547,0.949707543194,0.00012010736120914465,0.024366905198738235,0.015271059620299999,0.034869912190099994,0.004591928067604049,0.8120674171753638,0.7964078498810001,0.826425966157,0.010287334925518952,82.8533190728,79.7272424236,85.3792341605,1.9699250781094932,nan,nan,nan,nan,24.0,24.0,24.0,20.506096654409877,89.63887998560133,89.63887998560133,89.63887998560133,1.7491272829241993,nan,nan,nan,nan,nan,nan,nan,nan,nan,nan,nan,nan,Train,U1
11,,,9.664642166273635,9.5296662687,9.89645219543,0.13379319469320208,9.806650297510998,9.80664992886,9.80665080679,3.2484708240471176e-07,0.246764492238,0.246764492238,0.246764492238,0.05021960932889378,143.98488265333333,143.549179754,144.233606439,0.37859062784979663,0.032190660305325004,0.0259759355353,0.0373064533429,0.005112225193938368,182.8595358055,171.80937158900002,193.909700022,15.627292101424157,0.9505925577685714,0.949532676753,0.951819075456,0.0008155136900671606,0.026334261885122855,0.0162668426484,0.0361318976852,0.004586874200642159,0.8372725273686666,0.831510142836,0.843787704542,0.004345191822098129,71.653734485275,53.756162456800006,86.92626157389999,15.09153339947066,nan,nan,nan,nan,22.0,22.0,22.0,0.0,89.63887998560133,89.63887998560133,89.63887998560133,1.7491272829241993,nan,nan,nan,nan,nan,nan,nan,nan,nan,nan,nan,nan,Train,U1
12,,,9.660056006278333,9.439628746639999,9.82247744886,0.1422426633700629,9.80665050957111,9.806649508,9.80665095038,4.567505660153011e-07,0.21833159876428573,0.12120949619000002,0.361738592869,0.09825944238585321,145.06696842966667,144.797426362,145.38633685899998,0.29760022363380634,0.020034360591933333,0.010266489128200001,0.0341849869214,0.012547112788632301,178.298830167,178.298830167,178.298830167,15.627292101424157,0.9543108710309999,0.952172425882,0.954933589667,0.0007169570829493946,0.019954034581700832,0.0027215880403,0.038575393347099994,0.011119942484343425,0.86677278757525,0.8609676824879999,0.869599797434,0.003144824686060782,53.70530206203333,49.0714427109,62.370548477700005,4.631989308188236,nan,nan,nan,nan,33.8,19.0,54.0,16.037456157383563,89.63887998560133,89.63887998560133,89.63887998560133,1.7491272829241993,nan,nan,nan,nan,nan,nan,nan,nan,nan,nan,nan,nan,Train,U1
13,,,9.659622496014546,9.558679849099999,9.87307737405,0.08744130611590026,9.80665025497077,9.80664972131,9.80665098821,3.7391404344981033e-07,0.0714873552637,0.0714873552637,0.0714873552637,0.09825944238585321,144.867461456,144.729993268,145.009460209,0.14836663351135185,0.0366580131997,0.030926915926399998,0.043497167541,0.0039011754937064557,172.984923568,172.984923568,172.984923568,15.627292101424157,0.9530849055707142,0.9527022901860001,0.9533698611079999,0.00022549170260750495,0.007689062768002286,0.00328886197226,0.014942219002,0.00292892434373673,0.869656392262125,0.869619374213,0.86975110706,4.1463447138741315e-05,103.27315931439999,60.456081133199994,125.554425719,37.09094621259812,nan,nan,nan,nan,43.0,43.0,43.0,16.037456157383563,89.63887998560133,89.63887998560133,89.63887998560133,1.7491272829241993,nan,nan,nan,nan,nan,nan,nan,nan,nan,nan,nan,nan,Train,U1
14,,,9.67328739322,9.50790998942,9.79082170338,0.07750873380857949,9.806650290825333,9.80664928743,9.8066510831,5.06476466705533e-07,0.07553390752135,0.0559878159141,0.0950799991286,0.02764234784235988,144.63386158316666,144.58128381,144.709296577,0.04977914759716442,0.036367051518325,0.0310795537928,0.0410111967675,0.004072756939562379,248.2702277945,240.753696771,255.78675881799998,10.629980115431811,0.952657075442857,0.9524428418970001,0.9528452039399999,0.00014169527687538815,0.0087803943349785,0.00140852760759,0.0367465472781,0.007470876079106862,0.8698141307175001,0.8697407745829999,0.8699503441040001,9.40299918587812e-05,155.56710274083335,139.805684296,164.007991039,8.568754243596683,nan,nan,nan,nan,33.25,22.0,42.0,9.069178573608527,89.63887998560133,89.63887998560133,89.63887998560133,1.7491272829241993,nan,nan,nan,nan,nan,nan,nan,nan,nan,nan,nan,nan,Train,U1
15,,,9.629364251764287,9.53756416997,9.80437706242,0.09231545209110695,9.806650099474002,9.806649440060001,9.806650750260001,3.888887984305987e-07,0.0941361699814,0.042571166354900006,0.177341926624,0.0727436759756282,144.63386158316666,144.58128381,144.709296577,0.04977914759716442,0.039838570432500005,0.035052049571,0.04543257099780001,0.00523715799619414,202.14769959699998,190.097443925,214.197955269,17.041635001405723,0.95361714975825,0.952906896203,0.954459754732,0.0005751315839500475,0.007488153584117931,0.00124263136808,0.0280135826021,0.005550315738475323,0.8700104815945454,0.869905892007,0.870143135701,9.489314482042906e-05,87.93767510781429,78.7392998911,114.650285752,12.109439065935462,nan,nan,nan,nan,39.0,25.0,53.0,11.986103064243467,89.63887998560133,89.63887998560133,89.63887998560133,1.7491272829241993,nan,nan,nan,nan,nan,nan,nan,nan,nan,nan,nan,nan,Train,U1
16,,,9.650070099257999,9.585955277310001,9.72011941407,0.04765053315921624,9.806650123313,9.80664938515,9.806650905989999,5.059568797484638e-07,0.10153820067624,0.0398228749551,0.257173863476,0.08990500169142412,145.0617697885,144.966213143,145.163832902,0.09483020639426677,0.038905480892325,0.033206837583,0.044033270215199996,0.004467039199964486,202.14769959699998,190.097443925,214.197955269,17.041635001405723,0.9537416475511667,0.9534242237780001,0.9540111098270001,0.0002301788473303805,0.007198624697440344,0.00147915837117,0.019965640008700002,0.003835199419641022,0.8701833140625,0.870107368143,0.870251500203,5.806764132004204e-05,126.2683930446,116.32981319700001,135.68497970200002,6.865226879369775,nan,nan,nan,nan,32.0,32.0,32.0,11.986103064243467,89.63887998560133,89.63887998560133,89.63887998560133,1.7491272829241993,nan,nan,nan,nan,nan,nan,nan,nan,nan,nan,nan,nan,Train,U1
17,,,9.678318701735385,9.57040412122,9.81386327037,0.06741516940888864,9.806650149205385,9.806649685870001,9.80665059638,2.478364969003837e-07,0.09499716737584998,0.047956482549,0.12114840935799999,0.03393658046086694,144.755829181,144.74693951700002,144.765551587,0.009333937103390907,0.03405374941546,0.0267506418665,0.038212419157,0.00444006759997809,242.80441883233334,241.896290253,244.230500087,1.2503360019208016,0.9529603549647694,0.9525474138879999,0.95328637423,0.00026210057591171033,0.007044495512205417,0.0028017231427800004,0.014191649944700001,0.0031503388280392946,0.8701683167886,0.870126156069,0.8701989923450001,2.8440667500896115e-05,144.191425274,135.191374285,152.239753689,7.148649631415759,nan,nan,nan,nan,45.0,39.0,51.0,8.48528137423857,85.71249621351903,85.71249621351903,85.71249621351903,1.7491272829241993,nan,nan,nan,nan,nan,nan,nan,nan,nan,nan,nan,nan,Train,U1
18,,,9.661445936225833,9.57395983835,9.83253129757,0.09551171070530094,9.806650181456666,9.806649583230001,9.80665089095,4.3934713712576435e-07,0.1038774399389,0.0647626388907,0.14244014078199999,0.030995428482935117,144.86985657466667,144.828892476,144.909787636,0.04045747276407563,0.039023621796999995,0.0287171668439,0.043190578670899996,0.005963845859983404,242.80441883233334,241.896290253,244.230500087,1.2503360019208016,0.953182937715,0.953047599341,0.953302621815,8.88169136525124e-05,0.007957940800504737,0.00223164685733,0.0181891808809,0.0032406500074343854,0.8703077092857501,0.870249541653,0.8703593338860001,4.580677989651777e-05,151.3134650512,148.993808399,155.272580769,2.3910397178624003,nan,nan,nan,nan,48.0,43.0,53.0,5.0,85.71249621351903,85.71249621351903,85.71249621351903,1.7491272829241993,nan,nan,nan,nan,nan,nan,nan,nan,nan,nan,nan,nan,Train,U1
19,,,9.654834305918335,9.5675605828,9.73077336564,0.050959344944194684,9.806650047927501,9.80664978664,9.806650587630001,3.7412392597239776e-07,0.1473966178736,0.0841117618072,0.21068147394,0.08949830174193212,144.87446443033335,144.821012113,144.904013762,0.04637707382981608,0.038745814831139994,0.0330432061999,0.0440285857295,0.004410534296823933,250.223960907,249.881489227,250.566432587,0.4843280945847025,0.9533799848344,0.9532104570569999,0.9536445118250001,0.0001442778547291735,0.007153824489326363,0.0018549944033699997,0.014654007268399999,0.003210465185017431,0.870527237700143,0.870465348212,0.8705505373469999,3.112749235240479e-05,150.14277756133336,141.303912991,155.96952801,4.279086407036026,nan,nan,nan,nan,23.0,23.0,23.0,5.0,85.71249621351903,85.71249621351903,85.71249621351903,1.7491272829241993,nan,nan,nan,nan,nan,nan,nan,nan,nan,nan,nan,nan,Train,U1
20,,,9.63087092777625,9.443717630610001,9.74979139992,0.08285125854183997,9.806650340163,9.80664992595,9.8066507764,3.023375362042663e-07,0.06816850930395,0.0410983648722,0.10215136009400001,0.02747310183963342,145.23710643479998,144.997682977,145.363728553,0.14762266131406013,0.03507518067569999,0.03507518067569999,0.03507518067569999,0.004410534296823933,250.223960907,249.881489227,250.566432587,0.4843280945847025,0.9542499337298181,0.953568114838,0.954578584204,0.0002901821793779244,0.006215263105078462,0.0019071044333099998,0.011187544058700002,0.0023766300445580675,0.870495695276,0.870495695276,0.870495695276,3.112749235240479e-05,115.94156579558,98.68196304780001,130.641599474,8.966235376068633,nan,nan,nan,nan,45.0,39.0,53.0,5.244044240850758,88.10965925972546,88.10965925972546,88.10965925972546,1.7491272829241993,nan,nan,nan,nan,nan,nan,nan,nan,nan,nan,nan,nan,Train,U1
21,,,9.641430711436923,9.357629527210001,9.82383260398,0.1115913114580041,9.806650050248,9.8066494535,9.80665100541,4.041056027859717e-07,0.08183899049186667,0.0503946001376,0.13119413984,0.043275141476744015,145.35435766466665,145.333176344,145.377987193,0.022505517936924742,0.035123693625699996,0.035123693625699996,0.035123693625699996,0.004410534296823933,200.369186741,200.369186741,200.369186741,0.4843280945847025,0.9548444300069999,0.9545289149070001,0.955278516912,0.0002507124168535314,0.0068967983199389295,0.0023675229244499996,0.0136035161589,0.0033078900376232886,0.8704990107135,0.8704744296060001,0.8705184399879999,1.8247073842080826e-05,95.36033858310002,91.8610664251,98.5381460373,3.350127266799891,nan,nan,nan,nan,34.666666666666664,34.0,36.0,1.1547005383792517,88.10965925972546,88.10965925972546,88.10965925972546,1.7491272829241993,nan,nan,nan,nan,nan,nan,nan,nan,nan,nan,nan,nan,Train,U1
22,,,9.647472790139,9.38491446278,9.86565950775,0.12749343619906572,9.8066502719,9.80664987129,9.80665082707,2.8320221108280506e-07,0.1084762297924,0.03785838427280001,0.179094075312,0.09986871487938641,145.44795904350002,145.417974141,145.477943946,0.042405055781940995,0.03410225348955,0.0302067949347,0.037725124446699995,0.0033038172486623395,190.88026024566668,185.70324809,197.626285797,6.114414061663811,0.9556064974281111,0.9552635178129999,0.9559446236920001,0.00022062916724349492,0.007948914895787666,0.00370175831249,0.0145860057462,0.003118308895658426,0.8706072237472501,0.87058373754,0.870624187907,1.8202613815095383e-05,74.82803598714999,63.565079023100004,87.83964652379998,9.962090885188987,nan,nan,nan,nan,40.0,40.0,40.0,1.1547005383792517,88.10965925972546,88.10965925972546,88.10965925972546,1.7491272829241993,nan,nan,nan,nan,nan,nan,nan,nan,nan,nan,nan,nan,Train,U1
23,,,9.697741671621428,9.523732650389999,9.86478658005,0.12063553678364203,9.806650012375556,9.806649303,9.80665047751,3.570869854505845e-07,0.16049272918649998,0.10003278706700001,0.26042395977899996,0.069682008117431,145.946193473,145.791747289,146.10063965700002,0.21841988806958212,0.032820137749171426,0.0252889880765,0.039142648168800004,0.005138994987778579,178.497012837,178.497012837,178.497012837,6.114414061663811,0.9558428186521333,0.955412784991,0.9563320912729999,0.0002715271848266572,0.00864602614805372,0.0006982459228830001,0.027222967097400002,0.005028664630908504,0.87057591935,0.870451024148,0.870631618221,7.178166948217983e-05,58.1282958411,48.714625248500006,76.0944342106,12.675450728460294,nan,nan,nan,nan,54.0,54.0,54.0,1.1547005383792517,88.10965925972546,88.10965925972546,88.10965925972546,1.7491272829241993,nan,nan,nan,nan,nan,nan,nan,nan,nan,nan,nan,nan,Train,U1
24,,,9.666942563240832,9.48437174754,9.83740834572,0.0969556814027629,9.806650348928,9.80664933408,9.806650875019999,3.838763223430897e-07,0.09940500453596667,0.0862686790519,0.107660297616,0.011500812762361822,146.282767462,146.258271325,146.304431257,0.023209942944020765,0.024649521412824997,0.022179504549099997,0.027000266655599996,0.0022388401607890455,178.497012837,178.497012837,178.497012837,6.114414061663811,0.9569145071873124,0.956211744076,0.957533583072,0.0003183837905944174,0.01241675427717423,0.00243744528275,0.022503620746400003,0.005983210817289205,0.8720583208560001,0.870750518443,0.872917628047,0.0009145072337298801,49.0084287276,47.8518408298,50.2962122712,1.203674922465738,nan,nan,nan,nan,44.0,34.0,54.0,14.142135623730951,89.50354121522024,89.50354121522024,89.50354121522024,1.7491272829241993,nan,nan,nan,nan,nan,nan,nan,nan,nan,nan,nan,nan,Train,U1
25,,,9.596741362707501,9.47787238891,9.734065122619999,0.09660699537791327,9.806650182496666,9.80664929005,9.80665091218,4.512431449005476e-07,0.11879998729954999,0.0426953541053,0.173045034357,0.0447368684367404,146.282767462,146.258271325,146.304431257,0.023209942944020765,0.0372730557395,0.0372730557395,0.0372730557395,0.0022388401607890455,152.179127182,143.64960477399998,160.70864959,12.062566269958827,0.9569388036391429,0.9565860394490001,0.9572174739679999,0.00020124290154948285,0.006239642277469375,0.0017518392851099997,0.012423194446299999,0.003238424944886534,0.8728928413583334,0.872886115266,0.8729045327700001,1.0163262786157759e-05,28.486295816085715,16.3689506779,48.705142583100006,14.162737261307552,nan,nan,nan,nan,41.6,27.0,54.0,11.545561917897285,89.50354121522024,89.50354121522024,89.50354121522024,1.7491272829241993,nan,nan,nan,nan,nan,nan,nan,nan,nan,nan,nan,nan,Train,U1
