time,activityrecognition#0,activityrecognition#1,android.sensor.accelerometer#mean,android.sensor.accelerometer#min,android.sensor.accelerometer#max,android.sensor.accelerometer#std,android.sensor.gravity#mean,android.sensor.gravity#min,android.sensor.gravity#max,android.sensor.gravity#std,android.sensor.linear_acceleration#mean,android.sensor.linear_acceleration#min,android.sensor.linear_acceleration#max,android.sensor.linear_acceleration#std,android.sensor.orientation#mean,android.sensor.orientation#min,android.sensor.orientation#max,android.sensor.orientation#std,android.sensor.gyroscope_uncalibrated#mean,android.sensor.gyroscope_uncalibrated#min,android.sensor.gyroscope_uncalibrated#max,android.sensor.gyroscope_uncalibrated#std,android.sensor.magnetic_field_uncalibrated#mean,android.sensor.magnetic_field_uncalibrated#min,android.sensor.magnetic_field_uncalibrated#max,android.sensor.magnetic_field_uncalibrated#std,android.sensor.rotation_vector#mean,android.sensor.rotation_vector#min,android.sensor.rotation_vector#max,android.sensor.rotation_vector#std,android.sensor.gyroscope#mean,android.sensor.gyroscope#min,android.sensor.gyroscope#max,android.sensor.gyroscope#std,android.sensor.game_rotation_vector#mean,android.sensor.game_rotation_vector#min,android.sensor.game_rotation_vector#max,android.sensor.game_rotation_vector#std,android.sensor.magnetic_field#mean,android.sensor.magnetic_field#min,android.sensor.magnetic_field#max,android.sensor.magnetic_field#std,android.sensor.pressure#mean,android.sensor.pressure#min,android.sensor.pressure#max,android.sensor.pressure#std,android.sensor.light#mean,android.sensor.light#min,android.sensor.light#max,android.sensor.light#std,sound#mean,sound#min,sound#max,sound#std,speed#mean,speed#min,speed#max,speed#std,android.sensor.proximity#mean,android.sensor.proximity#min,android.sensor.proximity#max,android.sensor.proximity#std,android.sensor.step_counter#mean,android.sensor.step_counter#min,android.sensor.step_counter#max,android.sensor.step_counter#std,target,user
1,,,9.836079931488511,7.39384094395,11.7264314841,0.6411952985614023,nan,nan,nan,nan,nan,nan,nan,nan,nan,nan,nan,nan,nan,nan,nan,nan,nan,nan,nan,nan,nan,nan,nan,nan,nan,nan,nan,nan,nan,nan,nan,nan,nan,nan,nan,nan,nan,nan,nan,nan,nan,nan,nan,nan,67.24003758590713,65.16316386681589,68.77717318841124,1.8664816554194392,nan,nan,nan,nan,nan,nan,nan,nan,nan,nan,nan,nan,Bus,U6
2,,,10.022277164156495,8.461334989289998,11.8557848918,0.602222961734126,nan,nan,nan,nan,nan,nan,nan,nan,nan,nan,nan,nan,nan,nan,nan,nan,nan,nan,nan,nan,nan,nan,nan,nan,nan,nan,nan,nan,nan,nan,nan,nan,nan,nan,nan,nan,nan,nan,nan,nan,nan,nan,nan,nan,67.24003758590713,65.16316386681589,68.77717318841124,1.8664816554194392,nan,nan,nan,nan,nan,nan,nan,nan,nan,nan,nan,nan,Bus,U6
3,,,9.943865943932957,8.437655959139999,12.241833692,0.7628585212458096,nan,nan,nan,nan,nan,nan,nan,nan,nan,nan,nan,nan,nan,nan,nan,nan,nan,nan,nan,nan,nan,nan,nan,nan,nan,nan,nan,nan,nan,nan,nan,nan,nan,nan,nan,nan,nan,nan,nan,nan,nan,nan,nan,nan,67.24003758590713,65.16316386681589,68.77717318841124,1.8664816554194392,nan,nan,nan,nan,nan,nan,nan,nan,nan,nan,nan,nan,Bus,U6
4,,,10.110761561277263,7.50374464972,14.0828301019,1.102599502740391,nan,nan,nan,nan,nan,nan,nan,nan,nan,nan,nan,nan,nan,nan,nan,nan,nan,nan,nan,nan,nan,nan,nan,nan,nan,nan,nan,nan,nan,nan,nan,nan,nan,nan,nan,nan,nan,nan,nan,nan,nan,nan,nan,nan,69.96896806347999,69.96896806347999,69.96896806347999,1.8664816554194392,7.0,7.0,7.0,nan,nan,nan,nan,nan,nan,nan,nan,nan,Bus,U6
5,,,10.09047235033354,8.979471395260001,10.8306782342,0.34399815128184796,nan,nan,nan,nan,nan,nan,nan,nan,nan,nan,nan,nan,nan,nan,nan,nan,nan,nan,nan,nan,nan,nan,nan,nan,nan,nan,nan,nan,nan,nan,nan,nan,nan,nan,nan,nan,nan,nan,nan,nan,nan,nan,nan,nan,69.93305878501836,69.93305878501836,69.93305878501836,1.8664816554194392,7.0,7.0,7.0,nan,nan,nan,nan,nan,nan,nan,nan,nan,Bus,U6
6,,,10.041662455992919,5.32761451242,14.8870095543,1.0497902286307503,nan,nan,nan,nan,nan,nan,nan,nan,nan,nan,nan,nan,nan,nan,nan,nan,nan,nan,nan,nan,nan,nan,nan,nan,nan,nan,nan,nan,nan,nan,nan,nan,nan,nan,nan,nan,nan,nan,nan,nan,nan,nan,nan,nan,62.984382253107604,62.984382253107604,62.984382253107604,1.8664816554194392,7.0,7.0,7.0,nan,nan,nan,nan,nan,nan,nan,nan,nan,Bus,U6
7,,,10.186735008067114,8.00777969762,15.057487343599998,0.9720322343864258,nan,nan,nan,nan,nan,nan,nan,nan,nan,nan,nan,nan,nan,nan,nan,nan,nan,nan,nan,nan,nan,nan,nan,nan,nan,nan,nan,nan,nan,nan,nan,nan,nan,nan,nan,nan,nan,nan,nan,nan,nan,nan,nan,nan,71.56131767672183,71.56131767672183,71.56131767672183,1.8664816554194392,7.0,7.0,7.0,nan,nan,nan,nan,nan,nan,nan,nan,nan,Bus,U6
8,,,10.044351723872001,8.76292993787,11.5452048842,0.5035410693287823,nan,nan,nan,nan,nan,nan,nan,nan,nan,nan,nan,nan,nan,nan,nan,nan,nan,nan,nan,nan,nan,nan,nan,nan,nan,nan,nan,nan,nan,nan,nan,nan,nan,nan,nan,nan,nan,nan,nan,nan,nan,nan,nan,nan,65.9367144312805,63.40523430789915,68.46819455466185,3.5800535233638207,7.0,7.0,7.0,nan,nan,nan,nan,nan,nan,nan,nan,nan,Bus,U6
9,,,10.065255695582211,8.057054843989999,11.597801155,0.44320999470363304,nan,nan,nan,nan,nan,nan,nan,nan,nan,nan,nan,nan,nan,nan,nan,nan,nan,nan,nan,nan,nan,nan,nan,nan,nan,nan,nan,nan,nan,nan,nan,nan,nan,nan,nan,nan,nan,nan,nan,nan,nan,nan,nan,nan,62.9349602726128,62.9349602726128,62.9349602726128,3.5800535233638207,0.0,0.0,0.0,nan,nan,nan,nan,nan,nan,nan,nan,nan,Bus,U6
10,,,10.101206377580516,8.347141829169999,12.768781888900001,0.5941935564930575,nan,nan,nan,nan,nan,nan,nan,nan,nan,nan,nan,nan,nan,nan,nan,nan,nan,nan,nan,nan,nan,nan,nan,nan,nan,nan,nan,nan,nan,nan,nan,nan,nan,nan,nan,nan,nan,nan,nan,nan,nan,nan,nan,nan,62.9349602726128,62.9349602726128,62.9349602726128,3.5800535233638207,1.5,1.5,1.5,nan,nan,nan,nan,nan,nan,nan,nan,nan,Bus,U6
11,,,9.832082494501561,8.63196011799,10.890691413499999,0.39586241582630516,nan,nan,nan,nan,nan,nan,nan,nan,nan,nan,nan,nan,nan,nan,nan,nan,nan,nan,nan,nan,nan,nan,nan,nan,nan,nan,nan,nan,nan,nan,nan,nan,nan,nan,nan,nan,nan,nan,nan,nan,nan,nan,nan,nan,72.19828820171995,72.19828820171995,72.19828820171995,3.5800535233638207,1.5,1.5,1.5,nan,nan,nan,nan,nan,nan,nan,nan,nan,Bus,U6
12,,,9.862231580498841,8.16355782201,11.670119791300001,0.6865556909322531,nan,nan,nan,nan,nan,nan,nan,nan,nan,nan,nan,nan,nan,nan,nan,nan,nan,nan,nan,nan,nan,nan,nan,nan,nan,nan,nan,nan,nan,nan,nan,nan,nan,nan,nan,nan,nan,nan,nan,nan,nan,nan,nan,nan,74.6365559934645,72.18334748604039,77.08976450088859,3.469360742528221,1.5,1.5,1.5,nan,nan,nan,nan,nan,nan,nan,nan,nan,Bus,U6
13,,,10.156239675270522,8.05230068344,12.826809304200001,0.9146755420895699,nan,nan,nan,nan,nan,nan,nan,nan,nan,nan,nan,nan,nan,nan,nan,nan,nan,nan,nan,nan,nan,nan,nan,nan,nan,nan,nan,nan,nan,nan,nan,nan,nan,nan,nan,nan,nan,nan,nan,nan,nan,nan,nan,nan,77.46989964512338,77.46989964512338,77.46989964512338,3.469360742528221,1.5,1.5,1.5,nan,nan,nan,nan,nan,nan,nan,nan,nan,Bus,U6
14,,,10.061574893446876,8.9112171986,11.5449827267,0.45378989806945186,nan,nan,nan,nan,nan,nan,nan,nan,nan,nan,nan,nan,nan,nan,nan,nan,nan,nan,nan,nan,nan,nan,nan,nan,nan,nan,nan,nan,nan,nan,nan,nan,nan,nan,nan,nan,nan,nan,nan,nan,nan,nan,nan,nan,70.92889278165548,67.01271216517908,74.84507339813187,5.538315740523547,1.5,1.5,1.5,nan,nan,nan,nan,nan,nan,nan,nan,nan,Bus,U6
15,,,10.238298994532105,6.85342134951,15.2400765299,1.2354128308460712,nan,nan,nan,nan,nan,nan,nan,nan,nan,nan,nan,nan,nan,nan,nan,nan,nan,nan,nan,nan,nan,nan,nan,nan,nan,nan,nan,nan,nan,nan,nan,nan,nan,nan,nan,nan,nan,nan,nan,nan,5.0,5.0,5.0,nan,72.99059131895638,72.99059131895638,72.99059131895638,5.538315740523547,1.5,1.5,1.5,nan,nan,nan,nan,nan,nan,nan,nan,nan,Bus,U6
16,,,9.920040338159895,8.56541910864,11.9958902359,0.4894386377245576,nan,nan,nan,nan,nan,nan,nan,nan,nan,nan,nan,nan,nan,nan,nan,nan,nan,nan,nan,nan,nan,nan,nan,nan,nan,nan,nan,nan,nan,nan,nan,nan,nan,nan,nan,nan,nan,nan,nan,nan,5.0,5.0,5.0,nan,72.99059131895638,72.99059131895638,72.99059131895638,5.538315740523547,0.0,0.0,0.0,nan,nan,nan,nan,nan,nan,nan,nan,nan,Bus,U6
17,,,9.948206962890927,8.36652882847,12.9052078832,0.7250686532915064,nan,nan,nan,nan,nan,nan,nan,nan,nan,nan,nan,nan,nan,nan,nan,nan,nan,nan,nan,nan,nan,nan,nan,nan,nan,nan,nan,nan,nan,nan,nan,nan,nan,nan,nan,nan,nan,nan,nan,nan,5.0,5.0,5.0,nan,72.99059131895638,72.99059131895638,72.99059131895638,5.538315740523547,0.0,0.0,0.0,nan,nan,nan,nan,nan,nan,nan,nan,nan,Bus,U6
18,,,9.769873450424479,7.99289948023,12.241856394800001,0.8236251146027738,nan,nan,nan,nan,nan,nan,nan,nan,nan,nan,nan,nan,nan,nan,nan,nan,nan,nan,nan,nan,nan,nan,nan,nan,nan,nan,nan,nan,nan,nan,nan,nan,nan,nan,nan,nan,nan,nan,nan,nan,5.0,5.0,5.0,nan,62.14419939295736,62.14419939295736,62.14419939295736,5.538315740523547,0.0,0.0,0.0,nan,nan,nan,nan,nan,nan,nan,nan,nan,Bus,U6
19,,,9.908957009250203,8.113183099039999,11.488177037,0.550640207253005,nan,nan,nan,nan,nan,nan,nan,nan,nan,nan,nan,nan,nan,nan,nan,nan,nan,nan,nan,nan,nan,nan,nan,nan,nan,nan,nan,nan,nan,nan,nan,nan,nan,nan,nan,nan,nan,nan,nan,nan,5.0,5.0,5.0,nan,62.14419939295736,62.14419939295736,62.14419939295736,5.538315740523547,0.0,0.0,0.0,nan,nan,nan,nan,nan,nan,nan,nan,nan,Bus,U6
20,,,9.821513382397217,9.19028798013,10.222670022400001,0.14822974028482563,nan,nan,nan,nan,nan,nan,nan,nan,nan,nan,nan,nan,nan,nan,nan,nan,nan,nan,nan,nan,nan,nan,nan,nan,nan,nan,nan,nan,nan,nan,nan,nan,nan,nan,nan,nan,nan,nan,nan,nan,5.0,5.0,5.0,nan,76.07323846472448,76.07323846472448,76.07323846472448,5.538315740523547,0.0,0.0,0.0,nan,nan,nan,nan,nan,nan,nan,nan,nan,Bus,U6
21,,,9.81412809322948,9.3471501081,10.5774512805,0.18773948793086703,nan,nan,nan,nan,nan,nan,nan,nan,nan,nan,nan,nan,nan,nan,nan,nan,nan,nan,nan,nan,nan,nan,nan,nan,nan,nan,nan,nan,nan,nan,nan,nan,nan,nan,nan,nan,nan,nan,nan,nan,5.0,5.0,5.0,nan,76.07323846472448,76.07323846472448,76.07323846472448,5.538315740523547,0.0,0.0,0.0,nan,nan,nan,nan,nan,nan,nan,nan,nan,Bus,U6
22,,,9.794998794576289,8.999849953060002,10.6193014773,0.2414352371903172,nan,nan,nan,nan,nan,nan,nan,nan,nan,nan,nan,nan,nan,nan,nan,nan,nan,nan,nan,nan,nan,nan,nan,nan,nan,nan,nan,nan,nan,nan,nan,nan,nan,nan,nan,nan,nan,nan,nan,nan,5.0,5.0,5.0,nan,76.07323846472448,76.07323846472448,76.07323846472448,5.538315740523547,0.0,0.0,0.0,nan,nan,nan,nan,nan,nan,nan,nan,nan,Bus,U6
23,,,9.781350004698144,9.185276197839999,10.281205394099999,0.20339480634467133,nan,nan,nan,nan,nan,nan,nan,nan,nan,nan,nan,nan,nan,nan,nan,nan,nan,nan,nan,nan,nan,nan,nan,nan,nan,nan,nan,nan,nan,nan,nan,nan,nan,nan,nan,nan,nan,nan,nan,nan,5.0,5.0,5.0,nan,76.07323846472448,76.07323846472448,76.07323846472448,5.538315740523547,0.0,0.0,0.0,nan,nan,nan,nan,nan,nan,nan,nan,nan,Bus,U6
24,,,10.180486264657631,7.5295080508300005,14.8427836154,1.3559858386940757,nan,nan,nan,nan,nan,nan,nan,nan,nan,nan,nan,nan,nan,nan,nan,nan,nan,nan,nan,nan,nan,nan,nan,nan,nan,nan,nan,nan,nan,nan,nan,nan,nan,nan,nan,nan,nan,nan,nan,nan,5.0,5.0,5.0,nan,76.07323846472448,76.07323846472448,76.07323846472448,5.538315740523547,0.0,0.0,0.0,nan,nan,nan,nan,nan,nan,nan,nan,nan,Bus,U6
25,,,10.260967086834947,6.90277882151,13.9535752527,1.325627939818156,nan,nan,nan,nan,nan,nan,nan,nan,nan,nan,nan,nan,nan,nan,nan,nan,nan,nan,nan,nan,nan,nan,nan,nan,nan,nan,nan,nan,nan,nan,nan,nan,nan,nan,nan,nan,nan,nan,nan,nan,5.0,5.0,5.0,nan,79.34253162152825,79.34253162152825,79.34253162152825,5.538315740523547,0.0,0.0,0.0,nan,nan,nan,nan,nan,nan,nan,nan,nan,Bus,U6
26,,,10.613947658971648,4.97527804295,17.536749861300002,1.8171473894649113,nan,nan,nan,nan,nan,nan,nan,nan,nan,nan,nan,nan,nan,nan,nan,nan,nan,nan,nan,nan,nan,nan,nan,nan,nan,nan,nan,nan,nan,nan,nan,nan,nan,nan,nan,nan,nan,nan,nan,nan,7.333333333333333,5.0,10.0,2.516611478423583,74.07442319854042,74.07442319854042,74.07442319854042,5.538315740523547,1.75,1.75,1.75,nan,nan,nan,nan,nan,nan,nan,nan,nan,Bus,U6
27,,,9.997328213605128,3.55861821998,17.114463225999998,2.0438277721100016,nan,nan,nan,nan,nan,nan,nan,nan,nan,nan,nan,nan,nan,nan,nan,nan,nan,nan,nan,nan,nan,nan,nan,nan,nan,nan,nan,nan,nan,nan,nan,nan,nan,nan,nan,nan,nan,nan,nan,nan,7.333333333333333,5.0,10.0,2.516611478423583,74.07442319854042,74.07442319854042,74.07442319854042,5.538315740523547,1.75,1.75,1.75,nan,nan,nan,nan,nan,nan,nan,nan,nan,Bus,U6
28,,,9.70724567451897,6.61976975283,11.186058928800001,0.4971551233039521,nan,nan,nan,nan,nan,nan,nan,nan,nan,nan,nan,nan,nan,nan,nan,nan,nan,nan,nan,nan,nan,nan,nan,nan,nan,nan,nan,nan,nan,nan,nan,nan,nan,nan,nan,nan,nan,nan,nan,nan,7.333333333333333,5.0,10.0,2.516611478423583,74.07442319854042,74.07442319854042,74.07442319854042,5.538315740523547,1.75,1.75,1.75,nan,nan,nan,nan,nan,nan,nan,nan,nan,Bus,U6
29,,,9.93433966519204,7.59323046538,12.171624075999999,0.6935758887718562,nan,nan,nan,nan,nan,nan,nan,nan,nan,nan,nan,nan,nan,nan,nan,nan,nan,nan,nan,nan,nan,nan,nan,nan,nan,nan,nan,nan,nan,nan,nan,nan,nan,nan,nan,nan,nan,nan,nan,nan,7.333333333333333,5.0,10.0,2.516611478423583,74.07442319854042,74.07442319854042,74.07442319854042,5.538315740523547,1.75,1.75,1.75,nan,nan,nan,nan,nan,nan,nan,nan,nan,Bus,U6
30,,,9.773951050191856,8.15340074815,12.587914096099999,0.8385179616388209,nan,nan,nan,nan,nan,nan,nan,nan,nan,nan,nan,nan,nan,nan,nan,nan,nan,nan,nan,nan,nan,nan,nan,nan,nan,nan,nan,nan,nan,nan,nan,nan,nan,nan,nan,nan,nan,nan,nan,nan,7.333333333333333,5.0,10.0,2.516611478423583,82.0280670111066,82.0280670111066,82.0280670111066,5.538315740523547,1.75,1.75,1.75,nan,nan,nan,nan,nan,nan,nan,nan,nan,Bus,U6
31,,,9.909204953720208,7.35329776254,14.111745295999999,1.0762368754185732,nan,nan,nan,nan,nan,nan,nan,nan,nan,nan,nan,nan,nan,nan,nan,nan,nan,nan,nan,nan,nan,nan,nan,nan,nan,nan,nan,nan,nan,nan,nan,nan,nan,nan,nan,nan,nan,nan,nan,nan,7.333333333333333,5.0,10.0,2.516611478423583,78.94965473113837,78.94965473113837,78.94965473113837,5.538315740523547,1.75,1.75,1.75,nan,nan,nan,nan,nan,nan,nan,nan,nan,Bus,U6
32,,,9.862288634821159,8.37251720249,11.8165883902,0.5817840308164178,nan,nan,nan,nan,nan,nan,nan,nan,nan,nan,nan,nan,nan,nan,nan,nan,nan,nan,nan,nan,nan,nan,nan,nan,nan,nan,nan,nan,nan,nan,nan,nan,nan,nan,nan,nan,nan,nan,nan,nan,2.0,2.0,2.0,2.516611478423583,77.38580808418797,77.38580808418797,77.38580808418797,5.538315740523547,1.75,1.75,1.75,nan,nan,nan,nan,nan,nan,nan,nan,nan,Bus,U6
33,,,10.04111083489771,8.846689040680001,11.3952447009,0.45897618658144407,nan,nan,nan,nan,nan,nan,nan,nan,nan,nan,nan,nan,nan,nan,nan,nan,nan,nan,nan,nan,nan,nan,nan,nan,nan,nan,nan,nan,nan,nan,nan,nan,nan,nan,nan,nan,nan,nan,nan,nan,2.0,2.0,2.0,2.516611478423583,77.38580808418797,77.38580808418797,77.38580808418797,5.538315740523547,6.0,6.0,6.0,nan,nan,nan,nan,nan,nan,nan,nan,nan,Bus,U6
34,,,10.07899793672969,7.622909299489999,12.4105065178,0.6801231178294672,nan,nan,nan,nan,nan,nan,nan,nan,nan,nan,nan,nan,nan,nan,nan,nan,nan,nan,nan,nan,nan,nan,nan,nan,nan,nan,nan,nan,nan,nan,nan,nan,nan,nan,nan,nan,nan,nan,nan,nan,2.0,2.0,2.0,2.516611478423583,67.16631280164391,67.16631280164391,67.16631280164391,5.538315740523547,6.0,6.0,6.0,nan,nan,nan,nan,nan,nan,nan,nan,nan,Bus,U6
35,,,10.052329821037052,8.578279559439999,11.6342002369,0.4580844842763034,nan,nan,nan,nan,nan,nan,nan,nan,nan,nan,nan,nan,nan,nan,nan,nan,nan,nan,nan,nan,nan,nan,nan,nan,nan,nan,nan,nan,nan,nan,nan,nan,nan,nan,nan,nan,nan,nan,nan,nan,2.0,2.0,2.0,2.516611478423583,67.16631280164391,67.16631280164391,67.16631280164391,5.538315740523547,3.25,3.0,3.5,0.3535533905932738,nan,nan,nan,nan,nan,nan,nan,nan,Bus,U6
36,,,10.074091714438316,8.74250189496,10.7295667528,0.29224485829149943,nan,nan,nan,nan,nan,nan,nan,nan,nan,nan,nan,nan,nan,nan,nan,nan,nan,nan,nan,nan,nan,nan,nan,nan,nan,nan,nan,nan,nan,nan,nan,nan,nan,nan,nan,nan,nan,nan,nan,nan,2.0,2.0,2.0,2.516611478423583,74.70399096844628,74.70399096844628,74.70399096844628,5.538315740523547,3.25,3.0,3.5,0.3535533905932738,nan,nan,nan,nan,nan,nan,nan,nan,Bus,U6
37,,,10.097191121159897,8.677062525810001,12.176886973399998,0.5796074663297623,nan,nan,nan,nan,nan,nan,nan,nan,nan,nan,nan,nan,nan,nan,nan,nan,nan,nan,nan,nan,nan,nan,nan,nan,nan,nan,nan,nan,nan,nan,nan,nan,nan,nan,nan,nan,nan,nan,nan,nan,2.0,2.0,2.0,2.516611478423583,74.70399096844628,74.70399096844628,74.70399096844628,5.538315740523547,3.25,3.0,3.5,0.3535533905932738,nan,nan,nan,nan,nan,nan,nan,nan,Bus,U6
38,,,10.06750964328629,8.66191317106,10.927489296400001,0.37334391704696857,nan,nan,nan,nan,nan,nan,nan,nan,nan,nan,nan,nan,nan,nan,nan,nan,nan,nan,nan,nan,nan,nan,nan,nan,nan,nan,nan,nan,nan,nan,nan,nan,nan,nan,nan,nan,nan,nan,nan,nan,2.0,2.0,2.0,2.516611478423583,74.14970023934947,74.14970023934947,74.14970023934947,5.538315740523547,3.25,3.0,3.5,0.3535533905932738,nan,nan,nan,nan,nan,nan,nan,nan,Bus,U6
39,,,9.960100435073405,9.10924516617,12.1224558592,0.40126238939026104,nan,nan,nan,nan,nan,nan,nan,nan,nan,nan,nan,nan,nan,nan,nan,nan,nan,nan,nan,nan,nan,nan,nan,nan,nan,nan,nan,nan,nan,nan,nan,nan,nan,nan,nan,nan,nan,nan,nan,nan,2.0,2.0,2.0,2.516611478423583,62.990540275086964,62.990540275086964,62.990540275086964,5.538315740523547,3.25,3.0,3.5,0.3535533905932738,nan,nan,nan,nan,nan,nan,nan,nan,Bus,U6
40,,,9.914549954119673,9.56596855737,10.1890518273,0.09446704421298702,nan,nan,nan,nan,nan,nan,nan,nan,nan,nan,nan,nan,nan,nan,nan,nan,nan,nan,nan,nan,nan,nan,nan,nan,nan,nan,nan,nan,nan,nan,nan,nan,nan,nan,nan,nan,nan,nan,nan,nan,2.0,2.0,2.0,2.516611478423583,62.990540275086964,62.990540275086964,62.990540275086964,5.538315740523547,0.0,0.0,0.0,0.3535533905932738,nan,nan,nan,nan,nan,nan,nan,nan,Bus,U6
41,,,9.978024973360004,9.60236632105,10.4033086751,0.1465051997300721,nan,nan,nan,nan,nan,nan,nan,nan,nan,nan,nan,nan,nan,nan,nan,nan,nan,nan,nan,nan,nan,nan,nan,nan,nan,nan,nan,nan,nan,nan,nan,nan,nan,nan,nan,nan,nan,nan,nan,nan,2.0,2.0,2.0,2.516611478423583,79.99652494908825,79.99652494908825,79.99652494908825,5.538315740523547,0.0,0.0,0.0,0.3535533905932738,nan,nan,nan,nan,nan,nan,nan,nan,Bus,U6
42,,,9.874692849821395,8.050244437089999,11.282555477799999,0.5514590353416289,nan,nan,nan,nan,nan,nan,nan,nan,nan,nan,nan,nan,nan,nan,nan,nan,nan,nan,nan,nan,nan,nan,nan,nan,nan,nan,nan,nan,nan,nan,nan,nan,nan,nan,nan,nan,nan,nan,nan,nan,2.0,2.0,2.0,2.516611478423583,79.99652494908825,79.99652494908825,79.99652494908825,5.538315740523547,0.0,0.0,0.0,0.3535533905932738,nan,nan,nan,nan,nan,nan,nan,nan,Bus,U6
43,,,9.89307475641771,7.339933609319999,11.564980982,0.7013918033690802,nan,nan,nan,nan,nan,nan,nan,nan,nan,nan,nan,nan,nan,nan,nan,nan,nan,nan,nan,nan,nan,nan,nan,nan,nan,nan,nan,nan,nan,nan,nan,nan,nan,nan,nan,nan,nan,nan,nan,nan,2.0,2.0,2.0,2.516611478423583,79.99652494908825,79.99652494908825,79.99652494908825,5.538315740523547,0.0,0.0,0.0,0.3535533905932738,nan,nan,nan,nan,nan,nan,nan,nan,Bus,U6
44,,,9.800591078061546,8.72386129285,11.3346104722,0.4011859088237771,nan,nan,nan,nan,nan,nan,nan,nan,nan,nan,nan,nan,nan,nan,nan,nan,nan,nan,nan,nan,nan,nan,nan,nan,nan,nan,nan,nan,nan,nan,nan,nan,nan,nan,nan,nan,nan,nan,nan,nan,2.0,2.0,2.0,2.516611478423583,79.99652494908825,79.99652494908825,79.99652494908825,5.538315740523547,0.0,0.0,0.0,0.3535533905932738,nan,nan,nan,nan,nan,nan,nan,nan,Bus,U6
45,,,9.839798992831545,9.43741651823,10.4238469265,0.2201744408680579,nan,nan,nan,nan,nan,nan,nan,nan,nan,nan,nan,nan,nan,nan,nan,nan,nan,nan,nan,nan,nan,nan,nan,nan,nan,nan,nan,nan,nan,nan,nan,nan,nan,nan,nan,nan,nan,nan,nan,nan,2.0,2.0,2.0,2.516611478423583,79.99652494908825,79.99652494908825,79.99652494908825,5.538315740523547,0.0,0.0,0.0,0.3535533905932738,nan,nan,nan,nan,nan,nan,nan,nan,Bus,U6
46,,,9.82455373212928,9.546664770669999,10.1275578321,0.11735648187653563,nan,nan,nan,nan,nan,nan,nan,nan,nan,nan,nan,nan,nan,nan,nan,nan,nan,nan,nan,nan,nan,nan,nan,nan,nan,nan,nan,nan,nan,nan,nan,nan,nan,nan,nan,nan,nan,nan,nan,nan,2.0,2.0,2.0,2.516611478423583,79.99652494908825,79.99652494908825,79.99652494908825,5.538315740523547,0.0,0.0,0.0,0.3535533905932738,nan,nan,nan,nan,nan,nan,nan,nan,Bus,U6
47,,,9.933579062009255,9.29513319024,11.498830125,0.26729948943276577,nan,nan,nan,nan,nan,nan,nan,nan,nan,nan,nan,nan,nan,nan,nan,nan,nan,nan,nan,nan,nan,nan,nan,nan,nan,nan,nan,nan,nan,nan,nan,nan,nan,nan,nan,nan,nan,nan,nan,nan,2.0,2.0,2.0,2.516611478423583,74.52154524382294,71.49451167188147,77.54857881576442,4.2808719311983054,0.75,0.75,0.75,0.3535533905932738,nan,nan,nan,nan,nan,nan,nan,nan,Bus,U6
48,,,9.757002118654743,8.46941727395,11.4072157404,0.5547812115387741,nan,nan,nan,nan,nan,nan,nan,nan,nan,nan,nan,nan,nan,nan,nan,nan,nan,nan,nan,nan,nan,nan,nan,nan,nan,nan,nan,nan,nan,nan,nan,nan,nan,nan,nan,nan,nan,nan,nan,nan,2.0,2.0,2.0,2.516611478423583,74.52154524382294,71.49451167188147,77.54857881576442,4.2808719311983054,0.75,0.75,0.75,0.3535533905932738,nan,nan,nan,nan,nan,nan,nan,nan,Bus,U6
49,,,9.881305550592042,9.36937204037,10.9193116221,0.2227300759011324,nan,nan,nan,nan,nan,nan,nan,nan,nan,nan,nan,nan,nan,nan,nan,nan,nan,nan,nan,nan,nan,nan,nan,nan,nan,nan,nan,nan,nan,nan,nan,nan,nan,nan,nan,nan,nan,nan,nan,nan,2.0,2.0,2.0,2.516611478423583,74.52154524382294,71.49451167188147,77.54857881576442,4.2808719311983054,0.75,0.75,0.75,0.3535533905932738,nan,nan,nan,nan,nan,nan,nan,nan,Bus,U6
50,,,9.848660857286882,8.63916665805,10.8535689647,0.3605567612045952,nan,nan,nan,nan,nan,nan,nan,nan,nan,nan,nan,nan,nan,nan,nan,nan,nan,nan,nan,nan,nan,nan,nan,nan,nan,nan,nan,nan,nan,nan,nan,nan,nan,nan,nan,nan,nan,nan,nan,nan,2.0,2.0,2.0,2.516611478423583,63.85784958843335,63.49863187056885,64.21706730629785,0.5080105684486872,0.875,0.25,1.5,0.8838834764831844,nan,nan,nan,nan,nan,nan,nan,nan,Bus,U6
51,,,9.831096432926735,9.503759576830001,10.2620204992,0.11773609182671714,nan,nan,nan,nan,nan,nan,nan,nan,nan,nan,nan,nan,nan,nan,nan,nan,nan,nan,nan,nan,nan,nan,nan,nan,nan,nan,nan,nan,nan,nan,nan,nan,nan,nan,nan,nan,nan,nan,nan,nan,2.0,2.0,2.0,2.516611478423583,63.85784958843335,63.49863187056885,64.21706730629785,0.5080105684486872,0.875,0.25,1.5,0.8838834764831844,nan,nan,nan,nan,nan,nan,nan,nan,Bus,U6
52,,,9.847245314798853,9.125702210410001,10.258928316699999,0.17384868577930926,nan,nan,nan,nan,nan,nan,nan,nan,nan,nan,nan,nan,nan,nan,nan,nan,nan,nan,nan,nan,nan,nan,nan,nan,nan,nan,nan,nan,nan,nan,nan,nan,nan,nan,nan,nan,nan,nan,nan,nan,2.0,2.0,2.0,2.516611478423583,66.8839143174287,66.8839143174287,66.8839143174287,0.5080105684486872,0.875,0.25,1.5,0.8838834764831844,nan,nan,nan,nan,nan,nan,nan,nan,Bus,U6
53,,,9.884697033225939,9.1795225139,12.135435183699999,0.3462285665507246,nan,nan,nan,nan,nan,nan,nan,nan,nan,nan,nan,nan,nan,nan,nan,nan,nan,nan,nan,nan,nan,nan,nan,nan,nan,nan,nan,nan,nan,nan,nan,nan,nan,nan,nan,nan,nan,nan,nan,nan,2.0,2.0,2.0,2.516611478423583,65.69041213313557,61.4449979522703,69.93582631400085,6.003922312470736,0.875,0.25,1.5,0.8838834764831844,nan,nan,nan,nan,nan,nan,nan,nan,Bus,U6
54,,,9.824099501124737,8.25657917713,11.2294496639,0.4778552477172561,nan,nan,nan,nan,nan,nan,nan,nan,nan,nan,nan,nan,nan,nan,nan,nan,nan,nan,nan,nan,nan,nan,nan,nan,nan,nan,nan,nan,nan,nan,nan,nan,nan,nan,nan,nan,nan,nan,nan,nan,2.0,2.0,2.0,2.516611478423583,63.11691360523457,61.61974093821775,64.61408627225138,2.117321890909479,0.875,0.25,1.5,0.8838834764831844,nan,nan,nan,nan,nan,nan,nan,nan,Bus,U6
55,,,9.833672112147733,9.36976400702,10.3184480567,0.1923962200956564,nan,nan,nan,nan,nan,nan,nan,nan,nan,nan,nan,nan,nan,nan,nan,nan,nan,nan,nan,nan,nan,nan,nan,nan,nan,nan,nan,nan,nan,nan,nan,nan,nan,nan,nan,nan,nan,nan,nan,nan,2.0,2.0,2.0,2.516611478423583,63.11691360523457,61.61974093821775,64.61408627225138,2.117321890909479,0.875,0.25,1.5,0.8838834764831844,nan,nan,nan,nan,nan,nan,nan,nan,Bus,U6
56,,,9.768667915067605,7.932753042010001,11.8637004593,0.603722628142645,nan,nan,nan,nan,nan,nan,nan,nan,nan,nan,nan,nan,nan,nan,nan,nan,nan,nan,nan,nan,nan,nan,nan,nan,nan,nan,nan,nan,nan,nan,nan,nan,nan,nan,nan,nan,nan,nan,nan,nan,2.0,2.0,2.0,2.516611478423583,66.41538456677372,66.41538456677372,66.41538456677372,2.117321890909479,0.875,0.25,1.5,0.8838834764831844,nan,nan,nan,nan,nan,nan,nan,nan,Bus,U6
57,,,9.71860412088802,8.142634398110001,11.2873221769,0.31109372771328475,nan,nan,nan,nan,nan,nan,nan,nan,nan,nan,nan,nan,nan,nan,nan,nan,nan,nan,nan,nan,nan,nan,nan,nan,nan,nan,nan,nan,nan,nan,nan,nan,nan,nan,nan,nan,nan,nan,nan,nan,2.0,2.0,2.0,2.516611478423583,66.41538456677372,66.41538456677372,66.41538456677372,2.117321890909479,0.875,0.25,1.5,0.8838834764831844,nan,nan,nan,nan,nan,nan,nan,nan,Bus,U6
58,,,9.742125756269896,9.16925611535,10.069090984099999,0.10972379091658647,nan,nan,nan,nan,nan,nan,nan,nan,nan,nan,nan,nan,nan,nan,nan,nan,nan,nan,nan,nan,nan,nan,nan,nan,nan,nan,nan,nan,nan,nan,nan,nan,nan,nan,nan,nan,nan,nan,nan,nan,2.0,2.0,2.0,2.516611478423583,66.41538456677372,66.41538456677372,66.41538456677372,2.117321890909479,0.875,0.25,1.5,0.8838834764831844,nan,nan,nan,nan,nan,nan,nan,nan,Bus,U6
59,,,9.790647856601773,7.629012994939999,11.855258900599999,0.41918119937910003,nan,nan,nan,nan,nan,nan,nan,nan,nan,nan,nan,nan,nan,nan,nan,nan,nan,nan,nan,nan,nan,nan,nan,nan,nan,nan,nan,nan,nan,nan,nan,nan,nan,nan,nan,nan,nan,nan,nan,nan,2.0,2.0,2.0,2.516611478423583,68.79780916097315,66.78902882612881,70.80658949581748,2.840844393365221,0.875,0.25,1.5,0.8838834764831844,nan,nan,nan,nan,nan,nan,nan,nan,Bus,U6
60,,,9.842628412909278,8.69207913484,11.5879918204,0.3751772400993657,nan,nan,nan,nan,nan,nan,nan,nan,nan,nan,nan,nan,nan,nan,nan,nan,nan,nan,nan,nan,nan,nan,nan,nan,nan,nan,nan,nan,nan,nan,nan,nan,nan,nan,nan,nan,nan,nan,nan,nan,2.0,2.0,2.0,2.516611478423583,68.79780916097315,66.78902882612881,70.80658949581748,2.840844393365221,0.875,0.25,1.5,0.8838834764831844,nan,nan,nan,nan,nan,nan,nan,nan,Bus,U6
61,,,9.79289596276541,8.93823956212,11.542503561199998,0.37099798453321076,nan,nan,nan,nan,nan,nan,nan,nan,nan,nan,nan,nan,nan,nan,nan,nan,nan,nan,nan,nan,nan,nan,nan,nan,nan,nan,nan,nan,nan,nan,nan,nan,nan,nan,nan,nan,nan,nan,nan,nan,2.0,2.0,2.0,2.516611478423583,65.79177905085193,65.79177905085193,65.79177905085193,2.840844393365221,0.875,0.25,1.5,0.8838834764831844,nan,nan,nan,nan,nan,nan,nan,nan,Bus,U6
62,,,9.872726955970103,8.45814773276,11.4212198684,0.49908906050892615,nan,nan,nan,nan,nan,nan,nan,nan,nan,nan,nan,nan,nan,nan,nan,nan,nan,nan,nan,nan,nan,nan,nan,nan,nan,nan,nan,nan,nan,nan,nan,nan,nan,nan,nan,nan,nan,nan,nan,nan,2.0,2.0,2.0,2.516611478423583,65.79177905085193,65.79177905085193,65.79177905085193,2.840844393365221,0.875,0.25,1.5,0.8838834764831844,nan,nan,nan,nan,nan,nan,nan,nan,Bus,U6
63,,,9.864696502719484,8.59051842539,11.2215408467,0.4765512662555853,nan,nan,nan,nan,nan,nan,nan,nan,nan,nan,nan,nan,nan,nan,nan,nan,nan,nan,nan,nan,nan,nan,nan,nan,nan,nan,nan,nan,nan,nan,nan,nan,nan,nan,nan,nan,nan,nan,nan,nan,2.0,2.0,2.0,2.516611478423583,65.79177905085193,65.79177905085193,65.79177905085193,2.840844393365221,0.875,0.25,1.5,0.8838834764831844,nan,nan,nan,nan,nan,nan,nan,nan,Bus,U6
64,,,9.768968225994632,8.648858904610002,11.534921031700001,0.5236045237491433,nan,nan,nan,nan,nan,nan,nan,nan,nan,nan,nan,nan,nan,nan,nan,nan,nan,nan,nan,nan,nan,nan,nan,nan,nan,nan,nan,nan,nan,nan,nan,nan,nan,nan,nan,nan,nan,nan,nan,nan,2.0,2.0,2.0,2.516611478423583,70.42799256230752,70.42799256230752,70.42799256230752,2.840844393365221,3.5,3.5,3.5,0.8838834764831844,nan,nan,nan,nan,nan,nan,nan,nan,Bus,U6
65,,,9.76266988504598,7.9089928564,11.9401923836,0.7934245725721113,nan,nan,nan,nan,nan,nan,nan,nan,nan,nan,nan,nan,nan,nan,nan,nan,nan,nan,nan,nan,nan,nan,nan,nan,nan,nan,nan,nan,nan,nan,nan,nan,nan,nan,nan,nan,nan,nan,nan,nan,2.0,2.0,2.0,2.516611478423583,70.42799256230752,70.42799256230752,70.42799256230752,2.840844393365221,3.5,3.5,3.5,0.8838834764831844,nan,nan,nan,nan,nan,nan,nan,nan,Bus,U6
66,,,9.92197737122421,8.11008544283,11.7732344606,0.6986225558529079,nan,nan,nan,nan,nan,nan,nan,nan,nan,nan,nan,nan,nan,nan,nan,nan,nan,nan,nan,nan,nan,nan,nan,nan,nan,nan,nan,nan,nan,nan,nan,nan,nan,nan,nan,nan,nan,nan,nan,nan,2.0,2.0,2.0,2.516611478423583,79.63274849311537,79.63274849311537,79.63274849311537,2.840844393365221,3.5,3.5,3.5,0.8838834764831844,nan,nan,nan,nan,nan,nan,nan,nan,Bus,U6
67,,,9.880960611279692,8.01711443459,12.6375763108,0.7863900529016512,nan,nan,nan,nan,nan,nan,nan,nan,nan,nan,nan,nan,nan,nan,nan,nan,nan,nan,nan,nan,nan,nan,nan,nan,nan,nan,nan,nan,nan,nan,nan,nan,nan,nan,nan,nan,nan,nan,nan,nan,2.0,2.0,2.0,2.516611478423583,79.63274849311537,79.63274849311537,79.63274849311537,2.840844393365221,3.5,3.5,3.5,0.8838834764831844,nan,nan,nan,nan,nan,nan,nan,nan,Bus,U6
68,,,9.833626401901938,8.085536378119999,12.0971405006,0.9372575432611834,nan,nan,nan,nan,nan,nan,nan,nan,nan,nan,nan,nan,nan,nan,nan,nan,nan,nan,nan,nan,nan,nan,nan,nan,nan,nan,nan,nan,nan,nan,nan,nan,nan,nan,nan,nan,nan,nan,nan,nan,2.0,2.0,2.0,2.516611478423583,79.63274849311537,79.63274849311537,79.63274849311537,2.840844393365221,3.5,3.5,3.5,0.8838834764831844,nan,nan,nan,nan,nan,nan,nan,nan,Bus,U6
69,,,9.86471970304698,8.17768412916,11.8619840467,0.7712291559422566,nan,nan,nan,nan,nan,nan,nan,nan,nan,nan,nan,nan,nan,nan,nan,nan,nan,nan,nan,nan,nan,nan,nan,nan,nan,nan,nan,nan,nan,nan,nan,nan,nan,nan,nan,nan,nan,nan,nan,nan,2.0,2.0,2.0,2.516611478423583,80.49217592253116,80.49217592253116,80.49217592253116,2.840844393365221,3.5,3.5,3.5,0.8838834764831844,nan,nan,nan,nan,nan,nan,nan,nan,Bus,U6
70,,,9.869270811732756,8.913429774099999,10.8999798998,0.35544753151849856,nan,nan,nan,nan,nan,nan,nan,nan,nan,nan,nan,nan,nan,nan,nan,nan,nan,nan,nan,nan,nan,nan,nan,nan,nan,nan,nan,nan,nan,nan,nan,nan,nan,nan,nan,nan,nan,nan,nan,nan,2.0,2.0,2.0,2.516611478423583,80.49217592253116,80.49217592253116,80.49217592253116,2.840844393365221,3.5,3.5,3.5,0.8838834764831844,nan,nan,nan,nan,nan,nan,nan,nan,Bus,U6
71,,,9.885060116865159,9.19856140514,10.7518976256,0.25369966033662694,nan,nan,nan,nan,nan,nan,nan,nan,nan,nan,nan,nan,nan,nan,nan,nan,nan,nan,nan,nan,nan,nan,nan,nan,nan,nan,nan,nan,nan,nan,nan,nan,nan,nan,nan,nan,nan,nan,nan,nan,2.0,2.0,2.0,2.516611478423583,70.72510102149587,66.41538456677372,75.03481747621801,6.094859460250547,3.5,3.5,3.5,0.8838834764831844,nan,nan,nan,nan,nan,nan,nan,nan,Bus,U6
72,,,9.813829071898969,8.4804563341,11.0454301318,0.42072054407207643,nan,nan,nan,nan,nan,nan,nan,nan,nan,nan,nan,nan,nan,nan,nan,nan,nan,nan,nan,nan,nan,nan,nan,nan,nan,nan,nan,nan,nan,nan,nan,nan,nan,nan,nan,nan,nan,nan,nan,nan,2.0,2.0,2.0,2.516611478423583,70.72510102149587,66.41538456677372,75.03481747621801,6.094859460250547,3.5,3.5,3.5,0.8838834764831844,nan,nan,nan,nan,nan,nan,nan,nan,Bus,U6
73,,,9.810059142400227,8.159012237010002,11.1726693863,0.42088676028282496,nan,nan,nan,nan,nan,nan,nan,nan,nan,nan,nan,nan,nan,nan,nan,nan,nan,nan,nan,nan,nan,nan,nan,nan,nan,nan,nan,nan,nan,nan,nan,nan,nan,nan,nan,nan,nan,nan,nan,nan,2.0,2.0,2.0,2.516611478423583,70.72510102149587,66.41538456677372,75.03481747621801,6.094859460250547,3.5,3.5,3.5,0.8838834764831844,nan,nan,nan,nan,nan,nan,nan,nan,Bus,U6
74,,,9.84154762021927,9.53979718461,10.550185904600001,0.14759536381429791,nan,nan,nan,nan,nan,nan,nan,nan,nan,nan,nan,nan,nan,nan,nan,nan,nan,nan,nan,nan,nan,nan,nan,nan,nan,nan,nan,nan,nan,nan,nan,nan,nan,nan,nan,nan,nan,nan,nan,nan,2.0,2.0,2.0,2.516611478423583,70.72510102149587,66.41538456677372,75.03481747621801,6.094859460250547,0.0,0.0,0.0,0.8838834764831844,nan,nan,nan,nan,nan,nan,nan,nan,Bus,U6
75,,,9.83859911404,9.45363217494,10.1324286723,0.09793325495335693,nan,nan,nan,nan,nan,nan,nan,nan,nan,nan,nan,nan,nan,nan,nan,nan,nan,nan,nan,nan,nan,nan,nan,nan,nan,nan,nan,nan,nan,nan,nan,nan,nan,nan,nan,nan,nan,nan,nan,nan,2.0,2.0,2.0,2.516611478423583,70.72510102149587,66.41538456677372,75.03481747621801,6.094859460250547,0.0,0.0,0.0,0.8838834764831844,nan,nan,nan,nan,nan,nan,nan,nan,Bus,U6
76,,,9.815869406326737,9.43386372757,10.1641871656,0.10686439138945562,nan,nan,nan,nan,nan,nan,nan,nan,nan,nan,nan,nan,nan,nan,nan,nan,nan,nan,nan,nan,nan,nan,nan,nan,nan,nan,nan,nan,nan,nan,nan,nan,nan,nan,nan,nan,nan,nan,nan,nan,2.0,2.0,2.0,2.516611478423583,69.28680969255335,69.28680969255335,69.28680969255335,6.094859460250547,0.0,0.0,0.0,0.8838834764831844,nan,nan,nan,nan,nan,nan,nan,nan,Bus,U6
77,,,9.839430155921445,9.17875883783,10.286987936900001,0.16167049449299442,nan,nan,nan,nan,nan,nan,nan,nan,nan,nan,nan,nan,nan,nan,nan,nan,nan,nan,nan,nan,nan,nan,nan,nan,nan,nan,nan,nan,nan,nan,nan,nan,nan,nan,nan,nan,nan,nan,nan,nan,2.0,2.0,2.0,2.516611478423583,69.28680969255335,69.28680969255335,69.28680969255335,6.094859460250547,0.0,0.0,0.0,0.8838834764831844,nan,nan,nan,nan,nan,nan,nan,nan,Bus,U6
78,,,9.970249936916842,8.16192324963,12.083502060499999,0.5303850451089864,nan,nan,nan,nan,nan,nan,nan,nan,nan,nan,nan,nan,nan,nan,nan,nan,nan,nan,nan,nan,nan,nan,nan,nan,nan,nan,nan,nan,nan,nan,nan,nan,nan,nan,nan,nan,nan,nan,nan,nan,2.0,2.0,2.0,2.516611478423583,75.2954743382208,75.2954743382208,75.2954743382208,6.094859460250547,0.0,0.0,0.0,0.8838834764831844,nan,nan,nan,nan,nan,nan,nan,nan,Bus,U6
79,,,10.002984955808454,8.71528343738,11.1546206849,0.45053518939697157,nan,nan,nan,nan,nan,nan,nan,nan,nan,nan,nan,nan,nan,nan,nan,nan,nan,nan,nan,nan,nan,nan,nan,nan,nan,nan,nan,nan,nan,nan,nan,nan,nan,nan,nan,nan,nan,nan,nan,nan,2.0,2.0,2.0,2.516611478423583,80.38814216037767,80.38814216037767,80.38814216037767,6.094859460250547,0.0,0.0,0.0,0.8838834764831844,nan,nan,nan,nan,nan,nan,nan,nan,Bus,U6
80,,,10.492309864979587,4.89974175316,19.4901922274,2.2830083214720718,nan,nan,nan,nan,nan,nan,nan,nan,nan,nan,nan,nan,nan,nan,nan,nan,nan,nan,nan,nan,nan,nan,nan,nan,nan,nan,nan,nan,nan,nan,nan,nan,nan,nan,nan,nan,nan,nan,nan,nan,2.0,2.0,2.0,2.516611478423583,80.38814216037767,80.38814216037767,80.38814216037767,6.094859460250547,0.0,0.0,0.0,0.8838834764831844,nan,nan,nan,nan,nan,nan,nan,nan,Bus,U6
81,,,10.096056342579264,7.7473527283,13.625390311099999,0.8381036404766544,nan,nan,nan,nan,nan,nan,nan,nan,nan,nan,nan,nan,nan,nan,nan,nan,nan,nan,nan,nan,nan,nan,nan,nan,nan,nan,nan,nan,nan,nan,nan,nan,nan,nan,nan,nan,nan,nan,nan,nan,2.0,2.0,2.0,2.516611478423583,78.87737946560242,74.83405967915479,82.92069925205004,5.718117679005718,0.0,0.0,0.0,0.8838834764831844,nan,nan,nan,nan,nan,nan,nan,nan,Bus,U6
82,,,10.199770972946023,8.206892565710001,12.0911694134,0.7214369783527664,nan,nan,nan,nan,nan,nan,nan,nan,nan,nan,nan,nan,nan,nan,nan,nan,nan,nan,nan,nan,nan,nan,nan,nan,nan,nan,nan,nan,nan,nan,nan,nan,nan,nan,nan,nan,nan,nan,nan,nan,2.0,2.0,2.0,2.516611478423583,78.87737946560242,74.83405967915479,82.92069925205004,5.718117679005718,0.0,0.0,0.0,0.8838834764831844,nan,nan,nan,nan,nan,nan,nan,nan,Bus,U6
83,,,10.175741795769627,8.62639092786,11.5536785595,0.5684727923302819,nan,nan,nan,nan,nan,nan,nan,nan,nan,nan,nan,nan,nan,nan,nan,nan,nan,nan,nan,nan,nan,nan,nan,nan,nan,nan,nan,nan,nan,nan,nan,nan,nan,nan,nan,nan,nan,nan,nan,nan,5.0,5.0,5.0,2.516611478423583,72.97020639820093,72.68148050974938,73.2589322866525,0.40832006725641595,0.0,0.0,0.0,0.8838834764831844,nan,nan,nan,nan,nan,nan,nan,nan,Bus,U6
84,,,10.153275689862,9.062584388060001,11.1535929899,0.5470693713587165,nan,nan,nan,nan,nan,nan,nan,nan,nan,nan,nan,nan,nan,nan,nan,nan,nan,nan,nan,nan,nan,nan,nan,nan,nan,nan,nan,nan,nan,nan,nan,nan,nan,nan,nan,nan,nan,nan,nan,nan,5.0,5.0,5.0,2.516611478423583,72.97020639820093,72.68148050974938,73.2589322866525,0.40832006725641595,0.0,0.0,0.0,0.8838834764831844,nan,nan,nan,nan,nan,nan,nan,nan,Bus,U6
