time,activityrecognition#0,activityrecognition#1,android.sensor.accelerometer#mean,android.sensor.accelerometer#min,android.sensor.accelerometer#max,android.sensor.accelerometer#std,android.sensor.gravity#mean,android.sensor.gravity#min,android.sensor.gravity#max,android.sensor.gravity#std,android.sensor.linear_acceleration#mean,android.sensor.linear_acceleration#min,android.sensor.linear_acceleration#max,android.sensor.linear_acceleration#std,android.sensor.orientation#mean,android.sensor.orientation#min,android.sensor.orientation#max,android.sensor.orientation#std,android.sensor.gyroscope_uncalibrated#mean,android.sensor.gyroscope_uncalibrated#min,android.sensor.gyroscope_uncalibrated#max,android.sensor.gyroscope_uncalibrated#std,android.sensor.magnetic_field_uncalibrated#mean,android.sensor.magnetic_field_uncalibrated#min,android.sensor.magnetic_field_uncalibrated#max,android.sensor.magnetic_field_uncalibrated#std,android.sensor.rotation_vector#mean,android.sensor.rotation_vector#min,android.sensor.rotation_vector#max,android.sensor.rotation_vector#std,android.sensor.gyroscope#mean,android.sensor.gyroscope#min,android.sensor.gyroscope#max,android.sensor.gyroscope#std,android.sensor.game_rotation_vector#mean,android.sensor.game_rotation_vector#min,android.sensor.game_rotation_vector#max,android.sensor.game_rotation_vector#std,android.sensor.magnetic_field#mean,android.sensor.magnetic_field#min,android.sensor.magnetic_field#max,android.sensor.magnetic_field#std,android.sensor.pressure#mean,android.sensor.pressure#min,android.sensor.pressure#max,android.sensor.pressure#std,android.sensor.light#mean,android.sensor.light#min,android.sensor.light#max,android.sensor.light#std,sound#mean,sound#min,sound#max,sound#std,speed#mean,speed#min,speed#max,speed#std,android.sensor.proximity#mean,android.sensor.proximity#min,android.sensor.proximity#max,android.sensor.proximity#std,android.sensor.step_counter#mean,android.sensor.step_counter#min,android.sensor.step_counter#max,android.sensor.step_counter#std,target,user
1,,,10.07104911661129,9.24547654379,11.6292308397,0.4302917459004532,9.80664996989,9.806649382,9.80665030195,3.5755604619147506e-07,0.216835781167,0.216835781167,0.216835781167,nan,294.1670058365,294.149154405,294.184648582,0.015102841849754219,0.0153725986766,0.010044589730799998,0.020700607622400002,0.00753494251159554,nan,nan,nan,nan,0.5440177484386,0.54390469054,0.544157536962,0.00010274659445863411,0.015203832671079165,0.0031941732,0.0272286478584,0.006421478194613823,0.6872477572069999,0.6872477572069999,0.6872477572069999,0.01306537620877151,66.27290424309,54.4833187407,76.889952997,7.91346773049278,nan,nan,nan,nan,124.55398600000001,124.55398600000001,124.55398600000001,nan,nan,nan,nan,nan,nan,nan,nan,nan,nan,nan,nan,nan,nan,nan,nan,nan,Train,U3
2,,,10.022275022124584,9.342564021769999,10.716334850299999,0.387862457277922,9.806650190360001,9.80664943964,9.80665072997,5.056426277978805e-07,0.3169748250495,0.1505214183,0.48342823179899996,0.23540066532834816,294.21575953679996,294.180248425,294.252958878,0.026348632304420652,0.010200502156405,0.006116376017100001,0.0181940182535,0.004565830877760811,nan,nan,nan,nan,0.5434751880441427,0.543125777738,0.5437617987610001,0.00023640087917727588,0.017879438176376664,0.006981864889819999,0.025218464170300003,0.005305423077823394,0.6872477572069999,0.6872477572069999,0.6872477572069999,0.01306537620877151,60.455158530811545,53.8424026465,78.5440190339,6.9963086949753865,1033.3577,1033.3577,1033.3577,nan,139.04799,139.04799,139.04799,nan,nan,nan,nan,nan,nan,nan,nan,nan,nan,nan,nan,nan,nan,nan,nan,nan,Train,U3
3,,,9.960092874201155,9.025863731160001,10.454539024299999,0.3132001828404585,9.806650090225,9.80664996365,9.8066502168,1.7900408076731405e-07,0.3169748250495,0.1505214183,0.48342823179899996,0.23540066532834816,295.5432500005,294.742068207,296.489855486,0.653849102547685,0.011724433826793335,0.00451724306001,0.026015032220400004,0.012376176000766542,104.08061028600001,104.08061028600001,104.08061028600001,nan,0.5370931975529999,0.530789166699,0.541188121828,0.005540278048236811,0.01667227705138857,0.00782409468059,0.027785022676,0.006293730258082175,0.6862912677245,0.6862874683660001,0.6862950670829999,5.373104318908557e-06,64.68153666385484,60.9659530373,74.4998588086,2.9061837418823604,1033.3395999999998,1033.3228,1033.3564,0.02375878784785282,126.70999499999999,107.154,146.26599,27.65635335470043,nan,nan,nan,nan,38.680004,38.680004,38.680004,nan,nan,nan,nan,nan,nan,nan,nan,nan,Train,U3
4,,,10.217487297014783,9.49322475093,10.8251388078,0.34611356267494425,9.806650090225,9.80664996365,9.8066502168,1.7900408076731405e-07,0.5224802715455,0.156499006938,0.9901175759790001,0.3476697400631437,298.18298805300003,297.863702677,298.49792189,0.29140757217425783,0.014568828310614002,0.00438997116337,0.0209185158014,0.006793646407646194,105.616465675,104.207762727,107.025168623,1.9922068144165586,0.518239614718,0.51610835738,0.520370872056,0.003014053032306721,0.013750075434979999,0.0010647244,0.024302786409,0.0064973576978554996,0.6862764190466667,0.6861850768350001,0.686338441373,8.077692824039113e-05,66.61924062578125,61.1188930641,72.1871941033,3.2853628659125977,1033.3247,1033.3247,1033.3247,0.02375878784785282,126.70999499999999,107.154,146.26599,27.65635335470043,nan,nan,nan,nan,38.680004,38.680004,38.680004,nan,nan,nan,nan,nan,nan,nan,nan,nan,Train,U3
5,,,10.012055644819231,9.45694520428,10.6229277526,0.32211909263925204,9.80665045856,9.80665001059,9.806650837460001,4.177397498359754e-07,0.502297128936,0.449143873124,0.592484759425,0.07851949504534761,300.79010151899996,300.266495712,301.162850092,0.4668310426952073,0.01244264628044,0.00817830351903,0.0247877346309,0.006237284684971268,113.279487055,113.279487055,113.279487055,1.9922068144165586,0.49353606589450005,0.48868446000200005,0.501464589134,0.005519651723821244,0.01415036067978,0.00722131253151,0.0284303352995,0.006385543920569382,0.686028470882,0.685878259398,0.686129586793,0.00013266177420615801,72.20618839937038,68.8972296259,75.8102164001,1.6782730430689203,1033.2667,1033.2667,1033.2667,0.02375878784785282,126.70999499999999,107.154,146.26599,27.65635335470043,nan,nan,nan,nan,38.880103999999996,38.880103999999996,38.880103999999996,nan,nan,nan,nan,nan,nan,nan,nan,nan,Train,U3
6,,,10.148648748076317,9.68651298508,11.8473939533,0.55793446079897,9.806650102806666,9.80664969992,9.806650655419999,4.95033956247177e-07,0.399313920195,0.308431604009,0.49019623638099996,0.12852700413012103,303.0760959926,301.855379044,303.97920559700003,1.0688748367739163,0.025276926455314288,0.0131268041473,0.05574317733300001,0.014270031322027112,113.279487055,113.279487055,113.279487055,1.9922068144165586,0.478749088358,0.46690136546300004,0.486418417542,0.008411834409045539,0.018828573933980998,0.0031941732,0.0425623493765,0.010629103425594878,0.686028470882,0.685878259398,0.686129586793,0.00013266177420615801,68.72648110101034,66.6855055484,74.5781834051,2.0334927936194305,1033.2546,1033.2546,1033.2546,0.02375878784785282,126.70999499999999,107.154,146.26599,27.65635335470043,nan,nan,nan,nan,38.880103999999996,38.880103999999996,38.880103999999996,nan,nan,nan,nan,nan,nan,nan,nan,nan,Train,U3
7,,,10.07344803272875,8.763513833300001,10.817344224500001,0.4667606906132169,9.80664986344,9.80664933931,9.80665039875,5.086166698288028e-07,0.60013390788075,0.441465064076,1.0099971331200002,0.27427069434193974,305.845664963,304.780901638,306.945356369,1.138172250556308,0.021100118185860002,0.0131699131344,0.0320480270634,0.007535213966235749,113.279487055,113.279487055,113.279487055,1.9922068144165586,0.4587488102206667,0.45198112708800003,0.46331053256300003,0.005978173162480816,0.01514191071453826,0.0039838339963200005,0.030265153189799998,0.007193669171766041,0.6857096163933334,0.685628945143,0.6858078340520001,9.072605896245667e-05,67.43944756947037,64.9418185657,70.8825205587,1.6275044019924942,1033.2023,1033.1965,1033.2081,0.008202438661795078,126.70999499999999,107.154,146.26599,27.65635335470043,nan,nan,nan,nan,38.880103999999996,38.880103999999996,38.880103999999996,nan,nan,nan,nan,nan,nan,nan,nan,nan,Train,U3
8,,,9.898928285278666,9.00697111419,10.7712423751,0.42068990976085385,9.806650151452,9.806649732010001,9.80665051781,3.219916154988144e-07,0.4020447307446666,0.28719102970800003,0.5630562260199999,0.1436081756405215,307.397022732,306.758453606,307.961623875,0.49414685677238385,0.013157898104065,0.0039838339963200005,0.0217943646913,0.007008996890268643,108.4555963565,108.164407559,108.746785154,0.4118031466356107,0.43964233765524996,0.435174769816,0.444224310092,0.004183034020685521,0.013997467136719285,0.00150574768667,0.024879034900700002,0.005981950315429409,0.6854269692695001,0.6854102058920001,0.685443732647,2.3706995811610604e-05,66.78898804577143,64.2434121992,69.7673906833,1.5318296458433693,1033.183,1033.1813,1033.1841,0.001493318452320219,126.70999499999999,107.154,146.26599,27.65635335470043,nan,nan,nan,nan,38.880103999999996,38.880103999999996,38.880103999999996,nan,nan,nan,nan,nan,nan,nan,nan,nan,Train,U3
9,,,10.138338847723043,9.369289819299999,11.3722781507,0.5361542545171313,9.806650073476668,9.8066492266,9.8066506031,7.410636417676092e-07,0.6061435464949999,0.46773167401199994,1.0681677504,0.23073858111444012,309.37557884,308.760999276,310.482834017,0.9608463267153334,0.03377928978939333,0.00521606299338,0.09000543035769999,0.04869534683407035,106.35248733600001,106.35248733600001,106.35248733600001,0.4118031466356107,0.42812068126279995,0.423783959551,0.432014958539,0.0034961045175646507,0.016737718288306665,0.00438997123613,0.0300584359633,0.007432773065278961,0.6854910280353333,0.685411225763,0.6855929507940001,9.286002185934181e-05,64.07770125337741,56.965082927,69.5309140257,3.6240984307509914,1033.1569,1033.1569,1033.1569,0.001493318452320219,134.85199,134.85199,134.85199,27.65635335470043,nan,nan,nan,nan,38.880103999999996,38.880103999999996,38.880103999999996,nan,nan,nan,nan,nan,nan,nan,nan,nan,Train,U3
10,,,10.128310928534376,8.80399304629,11.422508381400002,0.6388297464243126,9.80665026618,9.8066496655,9.806650919500001,6.286550944036564e-07,0.464708538233,0.248972622307,0.6400020053159999,0.1986270080966176,312.8565143045,310.87233655200004,314.398972904,1.5356703422015048,0.021734679016981815,0.0101008627006,0.0367136990133,0.008768378646515666,100.60857785200001,100.60857785200001,100.60857785200001,0.4118031466356107,0.41056919819566673,0.406469164193,0.41416372491400005,0.0038721078733907665,0.014165918314590001,0.00150574768667,0.025641960521100002,0.007867229344010027,0.685135064729,0.685110027041,0.685160102417,3.540863794006021e-05,59.23621977486155,57.098905199700006,62.22436939520001,1.4204920260137546,1033.1569,1033.1569,1033.1569,0.001493318452320219,134.85199,134.85199,134.85199,27.65635335470043,nan,nan,nan,nan,38.880103999999996,38.880103999999996,38.880103999999996,nan,nan,nan,nan,nan,nan,nan,nan,nan,Train,U3
11,,,10.043021134908667,9.33032764308,11.6104407726,0.5291477843412005,9.806650189006668,9.80664939169,9.80665090171,7.585576199236151e-07,0.5779515414893334,0.185018885958,0.944138942716,0.3802660865945493,317.2591150015,316.329571589,318.347213327,0.8567035101605291,0.024673614372828,0.00964148940858,0.0395097406698,0.009408692113497123,100.60857785200001,100.60857785200001,100.60857785200001,0.4118031466356107,0.37284518408120004,0.362496326852,0.386273482281,0.009598231491145429,0.016338964990701667,0.007142388407109999,0.031241996383,0.006618953358873632,0.685365662328,0.6853321772859999,0.685409058534,3.264096023734274e-05,58.639860201193336,56.389410417700006,61.616128251899994,1.2797741308657657,1033.1569,1033.1569,1033.1569,0.001493318452320219,134.85199,134.85199,134.85199,27.65635335470043,nan,nan,nan,nan,38.880103999999996,38.880103999999996,38.880103999999996,nan,nan,nan,nan,nan,nan,nan,nan,nan,Train,U3
12,,,10.083883111077059,9.24697684367,10.8963747506,0.4884536475956466,9.80664979794,9.80664948271,9.806650113169999,4.458025404705194e-07,0.6744160800178,0.471482913447,0.929493746868,0.19911428734848885,320.4568393884,318.717587263,321.76085092799997,1.2465801222876955,0.019310787868644617,0.00706258295123,0.0424556761565,0.01150318141610578,100.60857785200001,100.60857785200001,100.60857785200001,0.4118031466356107,0.3400117292778,0.325928389376,0.34946800014799995,0.01040734538933337,0.013638541062778748,0.00499400023355,0.025927734841,0.007336369777575565,0.6852946407013333,0.6852785122730001,0.68531127544,1.6387450704185437e-05,56.00800436048077,50.9021599333,59.1563710675,1.8730519369810061,1033.1569,1033.1569,1033.1569,0.001493318452320219,134.85199,134.85199,134.85199,27.65635335470043,nan,nan,nan,nan,38.880103999999996,38.880103999999996,38.880103999999996,nan,nan,nan,nan,nan,nan,nan,nan,nan,Train,U3
13,,,9.790267014834706,9.18683971968,10.3405412834,0.35293516650856877,9.8066503783,9.80664979991,9.80665067572,3.443976129430813e-07,0.5643984975812499,0.279233994353,0.8599995212799999,0.2452848337162945,324.18606062,324.18606062,324.18606062,1.2465801222876955,0.023154156323293748,0.00981627428765,0.0536287211436,0.013662868181541839,100.60857785200001,100.60857785200001,100.60857785200001,0.4118031466356107,0.3123456962944546,0.297683014162,0.32466912015,0.009497034934570043,0.018733254244198333,0.00451724306001,0.0307297989682,0.008892018730511016,0.6855021205023334,0.6853403591760001,0.68559227122,0.00014039579385885406,55.45647294042726,51.060057545,59.12033887649999,1.9685515060511707,1033.1569,1033.1569,1033.1569,0.001493318452320219,134.85199,134.85199,134.85199,27.65635335470043,nan,nan,nan,nan,38.880103999999996,38.880103999999996,38.880103999999996,nan,nan,nan,nan,nan,nan,nan,nan,nan,Train,U3
14,,,9.82923180965238,8.52711615986,11.57314283,0.8255352504455449,9.80664998879,9.806649458089998,9.80665044587,4.80535884558131e-07,0.4454014554755,0.422422366381,0.46838054456999995,0.03249733944842154,330.4730075325,327.853588773,333.092426292,3.704417535219419,0.014771115634104286,0.0065634020493300005,0.023472284136999998,0.005372091080515056,87.71010432573333,86.5072928645,89.6191812965,1.6718464734451965,0.25805597179250006,0.231981491744,0.287807335872,0.02310361682959896,0.016199480665728,0.00301149537334,0.028129688421200002,0.009759159600739264,0.6854265927945,0.6852627832029999,0.685590402386,0.00023166174594613944,55.03838404265,53.483907915100005,57.140569544499996,1.0538663590103587,1033.1569,1033.1569,1033.1569,0.001493318452320219,140.250995,139.04799,141.454,1.7013059866026516,nan,nan,nan,nan,38.880103999999996,38.880103999999996,38.880103999999996,nan,nan,nan,nan,nan,nan,nan,nan,nan,Train,U3
15,,,9.815184810637001,9.16931434873,10.964367904200001,0.4557781238304976,9.80664985904,9.80664962296,9.80665022246,2.688938476340115e-07,0.4454014554755,0.422422366381,0.46838054456999995,0.03249733944842154,337.02574548999996,336.966936128,337.084554852,0.08316899733491627,0.017952619455899998,0.013635125098700001,0.0226112977756,0.0032782444243953986,87.71010432573333,86.5072928645,89.6191812965,1.6718464734451965,0.20969625231050001,0.205524646537,0.21386785808400002,0.005899541461757619,0.01724775044685,0.0115658674961,0.028028757387700002,0.004956096910820699,0.6854437747462501,0.685305823973,0.685645295381,0.0001447934159904622,56.64519113987038,52.320299400699994,59.057210972700005,1.790144760921608,1033.1569,1033.1569,1033.1569,0.001493318452320219,140.250995,139.04799,141.454,1.7013059866026516,nan,nan,nan,nan,38.880103999999996,38.880103999999996,38.880103999999996,nan,nan,nan,nan,nan,nan,nan,nan,nan,Train,U3
16,,,10.053263460558668,9.26558224038,11.081755243,0.46500120748403473,9.806649862153334,9.80664958161,9.806650059419999,2.4955330360425766e-07,0.3426858946356,0.15671840286699998,0.595777838682,0.16333528878905143,339.249798781,337.636400542,341.694338276,2.152861236546425,0.017159324893443635,0.00438997116337,0.0330922091723,0.009409083503492318,87.0346105725,87.0346105725,87.0346105725,1.6718464734451965,0.17503606823666665,0.153166476227,0.198443889802,0.022677867131519307,0.012249828396477778,0.00451724306001,0.0183799919364,0.003942372945158832,0.685918752928,0.685626577483,0.686085307418,0.0002538577486853542,56.90217215135,54.284575573999994,58.6362507946,1.090278895002614,1033.1569,1033.1569,1033.1569,0.001493318452320219,132.72499,132.72499,132.72499,1.7013059866026516,nan,nan,nan,nan,38.880103999999996,38.880103999999996,38.880103999999996,nan,nan,nan,nan,nan,nan,nan,nan,nan,Train,U3
17,,,9.847208760984735,9.35153206915,10.5796125445,0.3297001839911291,9.8066502479,9.8066498084,9.80665061202,3.565897372249291e-07,0.7812010757451999,0.511056625359,0.969654661592,0.20849071184568246,345.3345480324,343.764487529,348.45116252400004,1.8497733497651467,0.014373658839571429,0.00620835680912,0.020809846151299997,0.005868414530383761,87.0346105725,87.0346105725,87.0346105725,1.6718464734451965,0.12205904401466666,0.108655177878,0.135017309062,0.013186713403601273,0.013719297422801,0.00487918015727,0.0280893594551,0.006721640585339404,0.6858021522694999,0.6856659975489999,0.68593830699,0.0001925518523122859,62.36894383152692,56.6455866606,68.9464655947,3.375693652184198,1033.1569,1033.1569,1033.1569,0.001493318452320219,132.72499,132.72499,132.72499,1.7013059866026516,nan,nan,nan,nan,38.880103999999996,38.880103999999996,38.880103999999996,nan,nan,nan,nan,nan,nan,nan,nan,nan,Train,U3
18,,,9.962087000765335,9.02002888416,10.5748385073,0.3739701077555168,9.806650333776666,9.806649948939999,9.806650698430001,3.751524239264082e-07,0.5589917291168,0.429900872064,0.829100765334,0.16034207546182405,352.2857321485,350.47058956,355.070711759,1.9694112012490725,0.01364388335891,0.005831735714060001,0.021637756687,0.006540611804255143,90.9413014669,90.9413014669,90.9413014669,1.6718464734451965,0.06840605962804,0.0511724872815,0.0835108259018,0.014005815353303799,0.013572453889897333,0.00487918015727,0.024879034635400005,0.005695187815605312,0.6848126857625999,0.684741287613,0.684864972896,4.702312780636524e-05,61.83814057553333,56.7811002062,68.1638128922,3.104358509108091,1033.1569,1033.1569,1033.1569,0.001493318452320219,132.72499,132.72499,132.72499,1.7013059866026516,nan,nan,nan,nan,38.880103999999996,38.880103999999996,38.880103999999996,nan,nan,nan,nan,nan,nan,nan,nan,nan,Train,U3
19,,,9.994831261625293,9.599956538839999,10.563345073099999,0.335809366250082,9.80664934386,9.80664934386,9.80664934386,3.751524239264082e-07,0.4226047996606666,0.129438204602,0.67234208846,0.27404513361607136,2.16567296488,2.16567296488,2.16567296488,1.9694112012490725,0.019793192895928572,0.005429050492199999,0.0320303361624,0.008670495840813017,93.558867665,93.558867665,93.558867665,1.6718464734451965,0.020349650422510003,0.0170193719442,0.031072284213099998,0.004450844898693741,0.01873739240643357,0.00760365329476,0.038844204616,0.009642272767571514,0.68519356910475,0.6848771444130001,0.68547506823,0.0003014979509747604,58.91724377098518,56.4907152747,62.033367658100005,1.609010283140103,1033.1569,1033.1569,1033.1569,0.001493318452320219,132.72499,132.72499,132.72499,1.7013059866026516,nan,nan,nan,nan,38.880103999999996,38.880103999999996,38.880103999999996,nan,nan,nan,nan,nan,nan,nan,nan,nan,Train,U3
20,,,10.083190583640715,9.300180514660001,10.7183341603,0.36374615578169406,9.80665016735,9.80665016735,9.80665016735,3.751524239264082e-07,0.6694363576850001,0.328895955044,1.12944158031,0.2599734521107408,4.93003531089,3.30711295375,6.5827239541400004,1.625197535802542,0.015600186069247499,0.00487918015727,0.0235927170711,0.005084782965338052,87.9947175261,87.9947175261,87.9947175261,1.6718464734451965,0.030697862259750002,0.022202234972000003,0.0391934895475,0.012014631331203002,0.016964124022775383,0.00817830351903,0.0346649142528,0.006802748498500874,0.685884565071,0.6858123335340001,0.6859305628929999,6.33300969871841e-05,65.74263367492175,61.815847194499995,67.5661505378,1.4720589000144126,1033.1569,1033.1569,1033.1569,0.001493318452320219,132.72499,132.72499,132.72499,1.7013059866026516,nan,nan,nan,nan,38.880103999999996,38.880103999999996,38.880103999999996,nan,nan,nan,nan,nan,nan,nan,nan,nan,Train,U3
21,,,9.982880763802665,9.314206791950001,10.4900969283,0.3962653676231683,9.80665027683,9.80664960521,9.80665093198,5.122838448750702e-07,0.52950004536675,0.272495835209,1.0968493616500001,0.3818634329074306,4.93003531089,3.30711295375,6.5827239541400004,1.625197535802542,0.01655416393023222,0.00690020275167,0.0297170666418,0.0081902691554336,88.51307711634999,88.179969558,88.8461846747,0.4710852267475584,0.09228475801708,0.0775054289381,0.10652242634299999,0.01311278137802413,0.017605548140879165,0.00542905055103,0.0365589838139,0.011129957782458864,0.686032886094,0.685992553469,0.6860732187190001,5.7038945281147735e-05,65.40564591231154,61.8578004489,67.4195446616,1.513751246575817,1033.58205,1033.5636,1033.6005,0.02609224022582579,141.454,141.454,141.454,1.7013059866026516,nan,nan,nan,nan,38.880103999999996,38.880103999999996,38.880103999999996,nan,nan,nan,nan,nan,nan,nan,nan,nan,Train,U3
22,,,9.889256556668334,9.3609498312,10.4737825611,0.3391234744738676,9.806649336265,9.806649059460002,9.806649613069998,3.914613829803107e-07,0.397403461192625,0.21612199438299998,0.6729593848119999,0.14242709160645387,14.009720647,13.874965031099999,14.1251987109,0.12622575662239816,0.01565660781559125,0.00532362206,0.0334838468143,0.00971795001554033,90.01152183032501,85.090989902,93.9064319882,4.265620847951846,0.119403672903,0.11641600982599999,0.12329108440099999,0.0028749971072571175,0.011505573437606153,0.0039838339963200005,0.0190761058906,0.00490767645697773,0.6867670056338,0.686527858348,0.687114233123,0.0002474694105927539,58.99098879865357,53.9772919905,64.611871239,2.824547703732904,1033.58205,1033.5636,1033.6005,0.02609224022582579,141.454,141.454,141.454,1.7013059866026516,nan,nan,nan,nan,38.880103999999996,38.880103999999996,38.880103999999996,nan,nan,nan,nan,nan,nan,nan,nan,nan,Train,U3
23,,,10.030146187387645,9.23407161612,10.6343580013,0.4394769120045822,9.806650291859999,9.80665010372,9.80665048,2.6607014028635874e-07,0.5988874951516666,0.411169834748,0.758066883977,0.13542739948327773,13.197051902725,10.229149708,14.3324810345,1.9813687148775692,0.019050911676135714,0.00532362206,0.0316027714929,0.010422445155927077,97.43567589700001,97.43567589700001,97.43567589700001,4.265620847951846,0.10234352421388,0.0829290966748,0.12473653169000001,0.017007387927601352,0.024384850303862497,0.0101568233758,0.0655821847685,0.017512806216444462,0.68811121223575,0.687852534863,0.6882084617550001,0.00017263473080568324,59.95694353154814,56.1146310633,67.7335032397,2.893367735741837,1033.58205,1033.5636,1033.6005,0.02609224022582579,139.04799,139.04799,139.04799,1.7013059866026516,nan,nan,nan,nan,38.880103999999996,38.880103999999996,38.880103999999996,nan,nan,nan,nan,nan,nan,nan,nan,nan,Train,U3
24,,,10.035983741121111,9.40881364968,10.5464759821,0.2586198908422258,9.806650442555,9.80665009855,9.80665078656,4.864965372107305e-07,0.49253786784316667,0.1470045958,1.04458134131,0.317557316989605,6.3757016616025,4.25561856176,9.15863455147,2.3972900497952097,0.02229752530703333,0.0153925424991,0.0378089630098,0.006836971166947104,96.5806819452,96.5806819452,96.5806819452,4.265620847951846,0.057868957418433335,0.050576892304400003,0.0657124672345,0.007582840863470521,0.02032048339157875,0.00958252003333,0.0348117675405,0.009463816926328843,0.6781432752826,0.6639282969129999,0.684884868433,0.008368524003662317,61.20210204409677,55.651699835900004,64.6620810087,2.145377680574683,1033.58205,1033.5636,1033.6005,0.02609224022582579,139.04799,139.04799,139.04799,1.7013059866026516,nan,nan,nan,nan,38.880103999999996,38.880103999999996,38.880103999999996,nan,nan,nan,nan,nan,nan,nan,nan,nan,Train,U3
25,,,9.997442989066958,8.927282263210001,11.4528852826,0.5653078907856395,9.806650277876667,9.80664979995,9.806650675930001,4.434185976002844e-07,0.6593008016427999,0.36796504363399996,0.932709225938,0.21929100191022738,357.02799351225,356.72677135199996,357.730888086,0.4774064677554155,0.028955252565233333,0.026893514280799998,0.0328687835935,0.003390842537542685,96.5806819452,96.5806819452,96.5806819452,4.265620847951846,0.03547204793599,0.028466397250799996,0.04045577560040001,0.004189685184242424,0.023999247732037498,0.009816273842950002,0.0367136987668,0.008323184079248416,0.6781432752826,0.6639282969129999,0.684884868433,0.008368524003662317,61.35753473813705,55.278460986199995,67.3042641248,3.4591732521055305,1033.3595,1033.3595,1033.3595,0.02609224022582579,139.04799,139.04799,139.04799,1.7013059866026516,nan,nan,nan,nan,38.880103999999996,38.880103999999996,38.880103999999996,nan,nan,nan,nan,nan,nan,nan,nan,nan,Train,U3
26,,,10.129580877636664,9.27535339174,10.7679438187,0.4634539861188163,9.806650138816666,9.80664952078,9.806650891719999,5.071405207800767e-07,0.3594113253226667,0.23281230125500002,0.5731915502570001,0.18618520248990508,353.394482581,352.698988576,354.089976586,0.9835770544201818,0.015000294224406248,0.0039838339963200005,0.046617423864599994,0.014240091909795572,104.836740638,104.836740638,104.836740638,4.265620847951846,0.06368030511346666,0.04534910771509999,0.07141764234239999,0.009324415640385898,0.022812535148307275,0.00573371636818,0.046336924159399995,0.013359225920628612,0.647767813908,0.647553570203,0.647982057613,0.0003029863532640685,63.19927141098277,56.9388040202,72.7294955864,4.108494842079116,1033.3595,1033.3595,1033.3595,0.02609224022582579,139.04799,139.04799,139.04799,1.7013059866026516,nan,nan,nan,nan,31.960054,31.960054,31.960054,nan,nan,nan,nan,nan,nan,nan,nan,nan,Train,U3
27,,,10.083192080970626,7.512520855739999,11.2252827699,0.8408979658009861,9.8066502867125,9.80664980996,9.80665073784,4.167349632818182e-07,0.7922466983156666,0.7485457534559999,0.846332492503,0.04971363399541695,351.6888872585,351.46512803400003,351.912646483,0.3164433299939663,0.02697055163211111,0.0163566070771,0.0461285022834,0.010674203636416014,104.836740638,104.836740638,104.836740638,4.265620847951846,0.07824563141482499,0.0745609274692,0.08030174951789999,0.0025937179139759884,0.02174724389598,0.00656340229266,0.036975227847000004,0.011957289000879978,0.648278369128,0.648072437083,0.648826006265,0.00031544505077482827,60.02521168684827,50.270408930100004,73.2917294106,5.255194997933972,1033.3595,1033.3595,1033.3595,0.02609224022582579,139.04799,139.04799,139.04799,1.7013059866026516,nan,nan,nan,nan,31.960054,31.960054,31.960054,nan,nan,nan,nan,nan,nan,nan,nan,nan,Train,U3
28,,,10.178444164394119,8.84221584899,11.5387402234,0.7619023254994871,9.806650355281667,9.80664961084,9.80665075867,3.871495314580611e-07,0.5411020128773333,0.354219818609,0.853558075167,0.2723256705912522,350.87513417766667,350.790126765,351.032418074,0.1363605044455582,0.0204253692403875,0.012325075646600002,0.0414832800741,0.009428164787587474,71.5575871676,71.5575871676,71.5575871676,4.265620847951846,0.0801385516836,0.0755641831552,0.084712920212,0.006469134012155936,0.019872758542662503,0.0101008627006,0.0301149545254,0.006576130853848638,0.6486879617838,0.648144877754,0.649953240883,0.0007526014010751175,39.33209759565,11.9956981333,67.8455410399,17.603602393799825,1033.0371,1033.0371,1033.0371,0.02609224022582579,126.12299999999999,126.12299999999999,126.12299999999999,1.7013059866026516,nan,nan,nan,nan,31.960054,31.960054,31.960054,nan,nan,nan,nan,nan,nan,nan,nan,nan,Train,U3
29,,,10.075552600897728,8.677089661760002,11.044837388800001,0.6079219330115836,9.806649703723332,9.806649339989999,9.806650585689999,4.6656209142430467e-07,0.6427489121322499,0.254633216107,1.2151214823999998,0.4379666637405511,5.991261296,5.991261296,5.991261296,0.1363605044455582,0.016687900991214286,0.005831735714060001,0.0246041197325,0.007828941889243251,83.0640283908,83.0640283908,83.0640283908,4.265620847951846,0.042044196328240004,0.0279701078164,0.057136077490800005,0.010393983798887316,0.025157999385959993,0.0105402336754,0.0495869014442,0.015412450823998631,0.648466782145,0.648282846541,0.648604213091,0.00015269063585759558,46.33941004285652,38.133368070799996,54.4348718692,6.178071554132909,1033.0767,1033.0767,1033.0767,0.02609224022582579,126.12299999999999,126.12299999999999,126.12299999999999,1.7013059866026516,nan,nan,nan,nan,31.960054,31.960054,31.960054,nan,nan,nan,nan,nan,nan,nan,nan,nan,Train,U3
30,,,9.837980800368637,8.359576109430002,11.3489736388,0.6169689278841587,9.80665035647,9.806650065960001,9.80665050815,2.5167106549922717e-07,0.723390146922,0.25993285615600004,1.28379752195,0.4282926115659996,13.221143273680003,10.1026558187,16.6392482515,2.5534443027498983,0.01898976809468143,0.00722131253151,0.0433540279705,0.013775009622651956,83.6143724562,83.6143724562,83.6143724562,4.265620847951846,0.11501208595556667,0.0741473036779,0.146061850741,0.029147607044578885,0.0274980303253,0.011760265390899999,0.0405993809752,0.009078870267644274,0.648293215393,0.648217656875,0.648368773911,0.00010685588090842202,40.53650810208077,37.0601164772,43.8079586994,1.8570084113079095,1033.0767,1033.0767,1033.0767,0.02609224022582579,126.12299999999999,126.12299999999999,126.12299999999999,1.7013059866026516,nan,nan,nan,nan,31.960054,31.960054,31.960054,nan,nan,nan,nan,nan,nan,nan,nan,nan,Train,U3
31,,,9.936159764157274,9.33231004856,10.7241177751,0.4050729453593922,9.806649807795,9.80664922975,9.80665038584,8.174790778444468e-07,0.3891786837515,0.34551562324100005,0.432841744262,0.061748892348666186,22.767535643375,20.0771894839,27.389212184699996,3.384663450835326,0.01811121592704667,0.005831735714060001,0.038003352504,0.012345217326819305,83.6143724562,83.6143724562,83.6143724562,4.265620847951846,0.20628783900000003,0.1677415853,0.235568696882,0.03223749697073014,0.015735673604016,0.0039838339963200005,0.023375490710299998,0.008582271302370674,0.6486436732956667,0.648576306635,0.64873393095,8.126717887984356e-05,42.7380853697,36.8568986748,49.9359304312,4.410069128405415,1033.0767,1033.0767,1033.0767,0.02609224022582579,126.12299999999999,126.12299999999999,126.12299999999999,1.7013059866026516,nan,nan,nan,nan,31.960054,31.960054,31.960054,nan,nan,nan,nan,nan,nan,nan,nan,nan,Train,U3
32,,,9.964270624464445,8.768006510489998,11.454212663900002,0.6655293273814672,9.80664984587,9.80664984587,9.80664984587,8.174790778444468e-07,0.5449696866654999,0.45272534777199996,0.637214025559,0.13045319511532769,35.4275236036,32.6740145356,37.1594635557,1.7947018970637079,0.01816321429438692,0.00915910580618,0.0280489721583,0.006739820609098665,85.1220172018,85.1220172018,85.1220172018,4.265620847951846,0.295905122391375,0.264199472444,0.32062223096500003,0.018446829088143393,0.0182594653363,0.0115167552553,0.0301337704928,0.005964175064628624,0.648601878683,0.648343445171,0.648974381835,0.00033057401678319537,40.66564070265769,37.012923450900004,43.5189179912,1.7556358247588233,1033.0767,1033.0767,1033.0767,0.02609224022582579,126.12299999999999,126.12299999999999,126.12299999999999,1.7013059866026516,nan,nan,nan,nan,31.960054,31.960054,31.960054,nan,nan,nan,nan,nan,nan,nan,nan,nan,Train,U3
33,,,9.906271297633529,9.070082986180001,13.4372386937,0.9616980005191311,9.8066503133825,9.80664982018,9.806651053969999,5.512885935515658e-07,1.0747372581230001,0.200273082302,1.54496016822,0.6066653244457526,39.71524310995,38.409937400100006,41.0205488198,1.8459810379129047,0.018495464693585335,0.0039838339963200005,0.062065307193,0.013705195183852116,87.5522388706,87.5522388706,87.5522388706,4.265620847951846,0.34771829293433326,0.341238493519,0.356469762192,0.007865637243841275,0.0289249532704,0.018410805180099996,0.0473413414774,0.012020974664241605,0.648783900262,0.648765016223,0.648802784301,2.6706064066213887e-05,45.07283211888276,39.7706914238,49.621538483100004,2.9947392819245082,1033.0767,1033.0767,1033.0767,0.02609224022582579,126.12299999999999,126.12299999999999,126.12299999999999,1.7013059866026516,nan,nan,nan,nan,31.960054,31.960054,31.960054,nan,nan,nan,nan,nan,nan,nan,nan,nan,Train,U3
34,,,10.0633398327925,8.7899358197,11.0615102747,0.689722663954171,9.806650327949999,9.806650327949999,9.806650327949999,5.512885935515658e-07,1.2196592042773333,0.450465621052,2.20354102703,0.8960394103524363,46.9336472194,46.0194755727,49.2991875778,1.5806608070566683,0.016534855401218334,0.00438997123613,0.0313144858887,0.007908853586413129,89.54919193675,88.23641007260001,90.8619738009,1.85655391671836,0.4280304664226666,0.40094780335999997,0.44633624226999996,0.016622182942772026,0.03097793864679077,0.00521606299338,0.06749882484780001,0.017008972114865815,0.6503968099632,0.6496361632850001,0.651154733512,0.0006138137996872551,59.7564113166207,42.8558392679,69.20648119100001,6.996849850840167,1033.0767,1033.0767,1033.0767,0.02609224022582579,126.12299999999999,126.12299999999999,126.12299999999999,1.7013059866026516,nan,nan,nan,nan,31.960054,31.960054,31.960054,nan,nan,nan,nan,nan,nan,nan,nan,nan,Train,U3
35,,,9.9857465085265,9.27728152517,10.7397220754,0.4018092556397961,9.80664946599,9.80664946599,9.80664946599,5.512885935515658e-07,0.385544113463,0.385544113463,0.385544113463,0.8960394103524363,54.44925792153334,53.340496690900004,55.1450965529,0.9705791931735693,0.013038707668276,0.0021294488,0.0359807547164,0.013374553472632082,83.1878756566,83.1878756566,83.1878756566,1.85655391671836,0.47004471044775004,0.45268767040700003,0.48892083333700004,0.01776961744761974,0.01532686413095,0.006116376017100001,0.0560575120328,0.015073351946141357,0.650953240222,0.650890588095,0.6510158923489999,8.860348771486851e-05,64.01972063299999,54.2692941393,71.29345759649999,5.611134610285567,1033.0767,1033.0767,1033.0767,0.02609224022582579,126.12299999999999,126.12299999999999,126.12299999999999,1.7013059866026516,nan,nan,nan,nan,31.960054,31.960054,31.960054,nan,nan,nan,nan,nan,nan,nan,nan,nan,Train,U3
36,,,10.093220838462104,9.39761521393,10.4469242804,0.29639223937228404,9.8066501428925,9.806649192710001,9.806651129710001,7.994550801870114e-07,0.136106672423,0.136106672423,0.136106672423,0.8960394103524363,64.12683727615,63.4879139594,64.7657605929,0.9035740198642491,0.012751653715258998,0.00553247027057,0.021637756687,0.004703551768625389,86.0322196811,86.0322196811,86.0322196811,1.85655391671836,0.518909441064,0.498276644318,0.537755245255,0.013889211664786261,0.012768965499574283,0.00542905055103,0.0192829788172,0.0039995394992608764,0.650811325685,0.650811325685,0.650811325685,8.860348771486851e-05,56.203088784457684,48.4529689413,66.4494103373,6.245676798086069,1033.0767,1033.0767,1033.0767,0.02609224022582579,126.12299999999999,126.12299999999999,126.12299999999999,1.7013059866026516,nan,nan,nan,nan,31.960054,31.960054,31.960054,nan,nan,nan,nan,nan,nan,nan,nan,nan,Train,U3
37,,,9.936682242581364,9.01193216589,10.5562062688,0.3638344247189621,9.80665027161,9.80665027161,9.80665027161,7.994550801870114e-07,0.8166492121206668,0.489879782849,1.02823427617,0.28706613978921575,69.0240788768,69.0240788768,69.0240788768,0.9035740198642491,0.0167218382600675,0.00620835680912,0.0342867700703,0.00939256265807836,84.70365841666666,83.0319262769,86.38472268,1.6764176826071042,0.549976623544,0.538940399425,0.564589870537,0.010232748079925543,0.010845317020085,0.00184415675686,0.0217683418138,0.006283453086506712,0.65143980110775,0.651149605114,0.6516951531499999,0.0002126909506539962,53.153697091552175,46.851883856,57.090686037299996,2.7658032715743603,1033.0767,1033.0767,1033.0767,0.02609224022582579,126.12299999999999,126.12299999999999,126.12299999999999,1.7013059866026516,nan,nan,nan,nan,31.960054,31.960054,31.960054,nan,nan,nan,nan,nan,nan,nan,nan,nan,Train,U3
38,,,9.888637679818236,9.424261765139999,10.5910440908,0.29256302376368665,9.806650166725,9.806649824279999,9.80665042575,2.864634017731522e-07,0.8220347309083333,0.6504068053809999,1.1088528953899999,0.2499895952312862,72.52431389713999,69.69067597770001,74.86781224079999,2.0939225428019967,0.019045392519214,0.00817830333677,0.027662351406799998,0.009207928222557575,84.70365841666666,83.0319262769,86.38472268,1.6764176826071042,0.579045094097,0.5779207372730001,0.580169450921,0.0015900806694475,0.0280666870222,0.0121863276817,0.044895526533900006,0.012508840526730222,0.6560768753708334,0.651982004351,0.669517369563,0.006801675603855882,41.65272563940417,37.682170879000005,46.1385009822,2.4020802903354515,1033.2456499999998,1033.2196,1033.2717,0.03684026329989656,126.12299999999999,126.12299999999999,126.12299999999999,1.7013059866026516,nan,nan,nan,nan,31.530128,31.530128,31.530128,nan,nan,nan,nan,nan,nan,nan,nan,nan,Train,U3
39,,,10.122576391983685,9.23638317602,11.132938612,0.46431214190611214,9.806650492465,9.80665048972,9.80665049521,3.882015921876828e-09,0.5343683449233333,0.179857099753,0.894052800149,0.23407257645004168,78.43733957618,76.4590397139,79.45879292149999,1.189048403560855,0.0201911754561875,0.0121863274021,0.030227673822800002,0.00684136147655321,84.70365841666666,83.0319262769,86.38472268,1.6764176826071042,0.6304817494205,0.619722326944,0.639788167496,0.008555846075796186,0.0196834542339025,0.009159105457429999,0.0414285891513,0.010366789932483115,0.6807998104480001,0.680736255963,0.680871214858,6.782102791007298e-05,45.7906317840381,43.703516129700006,47.1124234391,1.047684053250762,1033.2456499999998,1033.2196,1033.2717,0.03684026329989656,126.12299999999999,126.12299999999999,126.12299999999999,1.7013059866026516,nan,nan,nan,nan,30.540041,30.540041,30.540041,nan,nan,nan,nan,nan,nan,nan,nan,nan,Train,U3
40,,,9.972877984197895,9.212219295119999,10.7310563953,0.358193966460799,9.806650516826666,9.806650099999999,9.806651279119999,6.611288875968998e-07,0.48556315036600006,0.375021067855,0.6388013264010001,0.11790711897963879,80.483476376925,80.0847096456,80.9516883231,0.41795457762061305,0.01630880963465,0.0023807961357,0.025240930631,0.008860445922780779,82.711188028,82.711188028,82.711188028,1.6764176826071042,0.64617189659825,0.6409648883300001,0.650788179535,0.0034089993228261953,0.01527542239623,0.00451724320143,0.027166126496900003,0.008538695999467978,0.6802182931290001,0.6802182931290001,0.6802182931290001,6.782102791007298e-05,43.94165825430312,41.8800411115,45.2773677528,0.841603122649621,1033.2456499999998,1033.2196,1033.2717,0.03684026329989656,126.12299999999999,126.12299999999999,126.12299999999999,1.7013059866026516,nan,nan,nan,nan,30.540041,30.540041,30.540041,nan,nan,nan,nan,nan,nan,nan,nan,nan,Train,U3
41,,,10.132623841667726,9.591951098110002,10.7957069622,0.3208781457835012,9.80664998605,9.80664931662,9.80665046499,5.974137965509156e-07,0.46058185354133335,0.260149520988,0.78347675798,0.195566530228482,81.78223556935001,81.2990759856,82.5169125097,0.5364617316349146,0.015773623689509998,0.00336695427922,0.0324522667742,0.00938994569705976,82.8286305045,82.8286305045,82.8286305045,1.6764176826071042,0.6560547047640001,0.653315182769,0.65910309272,0.002841856166882882,0.017192694658398573,0.00260803149669,0.0550576806869,0.014573629113001934,0.680123634443,0.680123634443,0.680123634443,6.782102791007298e-05,45.108282039295645,42.9185911596,49.242456775600004,1.817933695933129,1033.53215,1033.5083,1033.556,0.03372899346265285,126.12299999999999,126.12299999999999,126.12299999999999,1.7013059866026516,nan,nan,nan,nan,30.540041,30.540041,30.540041,nan,nan,nan,nan,nan,nan,nan,nan,nan,Train,U3
42,,,9.970868122555625,9.4616918187,10.6545512424,0.394430221638184,9.806650121603333,9.80664975327,9.80665047392,3.605918827243258e-07,0.5378332058798,0.46722432111999995,0.647598118024,0.07317544932343235,83.22100536335,83.12303748810001,83.3189732386,0.1385474978554144,0.014253431656448887,0.00706258295123,0.0287869656611,0.006047664585267042,84.2557027002,84.2557027002,84.2557027002,1.6764176826071042,0.6636868873247143,0.661197818527,0.6655458125110001,0.0015466947039613813,0.014760242814105385,0.00553247027057,0.023950383094,0.00638564456292195,0.6804425962427499,0.680268183037,0.680550304573,0.00012459824510129767,45.89811640711601,42.4483492836,52.1297402461,1.856182153706848,1033.53215,1033.5083,1033.556,0.03372899346265285,126.12299999999999,126.12299999999999,126.12299999999999,1.7013059866026516,nan,nan,nan,nan,31.650015000000003,31.650015000000003,31.650015000000003,nan,nan,nan,nan,nan,nan,nan,nan,nan,Train,U3
43,,,9.94579494581875,9.1951236318,10.400671129700001,0.34876192966363107,9.806650237240001,9.8066493724,9.80665121873,6.769990016045951e-07,0.491938401184,0.301661926724,0.6884158034610001,0.17688080980282894,84.20870824463334,84.163942779,84.2786135709,0.061329903580892346,0.01570055249055,0.010322885993299998,0.0235927173373,0.005068623963641771,84.2557027002,84.2557027002,84.2557027002,1.6764176826071042,0.670040548549,0.670040548549,0.670040548549,0.0015466947039613813,0.01654058454451333,0.0068175626586799995,0.0329548953237,0.008957601795785905,0.6806972526626667,0.68060387379,0.6808419765610001,0.00012708448424186535,55.177618289992,52.4126073739,58.3679241997,1.7066316127094268,1033.53215,1033.5083,1033.556,0.03372899346265285,126.12299999999999,126.12299999999999,126.12299999999999,1.7013059866026516,nan,nan,nan,nan,31.650015000000003,31.650015000000003,31.650015000000003,nan,nan,nan,nan,nan,nan,nan,nan,nan,Train,U3
44,,,9.926631082030001,9.227854060539999,10.4122554607,0.3419832722012243,9.8066500422225,9.806649340289999,9.80665055859,5.579040783266392e-07,0.5579454633209999,0.374618289574,0.825266447004,0.1569950175372227,84.95811350553333,84.9103690816,85.0348598205,0.06712166774298295,0.015975265163664286,0.0042588976,0.0268090767758,0.008508166019635268,81.9236019869,81.9236019869,81.9236019869,1.6764176826071042,0.6750374559652857,0.6728748343000001,0.6770507826909999,0.0012460645201125792,0.01661995162239308,0.0074530711,0.031332579715999995,0.007031842810327582,0.6814792866827499,0.681314375599,0.6817124635449999,0.00018772689926133696,45.88044873577143,40.733949340900004,56.2949588625,3.2251226355506644,1033.66465,1033.6603,1033.6689999999999,0.006151828996225725,126.12299999999999,126.12299999999999,126.12299999999999,1.7013059866026516,nan,nan,nan,nan,31.650015000000003,31.650015000000003,31.650015000000003,nan,nan,nan,nan,nan,nan,nan,nan,nan,Train,U3
45,,,10.079222361835,9.311289399389999,10.9847709953,0.42261975432774984,9.80665036738,9.80665014407,9.80665059069,3.1580803036605616e-07,0.3253415152264,0.11867444025999999,0.555440001474,0.16819633327249733,85.29579380220001,85.29579380220001,85.29579380220001,0.06712166774298295,0.0160257600414725,0.0031941733000000003,0.0356006634064,0.010436820656599151,84.2543350146,84.2543350146,84.2543350146,1.6764176826071042,0.6794169640142859,0.6775421566240001,0.680678250493,0.0011825145678228167,0.013073092103371538,0.00451724306001,0.0321186938793,0.0077155033068109675,0.6815886318068,0.681356521116,0.681770036685,0.00016243502660086154,47.92700582635714,43.810567045,49.95632531850001,1.8442811443653064,1033.66465,1033.6603,1033.6689999999999,0.006151828996225725,126.12299999999999,126.12299999999999,126.12299999999999,1.7013059866026516,nan,nan,nan,nan,31.650015000000003,31.650015000000003,31.650015000000003,nan,nan,nan,nan,nan,nan,nan,nan,nan,Train,U3
46,,,9.961548591526,8.85833405114,10.6778343407,0.4715658741925878,9.80665043508,9.80664999795,9.80665094114,3.8977345638957705e-07,0.6925571554440001,0.6925571554440001,0.6925571554440001,0.16819633327249733,86.47380459526666,86.40111373010001,86.6139717767,0.12141633721736535,0.02253734468903857,0.00964148939754,0.033092211031999996,0.0074074970874295305,84.2543350146,84.2543350146,84.2543350146,1.6764176826071042,0.6841262303066001,0.682313662734,0.6858030904350001,0.0015506839285402956,0.013424220756326669,0.00368831351372,0.0239030027129,0.006813102659430647,0.68185270193925,0.681728668646,0.6820555145730001,0.00014592259067657912,50.00154384888148,46.3801562428,51.5133912796,0.9684965746552495,1033.66465,1033.6603,1033.6689999999999,0.006151828996225725,126.12299999999999,126.12299999999999,126.12299999999999,1.7013059866026516,nan,nan,nan,nan,31.660631,31.660631,31.660631,nan,nan,nan,nan,nan,nan,nan,nan,nan,Train,U3
47,,,9.991456185345651,8.84137244737,10.7517902099,0.4326730390581646,9.806650358755,9.80665000681,9.806650710700001,4.977253925689786e-07,0.4776043434110001,0.285896859129,0.7009483633820001,0.19239338488777294,86.9604543811,86.9604543811,86.9604543811,0.12141633721736535,0.0176998122981,0.011951501855299999,0.0234481227409,0.008129338588938651,84.9215400752,84.9215400752,84.9215400752,1.6764176826071042,0.688392128144,0.6872722788529999,0.690164662864,0.0012422577050691399,0.016265214318616664,0.00858408234525,0.0247190400429,0.005101649455842381,0.6818378547792501,0.681586812026,0.6820565867720001,0.00016327888492802817,57.73715098297187,48.6787200398,64.4901567309,5.479883392000403,1033.66465,1033.6603,1033.6689999999999,0.006151828996225725,126.12299999999999,126.12299999999999,126.12299999999999,1.7013059866026516,nan,nan,nan,nan,31.660631,31.660631,31.660631,nan,nan,nan,nan,nan,nan,nan,nan,nan,Train,U3
48,,,9.9143946702225,8.99073987151,10.7255276262,0.4474586364900763,9.80664970974,9.80664970974,9.80664970974,4.977253925689786e-07,0.50513341469525,0.369067066225,0.670009863063,0.13556024646043235,86.9604543811,86.9604543811,86.9604543811,0.12141633721736535,0.010997692366745556,0.0039838339963200005,0.016767296770899998,0.0044345957067002655,84.58064828743333,83.7998676804,85.0634413982,0.6824602889745219,0.6929944713416667,0.6909529822930001,0.694111194639,0.001770584670874516,0.015826683106772724,0.010753189335799999,0.030171366674200003,0.005618741908943695,0.6824468399639999,0.68212879213,0.68265470391,0.0002797341004718417,59.833792622837045,51.532886739700004,67.1348913289,5.920172019473044,1033.66465,1033.6603,1033.6689999999999,0.006151828996225725,126.12299999999999,126.12299999999999,126.12299999999999,1.7013059866026516,nan,nan,nan,nan,31.660631,31.660631,31.660631,nan,nan,nan,nan,nan,nan,nan,nan,nan,Train,U3
49,,,9.980076229148333,9.35565947352,11.025115938299999,0.47842937523554,9.806650593854998,9.80665012744,9.806651228969999,5.491257564968886e-07,0.5302472679704999,0.275756950955,0.699033099711,0.19763125676039475,88.3329225255,88.2367609184,88.4290841326,0.13599304894041414,0.01663511445624625,0.00464102619997,0.0339878970824,0.00907167388554772,84.58064828743333,83.7998676804,85.0634413982,0.6824602889745219,0.697596709742,0.697350880437,0.6979993728389999,0.00035154406209994267,0.01709857370599308,0.00903448593146,0.0262751883791,0.006478990523077673,0.6822984473445,0.682277606927,0.682319287762,2.9472801074018987e-05,52.167521501368,49.9923562594,54.2969071346,1.233552296948776,1033.66465,1033.6603,1033.6689999999999,0.006151828996225725,126.12299999999999,126.12299999999999,126.12299999999999,1.7013059866026516,nan,nan,nan,nan,31.660631,31.660631,31.660631,nan,nan,nan,nan,nan,nan,nan,nan,nan,Train,U3
50,,,9.997926849507222,9.38434542987,10.609465749,0.364289617958548,9.806650022585,9.80664972607,9.80665019906,2.1077808498111858e-07,0.6167537997116667,0.305159710764,1.18029101596,0.3488971525844694,88.7763428643,88.7307436984,88.8219420302,0.06448695884868157,0.0252646080327,0.013676632425599999,0.0357119416181,0.006643743362704602,84.58064828743333,83.7998676804,85.0634413982,0.6824602889745219,0.7017929601656666,0.7007694676649999,0.702795272245,0.0010130683623395126,0.019825985495764167,0.008649861719009999,0.0426953146836,0.009321959848787247,0.6826922364437144,0.682218131164,0.682993490623,0.00026463981600236046,56.727817162042314,48.4843384562,60.366527795699994,3.79181190208595,1033.66465,1033.6603,1033.6689999999999,0.006151828996225725,126.12299999999999,126.12299999999999,126.12299999999999,1.7013059866026516,nan,nan,nan,nan,31.660631,31.660631,31.660631,nan,nan,nan,nan,nan,nan,nan,nan,nan,Train,U3
51,,,10.186496930612105,9.51653301996,10.8074140515,0.3562635368860625,9.806650250825001,9.80665003538,9.80665046627,3.04685240405725e-07,0.224705681764,0.224705681764,0.224705681764,0.3488971525844694,89.59438524935,89.5101916936,89.71205011010001,0.09110538208191858,0.01640708227189375,0.00922078394595,0.031368740608799996,0.007157445848234409,81.00744918946667,78.5983410687,82.7187913204,2.147017839145667,0.7053096338061428,0.7033279753499999,0.7071090023659999,0.0013256326204646497,0.01868241684451778,0.00656340229266,0.0289048655565,0.007696407240993154,0.6837252772469999,0.6830294329209999,0.684079560304,0.00046330899981426843,59.63506622106786,49.999003116400004,63.0804605257,3.5331328278723593,1033.66465,1033.6603,1033.6689999999999,0.006151828996225725,126.12299999999999,126.12299999999999,126.12299999999999,1.7013059866026516,nan,nan,nan,nan,31.660631,31.660631,31.660631,nan,nan,nan,nan,nan,nan,nan,nan,nan,Train,U3
52,,,9.918782669411303,9.374894327769999,10.5367940367,0.33272633615978336,9.806649961892001,9.80664938788,9.80665032084,4.704459553873823e-07,0.51639445826175,0.119989903036,0.9530590690970001,0.33907563154972,90.20335527639999,90.20335527639999,90.20335527639999,0.09110538208191858,0.013584653211591429,0.005429050492199999,0.0299071975875,0.008044169646732921,81.00744918946667,78.5983410687,82.7187913204,2.147017839145667,0.7101240412386667,0.708662233229,0.7113957878489999,0.0011272573472778417,0.016218519682768752,0.009816273842950002,0.021506378671599997,0.0036826769201146583,0.6840902637285,0.68401883167,0.684161695787,0.00010102018591895739,51.31417926810001,49.603010015900004,53.1121747284,1.0173576269542606,1033.66465,1033.6603,1033.6689999999999,0.006151828996225725,126.12299999999999,126.12299999999999,126.12299999999999,1.7013059866026516,nan,nan,nan,nan,31.660631,31.660631,31.660631,nan,nan,nan,nan,nan,nan,nan,nan,nan,Train,U3
53,,,10.05746699698381,9.46925071841,10.7360621039,0.3661506064370585,9.806650162355002,9.80665000371,9.806650321000001,2.243579109530639e-07,0.41903821797425,0.361965877811,0.442661769462,0.03836343789455236,90.92543582075001,90.9224567221,90.92841491940001,0.0042130817144899555,0.013822319948600002,0.010593874301200002,0.0184108063309,0.0040820815388326005,81.00744918946667,78.5983410687,82.7187913204,2.147017839145667,0.7133599962203333,0.711729709006,0.7145534999359999,0.0008912900152786219,0.01940848054587625,0.006817562892939999,0.0324697301314,0.009139039168816084,0.68413935544125,0.68397910465,0.684573437005,0.00028966232815384724,50.468391118780644,47.7346349879,52.2766733274,0.9810009250660884,1033.3397,1033.3397,1033.3397,0.006151828996225725,126.12299999999999,126.12299999999999,126.12299999999999,1.7013059866026516,nan,nan,nan,nan,31.660631,31.660631,31.660631,nan,nan,nan,nan,nan,nan,nan,nan,nan,Train,U3
54,,,9.77515675678,9.13106090024,10.8931271752,0.46766994567949327,9.80664999795,9.80664999795,9.80664999795,2.243579109530639e-07,0.485266825574,0.327124875918,0.6434087752300001,0.22364648998363848,91.83742872844999,91.7181937516,91.9566637053,0.16862372137051523,0.018940787149849998,0.010044589730799998,0.0310235192557,0.007868508751526412,82.4665415108,82.4665415108,82.4665415108,2.147017839145667,0.71624291473725,0.715520994358,0.716957528342,0.0006676510194889044,0.019960632319663572,0.009159105457429999,0.0360437115052,0.008245096607011563,0.684514943972143,0.684374112974,0.684610703612,8.595964550294024e-05,49.68612396695171,48.3074181567,52.4351759149,1.0543710194866738,1033.3397,1033.3397,1033.3397,0.006151828996225725,126.12299999999999,126.12299999999999,126.12299999999999,1.7013059866026516,nan,nan,nan,nan,31.790403,31.790403,31.790403,nan,nan,nan,nan,nan,nan,nan,nan,nan,Train,U3
55,,,9.886587514238332,9.41340240464,10.3308023061,0.257181751243186,9.806650007692,9.806649804389998,9.80665024033,2.025175581773352e-07,0.2959563920275,0.12443252008,0.46748026397500003,0.24257138597890057,94.0254824135,94.0254824135,94.0254824135,0.16862372137051523,0.01524126605142143,0.00922078394595,0.0284303348801,0.006470848242664231,82.82764403683332,78.5850206385,85.845518957,3.782025328354372,0.7290759076802,0.726151997746,0.730714898474,0.0018832782833957285,0.0116885250448025,0.00438997116337,0.0224856085616,0.005033128628869692,0.6845920764019999,0.684444678116,0.684687141448,8.278381395130861e-05,46.2845503426,41.1265694686,53.3012722063,3.6279719006768154,1033.3397,1033.3397,1033.3397,0.006151828996225725,126.12299999999999,126.12299999999999,126.12299999999999,1.7013059866026516,nan,nan,nan,nan,31.790403,31.790403,31.790403,nan,nan,nan,nan,nan,nan,nan,nan,nan,Train,U3
56,,,9.764201155276428,9.20253219612,10.313671837000001,0.3715255255668194,9.806650721805,9.80665066825,9.80665077536,7.573820669109167e-08,0.2959563920275,0.12443252008,0.46748026397500003,0.24257138597890057,94.57697116386667,94.38859194540001,94.8786512691,0.26394573948618766,0.019247337744538334,0.0065634020493300005,0.031260134045099995,0.008886058429382808,82.82764403683332,78.5850206385,85.845518957,3.782025328354372,0.7342033591004999,0.733995621664,0.734411096537,0.00029378510011090326,0.015573651362105,0.00673390865332,0.0283104594257,0.009245574092716063,0.6844154906919999,0.6844154906919999,0.6844154906919999,8.278381395130861e-05,42.33057841297273,40.3231173386,43.881312009300004,1.4051232655035892,1033.3397,1033.3397,1033.3397,0.006151828996225725,126.12299999999999,126.12299999999999,126.12299999999999,1.7013059866026516,nan,nan,nan,nan,31.790403,31.790403,31.790403,nan,nan,nan,nan,nan,nan,nan,nan,nan,Train,U3
