time,activityrecognition#0,activityrecognition#1,android.sensor.accelerometer#mean,android.sensor.accelerometer#min,android.sensor.accelerometer#max,android.sensor.accelerometer#std,android.sensor.gravity#mean,android.sensor.gravity#min,android.sensor.gravity#max,android.sensor.gravity#std,android.sensor.linear_acceleration#mean,android.sensor.linear_acceleration#min,android.sensor.linear_acceleration#max,android.sensor.linear_acceleration#std,android.sensor.orientation#mean,android.sensor.orientation#min,android.sensor.orientation#max,android.sensor.orientation#std,android.sensor.gyroscope_uncalibrated#mean,android.sensor.gyroscope_uncalibrated#min,android.sensor.gyroscope_uncalibrated#max,android.sensor.gyroscope_uncalibrated#std,android.sensor.magnetic_field_uncalibrated#mean,android.sensor.magnetic_field_uncalibrated#min,android.sensor.magnetic_field_uncalibrated#max,android.sensor.magnetic_field_uncalibrated#std,android.sensor.rotation_vector#mean,android.sensor.rotation_vector#min,android.sensor.rotation_vector#max,android.sensor.rotation_vector#std,android.sensor.gyroscope#mean,android.sensor.gyroscope#min,android.sensor.gyroscope#max,android.sensor.gyroscope#std,android.sensor.game_rotation_vector#mean,android.sensor.game_rotation_vector#min,android.sensor.game_rotation_vector#max,android.sensor.game_rotation_vector#std,android.sensor.magnetic_field#mean,android.sensor.magnetic_field#min,android.sensor.magnetic_field#max,android.sensor.magnetic_field#std,android.sensor.pressure#mean,android.sensor.pressure#min,android.sensor.pressure#max,android.sensor.pressure#std,android.sensor.light#mean,android.sensor.light#min,android.sensor.light#max,android.sensor.light#std,sound#mean,sound#min,sound#max,sound#std,speed#mean,speed#min,speed#max,speed#std,android.sensor.proximity#mean,android.sensor.proximity#min,android.sensor.proximity#max,android.sensor.proximity#std,android.sensor.step_counter#mean,android.sensor.step_counter#min,android.sensor.step_counter#max,android.sensor.step_counter#std,target,user
1,,,9.959900158077144,8.521600736689999,12.3562622482,0.9580898604809344,9.806650344645,9.80665008489,9.8066506044,3.673490435150073e-07,2.1388795128413336,0.964095835434,3.1182399317000002,1.0902875237091132,187.613120101,103.335970117,322.466722836,95.19490250938028,1.5839225140911113,0.23981723265500002,3.1900856043299997,1.1774004669150768,83.39094081535,76.3170659281,90.4648157026,10.003969804079398,0.875026435007,0.7914069907019999,0.9994742840080001,0.1098781989679324,1.591405612090818,0.387208882352,3.5446251645099998,1.096962167166999,0.9414307508903333,0.9398567953970001,0.9432315994570001,0.0016988042738623967,28.813375037600004,28.813375037600004,28.813375037600004,nan,1033.1588000000002,1033.1422,1033.1821,0.020776669607991315,5.0,5.0,5.0,nan,nan,nan,nan,nan,nan,nan,nan,nan,nan,nan,nan,nan,nan,nan,nan,nan,Walking,U2
2,,,9.537024606945558,6.26032359784,12.9360264886,2.0415935931438884,9.80665061357,9.80665061357,9.80665061357,3.673490435150073e-07,2.4732476070275,1.96515355384,3.0719350368000002,0.4736364868094918,257.1750993505,144.97830873,369.371889971,158.67022295024555,1.2193473963554544,0.313500866642,2.90629083436,1.0366909499542394,103.4721398195,101.208296325,105.735983314,3.201558173011993,0.9831517138951428,0.971739518767,0.9918858174799999,0.0069459946514607756,1.0488433114492,0.221656665423,2.3903481163299998,0.8981800658732169,0.9872118009829999,0.983709757158,0.9905687362219999,0.0034317911979599583,46.44342605,45.665039222,47.221812878,1.1008052089301767,1033.2021,1033.2021,1033.2021,0.020776669607991315,5.0,5.0,5.0,nan,87.37763312352669,87.37763312352669,87.37763312352669,nan,nan,nan,nan,nan,nan,nan,nan,nan,nan,nan,nan,nan,Walking,U2
3,,,11.11361186046625,9.50343814643,13.7732936984,1.3807637685138976,9.806650210968334,9.80664970051,9.80665049663,2.9143964162951096e-07,2.4732476070275,1.96515355384,3.0719350368000002,0.4736364868094918,257.1750993505,144.97830873,369.371889971,158.67022295024555,0.7598533675002858,0.36716406310500005,1.8643397543200002,0.5041987453182609,74.2107033746,74.2107033746,74.2107033746,3.201558173011993,0.877073523683,0.863106880141,0.890852715479,0.013873867458955394,0.8156512047933333,0.10564820484099999,1.9480966263400001,0.49200554529454715,0.9614259435624286,0.942973566732,0.994432535281,0.018800314986404446,44.27537682745,43.8597737565,44.6909798984,0.5877514995014009,1033.1721,1033.1721,1033.1721,0.020776669607991315,5.0,5.0,5.0,nan,85.13483585250509,85.13483585250509,85.13483585250509,nan,nan,nan,nan,nan,nan,nan,nan,nan,nan,nan,nan,nan,Walking,U2
4,,,9.902743601929167,4.27081804878,14.2065259998,3.5043780058026037,9.8066501045,9.806649568180001,9.80665079974,4.174765549929911e-07,4.98265326921,3.6052885436800004,6.36001799474,1.9478878751788211,334.60289784,334.60289784,334.60289784,158.67022295024555,0.6183517348316,0.166756788861,1.05922030765,0.23748455621132508,106.6323981993,98.4179900559,110.812009103,7.114254606709501,0.891268268479,0.840252405437,0.942284131521,0.07214732541016475,0.7852354525613846,0.256982466507,1.23059341806,0.3174753632853528,0.975407398639,0.971959641691,0.978855155587,0.004875864635627642,44.27537682745,43.8597737565,44.6909798984,0.5877514995014009,1033.1921,1033.1921,1033.1921,0.020776669607991315,5.0,5.0,5.0,nan,85.13483585250509,85.13483585250509,85.13483585250509,nan,nan,nan,nan,nan,nan,nan,nan,nan,nan,nan,nan,nan,Walking,U2
5,,,11.743503225524,5.932416686159999,14.7265835275,3.799643394873222,9.806650264888,9.80664996607,9.806651155700001,5.093986477520395e-07,4.59879261953,3.2715612813700004,6.53443105217,1.5013931217043306,321.02961395233336,306.870560928,331.47869348,12.716641633453296,0.72294851146825,0.302932096586,1.09188727134,0.3504496392918114,110.44299137499999,105.873626642,115.01235610799999,6.462057576837907,0.891268268479,0.840252405437,0.942284131521,0.07214732541016475,0.5607404026033077,0.20941155377,1.1316660082899999,0.2820300987411398,0.9383747860317142,0.883424462749,0.99851830044,0.05243889367203689,45.631613017199996,45.6234209446,45.63980508979999,0.011585340174859982,1033.199625,1033.1821,1033.2222,0.017122183466653926,5.0,5.0,5.0,nan,85.13483585250509,85.13483585250509,85.13483585250509,nan,0.0,0.0,0.0,nan,nan,nan,nan,nan,nan,nan,nan,nan,Walking,U2
6,,,10.119286260632858,2.66796379273,14.0988051094,3.884102600734561,9.806650170876667,9.80664947379,9.806650500810001,4.272279678627359e-07,2.2912489267900003,1.4055207945700001,3.17768914061,0.8860843876131048,329.342016794,329.342016794,329.342016794,12.716641633453296,0.5896752885993334,0.37453370733099994,1.06104913811,0.2448706013310487,110.7318475765,107.29921177799999,114.164483375,4.854480100926111,0.8067195445622,0.791798597279,0.8208252512049999,0.010549306684832987,0.6103930883456111,0.322014108237,1.15943945238,0.23702245171255082,0.914489279708,0.914489279708,0.914489279708,0.05243889367203689,45.112312817,43.9243622202,46.3002634138,1.6800158454237728,1033.2021,1033.2021,1033.2021,0.017122183466653926,5.0,5.0,5.0,nan,85.13483585250509,85.13483585250509,85.13483585250509,nan,0.0,0.0,0.0,nan,nan,nan,nan,nan,nan,nan,nan,nan,Walking,U2
7,,,5.78983009463,4.8946327616100005,6.68502742765,1.2660002093571077,9.80665005536,9.80665002447,9.80665008625,4.368505678800082e-08,3.1760095673966666,2.19158048904,3.7691225252800007,0.8584905058489504,327.41397565700004,321.47301599400004,333.863528218,6.210893522287687,0.6366932227625001,0.238728865615,1.33184807167,0.33395659415205375,110.50947517899999,110.50947517899999,110.50947517899999,4.854480100926111,0.80815611275225,0.749990817144,0.848866449085,0.04177524798742621,0.6457655938255908,0.215377552442,1.39623565223,0.3036842244938918,0.8971462229464999,0.8848238217219999,0.9094686241709999,0.017426506932690752,46.70354765650001,45.260120305,48.146975008000005,2.04131453679158,1033.2021,1033.2021,1033.2021,0.017122183466653926,5.0,5.0,5.0,nan,85.13483585250509,85.13483585250509,85.13483585250509,nan,0.0,0.0,0.0,nan,nan,nan,nan,nan,nan,nan,nan,nan,Walking,U2
8,,,9.480218606289093,7.75145103859,12.2183632107,1.5160142272227495,9.80664993647,9.80664904959,9.806650650989999,7.570200733395196e-07,3.00602921773,2.79016057745,3.22189785801,0.3052843587750151,324.4215042503333,304.798323284,336.706761165,14.769121535654577,1.1044785861869,0.247466122628,1.99987256252,0.5796731678073579,107.18643277825,104.17296109600001,109.334088215,2.1833242531240806,0.813567851048,0.808546345576,0.81858935652,0.007101481142033077,0.6339883267454,0.243246492081,1.41620821762,0.3777619378447392,0.976681010143,0.9450946948469999,0.999211967627,0.028172139288910013,46.70354765650001,45.260120305,48.146975008000005,2.04131453679158,1033.2021,1033.2021,1033.2021,0.017122183466653926,5.0,5.0,5.0,nan,85.13483585250509,85.13483585250509,85.13483585250509,nan,0.0,0.0,0.0,nan,nan,nan,nan,nan,nan,nan,nan,nan,Walking,U2
9,,,9.796579314678,9.24681450714,10.3204685842,0.3906786186771396,9.806650096964,9.80664979897,9.80665074778,3.9220132232558703e-07,1.5438742047263334,0.22467465123799998,2.7421117497500003,0.932651073859837,268.5673051646666,185.34744442599998,370.922239785,94.25558051105682,1.1262132861757141,0.188024580843,2.7939500842,0.9357109286240148,83.65232181315,74.2039930175,93.1006506088,13.36195472456848,0.91357545145025,0.786719768097,0.9810686578640001,0.08656835985373135,0.7205530516091389,0.046932749017900004,1.83756773034,0.5720285567256905,0.872545678203,0.7545370931540001,0.9999328251980001,0.089220875003753,50.2893752563,50.2893752563,50.2893752563,2.04131453679158,1033.2021,1033.2021,1033.2021,0.017122183466653926,5.0,5.0,5.0,nan,85.13483585250509,85.13483585250509,85.13483585250509,nan,0.0,0.0,0.0,nan,nan,nan,nan,nan,nan,nan,nan,nan,Walking,U2
10,,,9.934707575004285,8.89518778161,11.690955800000001,0.991503875008625,9.806650044973333,9.80664956558,9.80665063589,3.624883516779554e-07,1.3167629364484998,0.954508364854,1.56958185436,0.26018573200734035,185.675317711,185.675317711,185.675317711,94.25558051105682,0.357477070652,0.357477070652,0.357477070652,0.9357109286240148,83.65232181315,74.2039930175,93.1006506088,13.36195472456848,0.8246817006541428,0.753293806452,0.963988060295,0.09415197661047717,1.1830179410975787,0.161838666764,2.36240422273,0.6523304528843514,0.772647446524,0.697112868128,0.8161390942229999,0.06566485117887705,45.384844824,39.7013544529,48.3679782407,4.924077348163566,1033.2570999999998,1033.2421,1033.2721,0.021213203435577133,5.0,5.0,5.0,nan,85.13483585250509,85.13483585250509,85.13483585250509,nan,0.0,0.0,0.0,nan,nan,nan,nan,nan,nan,nan,nan,nan,Walking,U2
11,,,10.2486382207,9.81712763387,10.9990318879,0.45530019613877126,9.8066500676425,9.806649389119999,9.806650646880001,5.9258277897543e-07,0.532826883338,0.138433174598,0.961841304621,0.3590069505013918,199.71801442133335,195.491865348,201.877801545,3.660250545838541,0.3684769845584538,0.091631560958,0.7369253072740001,0.22085666766919893,76.08907287686668,75.2464424597,77.2950074152,1.0715162189944636,0.95823338980775,0.952270711025,0.9749238570280001,0.011131016782436217,0.42871466605690006,0.05055365041280001,1.08004316026,0.3110305778737023,0.863627563483,0.846954109999,0.9059064252299999,0.028340913225221205,39.757006671599996,39.757006671599996,39.757006671599996,4.924077348163566,1033.2570999999998,1033.2421,1033.2721,0.021213203435577133,5.0,5.0,5.0,nan,85.13483585250509,85.13483585250509,85.13483585250509,nan,1.14,1.14,1.14,nan,nan,nan,nan,nan,nan,nan,nan,nan,Walking,U2
12,,,9.5678308813575,8.88119423338,9.84071682343,0.45959341633115636,9.806649998901667,9.80664930217,9.806650861760001,5.480319480952062e-07,0.6478387914770334,0.08740469279419999,0.994521825529,0.3668594264696614,199.71801442133335,195.491865348,201.877801545,3.660250545838541,0.9341730628976667,0.221302361565,2.2386802484,0.6460043672618708,79.4743352637,79.4743352637,79.4743352637,1.0715162189944636,0.9822365118352,0.932126761065,0.9998262876790001,0.02832211444163292,0.8370212804656667,0.163737798593,2.1038831736900003,0.6446887446394735,0.9502548016243999,0.879809764803,0.998026390532,0.05230353953362281,42.0838744562,41.4404376647,42.7273112477,0.9099570370691308,1033.2570999999998,1033.2421,1033.2721,0.021213203435577133,5.0,5.0,5.0,nan,85.13483585250509,85.13483585250509,85.13483585250509,nan,1.14,1.14,1.14,nan,nan,nan,nan,nan,nan,nan,nan,nan,Walking,U2
13,,,9.880192760948999,8.13827844906,11.000790367899999,0.7754946756828761,9.806650268298,9.80664973373,9.80665099021,4.826038347791717e-07,0.76370975175,0.09441029480730001,1.59488006583,0.7832631939180903,199.47157580099997,173.32481766599997,225.61833393599997,36.97709996660605,0.651441493193,0.21658143440000002,2.04347575085,0.5415622107895375,81.8673890901,80.6524919677,83.0822862125,1.7181239873861212,0.92000960647075,0.8325175315860001,0.999605922792,0.07107274599826212,0.5573510251977333,0.038993130002,1.5089701629299999,0.42073632702021596,0.938870569763,0.938870569763,0.938870569763,0.05230353953362281,42.0838744562,41.4404376647,42.7273112477,0.9099570370691308,1033.2570999999998,1033.2421,1033.2721,0.021213203435577133,5.0,5.0,5.0,nan,85.13483585250509,85.13483585250509,85.13483585250509,nan,1.14,1.14,1.14,nan,nan,nan,nan,nan,nan,nan,nan,nan,Walking,U2
14,,,10.20712837855,9.71287116982,11.3063344865,0.7434099974242623,9.8066502632275,9.80664987384,9.80665077524,3.8022865018817794e-07,1.43392837943,1.1880080603,1.7298140214400002,0.2825656445878077,194.648139077,194.648139077,194.648139077,36.97709996660605,1.0192759652716363,0.159195164033,1.9016323461700002,0.5186584607200618,85.900383990075,77.0452998412,105.11334051,13.206362348726854,0.9167758435689999,0.759804255665,0.981676406521,0.10517007268162233,0.9789568288961669,0.12805323961200002,2.2690874927799998,0.7135067302893068,0.8349110913182499,0.80450483547,0.875784637297,0.03031215179797117,39.01304973575,37.081380681300004,40.9447187902,2.7317925748195995,1033.2546,1033.2421,1033.2621,0.009574271077554675,5.0,5.0,5.0,nan,85.13483585250509,85.13483585250509,85.13483585250509,nan,1.14,1.14,1.14,nan,nan,nan,nan,nan,nan,nan,nan,nan,Walking,U2
15,,,10.322761313600001,9.62393289813,11.1431035737,0.6218446496967094,9.806649728010001,9.806649492350001,9.806649963669999,3.33273566794321e-07,0.657549543237,0.657549543237,0.657549543237,0.2825656445878077,369.43327686699996,369.43327686699996,369.43327686699996,36.97709996660605,0.7435357869776363,0.12243133105699999,1.96238514407,0.6909327581720471,99.26064728133333,94.89267919299999,102.235368772,3.8645342054148175,0.9100985839412501,0.878338871619,0.9271172432610001,0.022253387896121347,0.5299598252708,0.0718874369628,1.5713670053600002,0.34635918246238123,0.9764035146884,0.8976272338369999,0.998962807752,0.0441365442133737,39.01304973575,37.081380681300004,40.9447187902,2.7317925748195995,1033.2421,1033.2421,1033.2421,0.009574271077554675,5.0,5.0,5.0,nan,85.13483585250509,85.13483585250509,85.13483585250509,nan,1.14,1.14,1.14,nan,nan,nan,nan,nan,nan,nan,nan,nan,Walking,U2
16,,,9.341093690558571,6.662892569229999,10.5622228965,1.3455906713825383,9.80665010435,9.80664997155,9.80665017442,1.1506671526293707e-07,1.3560790827809999,0.664343790812,2.0478143747499997,0.9782614314746723,164.845791209,145.322881764,184.368700654,27.60956331410081,0.9486742769188,0.20566936383,2.19826308636,0.9181536635032079,93.04526768829999,86.17520263,101.909825359,6.961085414463391,0.9443814142366667,0.86594355469,0.999534381946,0.05651548229498739,1.0223979773225238,0.10101952412799999,3.5829344252900004,0.8465429615610042,0.98457462200475,0.954302152554,0.9999510992720001,0.02151138984134378,39.01304973575,37.081380681300004,40.9447187902,2.7317925748195995,1033.2222,1033.2222,1033.2222,0.009574271077554675,5.0,5.0,5.0,nan,67.64394420754908,67.64394420754908,67.64394420754908,nan,1.14,1.14,1.14,nan,nan,nan,nan,nan,nan,nan,nan,nan,Walking,U2
17,,,10.061144501613,8.9237485851,11.046674196,0.6211956674570029,9.806650160964999,9.80665001053,9.8066503114,2.127472179013817e-07,2.17526810611,1.06639536817,3.2841408440499995,1.5681828649405345,365.16275893925,353.60555722199996,376.476168616,12.23563769189007,0.9157579317075001,0.463472748561,1.59688320336,0.5112947950383979,96.42522243105,90.9989502351,101.85149462700001,7.673907732640535,0.9403893218378,0.878836983995,0.972639302701,0.03817959567468888,0.6221772229276522,0.10329693273,1.71508287569,0.42152922338610643,0.999994335192,0.999994335192,0.999994335192,0.02151138984134378,50.1709717157,50.1709717157,50.1709717157,2.7317925748195995,1033.2222,1033.2222,1033.2222,0.009574271077554675,5.0,5.0,5.0,nan,67.64394420754908,67.64394420754908,67.64394420754908,nan,1.14,1.14,1.14,nan,nan,nan,nan,nan,nan,nan,nan,nan,Walking,U2
18,,,9.19187739618,7.7227869259,9.79237984163,0.9872182274521702,9.80665017837,9.80664978921,9.80665064041,3.714275942284951e-07,3.10400390046,1.90735612372,4.35454186152,1.2244825939136352,356.51337098249996,355.79940564199995,357.22733632300003,1.0096994675994797,0.42518417666999997,0.14878294581700002,0.7782412849429999,0.19290425014722898,97.04609204305001,95.5558124117,98.5363716744,2.107573666383545,0.9619374292149999,0.920235269636,0.986678091299,0.036323978796243855,0.4737714256315,0.21733751700399997,0.856231681473,0.2061125548823017,0.9939474432109999,0.987488928684,0.999773784128,0.006166778001913128,47.627562328349995,47.5871058069,47.66801884979999,0.057214161321023485,1033.2222,1033.2222,1033.2222,0.009574271077554675,5.0,5.0,5.0,nan,67.64394420754908,67.64394420754908,67.64394420754908,nan,1.14,1.14,1.14,nan,nan,nan,nan,nan,nan,nan,nan,nan,Walking,U2
19,,,8.508919062961429,5.4547477115600005,12.2223703252,2.4809505611626927,9.80665086396,9.80665086396,9.80665086396,3.714275942284951e-07,2.9461885256471425,1.4179293785499998,9.801213242989999,3.048415120870173,333.7363251552,181.068349127,386.248736939,87.28946203553926,0.4212955384361666,0.140236103516,0.668352729756,0.16547984270516006,88.152081200325,78.8302781262,99.83544290319999,8.685799427678129,0.9311375596349999,0.9311375596349999,0.9311375596349999,0.036323978796243855,0.6084148925622727,0.22459145233600003,1.3485866021500001,0.35836901534610416,0.9969623326579999,0.993978483238,0.999946182078,0.004219800317843118,51.269755146025005,43.446851144700005,59.2309414738,7.694805890486882,1033.2222,1033.2222,1033.2222,0.009574271077554675,5.0,5.0,5.0,nan,67.64394420754908,67.64394420754908,67.64394420754908,nan,1.14,1.14,1.14,nan,nan,nan,nan,nan,nan,nan,nan,nan,Walking,U2
20,,,8.554289274188573,6.1571554944,15.4612977632,3.3276806057000923,9.806649993885,9.806649399289999,9.80665058848,8.408843142382793e-07,8.336482662076667,1.20290972108,19.1674659838,7.748733854752805,388.4103010873334,385.56456931099996,393.737313396,4.616925522447588,0.5723015732094,0.260586441795,1.3079785007,0.42442143020864254,87.53012673680001,85.6024603499,89.45779312370001,2.7261319480847326,0.9680286194816666,0.957981737836,0.982589387778,0.012909898854689085,0.48936412043077776,0.126209755901,1.1182231944299998,0.2803767088038826,0.9964213274133332,0.9933869201790001,0.999913961384,0.003287559205453149,46.5064672332,46.5064672332,46.5064672332,7.694805890486882,1033.3920666666666,1033.3721,1033.412,0.01995002088553062,5.0,5.0,5.0,nan,70.20821896020354,70.20821896020354,70.20821896020354,nan,1.14,1.14,1.14,nan,nan,nan,nan,nan,nan,nan,nan,nan,Walking,U2
21,,,11.209424656821,1.7100349352200002,27.8740781153,7.209269916979702,9.806650320540001,9.80665031487,9.80665032621,8.018591562116734e-09,2.452503947252,1.33000769736,4.16390661815,1.1658831139533523,286.2659371405,201.676168268,370.85570601300003,119.62799837749499,1.1410279202690001,0.548870289014,2.5484992909599997,0.7270496146072892,80.5718278961,74.4224033879,86.7212524043,8.69659954028594,0.9364277915225001,0.872062679517,0.9991508810999999,0.05162813902113581,0.7373301218119376,0.31804631213,1.56768456518,0.36698341061509904,0.9964213274133332,0.9933869201790001,0.999913961384,0.003287559205453149,42.123677597500006,40.2101858333,44.0371693617,2.70608600442086,1033.3920666666666,1033.3721,1033.412,0.01995002088553062,5.0,5.0,5.0,nan,70.20821896020354,70.20821896020354,70.20821896020354,nan,1.14,1.14,1.14,nan,nan,nan,nan,nan,nan,nan,nan,nan,Walking,U2
22,,,9.293566323104445,7.67136997603,11.7397142386,1.1486565516216771,9.80665051398,9.8066502676,9.80665076036,3.4843393743733517e-07,0.613760108416,0.613760108416,0.613760108416,1.1658831139533523,227.23095828750002,206.13115922,248.330757355,29.839622004605683,0.571506051309,0.45800047241700004,0.666304574179,0.10846002584533206,80.5718278961,74.4224033879,86.7212524043,8.69659954028594,0.7748636961903334,0.753895368715,0.81004573521,0.03065514820189004,0.833133646825423,0.135570477992,2.44328343815,0.6383514954235119,0.9964213274133332,0.9933869201790001,0.999913961384,0.003287559205453149,53.3643197871,53.3643197871,53.3643197871,2.70608600442086,1033.3920666666666,1033.3721,1033.412,0.01995002088553062,5.0,5.0,5.0,nan,70.20821896020354,70.20821896020354,70.20821896020354,nan,1.14,1.14,1.14,nan,nan,nan,nan,nan,nan,nan,nan,nan,Walking,U2
23,,,9.9708088297025,8.582209345619999,10.970923405799999,0.8270241765771383,9.8066504887,9.8066504887,9.8066504887,3.4843393743733517e-07,0.8325596021780001,0.633892761128,1.20146802429,0.31980004187026073,227.23095828750002,206.13115922,248.330757355,29.839622004605683,0.417622285939,0.248164896785,0.758665674307,0.22013119312474827,80.5718278961,74.4224033879,86.7212524043,8.69659954028594,0.7603485808329999,0.758984321538,0.7617128401279999,0.0019293539975824832,0.41603429250178575,0.035820257289800005,1.00937926589,0.3110938618812236,0.75276249868,0.75276249868,0.75276249868,0.003287559205453149,57.174463798000005,57.174463798000005,57.174463798000005,2.70608600442086,1033.622,1033.622,1033.622,0.01995002088553062,5.0,5.0,5.0,nan,70.20821896020354,70.20821896020354,70.20821896020354,nan,1.14,1.14,1.14,nan,nan,nan,nan,nan,nan,nan,nan,nan,Walking,U2
24,,,10.841700939321667,8.07671993364,20.6833023385,4.859831822761146,9.806650153815,9.80664968343,9.8066506242,6.652248456825273e-07,2.85245947891,2.44096424585,3.2639547119700003,0.5819421394453298,207.6503554698,184.340521016,241.668232757,22.353579667202148,0.6677681282640999,0.09169457054289998,1.4485641427,0.47407885914818415,80.5718278961,74.4224033879,86.7212524043,8.69659954028594,0.7514131881688,0.730363049408,0.776054165956,0.016482399614684128,0.5885693066306957,0.10328647551100001,1.21700261055,0.3244286254402602,0.753832747828,0.753832747828,0.753832747828,0.003287559205453149,50.208630972899996,50.208630972899996,50.208630972899996,2.70608600442086,1033.6519,1033.6519,1033.6519,0.01995002088553062,5.0,5.0,5.0,nan,70.20821896020354,70.20821896020354,70.20821896020354,nan,1.14,1.14,1.14,nan,nan,nan,nan,nan,nan,nan,nan,nan,Walking,U2
25,,,9.763463893794167,7.59058771175,11.325555328800002,1.0868246655706115,9.80665004515,9.80664968398,9.80665040632,5.107715118772003e-07,1.9860812153265002,0.766757270933,3.20540515972,1.7243844590875455,289.6667559735,288.917264058,290.41624788900003,1.0599416317891126,0.9568464638324999,0.207192933499,1.7382594937599998,0.6033034093152202,118.07955280899999,118.07955280899999,118.07955280899999,8.69659954028594,0.778002030076,0.7608899393140001,0.8068340092020001,0.01649189755316582,0.6400580350827499,0.270519464516,0.977148503849,0.2573125524214899,0.900771930843,0.89997405985,0.9015698018359999,0.0011283599793246017,53.46306389885,51.9310213389,54.9951064588,2.1666353664140856,1033.6519,1033.6519,1033.6519,0.01995002088553062,5.0,5.0,5.0,nan,70.20821896020354,70.20821896020354,70.20821896020354,nan,1.14,1.14,1.14,nan,nan,nan,nan,nan,nan,nan,nan,nan,Walking,U2
26,,,12.031678625485,9.02409048112,18.8362506153,3.508522923239351,9.80665045093,9.80665045093,9.80665045093,5.107715118772003e-07,2.6289365834466665,1.47001039123,4.42086376378,1.5739763641141293,246.3865822255,238.883615231,251.47450156,5.398754449714945,0.430790339474,0.183472058385,0.966361687325,0.2332304769336411,100.68308771542499,92.2161707288,109.99121042600001,7.392200251226649,0.7534395439495001,0.739953549485,0.7759662401440001,0.016840848860097877,0.5397631609608666,0.138836186481,1.77358740594,0.4201601800455005,0.7394630324975,0.731335517147,0.7475905478479999,0.011494042437072608,54.8223672205,54.8223672205,54.8223672205,2.1666353664140856,1033.6519,1033.6519,1033.6519,0.01995002088553062,5.0,5.0,5.0,nan,70.5422822327961,70.5422822327961,70.5422822327961,nan,1.14,1.14,1.14,nan,nan,nan,nan,nan,nan,nan,nan,nan,Walking,U2
27,,,10.168401271273332,9.51925711006,12.495793423199999,1.1498335601325615,9.8066500301775,9.806649444580001,9.8066507352,5.388593363306909e-07,1.0391489667492002,0.620562461806,1.23453291969,0.24038165125155764,186.06117257774997,142.148449857,245.22530514299999,43.38562935180567,0.6714952912796667,0.175153826234,2.3865045060599996,0.853475533505792,88.73512919859999,87.8838281857,89.5864302115,1.2039214381051364,0.9265712917002,0.779807001507,0.999133030371,0.08508464655777731,1.0077308274382375,0.0908803800588,2.72057697462,0.9381173480420641,0.9274809817215,0.718516154533,0.999228290167,0.1393179640328165,48.4522923083,48.4522923083,48.4522923083,2.1666353664140856,1033.6519,1033.6519,1033.6519,0.01995002088553062,5.0,5.0,5.0,nan,70.5422822327961,70.5422822327961,70.5422822327961,nan,1.14,1.14,1.14,nan,nan,nan,nan,nan,nan,nan,nan,nan,Walking,U2
28,,,10.176649739301999,9.59325306547,10.8539361427,0.603064360726929,9.8066502381,9.80664982663,9.8066505888,3.847018610562601e-07,1.0391489667492002,0.620562461806,1.23453291969,0.24038165125155764,269.33678313499996,145.96069508899998,370.64233704099996,113.95521671025139,0.7036928472212728,0.16998154478900002,1.5262075955399999,0.4642946070252359,99.18798681540001,99.18798681540001,99.18798681540001,1.2039214381051364,0.9271971222205,0.773768724871,0.98773533896,0.08282969438000638,1.1050663441494706,0.217373438913,2.11123048499,0.595862087330902,0.92178486284,0.831008913109,0.986385243637,0.06157016330582107,50.42216922229999,50.42216922229999,50.42216922229999,2.1666353664140856,1033.8318,1033.8318,1033.8318,0.01995002088553062,5.0,5.0,5.0,nan,70.5422822327961,70.5422822327961,70.5422822327961,nan,1.14,1.14,1.14,nan,nan,nan,nan,nan,nan,nan,nan,nan,Walking,U2
29,,,9.822821594052222,9.13945905483,10.7906530868,0.5722164207903272,9.8066500434975,9.80664975271,9.8066502662,2.3454696616702936e-07,2.39828995895,1.45135539442,3.3452245234799998,1.3391677038381866,176.580030136,175.00246118799998,178.15759908400003,2.231019401840286,0.44647644922966667,0.20492715862100003,0.589633600371,0.1555338202320316,72.16170104316666,69.4796980141,73.8971556007,2.3559389612369133,0.9327933754759999,0.882469272022,0.9831174789299999,0.07116902961891346,0.6518584914394285,0.091387004959,1.38006744942,0.4370825468013749,0.84514089282,0.7984257072059999,0.919110653839,0.06479446732810328,47.28473954285,46.7834386613,47.78604042439999,0.7089465055175905,1033.8284666666666,1033.8018,1033.8718,0.03785938897196739,5.0,5.0,5.0,nan,67.74067402564728,67.74067402564728,67.74067402564728,nan,1.14,1.14,1.14,nan,nan,nan,nan,nan,nan,nan,nan,nan,Walking,U2
30,,,10.092667780936365,9.06354196862,11.949158264400001,0.7559552657613015,9.806650139755,9.806649620069999,9.806650616239999,4.07448909159103e-07,1.99192342278,1.99192342278,1.99192342278,1.3391677038381866,192.913675151,191.885424963,193.94192533900002,1.4541653613823067,1.1710566935417144,0.162966217921,3.11095225485,1.0097280705439637,74.99766460056667,72.9372111689,77.6766577032,2.429512678767432,0.8949274570525001,0.667027272224,0.978149577637,0.15203078249820554,0.9749219063426,0.196746858571,3.68130652917,0.9143698595017254,0.82755064966,0.82755064966,0.82755064966,0.06479446732810328,47.28473954285,46.7834386613,47.78604042439999,0.7089465055175905,1033.7918,1033.7719,1033.8118,0.019950187969033556,5.0,5.0,5.0,nan,67.74067402564728,67.74067402564728,67.74067402564728,nan,1.14,1.14,1.14,nan,nan,nan,nan,nan,nan,nan,nan,nan,Walking,U2
31,,,9.513776606609,8.684003703,10.0845471694,0.43913701232757996,9.80665030349,9.80664981712,9.806650665669999,4.376946903362671e-07,2.7665388474799997,2.7665388474799997,2.7665388474799997,1.3391677038381866,296.626761148,296.626761148,296.626761148,1.4541653613823067,0.5879812702285999,0.158355764204,0.935803814584,0.33478039694586476,113.14243853,113.14243853,113.14243853,2.429512678767432,0.643909611622,0.618316498718,0.669502724526,0.03619412737218269,0.6851449040051875,0.11888252359200001,2.1048402985299997,0.4414924532613565,0.82755064966,0.82755064966,0.82755064966,0.06479446732810328,41.786610328,41.786610328,41.786610328,0.7089465055175905,1033.7618,1033.7618,1033.7618,0.019950187969033556,5.0,5.0,5.0,nan,67.74067402564728,67.74067402564728,67.74067402564728,nan,1.14,1.14,1.14,nan,nan,nan,nan,nan,nan,nan,nan,nan,Walking,U2
32,,,9.513776606609,8.684003703,10.0845471694,0.43913701232757996,9.80665030349,9.80664981712,9.806650665669999,4.376946903362671e-07,0.285682041611,0.285682041611,0.285682041611,1.3391677038381866,296.626761148,296.626761148,296.626761148,1.4541653613823067,0.116354205821,0.116354205821,0.116354205821,0.33478039694586476,113.14243853,113.14243853,113.14243853,2.429512678767432,0.643909611622,0.618316498718,0.669502724526,0.03619412737218269,0.0678613719658,0.066742914049,0.06897982988260001,0.001581738354882129,0.82755064966,0.82755064966,0.82755064966,0.06479446732810328,41.786610328,41.786610328,41.786610328,0.7089465055175905,1033.7618,1033.7618,1033.7618,0.019950187969033556,5.0,5.0,5.0,nan,67.74067402564728,67.74067402564728,67.74067402564728,nan,1.14,1.14,1.14,nan,nan,nan,nan,nan,nan,nan,nan,nan,Walking,U2
