time,activityrecognition#0,activityrecognition#1,android.sensor.accelerometer#mean,android.sensor.accelerometer#min,android.sensor.accelerometer#max,android.sensor.accelerometer#std,android.sensor.gravity#mean,android.sensor.gravity#min,android.sensor.gravity#max,android.sensor.gravity#std,android.sensor.linear_acceleration#mean,android.sensor.linear_acceleration#min,android.sensor.linear_acceleration#max,android.sensor.linear_acceleration#std,android.sensor.orientation#mean,android.sensor.orientation#min,android.sensor.orientation#max,android.sensor.orientation#std,android.sensor.gyroscope_uncalibrated#mean,android.sensor.gyroscope_uncalibrated#min,android.sensor.gyroscope_uncalibrated#max,android.sensor.gyroscope_uncalibrated#std,android.sensor.magnetic_field_uncalibrated#mean,android.sensor.magnetic_field_uncalibrated#min,android.sensor.magnetic_field_uncalibrated#max,android.sensor.magnetic_field_uncalibrated#std,android.sensor.rotation_vector#mean,android.sensor.rotation_vector#min,android.sensor.rotation_vector#max,android.sensor.rotation_vector#std,android.sensor.gyroscope#mean,android.sensor.gyroscope#min,android.sensor.gyroscope#max,android.sensor.gyroscope#std,android.sensor.game_rotation_vector#mean,android.sensor.game_rotation_vector#min,android.sensor.game_rotation_vector#max,android.sensor.game_rotation_vector#std,android.sensor.magnetic_field#mean,android.sensor.magnetic_field#min,android.sensor.magnetic_field#max,android.sensor.magnetic_field#std,android.sensor.pressure#mean,android.sensor.pressure#min,android.sensor.pressure#max,android.sensor.pressure#std,android.sensor.light#mean,android.sensor.light#min,android.sensor.light#max,android.sensor.light#std,sound#mean,sound#min,sound#max,sound#std,speed#mean,speed#min,speed#max,speed#std,android.sensor.proximity#mean,android.sensor.proximity#min,android.sensor.proximity#max,android.sensor.proximity#std,android.sensor.step_counter#mean,android.sensor.step_counter#min,android.sensor.step_counter#max,android.sensor.step_counter#std,target,user
1,,,10.120958749021653,8.269039410780001,15.908759399300001,0.850927706592738,9.806630899230626,9.806611688250001,9.80664661244,6.5859076640774e-06,1.4595680468445322,0.146697976838,7.16082674107,1.0433397305424386,299.5609929609059,286.245482217,317.72127222299997,6.998403448427697,0.8268329642010046,0.0639247417801,3.04767017124,0.6403188987391653,57.76790625914813,47.2801226733,74.2366486313,5.259566717875273,0.8272790203904946,0.746585927057,0.8876633353650001,0.031028511657618687,0.824217068979959,0.048184821724500004,3.0422956790400004,0.6364645846949012,0.9583019003675399,0.8082773068670001,0.996145787338,0.04766065991536184,108.92832040392913,99.42806444860001,125.709029995,6.409202083506084,1011.29828,1011.24194,1011.3257,0.021551643699592685,1.6666666666666667,0.0,8.0,1.4675987714106855,nan,nan,nan,nan,nan,nan,nan,nan,5.333333333333333,0.0,8.0,4.618802153517007,9529.0,9529.0,9529.0,nan,Walking,U12
2,,,10.13466648543533,6.69401908576,18.9079368796,1.1452104722352963,9.806631963117738,9.80661196043,9.80664694728,6.340907606341201e-06,1.4180226902385318,0.08299330030989999,9.12303822972,1.1171920501618082,306.34223599064654,274.898567355,327.609722732,9.949121045005855,0.6071343574126649,0.0377680936964,1.8750908730000002,0.3548333675579986,73.20523666307737,54.000462961000004,98.85332570290001,14.9479008083556,0.8055638110572468,0.75428685722,0.8685953876899999,0.02988736349264868,0.6075562046420115,0.033988447139,1.87695064372,0.35375190859984373,0.812105140226766,0.744840102942,0.88130815169,0.0346953658160664,125.14206247988665,105.720244041,141.566698061,10.540148842165692,1011.2142167857143,1011.18896,1011.2339,0.014111645848206494,9.464285714285714,3.0,24.0,5.181749617699518,nan,nan,nan,nan,nan,nan,nan,nan,5.333333333333333,0.0,8.0,4.618802153517007,9529.0,9529.0,9529.0,nan,Walking,U12
3,,,10.27611409319027,5.50886067961,17.477403777,1.2157665102596074,9.806631651268898,9.80661048513,9.8066464151,6.719611199747724e-06,1.851488283675873,0.20252535231,6.987723032789999,1.2914457461979856,315.9957420449306,288.89098124,344.214628833,11.823482642258405,0.7773628866859273,0.038260644538199995,2.23447740379,0.5010560793291071,70.10151328092111,55.0886575839,91.6048579526,10.209334385173895,0.7893662911744191,0.703064586026,0.865255585616,0.03339526571772652,0.7751109893150177,0.036171963842099995,2.22869949045,0.4991014697649672,0.9434735343371008,0.790503904577,0.997410764317,0.05430935554284835,116.24659652865935,101.832264042,137.354650449,9.082849222540125,1011.2354657142857,1011.22095,1011.2661,0.011395674757335056,7.037037037037037,2.0,25.0,5.323976835480161,nan,nan,nan,nan,nan,nan,nan,nan,5.333333333333333,0.0,8.0,4.618802153517007,9529.0,9529.0,9529.0,nan,Walking,U12
4,,,10.137332668460937,6.686865710669999,14.7474562017,0.933086408262258,9.806632969921342,9.806616037969999,9.80664744784,5.654674211800433e-06,1.496092109920029,0.158051853012,8.220677897869999,1.1470631503485411,317.0242576933829,301.971595937,336.081809392,5.56650712340893,0.790359099668149,0.0483141788114,2.19148856403,0.43043999711293246,79.86734585590054,71.904659098,85.3661529038,2.780087696488921,0.7730024631562984,0.672320706508,0.827410228602,0.026713136769314926,0.7932367485570693,0.037070592072199995,2.1847814933,0.43104129706641026,0.9431680179622566,0.71678231967,0.9999999985420001,0.07427210096301125,112.86505483434574,84.50503068100001,131.777160388,15.893701652713862,1011.2786103571428,1011.2629400000001,1011.2942,0.00835383632525873,8.25925925925926,2.0,34.0,8.8473924563316,nan,nan,nan,nan,7.326792,7.326792,7.326792,nan,5.333333333333333,0.0,8.0,4.618802153517007,9529.0,9529.0,9529.0,nan,Walking,U12
5,,,10.017834925842296,9.13390487845,10.8232306647,0.21774048626825782,9.806631604508562,9.806613454430002,9.806647610219999,6.103935517918482e-06,0.47144151919277516,0.0613692073068,3.0929909947900005,0.42241568274315605,313.9808653907184,307.79357098099996,324.559800872,3.4145970859500467,0.19086889803797638,0.007532557333229999,1.17049776235,0.23704465282016493,63.125829178458304,57.31692594689999,74.205999116,4.807364000087072,0.7950595835053273,0.733439254455,0.820179690534,0.01668306001213384,0.18978152772502305,0.00238200383602,1.1731342812899999,0.2398107202250405,0.7213740977680634,0.671016960021,0.7538365394140001,0.013153594096539637,81.58999739715821,75.4457420937,88.2807497143,3.5609653639911913,1011.29591,1011.26953,1011.3122599999999,0.009274768087485322,5.777777777777778,1.0,35.0,8.81577839546507,nan,nan,nan,nan,6.936383225,6.8587065,7.039959,0.07679036244826416,5.333333333333333,0.0,8.0,4.618802153517007,9529.0,9529.0,9529.0,nan,Walking,U12
6,,,10.017681560586528,9.704004876139999,10.5551622066,0.1277124047380373,9.806631741511,9.80661505268,9.806645997130001,5.8332710433804396e-06,0.3889722372109064,0.015219064126200001,1.3998906591999998,0.247721073229197,311.6081252151819,303.122069685,322.037862916,4.084317247101623,0.13210391087373283,0.00573662470999,0.8925587930299999,0.12645622673448778,62.94105506603297,57.8429784019,67.757952717,3.1591685802253417,0.7933963152981384,0.7810599874940001,0.805892417234,0.006198623111119298,0.12999972596584716,0.009587380500000001,0.884223382224,0.12910711115232656,0.7089499527809892,0.702192645811,0.720077160285,0.004182835437031569,77.6445931823643,73.76638800970001,83.1007821865,2.368348110480201,1011.2187864285714,1011.1850599999999,1011.2815,0.025879320818590387,2.1785714285714284,1.0,3.0,0.5479640045336466,nan,nan,nan,nan,6.8179055,6.7943240000000005,6.841487,0.033349277121100716,5.333333333333333,0.0,8.0,4.618802153517007,9529.0,9529.0,9529.0,nan,Walking,U12
7,,,10.013134914507596,9.682880919299999,10.3518989709,0.09273147470931427,9.806631514386641,9.80661773253,9.806645037889998,5.7225445026692404e-06,0.2873659033881966,0.04771359658009999,1.02521476564,0.12017381143200846,309.4813193603526,305.7549742,311.661916512,1.7083281387071254,0.06622893780579857,0.0031957934000000003,0.497484201935,0.0704538655755017,57.563596338674856,54.2776196973,61.5897718781,1.93917805494857,0.795454676167258,0.788438182107,0.8045661795219999,0.00465855625245576,0.06276902256111241,0.0026093544660999997,0.486947058817,0.07144297332916064,0.7021406750755851,0.6970999091410001,0.7111483292790001,0.002363949742924652,80.116391216443,76.881273028,82.9984337202,1.8426558164753297,1011.2757117857143,1011.25146,1011.29785,0.014331632987925532,1.4444444444444444,0.0,3.0,0.7510676161988108,nan,nan,nan,nan,6.8179055,6.7943240000000005,6.841487,0.033349277121100716,5.333333333333333,0.0,8.0,4.618802153517007,9529.0,9529.0,9529.0,nan,Walking,U12
8,,,10.01210866212466,9.79274758516,10.3308622599,0.08875297860280253,9.806632218240203,9.80661429239,9.80664618092,5.905254706715635e-06,0.2576337506914658,0.0349592678095,0.5688773797760001,0.08538721770899194,308.10892869752854,306.171804709,310.044094521,0.8435241247099069,0.04542700271400487,0.00150651150341,0.122361750116,0.022740596774893557,55.275606281171484,53.140381353500004,56.8268422491,1.1044725866764091,0.7986106245194879,0.794121525913,0.8025045487000001,0.0018321710168300589,0.04227771547999743,0.0,0.129336441685,0.024038394819322455,0.701207625056068,0.6961369604600001,0.705955691573,0.002078764030969162,81.21615998351174,78.921606674,83.75016417890001,1.3287841047516948,1011.3033403571428,1011.2898,1011.3218,0.008454370109125933,2.0384615384615383,1.0,3.0,0.7736029591861309,nan,nan,nan,nan,6.8179055,6.7943240000000005,6.841487,0.033349277121100716,5.333333333333333,0.0,8.0,4.618802153517007,9529.0,9529.0,9529.0,nan,Walking,U12
9,,,10.010141633715094,9.75712125161,10.1968619524,0.06679722966729483,9.80663203979804,9.806616922949999,9.80664796304,5.541891876886582e-06,0.2303213726197562,0.0489984901363,0.408491068119,0.06240348103182788,309.94090843764576,307.641113428,313.190695663,1.759674758137882,0.03576284338208495,0.0031957935,0.114147445808,0.017202629099419883,58.612726243649355,54.3602801464,64.2732448224,3.2772485287301163,0.7910339434134436,0.778999133103,0.8013684887479999,0.006885451916953391,0.0322157790398619,0.00150651150341,0.121295223675,0.017425348504625248,0.6980754557982908,0.692248718106,0.705975756173,0.003282526902007273,79.58579929002708,76.57610593390001,81.3735214919,1.2583396853661717,1011.2889477777779,1011.2717,1011.31445,0.011682800748673667,2.25,1.0,3.0,0.5181877251716008,nan,nan,nan,nan,6.8179055,6.7943240000000005,6.841487,0.033349277121100716,5.333333333333333,0.0,8.0,4.618802153517007,9529.0,9529.0,9529.0,nan,Walking,U12
10,,,10.006855624193115,9.739114059,10.2295329552,0.07930965965681071,9.806632561509314,9.8066193545,9.8066488009,5.499648805328726e-06,0.2342284287151204,0.0426106992836,0.50772234567,0.08025271391538673,307.52962844415026,304.565103159,311.94326482099996,1.7927679061045727,0.04973602280776392,0.00238200383602,0.24614986690000001,0.03894898066239922,56.06725778437398,53.2377685483,61.179326573599994,1.6790677075790539,0.7983673570065204,0.781441109463,0.8048140780769999,0.00560675278899331,0.04689688350452948,0.0010652645,0.25604047534,0.03924749677247739,0.7002230924989238,0.692710243424,0.710856570928,0.0046286234549146365,81.00887258769887,78.2652541042,82.9842153665,1.2400640037847832,1011.2868484615384,1011.2473,1011.31396,0.018869374911174512,1.3703703703703705,0.0,3.0,0.8388704928078611,nan,nan,nan,nan,6.8179055,6.7943240000000005,6.841487,0.033349277121100716,5.333333333333333,0.0,8.0,4.618802153517007,9529.0,9529.0,9529.0,nan,Walking,U12
11,,,10.018902956942776,9.87828022523,10.2531520588,0.06526011782936549,9.806631640906819,9.80661587512,9.8066458019,5.785486835339704e-06,0.25467935143863735,0.102794733548,0.594280489244,0.07552467236325444,308.1933109332202,304.25131626,310.435817653,1.3124922232873653,0.04302438273594257,0.00238200383602,0.18387464044399998,0.030412590262576634,58.956915981128574,56.6195208069,61.207270809899995,1.3727983738887939,0.8020513510958538,0.79633790447,0.810738122157,0.00402372922195519,0.03797830755932939,0.0,0.177758773123,0.031693285051900354,0.7093182351971907,0.7023578810150001,0.71663636678,0.0032308288390040297,81.01368250633054,76.68364028270001,83.5064711983,2.137109556436965,1011.2292607142857,1011.2129,1011.2554,0.010636342635336648,2.25,1.0,3.0,0.6454972243679028,nan,nan,nan,nan,6.8179055,6.7943240000000005,6.841487,0.033349277121100716,5.333333333333333,0.0,8.0,4.618802153517007,9529.0,9529.0,9529.0,nan,Walking,U12
12,,,10.013038640166089,9.89504132581,10.228199333300001,0.05270495273975172,9.806631838324122,9.806616189660001,9.80664952674,5.834965340700953e-06,0.23905141167552987,0.102610303069,0.823640456589,0.07017321603728703,307.4516671479663,305.45051267400004,310.75061748900004,0.860527528306714,0.043512395772935294,0.00150651150341,0.21043220291499998,0.03972348942099267,57.72091068826885,56.435184061,60.2018283975,0.9737222552706569,0.8022584298740559,0.7965208965739999,0.814978638321,0.003934320702752239,0.04009959015301857,0.00150651150341,0.213502491886,0.04044361270581764,0.7050702804617084,0.700461693385,0.721973219558,0.005179258788583837,82.44899874262396,81.4931898995,83.3001200479,0.516169267004416,1011.2593951851851,1011.2258,1011.2844,0.015174255619904983,2.4642857142857144,2.0,3.0,0.5078745001833701,nan,nan,nan,nan,3.8069327000000004,3.8069327000000004,3.8069327000000004,0.033349277121100716,5.333333333333333,0.0,8.0,4.618802153517007,9529.0,9529.0,9529.0,nan,Walking,U12
13,,,10.030146149604908,9.70075784728,10.320848573500001,0.09498462834523047,9.806630672694519,9.806614682989998,9.8066455246,6.013336258974297e-06,0.35539307449647706,0.0452848139607,1.37046595272,0.18221206640019205,307.3559916763573,300.186181746,313.16588660900004,2.268947714637582,0.10914404714941928,0.00630218955236,1.7755021795700001,0.17488603753860105,60.033597654828654,58.3968332737,61.9083204618,0.8809601014601888,0.8129349228914676,0.784993499326,0.8287351513719999,0.010138170602085795,0.10693993786458587,0.00301302300683,1.78446936088,0.1750560462698054,0.7236029046627385,0.695629213877,0.740704467004,0.01146461784183613,81.6035300413597,80.6296471529,82.7889485378,0.6024581669352348,1011.2396473076923,1011.199,1011.2964,0.029462966932429717,1.5,1.0,3.0,0.5773502691896257,nan,nan,nan,nan,3.8069327000000004,3.8069327000000004,3.8069327000000004,0.033349277121100716,5.333333333333333,0.0,8.0,4.618802153517007,9529.0,9529.0,9529.0,nan,Walking,U12
14,,,10.37954770524423,1.75191899127,29.337792005300003,2.907447508077258,9.80663361568348,9.806612460239998,9.806648357110001,6.187119935702151e-06,2.730958101141608,0.09630778989569999,20.4912702125,2.938706049098872,304.3492470855419,238.726652576,376.33838013400003,15.706232352940617,0.9464888862600428,0.011522597006500001,6.7095437130499995,0.9927455953652664,69.92312143623784,56.2189469841,103.5460767,15.11480291321262,0.7826739256554252,0.658834398811,0.961866884593,0.05095558607272384,0.9436620729818387,0.00602604601366,6.71947816076,0.9921169752934781,0.6880520496556537,0.5539754542499999,0.8820098325069999,0.07111164515078412,82.44252422020486,63.1529898611,92.86915526700001,7.086191118268891,1011.3105885185184,1011.2768599999999,1011.3506,0.019108563063097026,3.6296296296296298,1.0,9.0,2.02195922024137,nan,nan,nan,nan,1.8581330000000003,1.8581330000000003,1.8581330000000003,0.033349277121100716,5.333333333333333,0.0,8.0,4.618802153517007,9529.0,9529.0,9529.0,nan,Walking,U12
15,,,13.289972800853507,2.60228191118,54.072517150299994,6.957824836463884,9.80663176762914,9.80660840978,9.80664800367,7.598648508710352e-06,8.632389098755512,0.594431535132,41.3441292033,6.188199802096443,278.703359314202,74.65509484430001,397.22081189,55.148653519255056,2.325279681510823,0.2851627457,5.2228165314699995,0.964381536971589,91.32898583931042,62.607507775,150.44287973,23.863628281242505,0.8479051479302846,0.47897782628300006,0.999999988295,0.08472435517601141,2.323397175492958,0.283248180826,5.21800518804,0.9653352444075375,0.8311341776788537,0.48036623879699997,0.998110655507,0.11540094093341269,94.50878586588426,57.0718844967,143.665931939,23.939412354610674,1011.3721960714286,1011.3408,1011.4018599999999,0.018253882050697223,3.4642857142857144,0.0,7.0,2.0454492009977745,nan,nan,nan,nan,1.7717568200000002,1.3138833,2.1444308999999997,0.3664953821242457,5.333333333333333,0.0,8.0,4.618802153517007,9541.5,9541.0,9542.0,0.7071067811865476,Walking,U12
16,,,17.90605468469091,14.0938131653,20.9283947801,2.4673854088353178,9.806630534492,9.80661508599,9.8066448597,9.692027186847139e-06,10.859452430189,5.88756472199,13.0696707047,2.413389512875015,283.3483427643,268.941990444,300.391602937,10.792483330146876,3.370777685401364,1.5776440214899998,4.77262646481,1.0560896916801052,76.96837985142729,73.6016304167,80.98851793680001,2.4772139773589745,0.8759454736336,0.846624320179,0.900584009894,0.01990813660091259,3.3702308669522725,1.5725617199700002,4.769006664119999,1.0548409042366544,0.7546864838144546,0.6808638570960001,0.7848198288930001,0.03512595256261525,102.31066964731,98.47949117659999,108.68500373399999,3.625705787909962,1011.3667,1011.3667,1011.3667,0.018253882050697223,5.0,5.0,5.0,2.0454492009977745,nan,nan,nan,nan,1.7717568200000002,1.3138833,2.1444308999999997,0.3664953821242457,5.333333333333333,0.0,8.0,4.618802153517007,9541.5,9541.0,9542.0,0.7071067811865476,Walking,U12
