time,activityrecognition#0,activityrecognition#1,android.sensor.accelerometer#mean,android.sensor.accelerometer#min,android.sensor.accelerometer#max,android.sensor.accelerometer#std,android.sensor.gravity#mean,android.sensor.gravity#min,android.sensor.gravity#max,android.sensor.gravity#std,android.sensor.linear_acceleration#mean,android.sensor.linear_acceleration#min,android.sensor.linear_acceleration#max,android.sensor.linear_acceleration#std,android.sensor.orientation#mean,android.sensor.orientation#min,android.sensor.orientation#max,android.sensor.orientation#std,android.sensor.gyroscope_uncalibrated#mean,android.sensor.gyroscope_uncalibrated#min,android.sensor.gyroscope_uncalibrated#max,android.sensor.gyroscope_uncalibrated#std,android.sensor.magnetic_field_uncalibrated#mean,android.sensor.magnetic_field_uncalibrated#min,android.sensor.magnetic_field_uncalibrated#max,android.sensor.magnetic_field_uncalibrated#std,android.sensor.rotation_vector#mean,android.sensor.rotation_vector#min,android.sensor.rotation_vector#max,android.sensor.rotation_vector#std,android.sensor.gyroscope#mean,android.sensor.gyroscope#min,android.sensor.gyroscope#max,android.sensor.gyroscope#std,android.sensor.game_rotation_vector#mean,android.sensor.game_rotation_vector#min,android.sensor.game_rotation_vector#max,android.sensor.game_rotation_vector#std,android.sensor.magnetic_field#mean,android.sensor.magnetic_field#min,android.sensor.magnetic_field#max,android.sensor.magnetic_field#std,android.sensor.pressure#mean,android.sensor.pressure#min,android.sensor.pressure#max,android.sensor.pressure#std,android.sensor.light#mean,android.sensor.light#min,android.sensor.light#max,android.sensor.light#std,sound#mean,sound#min,sound#max,sound#std,speed#mean,speed#min,speed#max,speed#std,android.sensor.proximity#mean,android.sensor.proximity#min,android.sensor.proximity#max,android.sensor.proximity#std,android.sensor.step_counter#mean,android.sensor.step_counter#min,android.sensor.step_counter#max,android.sensor.step_counter#std,target,user
1,,,11.0287047344325,6.29854386874,17.7153333532,4.247432662743997,9.806650314081667,9.80664960322,9.80665089915,4.2884937627948455e-07,4.188807529255,3.6969738592300003,4.68064119928,0.6955578465810884,179.548988447,179.548988447,179.548988447,78.3868250308021,1.412896412947,0.643665525131,1.8758631735,0.6707652703425012,155.2777131555,154.22294722799998,155.866174781,0.7259452367396909,0.9751839749722223,0.9534084862209999,0.994454973871,0.014410252873788075,1.3439345007343,0.36900937218,3.55118079643,0.8672861016122951,0.9863221899616251,0.971121159003,0.994121601119,0.008279525726356035,58.56732945525385,53.5407032205,61.8978074537,3.091938649412292,nan,nan,nan,nan,5.0,5.0,5.0,nan,89.7362577266926,89.7362577266926,89.7362577266926,nan,nan,nan,nan,nan,nan,nan,nan,nan,nan,nan,nan,nan,Walking,U1
2,,,10.08203846259625,5.791623672619999,14.694873161199999,3.02429446030214,9.806650241220002,9.80664975467,9.806650681139999,3.067554388627286e-07,5.908901003624999,3.08890820946,8.728893797789999,3.988072055302542,205.84876800225,191.87151755,226.286415503,15.297628827596991,1.2588239282224285,0.290797789335,2.08478121795,0.6355287444461641,157.300488584,157.300488584,157.300488584,0.7259452367396909,0.9158432847228183,0.837919621217,0.959148436296,0.03931825888970171,1.2947951212784228,0.224896526565,3.3927949238700004,0.8025034237566138,0.9642565235598334,0.946747382043,0.991168829597,0.016316464065965073,61.73663301626667,58.1592768063,64.9503670763,2.0713759376155885,nan,nan,nan,nan,5.0,5.0,5.0,nan,89.7362577266926,89.7362577266926,89.7362577266926,nan,nan,nan,nan,nan,nan,nan,nan,nan,nan,nan,nan,nan,Walking,U1
3,,,13.20617018204857,9.08436822626,16.8728581546,3.044460796251001,9.806650181695556,9.80664915753,9.80665095123,5.851157077531499e-07,3.463969354686667,2.69685678868,4.37433534139,0.6416373626915157,186.42688122700002,186.23891304400001,186.61484941,0.2658271536932212,1.3626093924773335,0.44332101118199996,3.0498458945599998,1.0528444361447653,157.304617271,155.81446776299998,159.86600965,2.2280975925731203,0.9637146733346363,0.9428563269210001,0.9898990504530001,0.014146719731815182,1.7338840835233529,0.322286826521,5.813482110680001,1.3603177418383252,0.9780904757595,0.9703395774979999,0.987543506126,0.008189335943368752,62.56206451064286,59.1202072865,65.2185610793,2.0194204846683332,nan,nan,nan,nan,5.0,5.0,5.0,nan,89.7362577266926,89.7362577266926,89.7362577266926,nan,nan,nan,nan,nan,nan,nan,nan,nan,nan,nan,nan,nan,Walking,U1
4,,,9.319055282213846,6.32001277018,14.888928558699998,2.798526344903007,9.806650183269165,9.80664993381,9.80665053533,1.87523802649402e-07,4.954777316702,2.03148918971,8.005422080399999,2.1974590440776125,182.957673508,182.957673508,182.957673508,0.2658271536932212,1.175717804406,0.442327733895,2.8923889860900003,0.8909209139714819,154.7774140185,153.130049501,156.424778536,2.329725242820702,0.9642744108868001,0.9531908361570001,0.975450352113,0.008855918891325962,1.0904641226177418,0.317371346012,2.68560232334,0.6178549546677302,0.9799937942518,0.970269656942,0.9853764874009999,0.006299454124344333,56.6347174204,56.6347174204,56.6347174204,2.0194204846683332,nan,nan,nan,nan,5.0,5.0,5.0,nan,89.75788844792021,89.75125120512756,89.76452569071286,0.009386478774128062,nan,nan,nan,nan,nan,nan,nan,nan,nan,nan,nan,nan,Walking,U1
5,,,11.386194255795,6.442728624780001,17.0347527921,3.503161730935165,9.806650099205557,9.806649309600001,9.806650698239999,4.855839518083328e-07,4.967009065071667,1.70624730541,8.03104607641,2.7452724214747506,179.4404672135,177.970191823,180.910742604,2.0792833976685077,1.2912789787813332,0.361885858776,2.42337366132,0.7314950087178896,158.700524014,158.356160694,159.044887334,0.4870032775278252,0.98683011386925,0.978431400091,0.99373569873,0.005442339740210831,1.5485511391270002,0.22665056987100002,3.51896746199,0.7895727985575981,0.9864737816053334,0.9833776384299999,0.9926586280930001,0.003524361267415851,61.7539264854,59.8767817269,63.4927076764,1.8119294897085179,nan,nan,nan,nan,5.0,5.0,5.0,nan,89.75788844792021,89.75125120512756,89.76452569071286,0.009386478774128062,nan,nan,nan,nan,nan,nan,nan,nan,nan,nan,nan,nan,Walking,U1
6,,,9.589193982706153,7.197884556569999,17.1679513201,3.1050327851940467,9.806650253815,9.806649833049999,9.806650752789999,3.1155341396837576e-07,5.634426553348,2.15056864147,13.2383222143,4.8223671488731386,185.16008817424998,174.94850446599997,196.699906649,9.134609744444374,1.3344276365268999,0.655248164646,2.05851685912,0.4947172421539449,157.681055918,157.681055918,157.681055918,0.4870032775278252,0.9565500325716,0.93261352045,0.9659467698540001,0.01366155557779732,1.3632503449161786,0.421836650242,2.69046807119,0.6023874963820182,0.9676107177688572,0.957367773783,0.975713509266,0.007113747088014289,62.70834979153333,58.5516319345,64.9370178838,2.782931062084921,nan,nan,nan,nan,5.0,5.0,5.0,nan,89.81994588030506,89.81994588030506,89.81994588030506,0.009386478774128062,nan,nan,nan,nan,nan,nan,nan,nan,nan,nan,nan,nan,Walking,U1
7,,,11.200285907843636,7.115322964380001,21.629903030599998,3.8347115154366587,9.806650245170834,9.806649849189998,9.80665097586,3.0651391127728366e-07,3.0607599928099996,1.51711109201,5.289102445299999,1.5094988835407894,194.10710043883333,190.29216058900002,197.408818593,2.95759833819638,1.2592610530919,0.540369886014,2.11341354787,0.4545802963418055,157.681055918,157.681055918,157.681055918,0.4870032775278252,0.9725773818495715,0.944769906467,0.987011080915,0.01655847245388181,1.7016904066498517,0.37137828668000006,4.872567169090001,1.083407571624401,0.9836383929728334,0.9757167622,0.9891369498260001,0.005112814646130001,58.406031520700004,56.7351843657,60.6050858666,1.6107333369337762,nan,nan,nan,nan,5.0,5.0,5.0,nan,89.81994588030506,89.81994588030506,89.81994588030506,0.009386478774128062,nan,nan,nan,nan,nan,nan,nan,nan,nan,nan,nan,nan,Walking,U1
8,,,9.785970360694545,6.98680476212,14.6065999249,2.904513703696545,9.806650024214287,9.80664931968,9.80665058065,3.846295616657205e-07,3.0607599928099996,1.51711109201,5.289102445299999,1.5094988835407894,194.6571464685,189.199442208,200.114850729,7.718359384620536,1.356570684229,0.733037952636,1.7225672033099997,0.4358475429635379,157.492490854,157.492490854,157.492490854,0.4870032775278252,0.9712632462318335,0.959001498017,0.9786850211720001,0.008320522171815208,1.1813554074591353,0.2199474561,3.99235538834,0.8244751844719274,0.9784792066590001,0.9715658564090001,0.985061034485,0.0056244641636477724,61.664673903375,61.1347470542,62.303227556,0.4957469673123239,nan,nan,nan,nan,5.0,5.0,5.0,nan,89.77973641298199,89.730309747969,89.83647522838842,0.05345912425118621,nan,nan,nan,nan,nan,nan,nan,nan,nan,nan,nan,nan,Walking,U1
9,,,10.610215250004286,8.2752711011,14.111349119100002,2.64822925748649,9.806650301254285,9.80664943825,9.80665100169,3.7810742501475703e-07,4.671632335393333,3.50887744932,5.597797561599999,1.0643673281526638,185.78880128850003,174.19908718099998,203.389341213,11.5899148235058,1.3449404305363333,0.29629239736499996,3.5712108068800004,0.9629973574011546,156.85305038066667,155.176529686,157.783428337,1.4548288159168663,0.9765791345593999,0.968735033943,0.9814871771160001,0.005011343966213745,1.5879000130509688,0.24669547730500002,4.94541899301,1.0189843426404444,0.9787648513564999,0.961572496504,0.9875697895479999,0.009940502677816265,56.94895554228333,55.773480793999994,58.643937010500004,1.086228955488209,nan,nan,nan,nan,5.0,5.0,5.0,nan,89.77973641298199,89.730309747969,89.83647522838842,0.05345912425118621,nan,nan,nan,nan,nan,nan,nan,nan,nan,nan,nan,nan,Walking,U1
10,,,10.214250527335,6.59250666635,15.901200171700001,3.5216702663615584,9.806650091798,9.80664932737,9.80665088378,6.092785609523555e-07,2.892624525345,1.4534311926899999,4.331817858,2.0353267299176343,183.37346743950002,180.43016542900003,186.31676945,4.162457621409086,1.350423323734222,0.17541028723299998,3.74337976253,1.022575750829858,159.2652127706,155.64060392,161.347205171,2.3227230757189266,0.9738154924098333,0.930968268514,0.99005523214,0.01837087385321622,1.4102425770055416,0.107055056203,2.70266200972,0.672210526913903,0.986004386631222,0.977717292428,0.9894822932780001,0.004023791483079824,58.0525852078875,54.4285423154,61.1841552928,2.134635696844785,nan,nan,nan,nan,5.0,5.0,5.0,nan,89.77973641298199,89.730309747969,89.83647522838842,0.05345912425118621,nan,nan,nan,nan,nan,nan,nan,nan,nan,nan,nan,nan,Walking,U1
11,,,10.721114389628333,7.61031599077,13.5289844019,2.017976877822766,9.806650233192856,9.806649785469999,9.80665118798,3.253875451676718e-07,3.1573765066662496,1.6529063069299998,5.37425829652,1.2408696185277528,198.61840625175,190.032086497,204.999584288,6.734332015605244,1.3328491578494999,0.18995853417199998,5.13454509904,1.2227737481064513,154.82248763500002,152.298292935,157.346682335,3.5697503788102796,0.9613113145498751,0.935953388243,0.997150143193,0.01893308972492268,1.3848492729511175,0.37947902703,4.46935296427,1.0056368757897163,0.966219889743,0.962209440781,0.970230338705,0.0056716313132654725,55.43503593052001,52.878517243400005,59.0228556299,2.5573915998710777,nan,nan,nan,nan,5.0,5.0,5.0,nan,89.73722373559343,89.71641527061651,89.75803220057034,0.0294276133825205,nan,nan,nan,nan,nan,nan,nan,nan,nan,nan,nan,nan,Walking,U1
12,,,11.13611095716,7.0232070678100005,14.747770884300001,3.0069244363788927,9.806650227056924,9.80664960909,9.806650849430001,3.615467274592112e-07,3.507439371013333,1.4092708707100001,5.1841915835900005,1.7338489025309716,204.17887850275002,199.021270346,216.082573362,8.021828393047777,0.9013057833494545,0.277834304166,2.2535051303099998,0.5799321306557803,154.82248763500002,152.298292935,157.346682335,3.5697503788102796,0.9301962460547143,0.8862278272399999,0.954646212889,0.021427745527715734,1.04066822498225,0.20703838310199998,3.04239264316,0.7102064024374892,0.9282646604124284,0.890918354995,0.964590099258,0.026491608960271317,63.98019911546667,60.338727743599996,66.3610348497,2.463402825315722,nan,nan,nan,nan,5.0,5.0,5.0,nan,89.73722373559343,89.71641527061651,89.75803220057034,0.0294276133825205,nan,nan,nan,nan,nan,nan,nan,nan,nan,nan,nan,nan,Walking,U1
13,,,9.612471168722353,6.51837869401,13.4426877669,1.7992418827342909,9.806650088625556,9.8066495963,9.80665084675,3.5996964245710296e-07,4.8061173596025,3.34621223117,6.993352634450001,1.7417745170228616,204.17887850275002,199.021270346,216.082573362,8.021828393047777,1.2068948497565555,0.34764061966300003,2.7531473965599997,0.7059146972145629,154.82248763500002,152.298292935,157.346682335,3.5697503788102796,0.9414031035043333,0.9199977246590001,0.9696696172820001,0.015169535838131293,1.2226242347965237,0.173820353946,3.6450810014599995,0.8008528376397881,0.9514981779546667,0.931115998128,0.9756837666529999,0.015001904233162007,61.86363694273,59.780454093500005,63.609071955,1.2427488640492785,nan,nan,nan,nan,5.0,5.0,5.0,nan,89.73722373559343,89.71641527061651,89.75803220057034,0.0294276133825205,nan,nan,nan,nan,nan,nan,nan,nan,nan,nan,nan,nan,Walking,U1
14,,,9.910590392080001,6.80936045066,13.660927965199999,1.9940511457871692,9.806650376021427,9.80664996766,9.80665088134,3.2696578056460925e-07,5.88267014098,4.19640350828,8.21900441303,2.088604907952061,202.00886955375,195.49427040400002,205.80049267200002,4.567625004655732,0.9890408005901818,0.40833714796400006,1.8773587359700001,0.4310042499583986,152.541290203,152.541290203,152.541290203,3.5697503788102796,0.9581563421178573,0.9351172493000001,0.975857169903,0.013698832536879998,1.4188545053829376,0.21716550873100002,4.2033180794,0.9087447229140526,0.9524000994365556,0.9409323083069999,0.973290289601,0.009517750650694306,59.69191363953334,58.352615001400004,61.0100199787,1.3288292360180516,nan,nan,nan,nan,5.0,5.0,5.0,nan,89.73722373559343,89.71641527061651,89.75803220057034,0.0294276133825205,nan,nan,nan,nan,nan,nan,nan,nan,nan,nan,nan,nan,Walking,U1
15,,,10.252016933256364,7.4936593587800004,14.1511457993,2.165668589641642,9.806649954403749,9.80664959215,9.80665057465,4.120080814620349e-07,4.4401599816560005,2.5896334787099997,8.10378878417,2.239858930659744,190.18000986275,186.273784663,193.539865539,2.997912905305743,1.0287709000793333,0.297478486604,1.59219550595,0.45537664378739684,152.92256384,152.92256384,152.92256384,3.5697503788102796,0.9474431107438335,0.9230915117209999,0.974335635946,0.016546706179555674,1.4228320671947676,0.0858035142458,4.272009119630001,1.0351687693095493,0.9330023623104168,0.908883223318,0.963742283761,0.016034712691161062,60.32339228175999,58.4792556935,62.5075282523,1.7632791649900839,nan,nan,nan,nan,5.0,5.0,5.0,nan,89.73722373559343,89.71641527061651,89.75803220057034,0.0294276133825205,nan,nan,nan,nan,nan,nan,nan,nan,nan,nan,nan,nan,Walking,U1
16,,,10.760745667127273,6.249337087790001,18.2614391661,3.645999694574232,9.806650283985455,9.806649703060001,9.8066507806,3.637300081705251e-07,3.780616377095,2.51693441126,4.6513129084800005,0.9005318077258525,195.16667662650002,189.670197642,200.915740207,4.373785687496788,0.9614969795125001,0.133084055427,1.7416090930900001,0.5200113996085686,158.3968003434,157.39265506,160.35334024899998,1.2206479763340812,0.959300635808,0.948044995615,0.9705562760009999,0.015917879014132264,1.1823654126605,0.29142247605599997,3.10008457666,0.6946160089110317,0.94771450168075,0.933824250231,0.9567016674269999,0.00818839971137552,62.11684049624546,59.2219813867,65.115893746,1.750662750023283,nan,nan,nan,nan,5.0,5.0,5.0,nan,89.73722373559343,89.71641527061651,89.75803220057034,0.0294276133825205,nan,nan,nan,nan,nan,nan,nan,nan,nan,nan,nan,nan,Walking,U1
17,,,10.004821591209092,7.861431463069999,14.4009972473,1.9451930200328493,9.80664990309909,9.80664943791,9.80665100883,4.225354742273783e-07,4.876312688704286,2.20461085697,10.2195962717,2.652602663248313,183.815962011,179.46852812,192.025102915,5.658457770394025,1.3085584390553333,0.476221222386,3.5444283989499996,0.8752581326749063,157.39044939349998,155.418429305,159.362469482,2.7888575544288945,0.9659541551478181,0.947987384303,0.983645162175,0.010708963375796665,1.4933246681408572,0.614198013978,3.57255171676,0.7326469055357842,0.9380497948284999,0.9232516713950001,0.9562968385989999,0.013334987822971319,62.80489651314286,61.273847481400004,64.7459474244,1.6283396420741425,nan,nan,nan,nan,5.0,5.0,5.0,nan,89.73722373559343,89.71641527061651,89.75803220057034,0.0294276133825205,nan,nan,nan,nan,nan,nan,nan,nan,nan,nan,nan,nan,Walking,U1
18,,,10.433924508804616,6.930894382839999,16.5176742738,3.2227936631504286,9.806650054301539,9.80664929062,9.80665056195,4.139190343466104e-07,4.243302267453251,0.718007996713,8.25673356166,3.1038773787157123,190.77121512866665,182.445977934,198.34332033,7.9753858629818914,1.038001331952,0.559998851171,1.8352902136900002,0.39357206244845233,159.764902825,159.764902825,159.764902825,2.7888575544288945,0.969220724402625,0.9523693933380001,0.9797527010770001,0.00987738146228673,1.2874921491578262,0.345002272099,3.5634732409300005,0.802754822055912,0.9194616178806667,0.9077418874619999,0.932127048555,0.008452586210718694,63.456524945375,61.056993363000004,66.2905998729,2.200220611385045,nan,nan,nan,nan,5.0,5.0,5.0,nan,89.73722373559343,89.71641527061651,89.75803220057034,0.0294276133825205,nan,nan,nan,nan,nan,nan,nan,nan,nan,nan,nan,nan,Walking,U1
19,,,10.411349032175455,6.0704520375,15.4913013241,3.1545181083249045,9.806650082254617,9.806649232889999,9.806650758289999,4.1778468303894114e-07,2.5525030696633335,1.07538074305,4.85619769129,2.0214006327760496,195.98894019675,190.876009338,200.012282835,4.6212662828168956,1.4149861567633335,1.27078187934,1.53321880906,0.13313218808389327,160.92807018266663,159.913058979,162.37040823799998,1.2831981623246849,0.956619752017769,0.9379781410079999,0.973435097826,0.013108566501291797,1.4976902640852612,0.36068327398500005,3.14238125982,0.7621143993605385,0.90597496925625,0.881266716508,0.9257539114810001,0.01670989626212534,66.04782878663636,61.677346338599996,69.4221756854,2.4686396996066766,nan,nan,nan,nan,5.0,5.0,5.0,nan,89.73722373559343,89.71641527061651,89.75803220057034,0.0294276133825205,nan,nan,nan,nan,nan,nan,nan,nan,nan,nan,nan,nan,Walking,U1
20,,,11.759331917226666,6.76590174756,15.0182465856,2.9621083136545416,9.806649972231428,9.806649538939999,9.80665054312,3.693066619934294e-07,4.216617816277,0.43005452004199995,8.97071781618,2.7669888122495494,184.1360608915,176.44438130900002,191.45106824400003,6.2706839165922466,1.0547807284668462,0.30024419318900003,2.0269175684,0.49788179419266415,162.44334907733332,161.849045043,162.842243027,0.5246421492288799,0.9712724915626001,0.961726871155,0.982630548723,0.008234817425542705,1.1143077929683463,0.11837047119699999,2.03843691194,0.5736147304971497,0.9134412656176667,0.91133402481,0.917164030914,0.0032333701185110948,64.6446934624,63.1223858415,66.951125229,1.1541518973974443,nan,nan,nan,nan,5.0,5.0,5.0,nan,89.73722373559343,89.71641527061651,89.75803220057034,0.0294276133825205,nan,nan,nan,nan,nan,nan,nan,nan,nan,nan,nan,nan,Walking,U1
21,,,11.615594067685453,6.834707957130001,15.990860747000001,3.4151654204415642,9.80665021783846,9.80664928406,9.80665105143,5.15415911421482e-07,5.876155061545,2.30967846201,10.1757202678,3.47684313698687,184.44242152728572,173.07238211799998,194.873293364,9.022741897197657,1.2495097306673333,0.441208681279,1.8705411993599999,0.4744661984174267,160.295658785,159.68457301,161.195655095,0.7958921031317505,0.9803982577304,0.9644910807870001,0.9888870360490001,0.008642967092519833,1.22191235370404,0.14435381124399999,2.67055875977,0.5838170194187161,0.9037265560793334,0.89870825566,0.913291505669,0.008286845552731091,63.63166075488,62.3463321766,64.9585446116,1.0844234956562895,nan,nan,nan,nan,5.0,5.0,5.0,nan,89.73722373559343,89.71641527061651,89.75803220057034,0.0294276133825205,nan,nan,nan,nan,nan,nan,nan,nan,nan,nan,nan,nan,Walking,U1
22,,,9.63105968159769,5.79478041916,21.2513579738,4.183012553076296,9.806650104987272,9.806649553869999,9.80665083802,3.515920228082894e-07,5.4360084800675,3.3954296013,10.2161449463,3.202740849842561,186.858579249,176.101183745,195.346892768,8.032618527692557,1.3928054935775558,0.683631144351,2.5802169245299997,0.6409747334069985,162.56619977966668,162.078239394,163.009168878,0.46709269743494747,0.9771105392676667,0.965579836876,0.988581680209,0.008147018257407615,1.2147774596317824,0.18929302628699998,2.4638350394499997,0.6507276011166797,0.8905081000206666,0.8861032220939999,0.9041980665430001,0.006772004030052777,63.510378716299996,62.194474862700005,65.57188261729999,1.5454418788970938,nan,nan,nan,nan,5.0,5.0,5.0,nan,89.75548994761334,89.75548994761334,89.75548994761334,0.0294276133825205,nan,nan,nan,nan,nan,nan,nan,nan,nan,nan,nan,nan,Walking,U1
23,,,9.639882850696365,6.30984023956,15.87137712,3.250856785990935,9.806649915246153,9.80664930332,9.806650438270001,2.864891716204977e-07,4.771827307135,2.6001536509,6.94350096337,3.071210337695904,181.855254693,180.683927488,183.026581898,1.6565068192875667,1.563510877072625,0.7039217147669999,2.96528622167,0.7721582412055378,160.37167057966667,159.748003296,161.36158618,0.8669001113048173,0.9786577948189998,0.9629300658299998,0.9939615053599999,0.009192741481346857,1.690561809473125,0.40415417983400004,3.81318047893,0.9470176502943919,0.8996690810286666,0.871761574257,0.923665696814,0.01758695285105042,63.74113536032222,62.7052635603,65.2328352026,0.8130915310304982,nan,nan,nan,nan,5.0,5.0,5.0,nan,89.75548994761334,89.75548994761334,89.75548994761334,0.0294276133825205,nan,nan,nan,nan,nan,nan,nan,nan,nan,nan,nan,nan,Walking,U1
24,,,9.128527240474117,6.15360951069,14.302233960599999,2.563182004676751,9.806650319497,9.80664976197,9.80665091245,4.3614230462999693e-07,6.001098486885001,2.28503345267,9.4481190543,3.1146747816708222,183.39807377725,170.42447874299998,192.318779955,9.609821748205322,0.6177543896987501,0.187173365163,0.936039244464,0.36343623662013286,160.37167057966667,159.748003296,161.36158618,0.8669001113048173,0.9949655174275,0.981319163141,0.99999481608,0.006436174275790613,1.2031251675323449,0.348202666562,2.94639172811,0.7512276979737309,0.9347941240135,0.9235976123530001,0.9459906356739999,0.015834258641547458,63.80069492549166,61.057544711000006,66.8557009565,1.7792930732256838,nan,nan,nan,nan,5.0,5.0,5.0,nan,89.80282307779378,89.80282307779378,89.80282307779378,0.0294276133825205,nan,nan,nan,nan,nan,nan,nan,nan,nan,nan,nan,nan,Walking,U1
25,,,11.997193897852858,7.64296854261,17.6449441276,4.0292429990956675,9.806650095018572,9.806649235619998,9.806650970349999,5.495025999977338e-07,4.81328299618,2.9028542432099997,6.74680223365,1.651655122527473,192.007359946,179.520674049,210.121758065,10.847424203109709,1.41210488602975,0.450900015898,3.78675528709,1.2294273842590593,161.05252476299998,161.05252476299998,161.05252476299998,0.8669001113048173,0.9307054552592727,0.869536319448,0.992176379568,0.041379801716620646,1.2870750446009203,0.21591138126200002,3.51539827376,0.7818828697469056,0.8502998661363333,0.8251564081720001,0.870711894106,0.02314336615569438,62.50518241473333,59.2729457992,63.9332033973,1.7199779031344833,nan,nan,nan,nan,5.0,5.0,5.0,nan,89.74106977562855,89.74106977562855,89.74106977562855,0.0294276133825205,nan,nan,nan,nan,nan,nan,nan,nan,nan,nan,nan,nan,Walking,U1
26,,,9.927029318534546,5.75528001682,15.963637838,3.5776397686800263,9.806650161141999,9.806649926339999,9.806650630750001,2.8542421493717627e-07,3.0873448940175003,2.01582680625,4.17009439073,1.2238341276402276,163.98815129116667,145.35925309200002,188.392741893,16.721849410327795,1.6198460023198886,0.654524582871,2.9336519308599995,0.8286036716229982,164.08480158875,158.946258667,167.153161442,3.9208390747848036,0.9950041500186,0.987516473458,0.9998925063230001,0.0045981093550120245,1.3113170224272412,0.39613638796499995,3.1696773156299995,0.7609404202805883,0.9548046888814287,0.9155639752920001,0.9754354088349999,0.02485822559595906,69.73347889610001,66.1062078314,72.8331787462,3.0704474744329953,nan,nan,nan,nan,5.0,5.0,5.0,nan,89.74106977562855,89.74106977562855,89.74106977562855,0.0294276133825205,nan,nan,nan,nan,nan,nan,nan,nan,2511.0,2511.0,2511.0,nan,Walking,U1
27,,,11.6771043043125,8.042924610510001,16.5077750417,2.568496977815708,9.806650299601817,9.80664959373,9.80665106528,5.359956621791288e-07,4.827580734105,4.22403592866,5.43112553955,0.8535412493601499,176.01993266774997,152.03865239299998,188.80226745,16.789277044433618,1.2182568989491818,0.825068656029,1.8062835626099998,0.2989523956140147,161.6385814684,161.14673178700002,162.22850941299998,0.47967467206863984,0.9967451727998571,0.988573799905,0.9999999418369999,0.003996255385265656,1.5839411263079564,0.421175985853,3.86948737696,0.8971981577483238,0.9735244556293333,0.965038264086,0.980412808723,0.007810823995085343,68.82443355526,66.16693562399999,72.325672928,2.227692376448368,nan,nan,nan,nan,5.0,5.0,5.0,nan,89.74106977562855,89.74106977562855,89.74106977562855,0.0294276133825205,nan,nan,nan,nan,nan,nan,nan,nan,2511.0,2511.0,2511.0,nan,Walking,U1
28,,,9.904356524879999,6.94822187863,16.2652311194,3.4899507024785326,9.806650011846,9.80664933492,9.806650427460001,3.171092581037149e-07,5.404093001470001,3.7569615871499997,6.988064003,1.793784174565823,167.9437157352857,145.962587593,190.669435442,17.771616494135145,1.3850935966251252,0.352672509506,2.05916688098,0.6511990601201478,160.161616278,159.731614801,160.591617755,0.6081139206138491,0.997559130707,0.993797491769,0.9999974597139999,0.0023079072187592213,1.3657784884823914,0.309249595239,3.14913463116,0.7732308427907937,0.9509086070487499,0.935017640988,0.966585199939,0.012201893042122698,66.04565991064545,65.1862227324,68.1849672713,0.8802121848330033,nan,nan,nan,nan,5.0,5.0,5.0,nan,89.74106977562855,89.74106977562855,89.74106977562855,0.0294276133825205,nan,nan,nan,nan,nan,nan,nan,nan,2511.0,2511.0,2511.0,nan,Walking,U1
29,,,9.377465234410833,6.383778953689999,13.9357145576,2.2038200899517855,9.806649995624,9.806649275989999,9.806650637030002,4.269034257409622e-07,5.6145579540099995,3.11590141398,10.757946840699999,2.941155252663439,162.005696834,147.900904734,186.146453863,16.59113444054991,1.0698212199687271,0.46039375220299994,1.89203580205,0.42069646335263355,160.335489077,158.11159157,162.509142156,1.656120310191664,0.9993804482898333,0.9985886390880001,0.999989823344,0.0005987412312193043,1.306814033538111,0.45608030795500004,3.24712241005,0.7903733131780328,0.9540806789648572,0.943107027535,0.958340491208,0.005350319755153456,66.22534456046,64.9308333794,67.1391558701,0.9380677320269517,nan,nan,nan,nan,5.0,5.0,5.0,nan,89.74106977562855,89.74106977562855,89.74106977562855,0.0294276133825205,nan,nan,nan,nan,nan,nan,nan,nan,2511.0,2511.0,2511.0,nan,Walking,U1
30,,,9.448115873918,6.083747949959999,14.351750331199998,2.86683944033779,9.806650190811666,9.80664964964,9.80665061147,2.8366591938218494e-07,4.346699251542857,1.95067942176,7.0183749871600005,2.113307728112258,174.6350351468333,155.587819216,189.14934501099998,12.495182682243174,1.4616665769885833,0.674278728532,2.88690424173,0.6513666636066283,159.954150959,158.371550125,161.13418352600002,1.1086822501409628,0.998104080061375,0.991981003379,0.999965902946,0.0030617217136847037,1.2079031357432142,0.338907943534,3.32837188885,0.7606101283056759,0.9406414063627999,0.921379856103,0.9577763751520001,0.014306785021002051,66.75273223107142,65.25476498729999,67.4024889857,0.7176954735447254,nan,nan,nan,nan,5.0,5.0,5.0,nan,89.70363542774756,89.70363542774756,89.70363542774756,0.0294276133825205,nan,nan,nan,nan,nan,nan,nan,nan,2511.0,2511.0,2511.0,nan,Walking,U1
31,,,11.436408295263334,5.90997033612,21.0338355801,5.2862202551383595,9.80665001841,9.80664932716,9.80665043382,3.5113136839194865e-07,5.77947253787125,3.1407786909500004,9.64327212263,2.6418162766636555,178.94319931475002,152.379707746,193.985799105,18.634497539210585,1.2670679005830001,0.42376246736699996,2.84460217317,0.908994929710623,162.04153056585713,161.113602552,162.756127078,0.6270448061183049,0.9989088157793334,0.996754612756,0.99995849463,0.001119997043125629,1.465637608314192,0.6494003058969999,3.11332851413,0.6134472031871735,0.9191564976263332,0.89882886533,0.935551365607,0.018674460715653967,66.73979113906,66.04462596270001,67.8215138808,0.7029403505139432,nan,nan,nan,nan,5.0,5.0,5.0,nan,89.70363542774756,89.70363542774756,89.70363542774756,0.0294276133825205,nan,nan,nan,nan,nan,nan,nan,nan,2511.0,2511.0,2511.0,nan,Walking,U1
32,,,10.643302514189285,6.465339912969999,15.3403840777,2.7682227497317395,9.806650225267498,9.80664934886,9.806650838760001,4.446155528364805e-07,4.3626782525408325,1.5977098449,6.531660701159999,1.5920254232493638,169.6951302993333,153.763203941,179.30296050099997,13.894798862707225,0.9892313588625,0.20956522610599998,2.60795678155,1.097615294816635,160.85058715,155.9728801,162.857281684,3.264190066832459,0.9935568090821428,0.973466493601,0.99999433828,0.009483023272734285,1.3985110325466923,0.20908986865600002,2.65204853629,0.6203806740960275,0.953479401721,0.905731214441,0.9900544150920001,0.03787740086243742,69.09816268729999,65.7594103359,70.4900967695,1.7782935951497136,nan,nan,nan,nan,5.0,5.0,5.0,nan,89.70363542774756,89.70363542774756,89.70363542774756,0.0294276133825205,nan,nan,nan,nan,nan,nan,nan,nan,2511.0,2511.0,2511.0,nan,Walking,U1
33,,,8.786171489836667,5.26287436446,17.224003588800002,3.2318832438750054,9.80665005801,9.80664956467,9.80665092422,4.4635178710722166e-07,3.637932046195,3.3162524003400002,3.9596116920499997,0.4549237179075148,163.279219747,150.52066015,176.03777934400003,18.04332801842283,1.4169773887114285,0.56399394836,2.71800989791,0.7631588774470772,153.447870732,152.277919262,156.225997968,1.5066158992902299,0.9774352262498888,0.9502123095839999,0.992753646776,0.015327498951068937,1.2888515480498668,0.340493808357,3.0839608151499998,0.7532913627812787,0.9763522707750001,0.968909357338,0.987481217825,0.0070261458187681446,67.51325888632002,66.2494891859,69.3133054078,1.3513437631821072,nan,nan,nan,nan,5.0,5.0,5.0,nan,89.74983783116983,89.74983783116983,89.74983783116983,0.0294276133825205,nan,nan,nan,nan,nan,nan,nan,nan,2511.0,2511.0,2511.0,nan,Walking,U1
34,,,12.427370274366666,10.0744471972,16.423671740699998,2.4431976600273937,9.806650228389286,9.80664921319,9.806651141769999,4.897217149338868e-07,3.7338985200700003,2.6284957592400002,7.290995077280001,1.994461849284188,351.41252839,134.201677291,391.719651914,95.85714204264877,1.180150647434375,0.421648089656,2.09307910467,0.5607064781405775,151.10464091833333,150.108984014,152.969573129,1.6163143845999772,0.969247663147091,0.941429847498,0.988001328236,0.017450526527296926,1.4520677324174138,0.288019940364,3.7274559866000003,1.0180447364865701,0.9809354532150001,0.970921677596,0.9917349737090001,0.008842008422396528,68.52361901998333,67.8336808681,69.0968863295,0.4160297544460491,nan,nan,nan,nan,5.0,5.0,5.0,nan,89.74983783116983,89.74983783116983,89.74983783116983,0.0294276133825205,nan,nan,nan,nan,nan,nan,nan,nan,2511.0,2511.0,2511.0,nan,Walking,U1
35,,,10.325773210345556,6.84942615295,18.0323099779,3.550103561082132,9.806650327082309,9.80664964347,9.80665104666,4.143193809952272e-07,5.325873199236667,3.8347811654400004,7.10028700418,1.6510861622627453,298.345832584,125.41142100799999,388.42989669400004,149.80926104375004,1.215975043156,0.63314853793,1.7730440597200001,0.41581889968032226,154.3817761283333,152.114690154,156.413828683,2.1591846966281594,0.9695097259274544,0.937819500009,0.9925264904889999,0.017189469875586765,1.060485303657643,0.272707013919,2.40905699125,0.5605824598887237,0.988688997563,0.9746112659370001,0.996010353347,0.00888319211826596,68.3496872527125,66.9184735798,69.9315504055,0.9793761725263147,nan,nan,nan,nan,5.0,5.0,5.0,nan,89.74983783116983,89.74983783116983,89.74983783116983,0.0294276133825205,nan,nan,nan,nan,nan,nan,nan,nan,2511.0,2511.0,2511.0,nan,Walking,U1
36,,,10.601039489209091,7.55371602727,14.268322680699999,2.108558540845078,9.80665041216857,9.806649561819999,9.80665109744,5.539907902198339e-07,4.645655969798573,1.40936303306,12.2913956528,3.896609056559128,308.03362102616666,136.332995812,389.50805745400004,125.17062606184213,0.8780657125175001,0.307615906143,1.8426630083099997,0.4906181967774654,151.01474706800002,150.162218304,151.86727583200002,1.20565774036199,0.976504989503625,0.958139473504,0.986957138492,0.008752002255280378,1.3432552914857778,0.211807804671,3.67716441134,0.8063158441809134,0.990898775857,0.985225084747,0.9965724669670001,0.008023810916477725,67.80653367418999,65.504628001,69.6760743103,1.4504254914435568,nan,nan,nan,nan,5.0,5.0,5.0,nan,89.74983783116983,89.74983783116983,89.74983783116983,0.0294276133825205,nan,nan,nan,nan,nan,nan,nan,nan,2511.0,2511.0,2511.0,nan,Walking,U1
37,,,7.689971510478333,5.95176515866,10.180893474500001,1.4044919286716728,9.806650195566668,9.806649128410001,9.80665095073,4.7447555388475764e-07,3.1279960388099997,1.2089452837899999,4.3933178677699996,1.4319968403607843,306.545732001,145.08927367,388.922178337,139.83510851153792,1.4193678724292498,0.349979202681,2.61324668704,0.7793651014683364,150.87397137859998,149.14321629,152.177873406,1.1876883073868862,0.9694832202016364,0.934487619726,0.9835059989049999,0.01681743864318413,1.17611799044004,0.204182265446,2.14270632588,0.586019438831149,0.9881872243676251,0.9827802296799999,0.997237140644,0.004667015527309583,68.41539204438571,66.021067051,70.6324622317,1.602071736421055,nan,nan,nan,nan,5.0,5.0,5.0,nan,89.74983783116983,89.74983783116983,89.74983783116983,0.0294276133825205,nan,nan,nan,nan,nan,nan,nan,nan,2511.0,2511.0,2511.0,nan,Walking,U1
38,,,10.599514923162307,5.20916762421,16.269457228,3.4345713817429635,9.806650420924166,9.80664991974,9.80665069836,2.7059177970030814e-07,3.3928534845300002,1.6428203882899999,7.011132330950001,2.4459712784766383,159.264023692,159.264023692,159.264023692,139.83510851153792,1.507888761183375,0.398037549654,3.22086638262,1.1583504241727365,154.552132259,154.552132259,154.552132259,1.1876883073868862,0.9753186667106667,0.949510442261,0.993056523369,0.0153355001797448,1.334485514618889,0.234287478518,3.2799300712800004,0.8188009413306503,0.974289105054,0.965774748038,0.99028821044,0.013865192149957054,69.482853220875,68.25051093100001,72.0243824588,1.3722543893996202,nan,nan,nan,nan,5.0,5.0,5.0,nan,89.74983783116983,89.74983783116983,89.74983783116983,0.0294276133825205,nan,nan,nan,nan,nan,nan,nan,nan,2511.0,2511.0,2511.0,nan,Walking,U1
39,,,11.051033800338667,6.36019334957,17.343347931500002,3.4117599181394516,9.806650157882856,9.80664935047,9.806650882060001,4.4786026302960294e-07,4.4523036212600005,2.06287576685,7.84755820462,2.575289693630286,391.659904452,391.659904452,391.659904452,139.83510851153792,1.7405808338124287,0.7496134113869999,2.9916520298400004,0.7015750335319495,155.1239681505,154.621405229,155.626531072,0.7107312995311464,0.9765376496220907,0.9539457110189999,0.9920307164929999,0.011586957295480777,1.2883725545960476,0.442979207517,3.24311224948,0.7994797538201663,0.973510411598,0.957517821479,0.986058785554,0.010021073392364578,68.22682400888002,67.0173651134,69.03726492060001,0.7916405559098177,nan,nan,nan,nan,5.0,5.0,5.0,nan,89.76578651192173,89.75322954237288,89.77834348147057,0.01775823663828476,1.25,1.25,1.25,nan,nan,nan,nan,nan,2511.0,2511.0,2511.0,nan,Walking,U1
40,,,9.830697415896667,6.50994614054,17.0682424862,3.57876921503403,9.80665026557875,9.806649499999999,9.806650812080001,4.776893360248341e-07,4.759429185365001,2.0362284035900005,13.092992645299999,3.591415066568782,218.22977673633332,129.841052048,394.42532602,152.59009909708857,0.99019674643575,0.58432566321,1.68595902396,0.5031500645193598,154.833269747,154.130139463,155.19290777700002,0.6089821990248216,0.9806212400406363,0.954498648837,0.9937744481,0.01278665882379195,1.1365198360521112,0.321555444054,3.20564410911,0.6954382698232534,0.9663520791972001,0.960126948604,0.975794258332,0.006106530956399348,69.63318480438001,68.5338633252,71.24825988010001,1.0702867282983943,nan,nan,nan,nan,5.0,5.0,5.0,nan,89.72591686540005,89.7246412170375,89.72719251376259,0.00180403921512846,1.25,1.25,1.25,nan,nan,nan,nan,nan,2511.0,2511.0,2511.0,nan,Walking,U1
41,,,11.025878964326921,7.044132276689999,18.2452505227,2.9145209367400073,9.806650261310667,9.806649162060001,9.80665076188,4.1276786885979705e-07,8.905396184975,2.7879527791100003,16.5160442145,5.87294812823459,151.20856947,132.240542516,170.176596424,26.82484096980522,1.4642606008268,0.426326093223,3.29106845144,1.0946022969147753,155.801316811,155.297403577,156.305230045,0.7126409297820803,0.9834386063198334,0.9546779415250001,0.996805195512,0.013704514795641682,0.9717280723685601,0.267050911088,2.20213251226,0.5453406627782372,0.9588413387458571,0.942125610175,0.974939218942,0.01274197496816039,68.52383006415,67.9710324075,69.0309238766,0.5848603281525374,nan,nan,nan,nan,5.0,5.0,5.0,nan,89.72591686540005,89.7246412170375,89.72719251376259,0.00180403921512846,1.25,1.25,1.25,nan,nan,nan,nan,nan,2511.0,2511.0,2511.0,nan,Walking,U1
42,,,10.11172135302,6.37868679235,17.7986489324,3.787475599300099,9.806650239382668,9.80664958515,9.80665081601,3.956794915335163e-07,4.594783788201,0.9268537925839999,9.978506459330001,3.8416460157874477,208.02444283749998,129.008862319,398.044658088,127.61864660838607,1.4036658582560002,0.70175991689,1.8234307679099997,0.47634319767948574,157.4585855055,154.853977943,160.063193068,3.683471339547039,0.9903332405379999,0.9847694349789999,0.99513900802,0.003926197333575338,1.3142500595389,0.41500437235699994,3.5697534971300007,0.8540637292822839,0.9636063872516667,0.948123812304,0.9751389425839999,0.01048257571466825,67.60153699151667,66.56110672289999,69.1501684064,0.9801065964613772,nan,nan,nan,nan,5.0,5.0,5.0,nan,89.72591686540005,89.7246412170375,89.72719251376259,0.00180403921512846,1.25,1.25,1.25,nan,nan,nan,nan,nan,2511.0,2511.0,2511.0,nan,Walking,U1
43,,,10.393723527716363,6.988589846810001,14.445902066099999,2.60944404906583,9.806650117534167,9.80664933681,9.806650928360002,5.592835157895644e-07,6.167812749278333,3.60093698144,12.5867832726,3.4380667609589857,156.2385225888,142.875114781,165.97429231,11.623448934187566,1.667351859555,0.80709191688,3.58924740643,1.1332465279538526,154.68930830775,152.544442172,157.448112055,2.108453145182223,0.9823091055271818,0.9668911271639999,0.991542601763,0.00812210123146504,1.2298295805314117,0.12084136736300001,4.34593941603,1.0417421804272018,0.9446961755005834,0.908881066659,0.9662746208040001,0.015097177429657608,68.17282290537143,67.12211212,69.4948176269,0.8869474161884433,nan,nan,nan,nan,5.0,5.0,5.0,nan,89.72591686540005,89.7246412170375,89.72719251376259,0.00180403921512846,1.25,1.25,1.25,nan,nan,nan,nan,nan,2511.0,2511.0,2511.0,nan,Walking,U1
44,,,11.070137175127334,6.60211142145,18.4360112182,3.515795588617663,9.806650223403,9.80664973706,9.8066506989,3.6507772611088947e-07,3.184820572555,3.14799503562,3.22164610949,0.0520791737751482,173.2865653275,172.154560398,174.418570257,1.600896723972098,0.9783263643465454,0.295344813394,2.7251340095599996,0.6641385145091978,157.7734112245,156.81814826299998,158.728674186,1.350945835786004,0.9958423076790713,0.9866293382770001,0.999994387713,0.00423269113232351,1.1639353260227407,0.26726460913600003,3.3917151475700003,0.7920494971005232,0.9162741666099999,0.888587549489,0.941725177066,0.028863576725378294,66.926214848025,66.3621534483,67.43711494109999,0.44045752630821083,nan,nan,nan,nan,5.0,5.0,5.0,nan,89.72591686540005,89.7246412170375,89.72719251376259,0.00180403921512846,1.25,1.25,1.25,nan,nan,nan,nan,nan,2511.0,2511.0,2511.0,nan,Walking,U1
45,,,10.47189777597125,7.03052533643,15.3718197073,2.6751621962335332,9.806650158795454,9.80664936258,9.806650563589999,3.7276317705380755e-07,1.8492010111500001,1.8492010111500001,1.8492010111500001,0.0520791737751482,146.84586710550002,144.772981134,148.91875307700002,2.931503454148249,0.9770115441324999,0.48618508288900003,1.50301836214,0.42969591034935656,157.668188821,155.43830754200002,160.34133205,1.9030386337664222,0.9962156452973749,0.980708106733,0.999998469196,0.006548601569501794,0.9445248180644583,0.12072202309699999,1.81772389412,0.5049854998710029,0.9122526392538569,0.881766802932,0.929748321445,0.016045307619840108,67.46670801343636,65.8818808922,68.43034429640001,0.84685587887363,nan,nan,nan,nan,5.0,5.0,5.0,nan,89.72591686540005,89.7246412170375,89.72719251376259,0.00180403921512846,1.25,1.25,1.25,nan,nan,nan,nan,nan,2511.0,2511.0,2511.0,nan,Walking,U1
46,,,9.771142795193999,7.66012652378,11.7136792052,1.5039207705080009,9.806650121356364,9.80664929916,9.806650899680001,4.0666965793730654e-07,2.509294874885,1.9876109822499999,3.03097876752,0.7377724362360069,177.028435994,171.30955607,182.747315918,8.087717550104005,0.762359465802,0.356800250112,1.2930372894,0.4088653575934518,163.14563969999998,163.14563969999998,163.14563969999998,1.9030386337664222,0.9939624416238182,0.982240168506,0.999999888063,0.006661798579901736,0.8019631777158928,0.18921539143899999,2.46870200896,0.541171900411008,0.8418263604856,0.8115651743440001,0.872110678325,0.024308885599725594,64.66372769145556,62.696312263900005,66.6735202883,1.456103265771029,nan,nan,nan,nan,5.0,5.0,5.0,nan,89.72719251376259,89.72719251376259,89.72719251376259,0.00180403921512846,1.25,1.25,1.25,nan,nan,nan,nan,nan,2511.0,2511.0,2511.0,nan,Walking,U1
47,,,10.068191786192857,8.44281368277,13.0107272999,1.5843685179149574,9.806650032403846,9.80664932631,9.80665101772,4.6666094376912874e-07,5.382428378371666,2.90487222432,10.701276463300001,2.8470982619142076,181.70819154766667,164.41235404100001,193.34637334,9.492233537473176,1.9686714969794998,0.578050746654,3.5465953380800004,1.2943830716250653,159.73626662466668,159.274680485,160.14256711299998,0.4365766567257203,0.9822603237661,0.9655129320229999,0.995283222605,0.011440194422734385,1.0323101371098182,0.205478346679,4.10500692279,0.912546522340319,0.8047539283125,0.788930373542,0.815583499568,0.012030704344185537,63.1552401724,60.9072108709,64.98640465380001,1.4674290248927675,nan,nan,nan,nan,5.0,5.0,5.0,nan,89.72719251376259,89.72719251376259,89.72719251376259,0.00180403921512846,1.25,1.25,1.25,nan,nan,nan,nan,nan,2511.0,2511.0,2511.0,nan,Walking,U1
48,,,9.345877831862142,5.82451926191,16.7525877026,3.553088269147205,9.806650074064445,9.80664948472,9.8066510371,4.684885874575662e-07,4.8981457543674995,2.3718198323,6.947089889,2.3714619558393606,183.17658927724997,173.74947054400002,191.818706627,7.516125067433269,1.0984915982684444,0.447363932204,2.3975398088900004,0.5917770818523183,159.73626662466668,159.274680485,160.14256711299998,0.4365766567257203,0.9809427049901666,0.973018720202,0.990384840826,0.00623162710969242,1.0877923197406152,0.327194688814,2.49689730243,0.5941971955652932,0.7841753021887778,0.767172870511,0.800818412534,0.010889456693830391,64.47059595402,63.330507804300005,65.8664193233,0.9673331432979426,nan,nan,nan,nan,5.0,5.0,5.0,nan,89.72719251376259,89.72719251376259,89.72719251376259,0.00180403921512846,1.25,1.25,1.25,nan,nan,nan,nan,nan,2511.0,2511.0,2511.0,nan,Walking,U1
49,,,11.172876409792,7.7600479411,16.612424207100002,2.7870489754767376,9.806650255569,9.80664943676,9.80665099677,5.7843324460585e-07,3.2404640624966,0.638113317213,6.37332440669,2.187203152742448,188.19362174825,184.854119468,191.06286799,2.667880467264212,1.25384161343875,0.36271973108499994,2.55041486059,0.661288511549102,160.542891496,159.960123678,161.630149216,0.7416869343830215,0.9745916228178749,0.968097303932,0.982192615694,0.004154292963274231,0.9895032671658519,0.170019159005,2.34204051038,0.5200843404675555,0.7569933795566667,0.725251719845,0.7743876017649999,0.027531263051267456,62.71104197901429,60.1268394866,64.4325049902,1.5825055325532227,nan,nan,nan,nan,5.0,5.0,5.0,nan,89.91393876373827,89.91393876373827,89.91393876373827,0.00180403921512846,1.25,1.25,1.25,nan,nan,nan,nan,nan,2511.0,2511.0,2511.0,nan,Walking,U1
50,,,10.88382455241889,4.51348364371,23.368941961599997,4.7676948191649124,9.806650286596364,9.8066495844,9.80665069539,3.50284213436191e-07,2.6640901557550003,1.9684897243900001,3.3596905871200002,0.9837275640289583,196.4494788564,189.436647551,200.55560238099997,4.420715669727449,1.5197513678675456,0.46451486268700004,3.28466654166,0.9076457395942906,159.993320093,159.993320093,159.993320093,0.7416869343830215,0.96557208431425,0.9503216815209999,0.975071164652,0.008051313803582634,1.2496903674158333,0.280207976594,2.7852164157,0.719672643980773,0.7620824299882856,0.7255309199079999,0.797471134198,0.02548383426409107,62.1708949823,61.6310681235,63.0957537026,0.5497288304725092,nan,nan,nan,nan,5.0,5.0,5.0,nan,89.91393876373827,89.91393876373827,89.91393876373827,0.00180403921512846,1.25,1.25,1.25,nan,nan,nan,nan,nan,2511.0,2511.0,2511.0,nan,Walking,U1
51,,,11.37576140672375,6.557499233350001,15.852292381199998,3.1793754134776013,9.806650072788749,9.80664943169,9.80665119738,5.292092010825642e-07,4.874690088283334,2.9670188956400003,7.37996030735,2.266353110855157,194.0384872972,181.041928583,204.227312592,8.5202266144006,1.2789669577032001,0.15720704749199998,3.0425936792000003,0.9689876603821567,158.18819347000002,156.100731588,159.581744507,1.8413302069883257,0.950813371606143,0.930980789948,0.980165485231,0.013478395708165449,1.4179824165374617,0.4287674096099999,4.335478567669999,0.8441767003343712,0.7360305455473334,0.68121307969,0.7855394742380001,0.03607809105922783,61.52405976258571,59.533045295200004,63.9366337754,1.4422276854925629,nan,nan,nan,nan,5.0,5.0,5.0,nan,89.70988570021944,89.70988570021944,89.70988570021944,0.00180403921512846,1.25,1.25,1.25,nan,nan,nan,nan,nan,2511.0,2511.0,2511.0,nan,Walking,U1
52,,,10.688677989244999,6.9269920763999995,21.1460127535,4.0888556907583595,9.806650134026155,9.806649580750001,9.806650876119999,4.307883902750862e-07,6.18807450257,4.10336883114,8.272780174,2.9482190340924146,195.642616574,195.35298549599997,195.932247652,0.4096001985923589,1.0143942020357142,0.396128866823,1.7311015323199999,0.49089329521559416,157.8591952905,157.08158762,158.636802961,1.099703313826454,0.9466895492562,0.925926362057,0.959690491002,0.011953217262430309,1.4167876314900358,0.433428538639,3.8215387237000003,0.7967600283732857,0.7430929730892499,0.6788629536030001,0.792734553625,0.04299540246105563,61.03358035138333,59.606777205600004,62.6193488749,1.0607274999485123,nan,nan,nan,nan,5.0,5.0,5.0,nan,89.70988570021944,89.70988570021944,89.70988570021944,0.00180403921512846,1.25,1.25,1.25,nan,nan,nan,nan,nan,2511.0,2511.0,2511.0,nan,Walking,U1
53,,,11.707161984305555,6.387496950499999,16.4114696318,3.485682517782558,9.8066503213575,9.80664956765,9.8066512888,5.618990747657061e-07,3.57295115225,2.4635692299,4.6823330746,1.5689029604389055,192.1323600545,182.43758182,199.232882535,7.52202194464868,1.4552479846105715,0.334987206639,3.10682280649,0.9559910326041039,165.662805065,165.662805065,165.662805065,1.099703313826454,0.962253603762923,0.942084985097,0.984385739366,0.013151400260061313,1.4833403810074168,0.6506029469110001,4.31217728223,0.905848219132335,0.7390105573233001,0.655929452294,0.791365663952,0.05195651574874684,63.7271988173375,62.0764978189,65.6849604059,1.2016697074639995,nan,nan,nan,nan,5.0,5.0,5.0,nan,89.70988570021944,89.70988570021944,89.70988570021944,0.00180403921512846,1.5,1.5,1.5,nan,nan,nan,nan,nan,2511.0,2511.0,2511.0,nan,Walking,U1
54,,,10.656388288893751,5.2930468389300005,25.0247711134,4.901904525630839,9.806650070845,9.806649558060002,9.806650734460002,4.1239796698880736e-07,5.20352928288,4.45295998898,6.09181172724,0.8280594416203885,189.67896224966668,180.561034393,204.231695022,12.736870573529371,1.4287650288540001,0.133524068492,3.0322124407700004,0.8816172545345068,172.6457446035,156.294617795,178.983206913,10.935795237972517,0.969223422777353,0.9554634265109999,0.980563404766,0.007991238463944046,1.2892458385797145,0.627654990867,3.5951123467300006,0.6790710559226661,0.763903277217,0.757097588239,0.77236595108,0.007767877776004583,65.00883924426667,55.7058844778,70.3001690985,8.081963667626729,nan,nan,nan,nan,5.0,5.0,5.0,nan,89.70988570021944,89.70988570021944,89.70988570021944,0.00180403921512846,1.5,1.5,1.5,nan,nan,nan,nan,nan,2511.0,2511.0,2511.0,nan,Walking,U1
55,,,9.39967566020846,5.35487089766,15.8318205765,3.1557348730361277,9.806649943645,9.8066493564,9.80665020956,2.874632816192864e-07,6.37085897099,2.85703539684,9.56003315027,2.7538297233916125,197.58206858266666,191.007693383,206.41025784099998,6.690327098465775,1.9475431205525,1.08795931637,4.00098407628,0.9663514592665231,158.472610633,158.472610633,158.472610633,10.935795237972517,0.9451463881791249,0.923248338127,0.968434947157,0.01494312455822525,1.5880602005672306,0.176569597884,4.4389207527800005,1.0117026957947173,0.7415321430923637,0.677282343622,0.794162161718,0.0368143006371563,60.54359164135,58.8797719772,61.5202388435,1.1515866859532093,nan,nan,nan,nan,5.0,5.0,5.0,nan,89.70988570021944,89.70988570021944,89.70988570021944,0.00180403921512846,1.5,1.5,1.5,nan,nan,nan,nan,nan,2511.0,2511.0,2511.0,nan,Walking,U1
56,,,10.764041058065557,5.95307673003,15.207715484300001,3.3253910221241143,9.806650186235,9.80664980644,9.80665060205,3.3336374309275227e-07,5.4020481954575,2.58808921722,6.77612472232,1.9286189325002965,186.98404301342856,161.892168664,201.78552129599998,13.114722204006624,1.3522008070893845,0.402323497977,3.11245829315,0.6920388396274777,148.3723204428,119.304411951,162.502836197,18.415952101997892,0.9634523383661251,0.9312195921940001,0.98596285201,0.0182633824148713,1.1291482147498126,0.321586124918,2.31944698273,0.48111903539536427,0.724097246704,0.692596385981,0.760576316557,0.026142148787286178,44.557378268133334,31.154718891799998,60.67537013,14.946470662404026,nan,nan,nan,nan,5.0,5.0,5.0,nan,89.70988570021944,89.70988570021944,89.70988570021944,0.00180403921512846,1.5,1.5,1.5,nan,nan,nan,nan,nan,2511.0,2511.0,2511.0,nan,Walking,U1
57,,,9.350139244574617,6.3262608686699995,15.3361329273,2.918042443244883,9.806650282146668,9.80664963432,9.806651058389999,4.521474165647453e-07,4.7958588893566665,2.8021991702599998,7.70533213835,2.576667235373848,198.856546759,193.41451356299999,205.143324518,5.909860119924205,1.3706718137383334,0.672415523723,3.19247268557,0.9432305880877365,166.59507512300002,165.93626429100001,167.253885955,0.931699213652683,0.9559355948992222,0.930164132095,0.9673424198080001,0.011741267397304429,1.1742889984858331,0.292584585006,2.5600673004299996,0.5837445519401026,0.7145137063939999,0.68731465934,0.75718719692,0.03133541938203725,61.1287946937625,58.612838236099996,64.597750238,2.263086259217414,nan,nan,nan,nan,5.0,5.0,5.0,nan,89.70988570021944,89.70988570021944,89.70988570021944,0.00180403921512846,1.5,1.5,1.5,nan,nan,nan,nan,nan,2511.0,2511.0,2511.0,nan,Walking,U1
58,,,10.499710849324002,7.49823960506,18.6972106597,3.3192495817958925,9.806650186585454,9.806649482120001,9.806650740619999,3.560088612345573e-07,4.1661944931825,1.9401078830400003,5.83886780054,1.6389419060223305,199.55781123175,190.59896627,204.658794673,6.15785438669358,1.3212855312783334,0.227329247093,2.89553872871,0.853287273347024,158.20024434500002,146.237562165,170.245813729,12.004340402809186,0.9086590901809999,0.8098073719059999,0.969846499972,0.07251686406283901,1.0856761801051071,0.269661399222,2.11307108759,0.49368138906027764,0.7460947570073332,0.7426061880979999,0.750308435784,0.0039019857885314382,60.517849258575005,57.408343217200006,63.5091875603,2.651151376368499,nan,nan,nan,nan,5.0,5.0,5.0,nan,89.70988570021944,89.70988570021944,89.70988570021944,0.00180403921512846,1.5,1.5,1.5,nan,nan,nan,nan,nan,2511.0,2511.0,2511.0,nan,Walking,U1
59,,,11.603315854666429,7.25322735173,18.2982533063,3.1523927307488724,9.806650325354,9.80664961011,9.80665089308,3.8751271456580436e-07,3.1209259425919997,2.21291688143,4.548113477159999,0.8702248815370559,200.39687152699997,192.229840326,206.75903170599997,6.582792282523436,1.4129325541924287,0.7082280722509999,2.61543911008,0.6862954730650921,163.11506841425,159.00396472100002,165.661452183,2.3657055697283815,0.9588376908268333,0.9428871383230001,0.973892625404,0.009566976633668537,1.5327361628741052,0.573185994252,3.0350825010299998,0.7054356121828494,0.74413369075825,0.6985510719879999,0.766682655543,0.02323464293142272,62.757976326175005,61.5593283865,63.73458318350001,0.8987818852859332,nan,nan,nan,nan,5.0,5.0,5.0,nan,89.6548998109682,89.6548998109682,89.6548998109682,0.00180403921512846,1.5,1.5,1.5,nan,nan,nan,nan,nan,2829.0,2829.0,2829.0,nan,Walking,U1
60,,,11.720011146028334,8.937257343210002,15.669593708699999,2.514505489388367,9.806650250271666,9.80664961313,9.806650672710001,3.111830036327874e-07,6.794891949157499,1.9275443697299999,14.12445606,5.263923683756569,194.9847239331667,184.068077416,202.311495565,7.737825304419793,1.2360781355880002,0.6708652708389999,2.1704752897799997,0.5209177635503832,162.4977455165,160.364187861,164.631303172,3.017306172513042,0.9532594896979091,0.937250108771,0.969495353196,0.012352469120066248,1.293915025044316,0.0896963215848,3.4289871468,0.8150050762305238,0.7360646054402001,0.6959444728290001,0.7767865567100001,0.03456974009632157,64.14851979035,62.6978973054,65.3610018923,1.193992367512982,nan,nan,nan,nan,5.0,5.0,5.0,nan,89.6548998109682,89.6548998109682,89.6548998109682,0.00180403921512846,1.5,1.5,1.5,nan,nan,nan,nan,nan,2829.0,2829.0,2829.0,nan,Walking,U1
61,,,12.07235891909,6.51447033213,17.4349964069,3.742962699158597,9.806650172059,9.80664973038,9.806650650169999,3.0799007948427474e-07,6.053791912922857,1.5963948727000001,8.97305726374,3.1978186402052233,200.88750741233335,188.70728069900002,219.49085275099998,11.018247885438765,1.6108677548780002,0.73497037992,2.60696731309,0.748203447888359,159.52989617400002,158.818807598,160.497490753,0.8682400479714413,0.9550815613834445,0.934570790584,0.9752328452069999,0.012714894967877751,1.3887305918286208,0.37308142211499995,3.1114716395200004,0.8167198845904472,0.7450223996800001,0.692067175746,0.778988958858,0.03766606501100168,62.59909443076666,59.4562999498,65.9593960529,3.0147853206374644,nan,nan,nan,nan,5.0,5.0,5.0,nan,89.6548998109682,89.6548998109682,89.6548998109682,0.00180403921512846,1.5,1.5,1.5,nan,nan,nan,nan,nan,2829.0,2829.0,2829.0,nan,Walking,U1
62,,,10.145573944445001,6.572038193639999,16.566130468,3.2173578018220215,9.806650011312858,9.80664957428,9.80665030205,2.450893725004588e-07,5.613520185406001,2.01686851504,12.4714878238,4.309533943238262,204.20974088600002,190.8660599,223.173904377,12.261870725117884,1.128874594926091,0.26163801236699996,2.37323165037,0.5990404776045458,156.794140578,156.794140578,156.794140578,0.8682400479714413,0.940743406200125,0.9100301809479999,0.968722022403,0.019038503227303594,1.5970767831425,0.487509740864,3.8788167767400004,0.9534998952557779,0.7574947784552499,0.7058610716629999,0.7840634340710001,0.030196605002960477,63.0555875778,59.786855262399996,65.0001372587,1.7759918750847035,nan,nan,nan,nan,5.0,5.0,5.0,nan,89.78679251715971,89.78679251715971,89.78679251715971,0.00180403921512846,1.5,1.5,1.5,nan,nan,nan,nan,nan,2829.0,2829.0,2829.0,nan,Walking,U1
63,,,11.672227621522666,5.8855092118800005,18.1783571635,3.30163574642612,9.806650154265,9.80664948632,9.80665080153,4.0753365339425293e-07,3.814557708078334,2.5158929420400002,6.01492509113,1.2378547238935473,196.4309705568,190.29717580000002,205.63242582599997,5.7963576473155465,1.5890135934035001,0.804811326459,2.4890352234599997,0.7113495440972875,159.30613317066667,158.27552619,160.718685042,1.2655701160569006,0.956554016346111,0.941478292209,0.9700974086030001,0.009524509751978046,1.3081462123416667,0.183216344391,3.80586056949,0.8943754136809227,0.7392551423285001,0.6941103027259999,0.759314688652,0.024735846998442695,63.452376538420005,60.8662350857,64.8283695401,1.5367725398644756,nan,nan,nan,nan,5.0,5.0,5.0,nan,89.78256902664516,89.78256902664516,89.78256902664516,0.00180403921512846,1.5,1.5,1.5,nan,nan,nan,nan,nan,2829.0,2829.0,2829.0,nan,Walking,U1
64,,,10.270853294569092,6.49384093074,14.9684982924,3.311885132586838,9.806650194584167,9.806649515030001,9.8066506152,3.346425827761181e-07,7.635829158623333,7.500780302639999,7.84315807125,0.18227435105045214,196.38479489114283,190.397285786,205.770666363,5.954763419378203,1.0839649867122498,0.191906039128,2.0226806864599998,0.7589230289102877,159.0490144195,157.736596653,160.361432186,1.8560390048837125,0.9429684507311249,0.9122435367309999,0.961300584259,0.01797767085299089,1.2870787481004935,0.0947624055243,3.9321512591600003,0.8475607410355083,0.7310164211206667,0.676672821203,0.764090387373,0.029721968459475938,62.16107246967999,60.6485070501,63.3151290717,1.1127319755236806,nan,nan,nan,nan,5.0,5.0,5.0,nan,89.75250019375723,89.7325761249259,89.77242426258856,0.02817688835892135,1.5,1.5,1.5,nan,nan,nan,nan,nan,2829.0,2829.0,2829.0,nan,Walking,U1
65,,,10.17255856657,6.21942209873,14.81206242,3.4808211339620363,9.806650167854444,9.806649546900001,9.80665076326,4.0003339417074384e-07,5.663553519965,2.28424895735,11.3283044796,3.023795784437637,203.27564846500002,201.554463284,204.996833646,2.434123426325784,1.3154411894866365,0.319756478199,2.05535889242,0.5810225240818926,159.992245837,159.992245837,159.992245837,1.8560390048837125,0.9332722958730625,0.901643008869,0.9617766570299999,0.01891531110773934,1.38306515908676,0.27209073036,3.4977346912400002,0.8119095990851295,0.7578415480148181,0.668012713848,0.786907220511,0.033754435272510055,63.45088464946667,62.464572519300006,65.0496308643,1.3971178521548036,nan,nan,nan,nan,5.0,5.0,5.0,nan,89.75250019375723,89.7325761249259,89.77242426258856,0.02817688835892135,1.5,1.5,1.5,nan,nan,nan,nan,nan,2829.0,2829.0,2829.0,nan,Walking,U1
66,,,12.6799407077,8.12289278164,18.0346841452,3.3183242296421853,9.806650281108235,9.80664961735,9.80665123637,4.372812702813009e-07,4.4546395944825,3.12495801774,6.3319605476,1.3479947164243862,192.3784380756,178.956304337,200.794945783,9.006281250280312,1.2857832462858572,0.46554634145,1.7810359375799998,0.5156069108899302,159.992245837,159.992245837,159.992245837,1.8560390048837125,0.9676212103170001,0.952881024993,0.977142671567,0.0075026345364144435,1.3597041021444813,0.185308355416,3.5008053194,0.8737045647670582,0.7631170153304,0.711822501212,0.7860236707800001,0.030639216198678345,63.46248523471112,60.9716591821,66.0657056737,1.6824182703116468,nan,nan,nan,nan,5.0,5.0,5.0,nan,89.75250019375723,89.7325761249259,89.77242426258856,0.02817688835892135,1.5,1.5,1.5,nan,nan,nan,nan,nan,2829.0,2829.0,2829.0,nan,Walking,U1
67,,,10.27437966476091,6.737937919889999,14.684090250399999,3.013530769155066,9.806650100954167,9.80664897514,9.806651001939999,5.638833281927907e-07,4.71561468884,3.1222381620599995,5.67623924333,1.0548084575950514,196.28341285,196.28341285,196.28341285,9.006281250280312,1.3263420113581819,0.15106082316,3.0174865462000002,0.8021720926533835,161.62964291600002,161.35442986700002,161.904855965,0.3892100264378329,0.9616518873129999,0.938939712508,0.979809258843,0.014161129653129474,1.3035295970492966,0.302765298273,3.3766993377900003,0.7344889444173242,0.76455959077025,0.73831782096,0.779244814101,0.018042422802463643,64.55812891611667,63.599268958,65.4979625034,0.8382256000582324,nan,nan,nan,nan,5.0,5.0,5.0,nan,89.75250019375723,89.7325761249259,89.77242426258856,0.02817688835892135,1.5,1.5,1.5,nan,nan,nan,nan,nan,2829.0,2829.0,2829.0,nan,Walking,U1
68,,,11.593047318343846,6.24886756194,15.665421388499999,3.0567248703323497,9.806649976420001,9.80664937661,9.80665060588,3.7330051188817184e-07,5.999916810649999,3.45382337933,10.2441810279,3.7000104408653853,194.16411739900002,181.68877663900003,206.63945815900001,17.642796098017868,1.2624785410715,0.9076962416490001,1.6612078979499998,0.2944739832384162,161.83771838733335,160.442618019,162.789088889,1.2345661310228135,0.959753562087,0.940940929975,0.9749680147700002,0.010654021582312958,1.42037129622925,0.230759634771,3.41823921676,1.0189762472367088,0.7578483175852727,0.7266665863420001,0.7953729829,0.02523120730654654,62.41833971361112,59.3930476709,66.9911253508,2.6185903455492454,nan,nan,nan,nan,5.0,5.0,5.0,nan,89.75250019375723,89.7325761249259,89.77242426258856,0.02817688835892135,1.5,1.5,1.5,nan,nan,nan,nan,nan,2829.0,2829.0,2829.0,nan,Walking,U1
69,,,9.45732603493625,6.26103570066,14.324416703299999,2.5076962805605216,9.80665047801125,9.806649694179999,9.80665119178,4.435625845491733e-07,3.5632223746277782,1.41473523007,7.17704302923,1.6439634504761456,203.36464219728572,195.039244724,209.286550122,4.999867116623379,1.4241649116275,0.458796452502,3.8362255119699995,1.3017043265427495,162.86039654249998,162.146811158,163.573981927,1.0091621286711299,0.9412097395693334,0.9310100748960001,0.955512015368,0.009259748253610478,1.1402017134525202,0.253316474262,2.8166956816799997,0.6111283464500059,0.7509472765544445,0.72524795109,0.776288658566,0.017503878317127203,63.77177822635,63.0130468749,64.5305095778,1.0730081674182608,nan,nan,nan,nan,5.0,5.0,5.0,nan,89.75250019375723,89.7325761249259,89.77242426258856,0.02817688835892135,1.5,1.5,1.5,nan,nan,nan,nan,nan,2829.0,2829.0,2829.0,nan,Walking,U1
70,,,10.954323829524546,6.4670719649,16.0770863091,2.933119637919484,9.806650429963,9.80664950056,9.806651118989999,4.3833364867502145e-07,4.446486177690001,3.0890342266900004,7.33009545505,1.7653848403339318,198.25924573766665,191.386800719,204.626056573,5.109899813152157,1.3399011653022308,0.468143188588,3.14590405197,0.7138129005990186,161.248318356,160.599664878,161.896971834,0.9173345458680779,0.94514635167575,0.922010488123,0.9679713839949999,0.012823558615722645,1.4551350972010455,0.34883360776600003,3.5125849740599997,0.8530701573446484,0.7607173083797999,0.72996895791,0.792231158889,0.023985772347534958,64.372411172925,61.69506135979999,65.4814697805,1.792962178915909,nan,nan,nan,nan,5.0,5.0,5.0,nan,89.75250019375723,89.7325761249259,89.77242426258856,0.02817688835892135,1.5,1.5,1.5,nan,nan,nan,nan,nan,2829.0,2829.0,2829.0,nan,Walking,U1
71,,,10.91499813731111,6.44198276484,22.851340230599998,4.991626694718789,9.806650216143076,9.80664939913,9.806651080850001,5.351544628144883e-07,5.494974955005,2.9459791118400003,9.16620047172,2.772072367385867,191.49779317366668,182.673260134,196.78317025799998,7.69198346227863,1.3937616231273333,0.607833840674,2.9055103659099997,0.7894018124935255,165.70879120333333,165.175876994,166.325134933,0.5791535342514246,0.9561864590329091,0.9368934580700001,0.9712004376700001,0.010521017670253378,1.50342746778575,0.462606884288,3.84370521899,0.7647247890838798,0.7786427064237144,0.76031170252,0.799252827392,0.013512015884298642,65.93402570152857,63.672883326000004,67.71189707229999,1.2710326312078601,nan,nan,nan,nan,5.0,5.0,5.0,nan,89.75250019375723,89.7325761249259,89.77242426258856,0.02817688835892135,1.5,1.5,1.5,nan,nan,nan,nan,nan,2829.0,2829.0,2829.0,nan,Walking,U1
72,,,10.419688499468126,6.4051253244,15.8288681746,3.2965875482052724,9.806650468775555,9.806649812669999,9.80665108465,3.911077011193909e-07,4.930153324803334,3.2076989848400004,6.14227611599,1.5324047937554666,194.0183722662,175.240228506,204.462031018,11.2634181023014,1.7921753164557999,0.7594285464749999,4.9846434866300005,1.8024057362128736,160.714433159,159.953291006,161.40763960200002,0.5983650260717256,0.9598864134716667,0.94337630673,0.972822832826,0.008403131314123766,1.2397811158140002,0.444474700569,2.8022033715400005,0.5590394278578456,0.7811118943802,0.767885683906,0.805668769796,0.014680268254698637,62.28430100353751,58.7359795371,64.5555878052,2.0003223376784423,nan,nan,nan,nan,5.0,5.0,5.0,nan,89.75250019375723,89.7325761249259,89.77242426258856,0.02817688835892135,1.5,1.5,1.5,nan,nan,nan,nan,nan,2829.0,2829.0,2829.0,nan,Walking,U1
73,,,11.812380420217693,5.96773618405,20.2836936436,4.170055295716398,9.806650071585,9.80664938976,9.80665066697,3.67695747228934e-07,3.8858417817550004,3.06764780093,4.70403576258,1.157101024334747,194.12164786425,188.37581217099998,202.247077903,5.856452652345244,1.2375229767518334,0.54985161645,3.46517958566,1.1058354388366456,162.93689297650002,161.869133885,164.477574675,1.1383847002525613,0.9591169749142858,0.94518954316,0.974137965756,0.011129492649925117,1.5893221157242412,0.438661674027,3.8963405946,0.8594690326681297,0.7939648527015,0.780458771843,0.819499778328,0.011971125071246425,62.373705637274995,56.7390869822,65.2254571758,2.7381736626044533,nan,nan,nan,nan,5.0,5.0,5.0,nan,89.68628156553406,89.68628156553406,89.68628156553406,0.02817688835892135,1.5,1.5,1.5,nan,nan,nan,nan,nan,2829.0,2829.0,2829.0,nan,Walking,U1
74,,,11.588556835641818,7.286308072789999,17.7136577638,3.653327237541127,9.80665015685857,9.80664915657,9.8066509978,5.610597895594979e-07,5.21206394532,2.18269262407,7.97818409514,1.9137248480678268,203.7932312825,201.350709967,205.40378696,1.7706390597354909,1.2395421978074168,0.45039849427900003,2.37695220561,0.6782719687177757,154.125627094,154.125627094,154.125627094,1.1383847002525613,0.9626287903586364,0.9508702585590001,0.9756375995000001,0.007627746928049907,1.472278847766,0.38554855235,3.4587589298300006,0.8302827378150828,0.8076516152009999,0.8035356744769999,0.8119585182350001,0.0043925523232904995,60.238124512899994,58.3271374275,61.9953179542,1.8389199161027754,nan,nan,nan,nan,5.0,5.0,5.0,nan,89.7172665919467,89.7172665919467,89.7172665919467,0.02817688835892135,1.5,1.5,1.5,nan,nan,nan,nan,nan,2829.0,2829.0,2829.0,nan,Walking,U1
75,,,9.640936807019168,6.82150717412,15.8293616692,2.8923452942598886,9.80665031965375,9.80664980494,9.80665097879,3.722459634717585e-07,5.42627576268,3.5504690728699995,6.84683646086,1.6946817323091645,196.8762682612,179.198957163,203.44713497400002,10.063324029897407,1.4446736850904287,0.687498003431,2.15746224699,0.5256049587302211,160.41728180599998,159.415955107,162.08284445299998,1.4522333634487423,0.9617532237358999,0.949714592356,0.975746349257,0.009291946763910139,1.3891028893613033,0.194855211324,3.2078438460600003,0.8201198832423491,0.8114772290076667,0.805323433662,0.8228732487260001,0.009879761610240753,60.68165945768334,55.3105678763,63.375323458100006,2.9249117081520626,nan,nan,nan,nan,5.0,5.0,5.0,nan,89.7342755196497,89.7342755196497,89.7342755196497,0.02817688835892135,1.5,1.5,1.5,nan,nan,nan,nan,nan,2973.0,2973.0,2973.0,nan,Walking,U1
76,,,11.437976224410003,6.589144297560001,22.811344635100003,4.973906225225427,9.806650100645001,9.80664927829,9.8066507526,4.274759013990202e-07,5.898202080218333,3.8634714897699998,6.86382560083,1.086249608162823,197.49719074400002,191.56392382400003,203.922983741,5.086987162602617,1.2632659488085554,0.53503921905,2.08539879825,0.5009466287096854,165.373515003,165.373515003,165.373515003,1.4522333634487423,0.965153426021375,0.95395655297,0.977759059076,0.008916291347949194,1.2859452878308464,0.269174891899,2.9111538836900004,0.643331146121166,0.8188738405171111,0.793639919179,0.8482623450489999,0.01776848392488147,66.4893434423,64.1261645135,69.0088944515,1.9861232091708572,nan,nan,nan,nan,5.0,5.0,5.0,nan,89.7342755196497,89.7342755196497,89.7342755196497,0.02817688835892135,1.5,1.5,1.5,nan,nan,nan,nan,nan,2973.0,2973.0,2973.0,nan,Walking,U1
77,,,9.6198129650975,6.79777975826,13.0599795721,2.1250188778235746,9.806650102578462,9.80664906171,9.80665057877,4.737666364796458e-07,4.29681086736,2.38480815969,6.7769978041,1.7883847906718293,187.24544587275003,175.774316835,202.40983968900002,11.411974640540592,1.2049469610365713,0.396111981615,2.98660486904,0.8762940785131237,164.11790381325,161.745317722,165.596063606,1.7667968412585267,0.9746476826098335,0.9619499072,0.9863253587649999,0.008907547082233647,1.4386942625104169,0.588899602461,3.03404255211,0.6056622638594137,0.8165104140152,0.801961292472,0.835380830612,0.013550588896081144,65.13160794976,60.1525059158,68.31195978609999,2.447159454677175,nan,nan,nan,nan,5.0,5.0,5.0,nan,89.7342755196497,89.7342755196497,89.7342755196497,0.02817688835892135,1.5,1.5,1.5,nan,nan,nan,nan,nan,2973.0,2973.0,2973.0,nan,Walking,U1
78,,,10.61776479840875,8.42342179489,12.8160643731,1.278760344468155,9.806650125187273,9.80664945803,9.806650812220001,4.556778721691671e-07,3.7489781642325,1.4000023047,6.0648175355400005,1.9182149624656473,185.75062107180003,179.32142869700002,197.14635835,7.449607529943913,1.4100512351616665,1.0610382314799998,1.84550617849,0.2798214487982493,160.172455557,158.567027574,161.827241152,1.6306671254246319,0.9808343093277999,0.9549007723270001,0.999946800685,0.015173907428095806,1.24383347304436,0.407802835544,2.90734083205,0.6235254043146851,0.87332616831,0.830513941024,0.964450197879,0.037353951341946384,63.26116092905714,61.5953225725,65.5141974151,1.1613437370776363,nan,nan,nan,nan,5.0,5.0,5.0,nan,89.7342755196497,89.7342755196497,89.7342755196497,0.02817688835892135,1.5,1.5,1.5,nan,nan,nan,nan,nan,2973.0,2973.0,2973.0,nan,Walking,U1
79,,,10.097498992028001,7.07174733357,14.0366842633,2.4608930363285753,9.806650155365555,9.80664975775,9.80665078506,3.486639451538198e-07,4.089464595531666,2.59069601546,6.9978034436300005,1.5838427502901844,173.45454388842856,137.874061053,198.007015457,22.960414833788455,0.8102164253818889,0.333154762205,1.11606613995,0.264111455915983,158.90827479733332,152.887752694,162.754237523,5.280474607975148,0.988244280524875,0.975813129518,0.998891192786,0.008807809205091856,1.1572190523178751,0.172717019716,2.98661438979,0.7508225069244524,0.978075258814,0.9709780019769999,0.990294513056,0.009115543970443294,63.984760026820005,59.991402308000005,66.7538462609,1.9514105419829426,nan,nan,nan,nan,5.0,5.0,5.0,nan,89.7342755196497,89.7342755196497,89.7342755196497,0.02817688835892135,1.5,1.5,1.5,nan,nan,nan,nan,nan,2973.0,2973.0,2973.0,nan,Walking,U1
80,,,9.90297127629625,5.50623061612,14.9188717281,3.593082954666065,9.806650058559335,9.80664960039,9.80665077884,3.618484756409052e-07,5.9866631978800005,1.6386375014899999,11.8254862448,2.6090494541733196,198.855634615,185.481677642,210.877745827,12.233939790960019,1.1279265133932144,0.24554344834800002,2.86572228465,0.7360641089076554,163.292141797,163.292141797,163.292141797,5.280474607975148,0.9551645012400001,0.9396344514480001,0.969773664172,0.008631586828607084,1.2690199490237726,0.46670416988799995,3.45805377193,0.8108172571768008,0.8105671393930001,0.797665315635,0.8268821768699999,0.012940356969571411,63.837144905325005,61.071342628500005,65.4026864212,1.9033856300237177,nan,nan,nan,nan,5.0,5.0,5.0,nan,89.74446491168665,89.74446491168665,89.74446491168665,0.02817688835892135,1.5,1.5,1.5,nan,nan,nan,nan,nan,2973.0,2973.0,2973.0,nan,Walking,U1
81,,,11.3000935605625,5.883045088409999,19.715919305299998,4.108888384893371,9.806650000814445,9.80664946312,9.806650848839999,4.3396848002506805e-07,5.974846373154285,3.5029090732499997,13.604064315599999,3.615251327116826,194.125316913,181.417810744,202.56777482799998,9.01319108738391,1.8208676089913334,0.229406318894,3.3219945850599997,1.0955777853264543,160.21452676,160.21452676,160.21452676,5.280474607975148,0.9699440479986,0.956416254627,0.97914113766,0.00891584818492799,1.4899832335153844,0.5632045313040001,3.97920537845,0.8880993533841899,0.839644399598125,0.828690240345,0.8561780466560001,0.008416176143230331,64.8233719786,62.944158538900005,66.2423174137,1.3023327547867536,nan,nan,nan,nan,5.0,5.0,5.0,nan,89.74446491168665,89.74446491168665,89.74446491168665,0.02817688835892135,1.5,1.5,1.5,nan,nan,nan,nan,nan,2973.0,2973.0,2973.0,nan,Walking,U1
82,,,10.326303869323334,5.77543764875,17.138134786400002,3.6989181659131956,9.806650326214001,9.80664944325,9.80665098009,4.877180811166678e-07,5.6972492956575,3.9441626355699997,10.1449489374,2.9864505698290476,192.24478978366665,182.26511899099998,206.00313704299998,9.66536150238394,1.2996222946194,0.7071793131149999,1.9926745135900004,0.47961365324772887,157.130903849,157.130903849,157.130903849,5.280474607975148,0.9618978216714,0.951649414339,0.974082249672,0.008090801985865646,1.6664807319813333,0.501136421973,3.7200420073800005,0.8767324724489383,0.8393176473805001,0.8333106787119999,0.8502338298450001,0.007777828500259442,61.01773511786364,57.969047144300006,63.760365514600004,1.9294672149627046,nan,nan,nan,nan,5.0,5.0,5.0,nan,89.74446491168665,89.74446491168665,89.74446491168665,0.02817688835892135,1.5,1.5,1.5,nan,nan,nan,nan,nan,2973.0,2973.0,2973.0,nan,Walking,U1
83,,,11.736844774745833,4.55164219163,20.2679662001,4.1946347898134,9.806650223123846,9.806649773139998,9.8066510067,4.289463997334152e-07,5.274052560544,3.66475724395,7.3227083648699995,1.3826171521227357,198.51427032875,190.68113037700002,206.800311627,8.10625467094575,1.4247137245298573,0.678091394692,2.09927427794,0.5552266995003791,161.3643682034,157.38092767700002,163.49980067,2.3998453161328914,0.9608089044051668,0.9445444464139999,0.9748927393729999,0.011542317039072734,1.3462388377148,0.313501316993,3.05509803283,0.801133949341722,0.8360322732754286,0.815387400132,0.846578283127,0.010821449439102033,61.89073159120001,61.19464721520001,63.954213893500004,1.1880712850612662,nan,nan,nan,nan,5.0,5.0,5.0,nan,89.74446491168665,89.74446491168665,89.74446491168665,0.02817688835892135,1.5,1.5,1.5,nan,nan,nan,nan,nan,2973.0,2973.0,2973.0,nan,Walking,U1
84,,,10.455659593307779,7.349321736669999,14.3227265584,2.5610215220408916,9.806650212068126,9.8066495632,9.8066507938,3.8879968100628493e-07,5.557757835218,4.52639814276,7.231605191360001,1.2259377801880307,195.52656559533332,189.21530809799998,204.69203881599998,6.483535601479817,1.5759328938781538,0.8075451119779999,2.5935352692900002,0.6468489242054175,160.2736951375,158.102195489,162.73491163,2.123346458405173,0.9620710766591112,0.950086590734,0.9726679456239999,0.008308944633409695,1.5124521683882381,0.255426164392,3.97770840317,0.8773719694804046,0.8438985015867501,0.8358859234550001,0.8498711556999999,0.006989019189137474,61.392540862379995,60.125109127799995,62.5985149478,1.102514487590266,nan,nan,nan,nan,5.0,5.0,5.0,nan,89.74446491168665,89.74446491168665,89.74446491168665,0.02817688835892135,1.5,1.5,1.5,nan,nan,nan,nan,nan,2973.0,2973.0,2973.0,nan,Walking,U1
85,,,12.048922487414,6.41040021622,16.4364115865,3.108698921549462,9.806650002106,9.80664943252,9.80665087673,4.172654646925346e-07,6.34420921524,4.16841262105,9.56926041879,2.301894986447383,195.459312993,187.95614917,202.363929338,5.596372322742835,1.5606677766958001,0.32375972673500003,3.4695350628,1.1179089991198385,159.672962221,158.29217262,161.053751822,1.9527313805179396,0.9665992981730909,0.9534310095999999,0.977749660715,0.0075375509734904875,1.421613472881074,0.5474900336399999,3.8444884427,0.8815850081626796,0.8545953172247499,0.847364825772,0.8643742726379999,0.007385074664340482,60.34862693074,58.731947913,63.0200384675,1.852774091233398,nan,nan,nan,nan,5.0,5.0,5.0,nan,89.7648079062807,89.7648079062807,89.7648079062807,0.02817688835892135,1.5,1.5,1.5,nan,nan,nan,nan,nan,2973.0,2973.0,2973.0,nan,Walking,U1
86,,,10.1538611629475,5.88715166467,13.869151073800001,3.1898260339614217,9.80665021026125,9.806649539299999,9.806650753,3.900411625563867e-07,5.505587857168333,2.20398528114,14.3655518429,4.540755075490888,195.63797978257142,182.011417329,212.793488946,10.155208922982496,1.303595347646,0.564409156269,2.044332418,0.6416266558235133,159.672962221,158.29217262,161.053751822,1.9527313805179396,0.9631905779305999,0.9536105757660001,0.970136421081,0.004766138529894045,1.5004123778637715,0.42529866518299997,4.15487958931,0.8894125362159702,0.8503526423476666,0.826699570206,0.8610748868729999,0.012902139208865,56.00585202888,54.5986786386,56.9935936757,1.2637002278995333,nan,nan,nan,nan,5.0,5.0,5.0,nan,89.7648079062807,89.7648079062807,89.7648079062807,0.02817688835892135,1.5,1.5,1.5,nan,nan,nan,nan,nan,2973.0,2973.0,2973.0,nan,Walking,U1
87,,,10.995046847140625,6.05197018799,18.3581435915,3.9223670222873093,9.806650121481818,9.80664965475,9.80665060822,3.382973677204226e-07,4.6985895709475,3.1298892088800003,7.70120846982,2.044665233137375,189.27995028175002,178.697404023,199.313868841,9.24765812971293,1.2129004910748182,0.202634650545,3.7457636222300006,0.9774298512899688,162.29620471799998,162.29620471799998,162.29620471799998,1.9527313805179396,0.9594796108081999,0.941328048663,0.97543403575,0.011917394120564102,1.3422021255343477,0.54516065813,3.6650800928199994,0.7718169544421934,0.8416874078547998,0.827559753316,0.8695083167659999,0.01638395646008909,60.80617769175,58.2619287228,63.4458121749,2.1195803721718596,nan,nan,nan,nan,5.0,5.0,5.0,nan,89.82891485394545,89.82891485394545,89.82891485394545,0.02817688835892135,1.5,1.5,1.5,nan,nan,nan,nan,nan,2973.0,2973.0,2973.0,nan,Walking,U1
88,,,11.076410056447143,6.20279081754,14.5266426686,2.9013822512245944,9.80665045979875,9.806649826000001,9.806651130639999,4.066944714472314e-07,4.566895521508571,2.31350134685,7.506320575339999,1.6417158909869174,196.6183075705,190.156660444,203.079954697,9.138149001565434,1.8979196750634,0.795640180247,3.63632515671,1.1001625151442278,160.7728126565,158.11178312,163.433842193,3.7632640603936847,0.960458814225375,0.939867624968,0.977164256681,0.013799596967362415,1.3836087082542812,0.5252888245489999,3.2835054181400003,0.7749610152517372,0.8428728982295556,0.825596397174,0.853471108846,0.008870641793226212,58.98058266546666,55.729220561400005,60.7255485787,1.8729640351277244,nan,nan,nan,nan,5.0,5.0,5.0,nan,89.73087639765039,89.73087639765039,89.73087639765039,0.02817688835892135,1.5,1.5,1.5,nan,nan,nan,nan,nan,2973.0,2973.0,2973.0,nan,Walking,U1
89,,,11.118807556619167,5.6190686876800005,15.1793490806,2.5177591174521834,9.80665001957909,9.80664971903,9.8066505879,2.841605861180258e-07,4.3160740735975,2.51605176284,6.463117384689999,1.6251012753171041,180.9746025815,169.349784868,192.599420295,16.439974870546685,1.7028496351405453,0.332401903529,3.50484993571,1.0589598375441913,160.2654040965,155.614774813,164.91603338,6.576983006295163,0.9642590999305455,0.950495408968,0.9773295284119999,0.008685862452210265,1.4186223053909663,0.084967495971,3.5059821695199997,0.9006304115558255,0.8666196427835,0.832857616126,0.9277001956049999,0.041977396272114574,61.033681945875,56.893252712,64.0041741857,3.2844019434167033,nan,nan,nan,nan,5.0,5.0,5.0,nan,89.78495913900646,89.77721632215963,89.79270195585329,0.010949996595756115,1.5,1.5,1.5,nan,nan,nan,nan,nan,2973.0,2973.0,2973.0,nan,Walking,U1
90,,,10.306453532130833,5.724002743659999,17.0786652475,3.9732933692844603,9.80664993392143,9.80664925253,9.80665039722,4.4438079877528496e-07,4.4554927332880006,3.0814105301200003,7.95031041123,2.006243431166307,183.83041153,174.64679379,192.619306517,7.4656899741829825,1.9432315174734442,0.9442618057009999,4.46665431762,1.2168818035392994,160.98745951749999,160.402625119,161.572293916,0.8270807381010213,0.9716773978533,0.948024359144,0.998428167437,0.016524507073319348,1.238449937369296,0.27960610754500004,3.1881847978099995,0.7407150389482399,0.8800667095836667,0.8662577894700001,0.9193552428740001,0.019989491357988276,63.16941904591111,61.9772896618,65.0364422549,0.9965486955510534,nan,nan,nan,nan,5.0,5.0,5.0,nan,89.78495913900646,89.77721632215963,89.79270195585329,0.010949996595756115,1.5,1.5,1.5,nan,nan,nan,nan,nan,2973.0,2973.0,2973.0,nan,Walking,U1
91,,,10.306453532130833,5.724002743659999,17.0786652475,3.9732933692844603,9.80664983967,9.80664983967,9.80664983967,4.4438079877528496e-07,4.4554927332880006,3.0814105301200003,7.95031041123,2.006243431166307,183.83041153,174.64679379,192.619306517,7.4656899741829825,1.9067480043500002,1.58424473363,2.22925127507,0.456088499361906,160.98745951749999,160.402625119,161.572293916,0.8270807381010213,0.9716773978533,0.948024359144,0.998428167437,0.016524507073319348,1.238449937369296,0.27960610754500004,3.1881847978099995,0.7407150389482399,0.8800667095836667,0.8662577894700001,0.9193552428740001,0.019989491357988276,65.4695623154,65.4695623154,65.4695623154,0.9965486955510534,nan,nan,nan,nan,5.0,5.0,5.0,nan,89.78495913900646,89.77721632215963,89.79270195585329,0.010949996595756115,1.5,1.5,1.5,nan,nan,nan,nan,nan,2973.0,2973.0,2973.0,nan,Walking,U1
