time,activityrecognition#0,activityrecognition#1,android.sensor.accelerometer#mean,android.sensor.accelerometer#min,android.sensor.accelerometer#max,android.sensor.accelerometer#std,android.sensor.gravity#mean,android.sensor.gravity#min,android.sensor.gravity#max,android.sensor.gravity#std,android.sensor.linear_acceleration#mean,android.sensor.linear_acceleration#min,android.sensor.linear_acceleration#max,android.sensor.linear_acceleration#std,android.sensor.orientation#mean,android.sensor.orientation#min,android.sensor.orientation#max,android.sensor.orientation#std,android.sensor.gyroscope_uncalibrated#mean,android.sensor.gyroscope_uncalibrated#min,android.sensor.gyroscope_uncalibrated#max,android.sensor.gyroscope_uncalibrated#std,android.sensor.magnetic_field_uncalibrated#mean,android.sensor.magnetic_field_uncalibrated#min,android.sensor.magnetic_field_uncalibrated#max,android.sensor.magnetic_field_uncalibrated#std,android.sensor.rotation_vector#mean,android.sensor.rotation_vector#min,android.sensor.rotation_vector#max,android.sensor.rotation_vector#std,android.sensor.gyroscope#mean,android.sensor.gyroscope#min,android.sensor.gyroscope#max,android.sensor.gyroscope#std,android.sensor.game_rotation_vector#mean,android.sensor.game_rotation_vector#min,android.sensor.game_rotation_vector#max,android.sensor.game_rotation_vector#std,android.sensor.magnetic_field#mean,android.sensor.magnetic_field#min,android.sensor.magnetic_field#max,android.sensor.magnetic_field#std,android.sensor.pressure#mean,android.sensor.pressure#min,android.sensor.pressure#max,android.sensor.pressure#std,android.sensor.light#mean,android.sensor.light#min,android.sensor.light#max,android.sensor.light#std,sound#mean,sound#min,sound#max,sound#std,speed#mean,speed#min,speed#max,speed#std,android.sensor.proximity#mean,android.sensor.proximity#min,android.sensor.proximity#max,android.sensor.proximity#std,android.sensor.step_counter#mean,android.sensor.step_counter#min,android.sensor.step_counter#max,android.sensor.step_counter#std,target,user
1,,,10.001424342780131,8.24804525911,12.650427515399999,0.40628428910494374,9.80663378782623,9.80661644802,9.80664917426,6.3850343654554444e-06,0.5562111340278985,0.0290678102789,3.59611231411,0.5490484914142868,168.4652868986451,156.235735965,178.643553082,4.916030286445304,0.22376987711249086,0.0144891632029,0.921124862825,0.1822395256234799,76.72635481531621,75.67938953720001,77.7014814428,0.5698241238998956,0.9797222253601797,0.9646244230869999,0.991957550482,0.006131542271747957,0.22012493093095645,0.0173412481902,0.924144406251,0.18328750784591213,0.7404408049113567,0.645924851046,0.7613620039579999,0.024574441556854173,25.15519595933681,24.1871867736,25.832151068,0.44203424211226316,1009.6167255555556,1009.5947,1009.6499,0.015178338140835973,0.8518518518518519,0.0,2.0,0.6623793767520535,nan,nan,nan,nan,nan,nan,nan,nan,5.333333333333333,0.0,8.0,4.618802153517007,1809.0,1809.0,1809.0,nan,Bus,U12
2,,,9.983338687641542,9.76567327803,10.2156591674,0.05877294771664131,9.806632191875387,9.80661527289,9.80664770947,5.987315589983402e-06,0.22387964461970816,0.07087904475739999,0.462705806216,0.06477360210912624,162.34935633700002,160.794033798,164.328319785,0.9657959014367585,0.06508377502406394,0.009587380500000001,0.193409309498,0.041199861819554505,75.48651738744385,74.3952283416,76.06050225,0.373958443965941,0.9658263265219209,0.9625618900390001,0.969437349744,0.0018121621167940002,0.06374723157493456,0.0026093544660999997,0.18347923978100003,0.04071355968657314,0.7383902342033697,0.729283167951,0.747932316039,0.00466191141748155,25.40208181658494,24.881318355700003,26.2272758784,0.3008064712374249,1009.6049396296296,1009.562,1009.6569999999999,0.029174204290965903,0.9259259259259259,0.0,2.0,0.6155626523087467,nan,nan,nan,nan,nan,nan,nan,nan,5.333333333333333,0.0,8.0,4.618802153517007,1809.0,1809.0,1809.0,nan,Bus,U12
3,,,10.082704857013763,8.07922059152,13.0006022701,0.46611412351850656,9.806633527197475,9.80661599612,9.806648485739998,6.333746818536454e-06,0.7756057220390813,0.0528428927974,4.382065089119999,0.6620955047657803,164.79452676423864,150.210475669,177.97930858200002,7.227103055007563,0.30863363860492016,0.0103281220239,1.3731432460100002,0.26562292631859885,77.14716780701838,75.10719136270001,78.6682288355,1.0940070199251248,0.9707733270571969,0.9443149390700001,0.988563377009,0.01269509579597841,0.3054110816378332,0.00583469378102,1.36566115248,0.2650991800413002,0.7423808561084853,0.6189390739639999,0.780282684462,0.027181453177209026,26.724026529368246,25.0675088511,28.5142077862,1.1161370829332378,1009.5725753846153,1009.54834,1009.5974,0.012893231784384458,1.1153846153846154,0.0,2.0,0.8161824833662176,nan,nan,nan,nan,nan,nan,nan,nan,5.333333333333333,0.0,8.0,4.618802153517007,1809.0,1809.0,1809.0,nan,Bus,U12
4,,,10.020647893721115,8.37652084503,12.1375987802,0.5447602970829325,9.806630614357237,9.80661388614,9.80664816084,6.534857256892129e-06,0.6068811252021512,0.05096156215469999,2.3881118835099997,0.40297450660316064,153.36494410339878,150.803420901,156.464161717,1.0904692993990621,0.11897796901265462,0.0054318044138,0.369267425904,0.0655689051272117,75.27179219046282,74.1789727653,77.23095234430001,0.8247922116708493,0.9466777234971666,0.9401905438789999,0.9534180986830001,0.0026124501767106944,0.11734771622805175,0.00775524214039,0.376377701104,0.06663078435388113,0.7420246874208392,0.7140957902799999,0.771720373293,0.012740777487329609,27.590318507423774,26.195801190300003,28.5028076792,0.6179714437845145,1009.5204682142856,1009.4607,1009.5718,0.029537581717713216,3.142857142857143,1.0,6.0,1.4584183648679576,nan,nan,nan,nan,nan,nan,nan,nan,5.333333333333333,0.0,8.0,4.618802153517007,1809.0,1809.0,1809.0,nan,Bus,U12
5,,,10.017534574276755,8.679975796139999,11.651022734100001,0.473592244637313,9.806631433152948,9.80661570647,9.80664680946,5.71152233553279e-06,0.5547265155685461,0.0572910344992,1.5668539830500001,0.3051334228467488,152.95724245769685,147.441271346,155.977862749,1.8277942078082299,0.1113774840679173,0.006566731108669999,0.477754187892,0.08113292135613186,75.7914116588499,74.96058964550001,76.400065445,0.3769269241491659,0.9471855095074458,0.939705411166,0.955197235706,0.004116111861624293,0.1087357896281062,0.0076075099041600005,0.48269293552000003,0.0814912333681386,0.7196216888577435,0.676439720889,0.742362000643,0.014580717528182156,27.30684713025374,26.678081745100002,28.5166623363,0.4345450137631954,1009.55846,1009.4724,1009.6223,0.03056401357685152,2.0714285714285716,1.0,6.0,1.0157490003667402,nan,nan,nan,nan,nan,nan,nan,nan,5.333333333333333,0.0,8.0,4.618802153517007,1809.0,1809.0,1809.0,nan,Bus,U12
6,,,10.021144617244792,8.32198064868,12.136790191900001,0.5697556405215549,9.806634114856555,9.80661590341,9.80664611931,5.2147445773242565e-06,0.7051975526237204,0.040823820419,2.7485688799199997,0.41547846641577457,150.04217761002573,138.41693753799998,173.513834875,10.39278124516084,0.20837816500044146,0.034943272916900005,0.942451464253,0.13087229355933322,76.96014957348012,73.6609151146,83.8880802021,3.2046543063864537,0.9487123241602604,0.929209255811,0.983152165984,0.015544327780913568,0.2109414903697769,0.0232657267508,0.946822993439,0.13095711979274208,0.6877922751058138,0.641715228704,0.757991009033,0.034266298397758306,27.70094816963988,26.334198298,29.6799595687,0.8924724573601746,1009.5547235714286,1009.5054,1009.60156,0.02540262573396623,4.892857142857143,2.0,10.0,2.31483597873923,nan,nan,nan,nan,nan,nan,nan,nan,5.333333333333333,0.0,8.0,4.618802153517007,1809.0,1809.0,1809.0,nan,Bus,U12
7,,,10.124319211816399,8.21884294796,12.5928826433,0.5541574877401808,9.806633170100953,9.8066158148,9.80664874531,5.946660051984323e-06,0.6817663281125261,0.066656366557,2.8982567023400003,0.431269366060883,176.02813012137725,153.366588865,186.425329111,8.259655185851713,0.22146713386345757,0.0191747602333,0.615042373161,0.12494513632433664,80.37156723993208,73.1317988292,84.3429916733,3.7273711532920406,0.9811280098599722,0.941018540718,0.9947886018240001,0.01474216641098874,0.21774592620988148,0.0103281220239,0.607975814531,0.12426308488692758,0.746442658187465,0.725587419337,0.760825086436,0.00685121818897294,28.450783078232796,26.410793774499997,29.842419921999998,1.10143741236022,1009.5487144444444,1009.5134,1009.58057,0.02157235041816845,5.814814814814815,3.0,9.0,1.8194892993753249,nan,nan,nan,nan,3.52884004,0.0,6.073028,3.2287828734135418,5.333333333333333,0.0,8.0,4.618802153517007,1809.0,1809.0,1809.0,nan,Bus,U12
8,,,10.019652213438883,8.43864484094,11.945659411900001,0.5146198126106769,9.806631384348256,9.80661748806,9.8066472785,5.858555757270151e-06,0.6468252722388871,0.0503202468277,2.3017372795299997,0.3534352658597988,134.353151372806,127.832233691,154.20687533,6.573589343674482,0.17230496539883333,0.00698540622687,0.48075066681999995,0.09374075473713611,71.70935818010041,69.5609804416,73.8352896656,1.4102465301633933,0.890121098762142,0.865868885316,0.941287516524,0.01924097950970859,0.17182537857296407,0.023265726878999998,0.47285384914800005,0.09219598838907382,0.7354437179052169,0.717477189377,0.7516747320780001,0.008297695821266299,27.350924303122845,26.500377443,28.0800641794,0.4263443785621749,1009.5242803571429,1009.4526400000001,1009.60693,0.03863544788403848,2.9285714285714284,1.0,6.0,1.3032316365146677,nan,nan,nan,nan,0.0,0.0,0.0,0.0,5.333333333333333,0.0,8.0,4.618802153517007,1809.0,1809.0,1809.0,nan,Bus,U12
9,,,10.016936059042031,8.04666851377,12.098769561900001,0.5914699777688185,9.806631292163235,9.80661197367,9.8066472351,5.9819336151643675e-06,0.7187003331656929,0.0623154070041,2.46261085306,0.4154462796440666,147.86644980246336,138.658581297,153.692946922,3.887714346927181,0.13451580820165351,0.0171106808147,0.361231473636,0.06961723230874697,74.22345292477974,72.91166046939999,75.5962962056,0.9090369304474505,0.9352623836031111,0.905424186741,0.94787278408,0.011661847643539062,0.1359877060495546,0.00910162345641,0.370790090536,0.07302313312370463,0.7153911447438337,0.670590201551,0.7510511703370001,0.023930479721925694,27.018100351580518,25.8216968614,28.0303407043,0.6448238323659665,1009.4846796296296,1009.4436,1009.5239,0.022924486653336705,1.8518518518518519,1.0,4.0,0.8182393717706753,nan,nan,nan,nan,2.4814212,2.4814212,2.4814212,0.0,5.333333333333333,0.0,8.0,4.618802153517007,1809.0,1809.0,1809.0,nan,Bus,U12
10,,,10.074589817734406,7.904573517869999,12.599158333599998,0.4257352901846262,9.806634780539369,9.80661855476,9.80664735207,5.2006213829274796e-06,0.5390107663150112,0.0127516895967,3.0029097721799998,0.42017345499056924,159.23734244401186,150.419073356,164.488061245,3.5603075622489326,0.1146042323839688,0.0120520920273,0.409184980001,0.07275559133522765,76.96979017327816,73.6057754962,79.1851627516,1.7064349686775266,0.9595976615159901,0.946415686471,0.967400867014,0.00560404202949023,0.113092306478098,0.0105455798168,0.41779150789700004,0.07364037804600873,0.6755716546140785,0.629664723731,0.698750969069,0.016207640392139334,27.25653296506779,26.1652441227,28.237032422,0.6561105815324011,1009.5630807142858,1009.4680000000001,1009.6033,0.043031873538247764,1.0,0.0,3.0,1.1547005383792515,nan,nan,nan,nan,2.4814212,2.4814212,2.4814212,0.0,5.333333333333333,0.0,8.0,4.618802153517007,1809.0,1809.0,1809.0,nan,Bus,U12
11,,,10.046289749418174,9.00774665004,10.616487471900001,0.2244043238884814,9.806633773013267,9.806617496060001,9.806647901189999,5.684558997731498e-06,0.3645035106078364,0.037866374369699994,1.1708619577,0.20152857797952994,162.43492109855,158.006582317,165.282747915,1.7799176321737926,0.1384494135163414,0.0159789665,0.414323508947,0.08389174872666902,78.13264545975038,76.2754890932,79.0883682977,0.680389087785593,0.9636624056713736,0.958846491559,0.9685482030979999,0.002465121787923435,0.1344418589775618,0.014011366378600001,0.414534347099,0.0867141866235397,0.6939550782160755,0.642686825257,0.735020392897,0.021088609830627766,27.412093187677137,27.0283184827,27.7706683535,0.21527403574321646,1009.6136651851853,1009.5635,1009.6569999999999,0.02130993346745347,0.037037037037037035,0.0,1.0,0.19245008972987526,nan,nan,nan,nan,2.4814212,2.4814212,2.4814212,0.0,5.333333333333333,0.0,8.0,4.618802153517007,1809.0,1809.0,1809.0,nan,Bus,U12
12,,,10.008522025593415,8.900964578,10.6883330626,0.21462228725147717,9.806633490148077,9.80661978173,9.806648760429999,5.594433330157018e-06,0.4236796155494593,0.039195849430699994,3.7081820039099997,0.40578802456378005,160.66425447391833,148.07892816700002,164.317016157,3.1805337304001275,0.18275978269558982,0.009163751282690001,1.0377387207700002,0.23014553186980524,77.25758547715607,74.8907204053,78.8930288429,0.6318573291837303,0.9630867475810417,0.935227252434,0.969088590187,0.00668799647523478,0.18293706786892686,0.00878439588716,1.03067020509,0.22789585830837383,0.6992527290291969,0.6628829981759999,0.7467525223229999,0.013720297090208035,27.14900533552231,26.3220439936,30.074242823400002,0.6714661127529243,1009.5336218518518,1009.51855,1009.5486,0.009553682752269985,0.48148148148148145,0.0,1.0,0.5091750772173156,nan,nan,nan,nan,2.4814212,2.4814212,2.4814212,0.0,5.333333333333333,0.0,8.0,4.618802153517007,1809.0,1809.0,1809.0,nan,Bus,U12
13,,,10.010171758346683,9.44407591589,11.0438240454,0.2524475284136716,9.80663390713513,9.8066172827,9.806648040599999,5.585148427724253e-06,0.4704852869293282,0.056423932874800006,2.54265217364,0.38703773985402684,152.76726270716233,129.037887471,170.159031338,14.47661449549293,0.23397655831456954,0.00398585470511,0.94313574155,0.17404703390190832,75.36226584188577,70.48673634149999,78.4070162957,2.445724583031362,0.9456411096406232,0.89369850944,0.978381335431,0.029294544239401706,0.2356267987251711,0.009163751282690001,0.941267698908,0.17533234488216393,0.6886056480997083,0.630448597936,0.745943705596,0.03710340880847701,28.4077738620996,25.8429887861,30.618458485,1.7662334129177057,1009.5323537037037,1009.5054,1009.5632300000001,0.012885550986151685,1.0,0.0,2.0,0.6201736729460423,nan,nan,nan,nan,2.4814212,2.4814212,2.4814212,0.0,5.333333333333333,0.0,8.0,4.618802153517007,1809.0,1809.0,1809.0,nan,Bus,U12
14,,,10.067379712814732,6.98373968364,12.8437785256,0.5520511118444986,9.806632087331334,9.806613839939999,9.80664805478,6.299542626853134e-06,0.7416077751216225,0.09271052733349999,4.26822503832,0.7503820544272901,163.17990957907367,142.814081549,173.581149977,5.971952282408477,0.2538595482908114,0.00884875109467,1.68250417016,0.31106156482078906,77.17259311141281,74.2858022424,78.6712795777,1.0538509775837586,0.9658499076417085,0.945654201981,0.9823075253579999,0.010695081527215645,0.2521114437343573,0.018846452179900004,1.67985756093,0.3094700008999531,0.7323186405242849,0.623818802409,0.773551862974,0.028106303990979725,26.795194667891618,26.0626169603,27.535250135100004,0.5539734476722833,1009.5189681481481,1009.4724,1009.55786,0.023765846217587063,0.5925925925925926,0.0,1.0,0.5007117441325405,nan,nan,nan,nan,2.4814212,2.4814212,2.4814212,0.0,5.333333333333333,0.0,8.0,4.618802153517007,1809.0,1809.0,1809.0,nan,Bus,U12
15,,,10.069471792808079,8.49214119502,11.445565826400001,0.45643708893857154,9.80663125346862,9.80661577829,9.80664787209,5.980275599036649e-06,0.5854543373561666,0.050922857388500005,1.7458006953099998,0.30020114028780337,155.6957756963755,150.74095618299998,161.252124458,2.0802822184280054,0.11335787394694505,0.00439219797996,0.283988404116,0.05012315386436238,76.90911117677838,75.6334582047,78.3540682849,0.7630185408384104,0.9509382862368416,0.941052334293,0.9607345908409999,0.00404789147865865,0.111739968174642,0.011172587731700002,0.276722814138,0.050194998129798746,0.7327447187900662,0.711903796359,0.762346565178,0.01357588805017588,27.5220624904726,26.9239670183,28.3210169309,0.3705540757113299,1009.3846471428571,1009.1338,1009.49316,0.13074768961508945,0.6785714285714286,0.0,1.0,0.47559486560567094,nan,nan,nan,nan,2.4814212,2.4814212,2.4814212,0.0,5.333333333333333,0.0,8.0,4.618802153517007,1809.0,1809.0,1809.0,nan,Bus,U12
16,,,10.032589565662738,8.37778914503,12.158306066700002,0.8486517981208014,9.80663129587771,9.806614585539998,9.80664668943,6.1314721888849554e-06,0.9464580559181909,0.227189305093,2.4042063319299998,0.5143667284811057,155.7587806806154,150.921369299,162.509710674,3.2052272804108495,0.1664089197130799,0.027033382182200003,0.48704025349,0.10127792248312523,77.78519763041068,77.2844745081,78.1513275639,0.2685655595864685,0.9484696078357143,0.941396136699,0.957390355493,0.004609047937458757,0.16246666224707,0.011172587808000001,0.494359624728,0.10569234268263646,0.726508579366091,0.68622959844,0.7471032557389999,0.01643394254601326,28.202778580278462,27.985889301599997,28.3732277262,0.08618238264369378,1009.48814,1009.4758,1009.51855,0.015179217151545658,0.7142857142857143,0.0,1.0,0.4879500364742666,nan,nan,nan,nan,2.4814212,2.4814212,2.4814212,0.0,5.333333333333333,0.0,8.0,4.618802153517007,1809.0,1809.0,1809.0,nan,Bus,U12
