time,activityrecognition#0,activityrecognition#1,android.sensor.accelerometer#mean,android.sensor.accelerometer#min,android.sensor.accelerometer#max,android.sensor.accelerometer#std,android.sensor.gravity#mean,android.sensor.gravity#min,android.sensor.gravity#max,android.sensor.gravity#std,android.sensor.linear_acceleration#mean,android.sensor.linear_acceleration#min,android.sensor.linear_acceleration#max,android.sensor.linear_acceleration#std,android.sensor.orientation#mean,android.sensor.orientation#min,android.sensor.orientation#max,android.sensor.orientation#std,android.sensor.gyroscope_uncalibrated#mean,android.sensor.gyroscope_uncalibrated#min,android.sensor.gyroscope_uncalibrated#max,android.sensor.gyroscope_uncalibrated#std,android.sensor.magnetic_field_uncalibrated#mean,android.sensor.magnetic_field_uncalibrated#min,android.sensor.magnetic_field_uncalibrated#max,android.sensor.magnetic_field_uncalibrated#std,android.sensor.rotation_vector#mean,android.sensor.rotation_vector#min,android.sensor.rotation_vector#max,android.sensor.rotation_vector#std,android.sensor.gyroscope#mean,android.sensor.gyroscope#min,android.sensor.gyroscope#max,android.sensor.gyroscope#std,android.sensor.game_rotation_vector#mean,android.sensor.game_rotation_vector#min,android.sensor.game_rotation_vector#max,android.sensor.game_rotation_vector#std,android.sensor.magnetic_field#mean,android.sensor.magnetic_field#min,android.sensor.magnetic_field#max,android.sensor.magnetic_field#std,android.sensor.pressure#mean,android.sensor.pressure#min,android.sensor.pressure#max,android.sensor.pressure#std,android.sensor.light#mean,android.sensor.light#min,android.sensor.light#max,android.sensor.light#std,sound#mean,sound#min,sound#max,sound#std,speed#mean,speed#min,speed#max,speed#std,android.sensor.proximity#mean,android.sensor.proximity#min,android.sensor.proximity#max,android.sensor.proximity#std,android.sensor.step_counter#mean,android.sensor.step_counter#min,android.sensor.step_counter#max,android.sensor.step_counter#std,target,user
1,,,9.65044654129898,9.48773471198,9.93412212117,0.08075376014976834,nan,nan,nan,nan,nan,nan,nan,nan,nan,nan,nan,nan,nan,nan,nan,nan,nan,nan,nan,nan,nan,nan,nan,nan,nan,nan,nan,nan,nan,nan,nan,nan,nan,nan,nan,nan,nan,nan,nan,nan,nan,nan,nan,nan,nan,nan,nan,nan,nan,nan,nan,nan,nan,nan,nan,nan,nan,nan,nan,nan,Car,U6
2,,,9.62351887695948,9.41689957387,9.83090853647,0.08995539943985793,nan,nan,nan,nan,nan,nan,nan,nan,nan,nan,nan,nan,nan,nan,nan,nan,nan,nan,nan,nan,nan,nan,nan,nan,nan,nan,nan,nan,nan,nan,nan,nan,nan,nan,nan,nan,nan,nan,nan,nan,nan,nan,nan,nan,nan,nan,nan,nan,nan,nan,nan,nan,nan,nan,nan,nan,nan,nan,nan,nan,Car,U6
3,,,9.674599373891459,9.430140944289999,10.0068879,0.11317780216579967,nan,nan,nan,nan,nan,nan,nan,nan,nan,nan,nan,nan,nan,nan,nan,nan,nan,nan,nan,nan,nan,nan,nan,nan,nan,nan,nan,nan,nan,nan,nan,nan,nan,nan,nan,nan,nan,nan,nan,nan,nan,nan,nan,nan,nan,nan,nan,nan,nan,nan,nan,nan,nan,nan,nan,nan,nan,nan,nan,nan,Car,U6
4,,,9.787929790143668,9.3721023779,10.1335108692,0.13724391125859042,nan,nan,nan,nan,nan,nan,nan,nan,nan,nan,nan,nan,nan,nan,nan,nan,nan,nan,nan,nan,nan,nan,nan,nan,nan,nan,nan,nan,nan,nan,nan,nan,nan,nan,nan,nan,nan,nan,nan,nan,nan,nan,nan,nan,nan,nan,nan,nan,nan,nan,nan,nan,nan,nan,nan,nan,nan,nan,nan,nan,Car,U6
5,,,9.812226127359358,9.40402850723,10.2081930894,0.17215027165575814,nan,nan,nan,nan,nan,nan,nan,nan,nan,nan,nan,nan,nan,nan,nan,nan,nan,nan,nan,nan,nan,nan,nan,nan,nan,nan,nan,nan,nan,nan,nan,nan,nan,nan,nan,nan,nan,nan,nan,nan,nan,nan,nan,nan,nan,nan,nan,nan,nan,nan,nan,nan,nan,nan,nan,nan,nan,nan,nan,nan,Car,U6
6,,,9.788037011180938,9.467901855060001,10.0600974599,0.10993704874658575,nan,nan,nan,nan,nan,nan,nan,nan,nan,nan,nan,nan,nan,nan,nan,nan,nan,nan,nan,nan,nan,nan,nan,nan,nan,nan,nan,nan,nan,nan,nan,nan,nan,nan,nan,nan,nan,nan,nan,nan,nan,nan,nan,nan,61.86142612752128,61.86142612752128,61.86142612752128,nan,nan,nan,nan,nan,nan,nan,nan,nan,nan,nan,nan,nan,Car,U6
7,,,9.654776470079165,9.28200069391,10.1287804724,0.16737728507683652,nan,nan,nan,nan,nan,nan,nan,nan,nan,nan,nan,nan,nan,nan,nan,nan,nan,nan,nan,nan,nan,nan,nan,nan,nan,nan,nan,nan,nan,nan,nan,nan,nan,nan,nan,nan,nan,nan,nan,nan,nan,nan,nan,nan,66.74918522581312,66.74918522581312,66.74918522581312,nan,nan,nan,nan,nan,nan,nan,nan,nan,nan,nan,nan,nan,Car,U6
8,,,9.769917615996146,9.537976207949999,10.0756287238,0.11202069053440174,nan,nan,nan,nan,nan,nan,nan,nan,nan,nan,nan,nan,nan,nan,nan,nan,nan,nan,nan,nan,nan,nan,nan,nan,nan,nan,nan,nan,nan,nan,nan,nan,nan,nan,nan,nan,nan,nan,nan,nan,nan,nan,nan,nan,66.74918522581312,66.74918522581312,66.74918522581312,nan,nan,nan,nan,nan,nan,nan,nan,nan,nan,nan,nan,nan,Car,U6
9,,,9.915728731022917,9.16703002521,10.7314434436,0.27467689655656297,nan,nan,nan,nan,nan,nan,nan,nan,nan,nan,nan,nan,nan,nan,nan,nan,nan,nan,nan,nan,nan,nan,nan,nan,nan,nan,nan,nan,nan,nan,nan,nan,nan,nan,nan,nan,nan,nan,nan,nan,nan,nan,nan,nan,66.74918522581312,66.74918522581312,66.74918522581312,nan,nan,nan,nan,nan,nan,nan,nan,nan,nan,nan,nan,nan,Car,U6
10,,,9.867832981431157,8.81027222973,10.916253379,0.3724455183810013,nan,nan,nan,nan,nan,nan,nan,nan,nan,nan,nan,nan,nan,nan,nan,nan,nan,nan,nan,nan,nan,nan,nan,nan,nan,nan,nan,nan,nan,nan,nan,nan,nan,nan,nan,nan,nan,nan,nan,nan,nan,nan,nan,nan,66.74918522581312,66.74918522581312,66.74918522581312,nan,0.0,0.0,0.0,nan,nan,nan,nan,nan,nan,nan,nan,nan,Car,U6
11,,,9.810853665408738,8.06785567222,11.6547345998,0.6337696927485896,nan,nan,nan,nan,nan,nan,nan,nan,nan,nan,nan,nan,nan,nan,nan,nan,nan,nan,nan,nan,nan,nan,nan,nan,nan,nan,nan,nan,nan,nan,nan,nan,nan,nan,nan,nan,nan,nan,nan,nan,nan,nan,nan,nan,68.01887133768514,67.92398694191473,68.11375573345555,0.13418679935608602,0.0,0.0,0.0,nan,nan,nan,nan,nan,nan,nan,nan,nan,Car,U6
12,,,9.875537200000208,7.65735012006,12.4517681225,0.9177908923037524,nan,nan,nan,nan,nan,nan,nan,nan,nan,nan,nan,nan,nan,nan,nan,nan,nan,nan,nan,nan,nan,nan,nan,nan,nan,nan,nan,nan,nan,nan,nan,nan,nan,nan,nan,nan,nan,nan,nan,nan,nan,nan,nan,nan,61.47436700692246,61.47436700692246,61.47436700692246,0.13418679935608602,0.0,0.0,0.0,nan,nan,nan,nan,nan,nan,nan,nan,nan,Car,U6
13,,,9.842310885065054,8.0005380439,11.8181912678,0.5954117034522953,nan,nan,nan,nan,nan,nan,nan,nan,nan,nan,nan,nan,nan,nan,nan,nan,nan,nan,nan,nan,nan,nan,nan,nan,nan,nan,nan,nan,nan,nan,nan,nan,nan,nan,nan,nan,nan,nan,nan,nan,nan,nan,nan,nan,74.51052640931044,62.83526460551575,86.18578821310513,16.51131358718301,0.0,0.0,0.0,nan,nan,nan,nan,nan,nan,nan,nan,nan,Car,U6
14,,,9.814490299464316,8.62968085421,11.465149168800002,0.4581861248311368,nan,nan,nan,nan,nan,nan,nan,nan,nan,nan,nan,nan,nan,nan,nan,nan,nan,nan,nan,nan,nan,nan,nan,nan,nan,nan,nan,nan,nan,nan,nan,nan,nan,nan,nan,nan,nan,nan,nan,nan,nan,nan,nan,nan,62.7026530275355,62.7026530275355,62.7026530275355,16.51131358718301,0.0,0.0,0.0,nan,nan,nan,nan,nan,nan,nan,nan,nan,Car,U6
15,,,9.66085565983299,8.29219308791,10.475770125499999,0.3561176636001587,nan,nan,nan,nan,nan,nan,nan,nan,nan,nan,nan,nan,nan,nan,nan,nan,nan,nan,nan,nan,nan,nan,nan,nan,nan,nan,nan,nan,nan,nan,nan,nan,nan,nan,nan,nan,nan,nan,nan,nan,nan,nan,nan,nan,62.7026530275355,62.7026530275355,62.7026530275355,16.51131358718301,0.0,0.0,0.0,nan,nan,nan,nan,nan,nan,nan,nan,nan,Car,U6
16,,,9.975363240418314,8.49432614316,11.7522759144,0.5167247512036043,nan,nan,nan,nan,nan,nan,nan,nan,nan,nan,nan,nan,nan,nan,nan,nan,nan,nan,nan,nan,nan,nan,nan,nan,nan,nan,nan,nan,nan,nan,nan,nan,nan,nan,nan,nan,nan,nan,nan,nan,7.0,7.0,7.0,nan,62.7026530275355,62.7026530275355,62.7026530275355,16.51131358718301,0.0,0.0,0.0,nan,nan,nan,nan,nan,nan,nan,nan,nan,Car,U6
17,,,10.048489830990306,8.82508868555,12.117060002899999,0.47370795889578093,nan,nan,nan,nan,nan,nan,nan,nan,nan,nan,nan,nan,nan,nan,nan,nan,nan,nan,nan,nan,nan,nan,nan,nan,nan,nan,nan,nan,nan,nan,nan,nan,nan,nan,nan,nan,nan,nan,nan,nan,7.0,7.0,7.0,nan,62.7026530275355,62.7026530275355,62.7026530275355,16.51131358718301,0.0,0.0,0.0,nan,nan,nan,nan,nan,nan,nan,nan,nan,Car,U6
18,,,9.84478378372766,8.86095825144,10.8039666548,0.35634390234758345,nan,nan,nan,nan,nan,nan,nan,nan,nan,nan,nan,nan,nan,nan,nan,nan,nan,nan,nan,nan,nan,nan,nan,nan,nan,nan,nan,nan,nan,nan,nan,nan,nan,nan,nan,nan,nan,nan,nan,nan,15.0,15.0,15.0,nan,70.05127338214726,70.05127338214726,70.05127338214726,16.51131358718301,0.0,0.0,0.0,nan,nan,nan,nan,nan,nan,nan,nan,nan,Car,U6
19,,,9.703410609280313,8.227970776669999,11.7890062777,0.5484951206146491,nan,nan,nan,nan,nan,nan,nan,nan,nan,nan,nan,nan,nan,nan,nan,nan,nan,nan,nan,nan,nan,nan,nan,nan,nan,nan,nan,nan,nan,nan,nan,nan,nan,nan,nan,nan,nan,nan,nan,nan,19.0,19.0,19.0,nan,70.05127338214726,70.05127338214726,70.05127338214726,16.51131358718301,0.0,0.0,0.0,nan,nan,nan,nan,nan,nan,nan,nan,nan,Car,U6
20,,,9.870333029579479,4.47417296444,17.873725741199998,1.4560314032648805,nan,nan,nan,nan,nan,nan,nan,nan,nan,nan,nan,nan,nan,nan,nan,nan,nan,nan,nan,nan,nan,nan,nan,nan,nan,nan,nan,nan,nan,nan,nan,nan,nan,nan,nan,nan,nan,nan,nan,nan,19.0,19.0,19.0,nan,70.05127338214726,70.05127338214726,70.05127338214726,16.51131358718301,0.0,0.0,0.0,nan,nan,nan,nan,nan,nan,nan,nan,nan,Car,U6
21,,,10.160498968615626,8.79526291142,12.4214765593,0.5609415119949828,nan,nan,nan,nan,nan,nan,nan,nan,nan,nan,nan,nan,nan,nan,nan,nan,nan,nan,nan,nan,nan,nan,nan,nan,nan,nan,nan,nan,nan,nan,nan,nan,nan,nan,nan,nan,nan,nan,nan,nan,19.0,19.0,19.0,nan,70.05127338214726,70.05127338214726,70.05127338214726,16.51131358718301,0.0,0.0,0.0,nan,nan,nan,nan,nan,nan,nan,nan,nan,Car,U6
22,,,9.89974968207448,8.61482583541,11.9112305177,0.6219676264506648,nan,nan,nan,nan,nan,nan,nan,nan,nan,nan,nan,nan,nan,nan,nan,nan,nan,nan,nan,nan,nan,nan,nan,nan,nan,nan,nan,nan,nan,nan,nan,nan,nan,nan,nan,nan,nan,nan,nan,nan,19.0,19.0,19.0,nan,72.52680734750084,72.52680734750084,72.52680734750084,16.51131358718301,0.0,0.0,0.0,nan,nan,nan,nan,nan,nan,nan,nan,nan,Car,U6
23,,,10.100867654600105,7.76728621008,14.368038878599998,1.0252802427395933,nan,nan,nan,nan,nan,nan,nan,nan,nan,nan,nan,nan,nan,nan,nan,nan,nan,nan,nan,nan,nan,nan,nan,nan,nan,nan,nan,nan,nan,nan,nan,nan,nan,nan,nan,nan,nan,nan,nan,nan,19.0,19.0,19.0,nan,70.20285398805146,70.20285398805146,70.20285398805146,16.51131358718301,0.0,0.0,0.0,nan,nan,nan,nan,nan,nan,nan,nan,nan,Car,U6
24,,,10.133252249946715,6.46704694464,14.3048704554,1.1077239520173063,nan,nan,nan,nan,nan,nan,nan,nan,nan,nan,nan,nan,nan,nan,nan,nan,nan,nan,nan,nan,nan,nan,nan,nan,nan,nan,nan,nan,nan,nan,nan,nan,nan,nan,nan,nan,nan,nan,nan,nan,19.0,19.0,19.0,nan,70.20285398805146,70.20285398805146,70.20285398805146,16.51131358718301,0.0,0.0,0.0,nan,nan,nan,nan,nan,nan,nan,nan,nan,Car,U6
25,,,9.825626208503579,6.48983942328,12.3289102972,0.8625800178102927,nan,nan,nan,nan,nan,nan,nan,nan,nan,nan,nan,nan,nan,nan,nan,nan,nan,nan,nan,nan,nan,nan,nan,nan,nan,nan,nan,nan,nan,nan,nan,nan,nan,nan,nan,nan,nan,nan,nan,nan,19.0,19.0,19.0,nan,72.81995479511579,71.43417663617376,74.20573295405781,1.9597862668162291,0.0,0.0,0.0,nan,nan,nan,nan,nan,nan,nan,nan,nan,Car,U6
26,,,9.88641814794625,3.95551105036,18.4844011694,1.6597437986480963,nan,nan,nan,nan,nan,nan,nan,nan,nan,nan,nan,nan,nan,nan,nan,nan,nan,nan,nan,nan,nan,nan,nan,nan,nan,nan,nan,nan,nan,nan,nan,nan,nan,nan,nan,nan,nan,nan,nan,nan,19.0,19.0,19.0,nan,72.81995479511579,71.43417663617376,74.20573295405781,1.9597862668162291,0.0,0.0,0.0,nan,nan,nan,nan,nan,nan,nan,nan,nan,Car,U6
27,,,9.922646347363228,7.874307878560001,14.1126170125,0.7394773931057264,nan,nan,nan,nan,nan,nan,nan,nan,nan,nan,nan,nan,nan,nan,nan,nan,nan,nan,nan,nan,nan,nan,nan,nan,nan,nan,nan,nan,nan,nan,nan,nan,nan,nan,nan,nan,nan,nan,nan,nan,19.0,19.0,19.0,nan,72.81995479511579,71.43417663617376,74.20573295405781,1.9597862668162291,0.0,0.0,0.0,nan,nan,nan,nan,nan,nan,nan,nan,nan,Car,U6
28,,,9.80610714070684,7.57975694277,12.9679757532,0.9859430971782075,nan,nan,nan,nan,nan,nan,nan,nan,nan,nan,nan,nan,nan,nan,nan,nan,nan,nan,nan,nan,nan,nan,nan,nan,nan,nan,nan,nan,nan,nan,nan,nan,nan,nan,nan,nan,nan,nan,nan,nan,10.0,10.0,10.0,nan,81.2614105128592,81.2614105128592,81.2614105128592,1.9597862668162291,0.0,0.0,0.0,nan,nan,nan,nan,nan,nan,nan,nan,nan,Car,U6
29,,,9.885097910565937,7.436691036980001,12.4502423431,0.8595130965060949,nan,nan,nan,nan,nan,nan,nan,nan,nan,nan,nan,nan,nan,nan,nan,nan,nan,nan,nan,nan,nan,nan,nan,nan,nan,nan,nan,nan,nan,nan,nan,nan,nan,nan,nan,nan,nan,nan,nan,nan,10.0,10.0,10.0,nan,81.2614105128592,81.2614105128592,81.2614105128592,1.9597862668162291,0.0,0.0,0.0,nan,nan,nan,nan,nan,nan,nan,nan,nan,Car,U6
30,,,10.043512255481854,3.3255796686799997,19.157163144600002,1.5147760031632047,nan,nan,nan,nan,nan,nan,nan,nan,nan,nan,nan,nan,nan,nan,nan,nan,nan,nan,nan,nan,nan,nan,nan,nan,nan,nan,nan,nan,nan,nan,nan,nan,nan,nan,nan,nan,nan,nan,nan,nan,10.0,10.0,10.0,nan,81.2614105128592,81.2614105128592,81.2614105128592,1.9597862668162291,0.0,0.0,0.0,nan,nan,nan,nan,nan,nan,nan,nan,nan,Car,U6
31,,,10.12794082292,7.58587709555,12.010040468800002,0.7452270290594614,nan,nan,nan,nan,nan,nan,nan,nan,nan,nan,nan,nan,nan,nan,nan,nan,nan,nan,nan,nan,nan,nan,nan,nan,nan,nan,nan,nan,nan,nan,nan,nan,nan,nan,nan,nan,nan,nan,nan,nan,10.0,10.0,10.0,nan,81.2614105128592,81.2614105128592,81.2614105128592,1.9597862668162291,0.0,0.0,0.0,nan,nan,nan,nan,nan,nan,nan,nan,nan,Car,U6
32,,,10.050141422810947,8.23713364903,12.6323021445,0.8418950948072546,nan,nan,nan,nan,nan,nan,nan,nan,nan,nan,nan,nan,nan,nan,nan,nan,nan,nan,nan,nan,nan,nan,nan,nan,nan,nan,nan,nan,nan,nan,nan,nan,nan,nan,nan,nan,nan,nan,nan,nan,5.0,5.0,5.0,nan,77.18757008851202,77.18757008851202,77.18757008851202,1.9597862668162291,0.0,0.0,0.0,nan,nan,nan,nan,nan,nan,nan,nan,nan,Car,U6
33,,,10.03462309361573,8.55949056047,11.696782766199998,0.5881886995127656,nan,nan,nan,nan,nan,nan,nan,nan,nan,nan,nan,nan,nan,nan,nan,nan,nan,nan,nan,nan,nan,nan,nan,nan,nan,nan,nan,nan,nan,nan,nan,nan,nan,nan,nan,nan,nan,nan,nan,nan,5.0,5.0,5.0,nan,77.18757008851202,77.18757008851202,77.18757008851202,1.9597862668162291,0.0,0.0,0.0,nan,nan,nan,nan,nan,nan,nan,nan,nan,Car,U6
34,,,9.979491250414897,8.75924519126,11.2784171699,0.5466753531884538,nan,nan,nan,nan,nan,nan,nan,nan,nan,nan,nan,nan,nan,nan,nan,nan,nan,nan,nan,nan,nan,nan,nan,nan,nan,nan,nan,nan,nan,nan,nan,nan,nan,nan,nan,nan,nan,nan,nan,nan,5.0,5.0,5.0,nan,77.18757008851202,77.18757008851202,77.18757008851202,1.9597862668162291,6.75,6.75,6.75,nan,nan,nan,nan,nan,nan,nan,nan,nan,Car,U6
35,,,9.960655154299012,8.26725279356,11.6191138589,0.6889268208352292,nan,nan,nan,nan,nan,nan,nan,nan,nan,nan,nan,nan,nan,nan,nan,nan,nan,nan,nan,nan,nan,nan,nan,nan,nan,nan,nan,nan,nan,nan,nan,nan,nan,nan,nan,nan,nan,nan,nan,nan,5.0,5.0,5.0,nan,77.18757008851202,77.18757008851202,77.18757008851202,1.9597862668162291,6.75,6.75,6.75,nan,nan,nan,nan,nan,nan,nan,nan,nan,Car,U6
36,,,9.894104247134948,7.1031571662,11.2637177603,0.736028080949621,nan,nan,nan,nan,nan,nan,nan,nan,nan,nan,nan,nan,nan,nan,nan,nan,nan,nan,nan,nan,nan,nan,nan,nan,nan,nan,nan,nan,nan,nan,nan,nan,nan,nan,nan,nan,nan,nan,nan,nan,5.0,5.0,5.0,nan,77.18757008851202,77.18757008851202,77.18757008851202,1.9597862668162291,6.75,6.75,6.75,nan,nan,nan,nan,nan,nan,nan,nan,nan,Car,U6
37,,,10.054869406181053,7.265988489489999,13.3325727913,1.0373781512940052,nan,nan,nan,nan,nan,nan,nan,nan,nan,nan,nan,nan,nan,nan,nan,nan,nan,nan,nan,nan,nan,nan,nan,nan,nan,nan,nan,nan,nan,nan,nan,nan,nan,nan,nan,nan,nan,nan,nan,nan,5.0,5.0,5.0,nan,77.18757008851202,77.18757008851202,77.18757008851202,1.9597862668162291,6.75,6.75,6.75,nan,nan,nan,nan,nan,nan,nan,nan,nan,Car,U6
38,,,9.814366485050929,8.23245072185,12.450132464700001,0.7134285747527193,nan,nan,nan,nan,nan,nan,nan,nan,nan,nan,nan,nan,nan,nan,nan,nan,nan,nan,nan,nan,nan,nan,nan,nan,nan,nan,nan,nan,nan,nan,nan,nan,nan,nan,nan,nan,nan,nan,nan,nan,5.0,5.0,5.0,nan,77.18757008851202,77.18757008851202,77.18757008851202,1.9597862668162291,6.75,6.75,6.75,nan,nan,nan,nan,nan,nan,nan,nan,nan,Car,U6
39,,,9.794384794196874,7.85210014006,11.099771289500001,0.6122531186197913,nan,nan,nan,nan,nan,nan,nan,nan,nan,nan,nan,nan,nan,nan,nan,nan,nan,nan,nan,nan,nan,nan,nan,nan,nan,nan,nan,nan,nan,nan,nan,nan,nan,nan,nan,nan,nan,nan,nan,nan,5.0,5.0,5.0,nan,77.18757008851202,77.18757008851202,77.18757008851202,1.9597862668162291,6.75,6.75,6.75,nan,nan,nan,nan,nan,nan,nan,nan,nan,Car,U6
40,,,9.842933957269684,6.698796600720001,12.5462864317,0.8488530939631644,nan,nan,nan,nan,nan,nan,nan,nan,nan,nan,nan,nan,nan,nan,nan,nan,nan,nan,nan,nan,nan,nan,nan,nan,nan,nan,nan,nan,nan,nan,nan,nan,nan,nan,nan,nan,nan,nan,nan,nan,5.0,5.0,5.0,nan,68.73597020463608,68.73597020463608,68.73597020463608,1.9597862668162291,5.75,5.75,5.75,nan,nan,nan,nan,nan,nan,nan,nan,nan,Car,U6
41,,,9.817310096630928,6.456401511669999,12.1121921714,0.8411309232573855,nan,nan,nan,nan,nan,nan,nan,nan,nan,nan,nan,nan,nan,nan,nan,nan,nan,nan,nan,nan,nan,nan,nan,nan,nan,nan,nan,nan,nan,nan,nan,nan,nan,nan,nan,nan,nan,nan,nan,nan,5.0,5.0,5.0,nan,68.73597020463608,68.73597020463608,68.73597020463608,1.9597862668162291,5.75,5.75,5.75,nan,nan,nan,nan,nan,nan,nan,nan,nan,Car,U6
42,,,10.172521805197396,6.85386979851,14.104335186199998,1.0440409983719077,nan,nan,nan,nan,nan,nan,nan,nan,nan,nan,nan,nan,nan,nan,nan,nan,nan,nan,nan,nan,nan,nan,nan,nan,nan,nan,nan,nan,nan,nan,nan,nan,nan,nan,nan,nan,nan,nan,nan,nan,5.0,5.0,5.0,nan,68.73597020463608,68.73597020463608,68.73597020463608,1.9597862668162291,5.75,5.75,5.75,nan,nan,nan,nan,nan,nan,nan,nan,nan,Car,U6
43,,,10.09500329494448,8.08214971611,12.3517203785,0.7028612127916193,nan,nan,nan,nan,nan,nan,nan,nan,nan,nan,nan,nan,nan,nan,nan,nan,nan,nan,nan,nan,nan,nan,nan,nan,nan,nan,nan,nan,nan,nan,nan,nan,nan,nan,nan,nan,nan,nan,nan,nan,5.0,5.0,5.0,nan,71.08736001980175,71.08736001980175,71.08736001980175,1.9597862668162291,5.75,5.75,5.75,nan,nan,nan,nan,nan,nan,nan,nan,nan,Car,U6
44,,,10.042825016525052,8.601513257210001,12.1667817281,0.6293426425636203,nan,nan,nan,nan,nan,nan,nan,nan,nan,nan,nan,nan,nan,nan,nan,nan,nan,nan,nan,nan,nan,nan,nan,nan,nan,nan,nan,nan,nan,nan,nan,nan,nan,nan,nan,nan,nan,nan,nan,nan,5.0,5.0,5.0,nan,71.08736001980175,71.08736001980175,71.08736001980175,1.9597862668162291,9.0,9.0,9.0,nan,nan,nan,nan,nan,nan,nan,nan,nan,Car,U6
45,,,9.698148121799688,7.85406144828,11.9771741912,0.7101010909738686,nan,nan,nan,nan,nan,nan,nan,nan,nan,nan,nan,nan,nan,nan,nan,nan,nan,nan,nan,nan,nan,nan,nan,nan,nan,nan,nan,nan,nan,nan,nan,nan,nan,nan,nan,nan,nan,nan,nan,nan,12.0,12.0,12.0,nan,71.08736001980175,71.08736001980175,71.08736001980175,1.9597862668162291,9.0,9.0,9.0,nan,nan,nan,nan,nan,nan,nan,nan,nan,Car,U6
46,,,9.747676249964844,8.93093666713,10.772677191400001,0.4144089129176216,nan,nan,nan,nan,nan,nan,nan,nan,nan,nan,nan,nan,nan,nan,nan,nan,nan,nan,nan,nan,nan,nan,nan,nan,nan,nan,nan,nan,nan,nan,nan,nan,nan,nan,nan,nan,nan,nan,nan,nan,12.0,12.0,12.0,nan,73.22678680012079,73.22678680012079,73.22678680012079,1.9597862668162291,6.75,6.75,6.75,nan,nan,nan,nan,nan,nan,nan,nan,nan,Car,U6
47,,,9.643162511131806,8.011827608310002,10.7035376634,0.4790024692606913,nan,nan,nan,nan,nan,nan,nan,nan,nan,nan,nan,nan,nan,nan,nan,nan,nan,nan,nan,nan,nan,nan,nan,nan,nan,nan,nan,nan,nan,nan,nan,nan,nan,nan,nan,nan,nan,nan,nan,nan,12.0,12.0,12.0,nan,68.94316062684439,68.94316062684439,68.94316062684439,1.9597862668162291,6.75,6.75,6.75,nan,nan,nan,nan,nan,nan,nan,nan,nan,Car,U6
48,,,9.768593205520515,5.4875938081,13.5425431944,1.0629570286756718,nan,nan,nan,nan,nan,nan,nan,nan,nan,nan,nan,nan,nan,nan,nan,nan,nan,nan,nan,nan,nan,nan,nan,nan,nan,nan,nan,nan,nan,nan,nan,nan,nan,nan,nan,nan,nan,nan,nan,nan,12.0,12.0,12.0,nan,68.94316062684439,68.94316062684439,68.94316062684439,1.9597862668162291,6.75,6.75,6.75,nan,nan,nan,nan,nan,nan,nan,nan,nan,Car,U6
49,,,9.80340989235179,8.17002665121,11.2098927284,0.6130238880918675,nan,nan,nan,nan,nan,nan,nan,nan,nan,nan,nan,nan,nan,nan,nan,nan,nan,nan,nan,nan,nan,nan,nan,nan,nan,nan,nan,nan,nan,nan,nan,nan,nan,nan,nan,nan,nan,nan,nan,nan,12.0,12.0,12.0,nan,68.28609376256664,68.28609376256664,68.28609376256664,1.9597862668162291,6.75,6.75,6.75,nan,nan,nan,nan,nan,nan,nan,nan,nan,Car,U6
50,,,9.701478677482106,7.88551007222,11.623311667000001,0.7143547631409857,nan,nan,nan,nan,nan,nan,nan,nan,nan,nan,nan,nan,nan,nan,nan,nan,nan,nan,nan,nan,nan,nan,nan,nan,nan,nan,nan,nan,nan,nan,nan,nan,nan,nan,nan,nan,nan,nan,nan,nan,43.0,43.0,43.0,nan,69.44049395400563,69.44049395400563,69.44049395400563,1.9597862668162291,6.75,6.75,6.75,nan,nan,nan,nan,nan,nan,nan,nan,nan,Car,U6
51,,,9.774438404903002,8.37031500856,10.8847686708,0.41741958058360207,nan,nan,nan,nan,nan,nan,nan,nan,nan,nan,nan,nan,nan,nan,nan,nan,nan,nan,nan,nan,nan,nan,nan,nan,nan,nan,nan,nan,nan,nan,nan,nan,nan,nan,nan,nan,nan,nan,nan,nan,43.0,43.0,43.0,nan,69.44049395400563,69.44049395400563,69.44049395400563,1.9597862668162291,9.0,9.0,9.0,nan,nan,nan,nan,nan,nan,nan,nan,nan,Car,U6
52,,,10.064976398720587,8.83384002907,11.733203140599999,0.5287663359539646,nan,nan,nan,nan,nan,nan,nan,nan,nan,nan,nan,nan,nan,nan,nan,nan,nan,nan,nan,nan,nan,nan,nan,nan,nan,nan,nan,nan,nan,nan,nan,nan,nan,nan,nan,nan,nan,nan,nan,nan,43.0,43.0,43.0,nan,68.72068530570644,64.1956602969703,73.24571031444259,6.399351737432087,9.0,9.0,9.0,nan,nan,nan,nan,nan,nan,nan,nan,nan,Car,U6
53,,,9.883142255538617,8.224392109730001,12.3519943814,0.6207764914788503,nan,nan,nan,nan,nan,nan,nan,nan,nan,nan,nan,nan,nan,nan,nan,nan,nan,nan,nan,nan,nan,nan,nan,nan,nan,nan,nan,nan,nan,nan,nan,nan,nan,nan,nan,nan,nan,nan,nan,nan,43.0,43.0,43.0,nan,70.15396434137492,68.38258615483953,71.9253425279103,2.505107055490202,9.0,9.0,9.0,nan,nan,nan,nan,nan,nan,nan,nan,nan,Car,U6
54,,,9.760732731738843,7.918305492589999,11.949023148399998,0.7248252215747548,nan,nan,nan,nan,nan,nan,nan,nan,nan,nan,nan,nan,nan,nan,nan,nan,nan,nan,nan,nan,nan,nan,nan,nan,nan,nan,nan,nan,nan,nan,nan,nan,nan,nan,nan,nan,nan,nan,nan,nan,43.0,43.0,43.0,nan,65.04249105011289,65.04249105011289,65.04249105011289,2.505107055490202,9.0,9.0,9.0,nan,nan,nan,nan,nan,nan,nan,nan,nan,Car,U6
55,,,9.736581992188126,8.756056170519999,12.003273728,0.546811351099446,nan,nan,nan,nan,nan,nan,nan,nan,nan,nan,nan,nan,nan,nan,nan,nan,nan,nan,nan,nan,nan,nan,nan,nan,nan,nan,nan,nan,nan,nan,nan,nan,nan,nan,nan,nan,nan,nan,nan,nan,43.0,43.0,43.0,nan,64.79099441680945,64.79099441680945,64.79099441680945,2.505107055490202,9.0,9.0,9.0,nan,nan,nan,nan,nan,nan,nan,nan,nan,Car,U6
56,,,9.728646164838063,8.654217268510001,10.9556245848,0.3738381162698617,nan,nan,nan,nan,nan,nan,nan,nan,nan,nan,nan,nan,nan,nan,nan,nan,nan,nan,nan,nan,nan,nan,nan,nan,nan,nan,nan,nan,nan,nan,nan,nan,nan,nan,nan,nan,nan,nan,nan,nan,43.0,43.0,43.0,nan,64.79099441680945,64.79099441680945,64.79099441680945,2.505107055490202,7.875,7.5,8.25,0.5303300858899106,nan,nan,nan,nan,nan,nan,nan,nan,Car,U6
57,,,9.881865415097979,8.13188200713,12.078225313399999,0.6870078381809351,nan,nan,nan,nan,nan,nan,nan,nan,nan,nan,nan,nan,nan,nan,nan,nan,nan,nan,nan,nan,nan,nan,nan,nan,nan,nan,nan,nan,nan,nan,nan,nan,nan,nan,nan,nan,nan,nan,nan,nan,43.0,43.0,43.0,nan,63.62012290782973,61.08459819726795,65.10062326691103,2.2061100667607283,7.875,7.5,8.25,0.5303300858899106,nan,nan,nan,nan,nan,nan,nan,nan,Car,U6
58,,,9.810792214451595,7.7998489631800005,11.192554633699999,0.5510222470309261,nan,nan,nan,nan,nan,nan,nan,nan,nan,nan,nan,nan,nan,nan,nan,nan,nan,nan,nan,nan,nan,nan,nan,nan,nan,nan,nan,nan,nan,nan,nan,nan,nan,nan,nan,nan,nan,nan,nan,nan,2.0,2.0,2.0,nan,63.62012290782973,61.08459819726795,65.10062326691103,2.2061100667607283,5.25,5.25,5.25,0.5303300858899106,nan,nan,nan,nan,nan,nan,nan,nan,Car,U6
59,,,9.921334203337187,8.32537983272,11.8655123707,0.6242970994488894,nan,nan,nan,nan,nan,nan,nan,nan,nan,nan,nan,nan,nan,nan,nan,nan,nan,nan,nan,nan,nan,nan,nan,nan,nan,nan,nan,nan,nan,nan,nan,nan,nan,nan,nan,nan,nan,nan,nan,nan,2.0,2.0,2.0,nan,63.62012290782973,61.08459819726795,65.10062326691103,2.2061100667607283,5.25,5.25,5.25,0.5303300858899106,nan,nan,nan,nan,nan,nan,nan,nan,Car,U6
60,,,9.969838367349256,7.69546959089,12.4705107291,0.8806348763702366,nan,nan,nan,nan,nan,nan,nan,nan,nan,nan,nan,nan,nan,nan,nan,nan,nan,nan,nan,nan,nan,nan,nan,nan,nan,nan,nan,nan,nan,nan,nan,nan,nan,nan,nan,nan,nan,nan,nan,nan,15.0,15.0,15.0,nan,65.54301227927594,65.54301227927594,65.54301227927594,2.2061100667607283,5.5,5.5,5.5,0.5303300858899106,nan,nan,nan,nan,nan,nan,nan,nan,Car,U6
61,,,9.900958431940001,7.90761884452,11.424496154000002,0.6248437515952922,nan,nan,nan,nan,nan,nan,nan,nan,nan,nan,nan,nan,nan,nan,nan,nan,nan,nan,nan,nan,nan,nan,nan,nan,nan,nan,nan,nan,nan,nan,nan,nan,nan,nan,nan,nan,nan,nan,nan,nan,12.0,12.0,12.0,nan,65.54301227927594,65.54301227927594,65.54301227927594,2.2061100667607283,5.5,5.5,5.5,0.5303300858899106,nan,nan,nan,nan,nan,nan,nan,nan,Car,U6
62,,,9.832029457670517,8.049726129369999,12.3323468705,0.826689914626273,nan,nan,nan,nan,nan,nan,nan,nan,nan,nan,nan,nan,nan,nan,nan,nan,nan,nan,nan,nan,nan,nan,nan,nan,nan,nan,nan,nan,nan,nan,nan,nan,nan,nan,nan,nan,nan,nan,nan,nan,12.0,12.0,12.0,nan,65.54301227927594,65.54301227927594,65.54301227927594,2.2061100667607283,5.5,5.5,5.5,0.5303300858899106,nan,nan,nan,nan,nan,nan,nan,nan,Car,U6
63,,,9.90621706304969,6.03597946136,16.7790077405,1.1890827845727405,nan,nan,nan,nan,nan,nan,nan,nan,nan,nan,nan,nan,nan,nan,nan,nan,nan,nan,nan,nan,nan,nan,nan,nan,nan,nan,nan,nan,nan,nan,nan,nan,nan,nan,nan,nan,nan,nan,nan,nan,12.0,12.0,12.0,nan,65.54301227927594,65.54301227927594,65.54301227927594,2.2061100667607283,5.5,5.5,5.5,0.5303300858899106,nan,nan,nan,nan,nan,nan,nan,nan,Car,U6
64,,,9.72307963849863,7.67910010417,11.2321006885,0.5496365176397018,nan,nan,nan,nan,nan,nan,nan,nan,nan,nan,nan,nan,nan,nan,nan,nan,nan,nan,nan,nan,nan,nan,nan,nan,nan,nan,nan,nan,nan,nan,nan,nan,nan,nan,nan,nan,nan,nan,nan,nan,12.0,12.0,12.0,nan,73.9323691846445,73.9323691846445,73.9323691846445,2.2061100667607283,5.5,5.5,5.5,0.5303300858899106,nan,nan,nan,nan,nan,nan,nan,nan,Car,U6
65,,,9.870123622747577,8.448469712489999,11.71531992,0.542248146497595,nan,nan,nan,nan,nan,nan,nan,nan,nan,nan,nan,nan,nan,nan,nan,nan,nan,nan,nan,nan,nan,nan,nan,nan,nan,nan,nan,nan,nan,nan,nan,nan,nan,nan,nan,nan,nan,nan,nan,nan,12.0,12.0,12.0,nan,65.98142520054819,65.98142520054819,65.98142520054819,2.2061100667607283,5.5,5.5,5.5,0.5303300858899106,100.0,100.0,100.0,nan,nan,nan,nan,nan,Car,U6
66,,,9.780909873308957,8.80885673829,11.798866843199999,0.42416909902908684,nan,nan,nan,nan,nan,nan,nan,nan,nan,nan,nan,nan,nan,nan,nan,nan,nan,nan,nan,nan,nan,nan,nan,nan,nan,nan,nan,nan,nan,nan,nan,nan,nan,nan,nan,nan,nan,nan,nan,nan,12.0,12.0,12.0,nan,65.98142520054819,65.98142520054819,65.98142520054819,2.2061100667607283,5.5,5.5,5.5,0.5303300858899106,100.0,100.0,100.0,nan,nan,nan,nan,nan,Car,U6
67,,,9.83393829821948,7.5350729343,11.581166879400001,0.7292098424852238,nan,nan,nan,nan,nan,nan,nan,nan,nan,nan,nan,nan,nan,nan,nan,nan,nan,nan,nan,nan,nan,nan,nan,nan,nan,nan,nan,nan,nan,nan,nan,nan,nan,nan,nan,nan,nan,nan,nan,nan,12.0,12.0,12.0,nan,65.98142520054819,65.98142520054819,65.98142520054819,2.2061100667607283,5.5,5.5,5.5,0.5303300858899106,100.0,100.0,100.0,nan,nan,nan,nan,nan,Car,U6
68,,,9.95218885301937,8.2116132188,12.1547338558,0.6630591945500464,nan,nan,nan,nan,nan,nan,nan,nan,nan,nan,nan,nan,nan,nan,nan,nan,nan,nan,nan,nan,nan,nan,nan,nan,nan,nan,nan,nan,nan,nan,nan,nan,nan,nan,nan,nan,nan,nan,nan,nan,2.5,2.0,3.0,0.7071067811865476,65.98142520054819,65.98142520054819,65.98142520054819,2.2061100667607283,5.5,5.5,5.5,0.5303300858899106,100.0,100.0,100.0,nan,nan,nan,nan,nan,Car,U6
69,,,9.910269222966146,7.18125746173,12.7593474005,1.0379047577696778,nan,nan,nan,nan,nan,nan,nan,nan,nan,nan,nan,nan,nan,nan,nan,nan,nan,nan,nan,nan,nan,nan,nan,nan,nan,nan,nan,nan,nan,nan,nan,nan,nan,nan,nan,nan,nan,nan,nan,nan,8.0,8.0,8.0,0.7071067811865476,65.98142520054819,65.98142520054819,65.98142520054819,2.2061100667607283,5.5,5.5,5.5,0.5303300858899106,100.0,100.0,100.0,nan,nan,nan,nan,nan,Car,U6
70,,,10.092595935310843,6.29962464663,16.231975864200002,1.1320524576165694,nan,nan,nan,nan,nan,nan,nan,nan,nan,nan,nan,nan,nan,nan,nan,nan,nan,nan,nan,nan,nan,nan,nan,nan,nan,nan,nan,nan,nan,nan,nan,nan,nan,nan,nan,nan,nan,nan,nan,nan,2.0,2.0,2.0,0.7071067811865476,65.98142520054819,65.98142520054819,65.98142520054819,2.2061100667607283,5.5,5.5,5.5,0.5303300858899106,100.0,100.0,100.0,nan,nan,nan,nan,nan,Car,U6
71,,,10.082026605870212,7.57820153755,12.6722613174,0.9095199990530655,nan,nan,nan,nan,nan,nan,nan,nan,nan,nan,nan,nan,nan,nan,nan,nan,nan,nan,nan,nan,nan,nan,nan,nan,nan,nan,nan,nan,nan,nan,nan,nan,nan,nan,nan,nan,nan,nan,nan,nan,7.0,7.0,7.0,0.7071067811865476,65.98142520054819,65.98142520054819,65.98142520054819,2.2061100667607283,5.5,5.5,5.5,0.5303300858899106,100.0,100.0,100.0,nan,nan,nan,nan,nan,Car,U6
72,,,10.03291677628677,7.873894106869999,14.4474281298,0.8945617117740954,nan,nan,nan,nan,nan,nan,nan,nan,nan,nan,nan,nan,nan,nan,nan,nan,nan,nan,nan,nan,nan,nan,nan,nan,nan,nan,nan,nan,nan,nan,nan,nan,nan,nan,nan,nan,nan,nan,nan,nan,7.0,7.0,7.0,0.7071067811865476,65.98142520054819,65.98142520054819,65.98142520054819,2.2061100667607283,5.5,5.5,5.5,0.5303300858899106,100.0,100.0,100.0,nan,nan,nan,nan,nan,Car,U6
73,,,9.971128042001054,6.7460021357,14.1839777765,1.02118304255768,nan,nan,nan,nan,nan,nan,nan,nan,nan,nan,nan,nan,nan,nan,nan,nan,nan,nan,nan,nan,nan,nan,nan,nan,nan,nan,nan,nan,nan,nan,nan,nan,nan,nan,nan,nan,nan,nan,nan,nan,12.0,12.0,12.0,0.7071067811865476,65.98142520054819,65.98142520054819,65.98142520054819,2.2061100667607283,5.5,5.5,5.5,0.5303300858899106,100.0,100.0,100.0,nan,nan,nan,nan,nan,Car,U6
74,,,10.025657508324375,8.45219811621,11.7877106522,0.6294783639147404,nan,nan,nan,nan,nan,nan,nan,nan,nan,nan,nan,nan,nan,nan,nan,nan,nan,nan,nan,nan,nan,nan,nan,nan,nan,nan,nan,nan,nan,nan,nan,nan,nan,nan,nan,nan,nan,nan,nan,nan,13.0,13.0,13.0,0.7071067811865476,65.98142520054819,65.98142520054819,65.98142520054819,2.2061100667607283,5.5,5.5,5.5,0.5303300858899106,100.0,100.0,100.0,nan,nan,nan,nan,nan,Car,U6
75,,,10.041742786496819,8.07969831195,12.8664494955,0.9230601835992113,nan,nan,nan,nan,nan,nan,nan,nan,nan,nan,nan,nan,nan,nan,nan,nan,nan,nan,nan,nan,nan,nan,nan,nan,nan,nan,nan,nan,nan,nan,nan,nan,nan,nan,nan,nan,nan,nan,nan,nan,13.0,13.0,13.0,0.7071067811865476,65.98142520054819,65.98142520054819,65.98142520054819,2.2061100667607283,5.5,5.5,5.5,0.5303300858899106,100.0,100.0,100.0,nan,nan,nan,nan,nan,Car,U6
76,,,10.2740170533517,7.67787005652,13.5191200365,0.9560961156915394,nan,nan,nan,nan,nan,nan,nan,nan,nan,nan,nan,nan,nan,nan,nan,nan,nan,nan,nan,nan,nan,nan,nan,nan,nan,nan,nan,nan,nan,nan,nan,nan,nan,nan,nan,nan,nan,nan,nan,nan,3.0,3.0,3.0,0.7071067811865476,65.98142520054819,65.98142520054819,65.98142520054819,2.2061100667607283,6.0,5.5,6.5,0.7071067811865476,100.0,100.0,100.0,nan,nan,nan,nan,nan,Car,U6
77,,,10.052635397775367,8.39603068193,12.568079944900001,0.843316037803577,nan,nan,nan,nan,nan,nan,nan,nan,nan,nan,nan,nan,nan,nan,nan,nan,nan,nan,nan,nan,nan,nan,nan,nan,nan,nan,nan,nan,nan,nan,nan,nan,nan,nan,nan,nan,nan,nan,nan,nan,3.0,3.0,3.0,0.7071067811865476,76.37770829188021,76.37770829188021,76.37770829188021,2.2061100667607283,6.0,5.5,6.5,0.7071067811865476,100.0,100.0,100.0,nan,nan,nan,nan,nan,Car,U6
78,,,10.084124380618,7.3338209800600005,13.7951329851,0.947734917867218,nan,nan,nan,nan,nan,nan,nan,nan,nan,nan,nan,nan,nan,nan,nan,nan,nan,nan,nan,nan,nan,nan,nan,nan,nan,nan,nan,nan,nan,nan,nan,nan,nan,nan,nan,nan,nan,nan,nan,nan,17.0,17.0,17.0,0.7071067811865476,76.37770829188021,76.37770829188021,76.37770829188021,2.2061100667607283,6.0,5.5,6.5,0.7071067811865476,100.0,100.0,100.0,nan,nan,nan,nan,nan,Car,U6
79,,,10.15780789176146,8.55554646732,11.4847043795,0.5448573846324459,nan,nan,nan,nan,nan,nan,nan,nan,nan,nan,nan,nan,nan,nan,nan,nan,nan,nan,nan,nan,nan,nan,nan,nan,nan,nan,nan,nan,nan,nan,nan,nan,nan,nan,nan,nan,nan,nan,nan,nan,17.0,17.0,17.0,0.7071067811865476,71.71372556904994,71.71372556904994,71.71372556904994,2.2061100667607283,6.0,5.5,6.5,0.7071067811865476,100.0,100.0,100.0,nan,nan,nan,nan,nan,Car,U6
80,,,10.223913444651876,6.761422057459999,12.5862164254,0.9720440773634285,nan,nan,nan,nan,nan,nan,nan,nan,nan,nan,nan,nan,nan,nan,nan,nan,nan,nan,nan,nan,nan,nan,nan,nan,nan,nan,nan,nan,nan,nan,nan,nan,nan,nan,nan,nan,nan,nan,nan,nan,17.0,17.0,17.0,0.7071067811865476,71.71372556904994,71.71372556904994,71.71372556904994,2.2061100667607283,6.0,5.5,6.5,0.7071067811865476,100.0,100.0,100.0,nan,nan,nan,nan,nan,Car,U6
81,,,10.27820708652927,7.431805623310001,14.0829377111,1.1677623883772683,nan,nan,nan,nan,nan,nan,nan,nan,nan,nan,nan,nan,nan,nan,nan,nan,nan,nan,nan,nan,nan,nan,nan,nan,nan,nan,nan,nan,nan,nan,nan,nan,nan,nan,nan,nan,nan,nan,nan,nan,17.0,17.0,17.0,0.7071067811865476,75.6780715854547,75.6780715854547,75.6780715854547,2.2061100667607283,6.0,5.5,6.5,0.7071067811865476,100.0,100.0,100.0,nan,nan,nan,nan,nan,Car,U6
82,,,10.097598235601563,8.48650454295,11.9725787744,0.6879954367440531,nan,nan,nan,nan,nan,nan,nan,nan,nan,nan,nan,nan,nan,nan,nan,nan,nan,nan,nan,nan,nan,nan,nan,nan,nan,nan,nan,nan,nan,nan,nan,nan,nan,nan,nan,nan,nan,nan,nan,nan,17.0,17.0,17.0,0.7071067811865476,75.6780715854547,75.6780715854547,75.6780715854547,2.2061100667607283,10.0,10.0,10.0,0.7071067811865476,100.0,100.0,100.0,nan,nan,nan,nan,nan,Car,U6
83,,,9.84437261267552,7.868505342969999,13.4108426892,0.6621450845412217,nan,nan,nan,nan,nan,nan,nan,nan,nan,nan,nan,nan,nan,nan,nan,nan,nan,nan,nan,nan,nan,nan,nan,nan,nan,nan,nan,nan,nan,nan,nan,nan,nan,nan,nan,nan,nan,nan,nan,nan,17.0,17.0,17.0,0.7071067811865476,75.6780715854547,75.6780715854547,75.6780715854547,2.2061100667607283,10.0,10.0,10.0,0.7071067811865476,100.0,100.0,100.0,nan,nan,nan,nan,nan,Car,U6
84,,,9.933247419635155,8.41727239296,10.9181358827,0.345234095505156,nan,nan,nan,nan,nan,nan,nan,nan,nan,nan,nan,nan,nan,nan,nan,nan,nan,nan,nan,nan,nan,nan,nan,nan,nan,nan,nan,nan,nan,nan,nan,nan,nan,nan,nan,nan,nan,nan,nan,nan,17.0,17.0,17.0,0.7071067811865476,75.6780715854547,75.6780715854547,75.6780715854547,2.2061100667607283,10.0,10.0,10.0,0.7071067811865476,100.0,100.0,100.0,nan,nan,nan,nan,nan,Car,U6
85,,,10.1749860004775,8.762135088880001,11.8201541704,0.45050632917745986,nan,nan,nan,nan,nan,nan,nan,nan,nan,nan,nan,nan,nan,nan,nan,nan,nan,nan,nan,nan,nan,nan,nan,nan,nan,nan,nan,nan,nan,nan,nan,nan,nan,nan,nan,nan,nan,nan,nan,nan,8.5,5.0,12.0,4.949747468305833,71.53462897514632,70.69574717258983,72.3735107777028,1.1863580224033714,10.0,10.0,10.0,0.7071067811865476,100.0,100.0,100.0,nan,nan,nan,nan,nan,Car,U6
86,,,10.362285545443685,8.2866664784,17.6120819568,1.1830694179690502,nan,nan,nan,nan,nan,nan,nan,nan,nan,nan,nan,nan,nan,nan,nan,nan,nan,nan,nan,nan,nan,nan,nan,nan,nan,nan,nan,nan,nan,nan,nan,nan,nan,nan,nan,nan,nan,nan,nan,nan,19.0,5.0,33.0,19.79898987322333,71.53462897514632,70.69574717258983,72.3735107777028,1.1863580224033714,10.0,10.0,10.0,0.7071067811865476,100.0,100.0,100.0,nan,nan,nan,nan,nan,Car,U6
87,,,10.26394048857587,9.005081123910001,11.3663226787,0.39840894060652476,nan,nan,nan,nan,nan,nan,nan,nan,nan,nan,nan,nan,nan,nan,nan,nan,nan,nan,nan,nan,nan,nan,nan,nan,nan,nan,nan,nan,nan,nan,nan,nan,nan,nan,nan,nan,nan,nan,nan,nan,5.666666666666667,2.0,12.0,5.507570547286102,75.56736686711747,75.56736686711747,75.56736686711747,1.1863580224033714,10.0,10.0,10.0,0.7071067811865476,100.0,100.0,100.0,nan,nan,nan,nan,nan,Car,U6
88,,,10.013754479730435,8.18604684274,11.7024112444,0.5885772846421436,nan,nan,nan,nan,nan,nan,nan,nan,nan,nan,nan,nan,nan,nan,nan,nan,nan,nan,nan,nan,nan,nan,nan,nan,nan,nan,nan,nan,nan,nan,nan,nan,nan,nan,nan,nan,nan,nan,nan,nan,21.0,21.0,21.0,5.507570547286102,75.56736686711747,75.56736686711747,75.56736686711747,1.1863580224033714,10.0,10.0,10.0,0.7071067811865476,100.0,100.0,100.0,nan,nan,nan,nan,nan,Car,U6
89,,,9.857486026606281,7.14254538536,14.4326546271,1.187365289836653,nan,nan,nan,nan,nan,nan,nan,nan,nan,nan,nan,nan,nan,nan,nan,nan,nan,nan,nan,nan,nan,nan,nan,nan,nan,nan,nan,nan,nan,nan,nan,nan,nan,nan,nan,nan,nan,nan,nan,nan,21.0,21.0,21.0,5.507570547286102,75.56736686711747,75.56736686711747,75.56736686711747,1.1863580224033714,10.0,10.0,10.0,0.7071067811865476,100.0,100.0,100.0,nan,nan,nan,nan,nan,Car,U6
90,,,9.915507080510825,7.5751152248,12.2340882648,0.6076549039053011,nan,nan,nan,nan,nan,nan,nan,nan,nan,nan,nan,nan,nan,nan,nan,nan,nan,nan,nan,nan,nan,nan,nan,nan,nan,nan,nan,nan,nan,nan,nan,nan,nan,nan,nan,nan,nan,nan,nan,nan,21.0,21.0,21.0,5.507570547286102,75.56736686711747,75.56736686711747,75.56736686711747,1.1863580224033714,10.0,10.0,10.0,0.7071067811865476,100.0,100.0,100.0,nan,nan,nan,nan,nan,Car,U6
91,,,10.10324640874021,7.25509958893,13.0574935927,1.0501241874385456,nan,nan,nan,nan,nan,nan,nan,nan,nan,nan,nan,nan,nan,nan,nan,nan,nan,nan,nan,nan,nan,nan,nan,nan,nan,nan,nan,nan,nan,nan,nan,nan,nan,nan,nan,nan,nan,nan,nan,nan,21.0,21.0,21.0,5.507570547286102,75.56736686711747,75.56736686711747,75.56736686711747,1.1863580224033714,10.0,10.0,10.0,0.7071067811865476,100.0,100.0,100.0,nan,nan,nan,nan,nan,Car,U6
92,,,10.148332192765105,3.76325863594,18.8594098001,2.0723393495742366,nan,nan,nan,nan,nan,nan,nan,nan,nan,nan,nan,nan,nan,nan,nan,nan,nan,nan,nan,nan,nan,nan,nan,nan,nan,nan,nan,nan,nan,nan,nan,nan,nan,nan,nan,nan,nan,nan,nan,nan,21.0,21.0,21.0,5.507570547286102,67.20808109459878,67.20808109459878,67.20808109459878,1.1863580224033714,10.0,10.0,10.0,0.7071067811865476,100.0,100.0,100.0,nan,nan,nan,nan,nan,Car,U6
93,,,9.882449739440721,8.76521696365,11.111729372100001,0.4221224361893216,nan,nan,nan,nan,nan,nan,nan,nan,nan,nan,nan,nan,nan,nan,nan,nan,nan,nan,nan,nan,nan,nan,nan,nan,nan,nan,nan,nan,nan,nan,nan,nan,nan,nan,nan,nan,nan,nan,nan,nan,21.0,21.0,21.0,5.507570547286102,67.20808109459878,67.20808109459878,67.20808109459878,1.1863580224033714,10.0,10.0,10.0,0.7071067811865476,100.0,100.0,100.0,nan,nan,nan,nan,nan,Car,U6
94,,,9.917456886403402,7.36691135475,11.5336758326,0.5991287162914971,nan,nan,nan,nan,nan,nan,nan,nan,nan,nan,nan,nan,nan,nan,nan,nan,nan,nan,nan,nan,nan,nan,nan,nan,nan,nan,nan,nan,nan,nan,nan,nan,nan,nan,nan,nan,nan,nan,nan,nan,21.0,21.0,21.0,5.507570547286102,67.20808109459878,67.20808109459878,67.20808109459878,1.1863580224033714,10.0,10.0,10.0,0.7071067811865476,100.0,100.0,100.0,nan,nan,nan,nan,nan,Car,U6
95,,,9.902166779624316,8.55258136233,10.9883750696,0.38784489779608566,nan,nan,nan,nan,nan,nan,nan,nan,nan,nan,nan,nan,nan,nan,nan,nan,nan,nan,nan,nan,nan,nan,nan,nan,nan,nan,nan,nan,nan,nan,nan,nan,nan,nan,nan,nan,nan,nan,nan,nan,21.0,21.0,21.0,5.507570547286102,72.98085268172353,72.98085268172353,72.98085268172353,1.1863580224033714,10.0,10.0,10.0,0.7071067811865476,100.0,100.0,100.0,nan,nan,nan,nan,nan,Car,U6
96,,,10.01093685773771,8.49318619681,12.7272375707,0.7994181048105305,nan,nan,nan,nan,nan,nan,nan,nan,nan,nan,nan,nan,nan,nan,nan,nan,nan,nan,nan,nan,nan,nan,nan,nan,nan,nan,nan,nan,nan,nan,nan,nan,nan,nan,nan,nan,nan,nan,nan,nan,21.0,21.0,21.0,5.507570547286102,71.49219882680373,71.49219882680373,71.49219882680373,1.1863580224033714,10.0,10.0,10.0,0.7071067811865476,100.0,100.0,100.0,nan,nan,nan,nan,nan,Car,U6
97,,,9.938596346155789,6.37601059508,14.0809807907,1.1535636720251194,nan,nan,nan,nan,nan,nan,nan,nan,nan,nan,nan,nan,nan,nan,nan,nan,nan,nan,nan,nan,nan,nan,nan,nan,nan,nan,nan,nan,nan,nan,nan,nan,nan,nan,nan,nan,nan,nan,nan,nan,21.0,21.0,21.0,5.507570547286102,66.56351322876645,66.56351322876645,66.56351322876645,1.1863580224033714,10.0,10.0,10.0,0.7071067811865476,100.0,100.0,100.0,nan,nan,nan,nan,nan,Car,U6
98,,,9.98618344457698,7.91349134416,12.7619309296,0.6951197891079575,nan,nan,nan,nan,nan,nan,nan,nan,nan,nan,nan,nan,nan,nan,nan,nan,nan,nan,nan,nan,nan,nan,nan,nan,nan,nan,nan,nan,nan,nan,nan,nan,nan,nan,nan,nan,nan,nan,nan,nan,21.0,21.0,21.0,5.507570547286102,66.56351322876645,66.56351322876645,66.56351322876645,1.1863580224033714,6.0,6.0,6.0,0.7071067811865476,100.0,100.0,100.0,nan,nan,nan,nan,nan,Car,U6
99,,,9.985678421864895,7.000416580539999,14.4075540496,0.6913659516864457,nan,nan,nan,nan,nan,nan,nan,nan,nan,nan,nan,nan,nan,nan,nan,nan,nan,nan,nan,nan,nan,nan,nan,nan,nan,nan,nan,nan,nan,nan,nan,nan,nan,nan,nan,nan,nan,nan,nan,nan,21.0,21.0,21.0,5.507570547286102,66.56351322876645,66.56351322876645,66.56351322876645,1.1863580224033714,6.0,6.0,6.0,0.7071067811865476,100.0,100.0,100.0,nan,nan,nan,nan,nan,Car,U6
100,,,9.954692521994893,9.23305978288,10.7819446724,0.3160576233646793,nan,nan,nan,nan,nan,nan,nan,nan,nan,nan,nan,nan,nan,nan,nan,nan,nan,nan,nan,nan,nan,nan,nan,nan,nan,nan,nan,nan,nan,nan,nan,nan,nan,nan,nan,nan,nan,nan,nan,nan,21.0,21.0,21.0,5.507570547286102,71.14512439573531,69.79635816602901,72.49389062544162,1.9074434945214842,7.5,7.5,7.5,0.7071067811865476,100.0,100.0,100.0,nan,nan,nan,nan,nan,Car,U6
101,,,9.877627586683221,9.19669177581,10.558297275900001,0.31889816790679404,nan,nan,nan,nan,nan,nan,nan,nan,nan,nan,nan,nan,nan,nan,nan,nan,nan,nan,nan,nan,nan,nan,nan,nan,nan,nan,nan,nan,nan,nan,nan,nan,nan,nan,nan,nan,nan,nan,nan,nan,21.0,21.0,21.0,5.507570547286102,74.37501469479331,74.37501469479331,74.37501469479331,1.9074434945214842,10.75,10.75,10.75,0.7071067811865476,100.0,100.0,100.0,nan,nan,nan,nan,nan,Car,U6
