time,activityrecognition#0,activityrecognition#1,android.sensor.accelerometer#mean,android.sensor.accelerometer#min,android.sensor.accelerometer#max,android.sensor.accelerometer#std,android.sensor.gravity#mean,android.sensor.gravity#min,android.sensor.gravity#max,android.sensor.gravity#std,android.sensor.linear_acceleration#mean,android.sensor.linear_acceleration#min,android.sensor.linear_acceleration#max,android.sensor.linear_acceleration#std,android.sensor.orientation#mean,android.sensor.orientation#min,android.sensor.orientation#max,android.sensor.orientation#std,android.sensor.gyroscope_uncalibrated#mean,android.sensor.gyroscope_uncalibrated#min,android.sensor.gyroscope_uncalibrated#max,android.sensor.gyroscope_uncalibrated#std,android.sensor.magnetic_field_uncalibrated#mean,android.sensor.magnetic_field_uncalibrated#min,android.sensor.magnetic_field_uncalibrated#max,android.sensor.magnetic_field_uncalibrated#std,android.sensor.rotation_vector#mean,android.sensor.rotation_vector#min,android.sensor.rotation_vector#max,android.sensor.rotation_vector#std,android.sensor.gyroscope#mean,android.sensor.gyroscope#min,android.sensor.gyroscope#max,android.sensor.gyroscope#std,android.sensor.game_rotation_vector#mean,android.sensor.game_rotation_vector#min,android.sensor.game_rotation_vector#max,android.sensor.game_rotation_vector#std,android.sensor.magnetic_field#mean,android.sensor.magnetic_field#min,android.sensor.magnetic_field#max,android.sensor.magnetic_field#std,android.sensor.pressure#mean,android.sensor.pressure#min,android.sensor.pressure#max,android.sensor.pressure#std,android.sensor.light#mean,android.sensor.light#min,android.sensor.light#max,android.sensor.light#std,sound#mean,sound#min,sound#max,sound#std,speed#mean,speed#min,speed#max,speed#std,android.sensor.proximity#mean,android.sensor.proximity#min,android.sensor.proximity#max,android.sensor.proximity#std,android.sensor.step_counter#mean,android.sensor.step_counter#min,android.sensor.step_counter#max,android.sensor.step_counter#std,target,user
1,,,9.732038511333334,9.71844334261,9.74602470201,0.013794836722991562,9.80665019646375,9.80664934981,9.80665077965,4.926260929084054e-07,0.0525080283158875,0.019232625592,0.0775839945165,0.020057455463514968,300.35850791083334,300.23624716,300.507531503,0.1081183330168259,0.04154941779743,0.0344591265518,0.0448134701235,0.0028016372301960285,439.86799147899995,439.59167732599997,440.14430563199994,0.3907672226482161,nan,nan,nan,nan,0.007666288974655999,0.00420417716651,0.015387185223100001,0.0045884522323381225,0.8699320284960975,0.8376116276279999,0.929138292817,0.034465312553158524,44.962226460574996,44.027416306400006,45.7223844982,0.731272239465578,1014.8922,1014.8922,1014.8922,0.021213203435577133,nan,nan,nan,nan,nan,nan,nan,nan,nan,nan,nan,nan,nan,nan,nan,nan,nan,nan,nan,nan,Still,U15
2,,,9.705524663519999,9.68891287207,9.72905911264,0.017669274910119114,9.806650435373333,9.80665000526,9.806650874119999,3.109107995828231e-07,0.060685005365199995,0.041626498168300004,0.0953882416533,0.03010231597218916,300.00267890400005,299.94134010700003,300.064017701,0.08674615861703677,0.0379472890378,0.0379472890378,0.0379472890378,0.0028016372301960285,439.905070445,439.905070445,439.905070445,0.3907672226482161,nan,nan,nan,nan,0.02034888627949182,0.00112574294745,0.0663693443081,0.019318612830130113,0.8433020008935,0.811891918723,0.9294584532089999,0.040388303618302764,45.449970199650004,45.278056004700005,45.6218843946,0.24312338606274012,1014.9122,1014.9122,1014.9122,0.021213203435577133,nan,nan,nan,nan,nan,nan,nan,nan,nan,nan,nan,nan,nan,nan,nan,nan,nan,nan,nan,nan,Still,U15
3,,,9.727866143521666,9.70580836849,9.75420044639,0.014495918724973494,9.806650239375456,9.806649425489999,9.80665074911,3.8334905144744727e-07,0.0381871193968,0.0113132890594,0.0569125136034,0.02176631036224966,299.5256484562,298.792932323,299.987420236,0.5119740021733368,0.044773904477524995,0.036918402513800005,0.0629029684924,0.01215390831741476,439.102080615,438.51100478,439.69315645,0.835907462247999,nan,nan,nan,nan,0.021071359897175717,0.00495243500623,0.030325924655800002,0.008816942245964006,0.8055289406845555,0.781556949435,0.9303440295550001,0.03480164110270987,45.449970199650004,45.278056004700005,45.6218843946,0.24312338606274012,1014.9222,1014.9222,1014.9222,0.021213203435577133,nan,nan,nan,nan,nan,nan,nan,nan,nan,nan,nan,nan,nan,nan,nan,nan,nan,nan,nan,nan,Still,U15
4,,,9.731378214054999,9.71937143628,9.7430726096,0.010530033205086189,9.806650180952502,9.80664908538,9.80665094185,8.180829043078199e-07,0.03988813015933334,0.0157464692395,0.0568565841555,0.01498426832703613,298.7539516291818,297.812928808,299.279755099,0.5373928143668648,0.038093237552133334,0.0241163552913,0.04715526621169999,0.007910070250921317,438.57840814800005,438.57840814800005,438.57840814800005,0.835907462247999,nan,nan,nan,nan,0.022205105214791663,0.00411087756933,0.07069843146539999,0.025536770705596314,0.7903286611531192,0.7542201502320001,0.932445649243,0.05888192769815708,44.57813821155,44.254473487700004,44.9018029354,0.45773104213040927,1014.9055333333332,1014.9022,1014.9122,0.005773502691891007,nan,nan,nan,nan,nan,nan,nan,nan,nan,nan,nan,nan,nan,nan,nan,nan,nan,nan,nan,nan,Still,U15
5,,,9.733520488959998,9.722499355439998,9.753818521869999,0.017600232759445045,9.806650085084444,9.80664947148,9.806650846719998,4.755128932966194e-07,0.0432506395455,0.021899265607500003,0.07520821587830001,0.018222555310238194,297.91871892883336,297.683979121,298.073427826,0.14283555580642968,0.04451403207074286,0.035003971280400004,0.06381880487380001,0.011236214160681693,439.5530608126667,439.224736726,439.83636928699997,0.30829109853213854,nan,nan,nan,nan,0.016662969206263333,0.00406428379064,0.038689413860300004,0.010179528342708239,0.7727950368713696,0.724997535408,0.932592948336,0.07432325041446962,44.57813821155,44.254473487700004,44.9018029354,0.45773104213040927,1014.9022,1014.9022,1014.9022,0.005773502691891007,nan,nan,nan,nan,nan,nan,nan,nan,nan,nan,nan,nan,nan,nan,nan,nan,nan,nan,nan,nan,Still,U15
6,,,9.751403132723999,9.72294485932,9.797543136489999,0.029252064531215156,9.80664990072,9.8066493325,9.80665037115,3.781439665493321e-07,0.06343196843451666,0.0310096735134,0.0981108867392,0.024563305886622994,296.5866848288,296.371243835,296.849794663,0.19611554545850188,0.036506638856474996,0.025459489430200002,0.0426178029925,0.007630046247225596,439.73875816575,438.873276626,440.44028509699996,0.6937025887879141,nan,nan,nan,nan,0.020598679726576665,0.00492180514143,0.0459323846089,0.022145150385711312,0.7495238671627447,0.699757397599,0.932791132986,0.08404906861139785,44.890167671866664,44.6346457722,45.2901461437,0.3508147091995513,1014.8872,1014.8822,1014.8922,0.007071067811859044,nan,nan,nan,nan,nan,nan,nan,nan,nan,nan,nan,nan,nan,nan,nan,nan,nan,nan,nan,nan,Still,U15
7,,,9.742514388335,9.71099708043,9.80026407005,0.03417399141089088,9.806650126892858,9.80664968902,9.80665071647,3.428156679296754e-07,0.05058984156691428,0.0268234874395,0.09012113976439999,0.022270317868350514,297.06087260642863,296.64244934,297.372254839,0.23155920150909856,0.04377323093088333,0.0336437537535,0.059829688159600006,0.009434253260620532,439.5067082442,438.57011052300004,440.516200444,0.7719435936653756,nan,nan,nan,nan,0.008185150531112857,0.0028812052981,0.015527885036799999,0.0051248444303011636,0.7137589842553674,0.6734209501299999,0.933563642612,0.08303584136330519,44.890167671866664,44.6346457722,45.2901461437,0.3508147091995513,1014.8872,1014.8822,1014.8922,0.007071067811859044,nan,nan,nan,nan,nan,nan,nan,nan,nan,nan,nan,nan,nan,nan,nan,nan,nan,nan,nan,nan,Still,U15
8,,,9.716049268325715,9.68165647219,9.750556756919998,0.021294770795315696,9.806650261360002,9.80664993508,9.80665057276,2.3823402584704838e-07,0.05239693895785714,0.020779446085400003,0.0832691280268,0.020892598688441275,297.1821491462,296.645025325,297.702214377,0.38797616102157,0.04050800446275556,0.0322741098158,0.0479403130115,0.0046045719197073025,439.175521419,439.175521419,439.175521419,0.7719435936653756,nan,nan,nan,nan,0.05735304699571667,0.0403695630544,0.0824551625471,0.018118800648834487,0.6584617462369111,0.646244057684,0.672743432957,0.008516880671110894,44.60759710525,43.6612868604,45.553907350100005,1.3382847824794797,1014.9095,1014.9095,1014.9095,0.007071067811859044,nan,nan,nan,nan,nan,nan,nan,nan,nan,nan,nan,nan,nan,nan,nan,nan,nan,nan,nan,nan,Still,U15
9,,,9.736066254528334,9.67743810101,9.77538814115,0.03305073120152681,9.806650014554998,9.806649636869999,9.80665076518,4.009227192329453e-07,0.0526467178344,0.0206016513943,0.0829423252708,0.029072291113919575,297.0550634336667,296.919129215,297.291018001,0.14207795760333636,0.045118954284849994,0.0412231146122,0.0514340006932,0.004626446006430044,439.64765893599997,439.37627668,439.917544995,0.29308506352439345,nan,nan,nan,nan,0.01461459305259,0.00302066214256,0.023179250603200002,0.009201099263636848,0.6634998547810962,0.625079952312,0.9349014055239999,0.08935596867891138,44.66664143403333,43.456979378,45.6593974029,1.1171156954803598,1014.9095,1014.9095,1014.9095,0.007071067811859044,nan,nan,nan,nan,nan,nan,nan,nan,nan,nan,nan,nan,nan,nan,nan,nan,nan,nan,nan,nan,Still,U15
10,,,9.727793924473334,9.69065784288,9.75548373114,0.02314504930358733,9.80665008302875,9.80664959248,9.8066505924,3.487211567021261e-07,0.03641007928395,0.035186189759900004,0.037633968808,0.0017308411637578576,297.12437525775,296.88061738700003,297.368589418,0.17552603582232157,0.04265724588962,0.0381466218779,0.0476961236783,0.0035289196624329966,440.39110195650005,440.37214074900004,440.410063164,0.02681519680544826,nan,nan,nan,nan,0.00997011723321,0.0061307109857700005,0.0151915099046,0.004039379484649218,0.6401250306539574,0.601758181677,0.9344568080700001,0.09089777244135953,44.311661312216664,42.8989427583,45.0894352032,0.8781288567705638,1014.9095,1014.9095,1014.9095,0.007071067811859044,nan,nan,nan,nan,76.53574477632584,76.53574477632584,76.53574477632584,nan,nan,nan,nan,nan,nan,nan,nan,nan,nan,nan,nan,nan,Still,U15
11,,,10.222715724194,9.51309872305,13.0091243161,1.089985002994785,9.806650303388333,9.80665015099,9.806650571639999,1.4777755785004258e-07,0.043385468668,0.043385468668,0.043385468668,0.0017308411637578576,296.645531924,296.533482995,296.77324026,0.11450764122644759,0.0399892778128625,0.0372742889409,0.044303144366,0.0022785962250923687,439.99122919999996,439.99122919999996,439.99122919999996,0.02681519680544826,nan,nan,nan,nan,0.0048263064352580005,0.00119963581823,0.008667892161139999,0.0029245829955419074,0.618953188409981,0.5844174058070001,0.93454609296,0.0911400664733703,44.311661312216664,42.8989427583,45.0894352032,0.8781288567705638,1014.9095,1014.9095,1014.9095,0.007071067811859044,nan,nan,nan,nan,74.90461969056281,74.90461969056281,74.90461969056281,nan,nan,nan,nan,nan,nan,nan,nan,nan,nan,nan,nan,nan,Still,U15
12,,,7.958647865972,4.53267065345,9.758092731669999,2.505847694435379,9.806650192048462,9.806649231089999,9.80665070883,4.3618651656247795e-07,0.046805882948697995,0.008720751575790001,0.0774766619379,0.026781382303380185,296.54332075,296.54332075,296.54332075,0.11450764122644759,0.03800583501144,0.0361536476591,0.0404910362038,0.0021338057003911794,439.15348311800005,439.15348311800005,439.15348311800005,0.02681519680544826,nan,nan,nan,nan,0.009742008005604999,0.00242398729731,0.0170600287139,0.010349244135397952,0.6354379246973519,0.567016737639,0.934672968002,0.13508219265105806,44.6209977176,44.541539490299996,44.7004559449,0.11237090268978657,1014.9122,1014.9122,1014.9122,0.007071067811859044,nan,nan,nan,nan,74.90461969056281,74.90461969056281,74.90461969056281,nan,nan,nan,nan,nan,nan,nan,nan,nan,nan,nan,nan,nan,Still,U15
13,,,9.722247606625713,9.67318599659,9.76848800845,0.032284798814936795,9.806650109471251,9.80664946784,9.80665090156,4.439894778803919e-07,0.05325153025186,0.0311008992227,0.08252937901389999,0.02117457673335613,296.88421028700003,296.16599709900004,297.309753276,0.6255289219080055,0.0498424111538,0.0380304529233,0.100705527667,0.022534878357406488,439.96410287300006,439.96410287300006,439.96410287300006,0.02681519680544826,nan,nan,nan,nan,0.033940075750994995,0.00505381598218,0.0941323521012,0.0407761214381613,0.6315055879443061,0.5570325666089999,0.9352425456219999,0.1453551367053582,44.018654489024996,43.76859430060001,44.222493098,0.2080132539663604,1014.9122,1014.9122,1014.9122,0.007071067811859044,nan,nan,nan,nan,74.90461969056281,74.90461969056281,74.90461969056281,nan,nan,nan,nan,nan,nan,nan,nan,nan,nan,nan,nan,nan,Still,U15
14,,,9.7171482243175,9.66427521642,9.738885138039999,0.02424799835246286,9.806650052745,9.80664951154,9.80665077202,4.796077761088911e-07,0.029609074505233337,0.0123409131986,0.0587131686644,0.01658438013650289,296.89276549554546,296.652053384,297.753154212,0.3145970084293585,0.043803218116475,0.0364827567383,0.0588379471827,0.01016843827744946,439.74463571399997,439.610794549,439.878476879,0.18927999074682492,nan,nan,nan,nan,0.014740613220925,0.00688932216135,0.0225919042805,0.011103402298589594,0.5848909760107174,0.545528763602,0.935893166217,0.1094740895453646,44.68233466296667,44.5006065571,44.964331788900004,0.24758974118658408,1014.9022,1014.9022,1014.9022,0.007071067811859044,nan,nan,nan,nan,74.90461969056281,74.90461969056281,74.90461969056281,nan,nan,nan,nan,nan,nan,nan,nan,nan,nan,nan,nan,nan,Still,U15
15,,,9.741408661818333,9.71622330809,9.76709143715,0.01734481405721828,9.806650135998,9.80664954158,9.806650607969999,3.591672675591666e-07,0.03622808807361601,0.00675728390698,0.0762958024603,0.02553803746557542,296.95228543083334,296.909945726,297.053613801,0.05426466692745869,0.04089327734947999,0.0386584756652,0.0441753543681,0.0022049557022108795,439.51739489449994,438.80974802199995,440.225041767,1.0007638044604343,nan,nan,nan,nan,0.0074591372259075,0.0016429967770999999,0.016770054793100002,0.006371212910781709,0.5963139615724773,0.5396270175060001,0.936734469494,0.13672263934005535,44.806267544099995,44.806267544099995,44.806267544099995,0.24758974118658408,1014.8922,1014.8922,1014.8922,0.007071067811859044,nan,nan,nan,nan,74.90461969056281,74.90461969056281,74.90461969056281,nan,nan,nan,nan,nan,nan,nan,nan,nan,nan,nan,nan,nan,Still,U15
16,,,9.743259883615716,9.707792995,9.797456850549999,0.029825648592945297,9.806649995213332,9.806649482000001,9.806650480770001,3.400965559915466e-07,0.05007260856375,0.0411624057639,0.06797306035140001,0.012130580977967292,296.79743648820005,296.12994124799997,297.62771124200003,0.5759182396405969,0.03924900912335454,0.0332913794003,0.0455970097168,0.004224357435015389,440.21063866049997,440.05674018699995,440.364537134,0.21764530845224647,nan,nan,nan,nan,0.007709066811888,0.0017372920082,0.015302755297700001,0.0053610855326121365,0.6247383692044047,0.538088887525,0.937133765703,0.16480911731098188,45.1827703763,44.7805122405,45.5850285121,0.5688789112232787,1014.9022,1014.9022,1014.9022,0.007071067811859044,nan,nan,nan,nan,74.90461969056281,74.90461969056281,74.90461969056281,nan,nan,nan,nan,nan,nan,nan,nan,nan,nan,nan,nan,nan,Still,U15
17,,,9.736633225624,9.72045676691,9.74655579151,0.011381352897083932,9.806650390646,9.80664968393,9.80665063498,3.9777261723479786e-07,0.0337009950322,0.0257287263659,0.0483560595368,0.012708023912828765,296.38900621966667,296.162800397,296.477289293,0.10174404858910777,0.0434127952966875,0.0397213841235,0.049166803145099996,0.0036646018377368404,440.107424404,440.107424404,440.107424404,0.21764530845224647,nan,nan,nan,nan,0.025619208958830002,0.00156586701959,0.0643434109895,0.03386267279158913,0.5921460304752777,0.5441429204029999,0.9361402262459999,0.12269705637925783,45.683113436999996,45.683113436999996,45.683113436999996,0.5688789112232787,1014.9122,1014.9122,1014.9122,0.007071067811859044,nan,nan,nan,nan,77.66186717151379,77.66186717151379,77.66186717151379,nan,nan,nan,nan,nan,nan,nan,nan,nan,nan,nan,nan,nan,Still,U15
18,,,9.754430083716667,9.68401847041,9.80329940452,0.042854921368572156,9.80665022018,9.8066495373,9.80665085116,4.6570816926974054e-07,0.0411407434926,0.0411407434926,0.0411407434926,0.012708023912828765,296.15195319966665,295.87136916,296.284510443,0.14728357626164007,0.03973820010146666,0.03720074297959999,0.041462937137,0.002244317315552981,440.107424404,440.107424404,440.107424404,0.21764530845224647,nan,nan,nan,nan,0.013575528214329231,0.0024185541424699996,0.047522334508100006,0.01137815769449136,0.6132571299919779,0.561111540876,0.9348585993549999,0.12722275003111896,43.536676039700005,43.536676039700005,43.536676039700005,0.5688789112232787,1014.8922,1014.8922,1014.8922,0.007071067811859044,nan,nan,nan,nan,74.78036491766962,74.78036491766962,74.78036491766962,nan,nan,nan,nan,nan,nan,nan,nan,nan,nan,nan,nan,nan,Still,U15
19,,,9.717598918748891,9.67446094349,9.766065524730001,0.029328479944564917,9.806650236604998,9.80664946081,9.80665062388,5.289894463608566e-07,0.052836898115314286,0.0243201774988,0.07257718568739999,0.018114654301832477,296.4749901392857,296.208269165,296.679111328,0.16303893031692393,0.04170501419619999,0.0286251345694,0.0699821641888,0.010689735580010736,440.107424404,440.107424404,440.107424404,0.21764530845224647,nan,nan,nan,nan,0.0313825690984275,0.007318144635710001,0.0509683608414,0.018166518478787426,0.6247729681038838,0.567136087636,0.9354005277200002,0.1264812346698753,44.68208854705,44.5705153162,44.7936617779,0.1577883762658522,1014.8921999999999,1014.8822,1014.9022,0.009999999999990905,nan,nan,nan,nan,81.78184511685437,81.78184511685437,81.78184511685437,nan,nan,nan,nan,nan,nan,nan,nan,nan,nan,nan,nan,nan,Still,U15
20,,,9.754055625358749,9.716938919419999,9.791079676499999,0.024449429501506765,9.806650115266363,9.80664984928,9.80665055173,2.1738572507960248e-07,0.0686763806619,0.038191749307699994,0.161626092558,0.04371008933496313,296.96319786299995,296.57261376099996,297.880385365,0.6206998908883143,0.042607602397871425,0.03201640476959999,0.0531439677257,0.008937702673192507,439.40909068199994,439.40909068199994,439.40909068199994,0.21764530845224647,nan,nan,nan,nan,0.019288185257902858,0.00390976506301,0.08110592026880001,0.027649196992581827,0.6403645337804615,0.580264244138,0.935887677961,0.12750182606954136,44.55230310976666,43.8705553191,44.964232708500006,0.5946712962173581,1014.8722,1014.8722,1014.8722,0.009999999999990905,nan,nan,nan,nan,81.78184511685437,81.78184511685437,81.78184511685437,nan,nan,nan,nan,nan,nan,nan,nan,nan,nan,nan,nan,nan,Still,U15
21,,,9.716798190757501,9.68844226619,9.73914255396,0.021126224733556378,9.806650033441251,9.80664937912,9.806650742,4.909776572556219e-07,0.07062409609366667,0.038783815559099995,0.105957807849,0.033722979647586845,297.3128049023333,297.201099274,297.492502362,0.15714994995234738,0.04038885106283333,0.026059107874799998,0.060208661899199996,0.011169672740577103,439.042748839,439.042748839,439.042748839,0.21764530845224647,nan,nan,nan,nan,0.022398115063066663,0.0101105224001,0.07144479619189999,0.02413246534655185,0.6377184162898947,0.592894425246,0.937165067439,0.10371551200819697,44.444546966400004,44.0288331993,44.860260733500006,0.5879080474980323,1014.8722,1014.8722,1014.8722,0.009999999999990905,nan,nan,nan,nan,72.24931927906285,72.24931927906285,72.24931927906285,nan,nan,nan,nan,nan,nan,nan,nan,nan,nan,nan,nan,nan,Still,U15
22,,,9.736705883921251,9.71725217349,9.76024636832,0.012839557807527156,9.806650052955,9.80664950583,9.8066505435,3.4609959366879494e-07,0.07070715317699999,0.0443813672884,0.10080760725299999,0.01892782195087056,297.85637410699997,297.755712493,297.989906697,0.10278160340601653,0.04768088020198333,0.038856376025400007,0.0580242393154,0.007527313948380947,439.2235165015,438.85616521,439.59086779300003,0.519513178594613,nan,nan,nan,nan,0.012819250516252498,0.0020235018406,0.026279418117499998,0.011318392534317545,0.6367757015857178,0.6101766432460001,0.937505754204,0.07110664987222269,44.444546966400004,44.0288331993,44.860260733500006,0.5879080474980323,1014.8972,1014.8972,1014.8972,0.009999999999990905,nan,nan,nan,nan,72.24931927906285,72.24931927906285,72.24931927906285,nan,nan,nan,nan,nan,nan,nan,nan,nan,nan,nan,nan,nan,Still,U15
23,,,9.751097073261999,9.732344411939998,9.76486101589,0.014444396836022238,9.8066501366,9.80664952862,9.806650519989999,4.4895530105236127e-07,0.05048174020678,0.0400839458759,0.0727536423083,0.013159748165370702,297.62907098985715,297.255931095,297.92021866700003,0.23465441491913475,0.0393431494988,0.0348621923982,0.0447080566759,0.002856953806178184,440.32647453699997,439.99122919999996,440.661719874,0.4741085023077839,nan,nan,nan,nan,0.0066488713408100015,0.00432604836647,0.010967185320700002,0.003743349205742506,0.669209558541383,0.6335412189940001,0.938253392095,0.08314896067193812,45.62636735665,44.5436871258,46.7090475875,1.5311410661813065,1014.9022,1014.9022,1014.9022,0.0,nan,nan,nan,nan,72.24931927906285,72.24931927906285,72.24931927906285,nan,nan,nan,nan,nan,nan,nan,nan,nan,nan,nan,nan,nan,Still,U15
24,,,9.72833053131875,9.69902787658,9.75179435648,0.019263793842221474,9.80665046867,9.806649924810001,9.80665095587,2.9939763072414766e-07,0.05982366033347143,0.0272723742639,0.143903420385,0.041159354065263255,297.472672702,297.370428192,297.536786914,0.06581061694209116,0.044324728267428566,0.0357618955652,0.0605133436272,0.008590465604212881,439.72603322699996,439.72603322699996,439.72603322699996,0.4741085023077839,0.906142518726,0.906142518726,0.906142518726,nan,0.004884689058263333,0.0029560728514,0.00791966426997,0.0026603256620804684,0.69671579046025,0.657287877046,0.9387896825409999,0.08369730023316453,44.4791053467,43.713716221400006,45.09245132109999,0.7018300781441931,1014.9022,1014.9022,1014.9022,0.0,nan,nan,nan,nan,72.24931927906285,72.24931927906285,72.24931927906285,nan,nan,nan,nan,nan,nan,nan,nan,nan,nan,nan,nan,nan,Still,U15
25,,,9.740341810775002,9.7147795897,9.76897238063,0.021419072834264058,9.806650057665,9.80664977429,9.806650371489999,2.398396987930141e-07,0.04245236220362499,0.023381218380999998,0.059525080054299996,0.017201414503409368,297.448506815,297.17677267,297.630579148,0.14548645311012257,0.0439441980282,0.0375531753901,0.061592589021399996,0.008128117093812129,439.3069568585,439.066856961,439.54705675599996,0.3395525313688729,0.906142518726,0.906142518726,0.906142518726,nan,0.012548961471094999,0.00311738962475,0.0216005072724,0.0066696882848700815,0.7084410240407297,0.682639931535,0.9390179017270001,0.05645099699888972,44.16224153916667,43.7343682201,44.4292690447,0.37433316818823315,1014.9022,1014.9022,1014.9022,0.0,nan,nan,nan,nan,72.24931927906285,72.24931927906285,72.24931927906285,nan,nan,nan,nan,nan,nan,nan,nan,nan,nan,nan,nan,nan,Still,U15
26,,,9.726140829983748,9.70775740671,9.749131066310001,0.015077271328791112,9.80665004841,9.8066495411,9.80665030374,3.1108635186392756e-07,0.038830741578974995,0.015452874121799999,0.0519216051279,0.016120807661841503,297.711358989,297.657649951,297.768229122,0.04380130861589243,0.040786189388699996,0.0371339266793,0.046800387105499996,0.003067637212772966,438.89432666375,438.42237818300003,439.18426884400003,0.3284774524248764,0.905755130488,0.905755130488,0.905755130488,nan,0.005471511392295,0.00291718357956,0.00979413409718,0.002454153492414989,0.7367208902238604,0.7096112602519999,0.9393347752940001,0.05668194551146555,44.5765885932,44.5765885932,44.5765885932,0.37433316818823315,1014.9022,1014.9022,1014.9022,0.0,nan,nan,nan,nan,72.24931927906285,72.24931927906285,72.24931927906285,nan,nan,nan,nan,nan,nan,nan,nan,nan,nan,nan,nan,nan,Still,U15
27,,,9.742044801848001,9.72165136854,9.784690448680001,0.02558575977209064,9.80665068061,9.80665059649,9.80665073468,7.383339987823639e-08,0.03845847383481111,0.0221669319813,0.0806680068632,0.020186671160733503,297.1860186424,296.398369078,297.972930362,0.7348709291352856,0.044977451873179995,0.036829985028,0.062079425036,0.009865477482518219,439.37394996300003,439.37394996300003,439.37394996300003,0.3284774524248764,0.905755130488,0.905755130488,0.905755130488,nan,0.011125021380850001,0.006874622274689999,0.018234993691900004,0.006196561858791871,0.7773400336983335,0.735208186242,0.939650997762,0.06868520626057177,44.5765885932,44.5765885932,44.5765885932,0.37433316818823315,1014.9022,1014.9022,1014.9022,0.0,nan,nan,nan,nan,72.24931927906285,72.24931927906285,72.24931927906285,nan,nan,nan,nan,nan,nan,nan,nan,nan,nan,nan,nan,nan,Still,U15
28,,,9.71194747927,9.68829781556,9.76769908535,0.02867777886575079,9.806649927551666,9.806649619249999,9.80665033127,2.887965376165932e-07,0.0327600576448,0.018539204169,0.0640230398979,0.01932105726667647,296.45129498325,296.268146202,296.648980052,0.20834071341614638,0.050063592971800006,0.0359741384107,0.10863785617499999,0.021204040644760173,438.937574039,438.937574039,438.937574039,0.3284774524248764,0.905755130488,0.905755130488,0.905755130488,nan,0.028156264230151995,0.006350351679649999,0.05183614861219999,0.020316655752432213,0.7899969759437826,0.7630254515889999,0.939556638773,0.04732129825448202,45.453317121975,44.5499518169,47.312086346899996,1.260635028281973,1014.9022,1014.9022,1014.9022,0.0,nan,nan,nan,nan,72.24931927906285,72.24931927906285,72.24931927906285,nan,nan,nan,nan,nan,nan,nan,nan,nan,nan,nan,nan,nan,Still,U15
29,,,9.729593704375999,9.687741210539999,9.75824077419,0.036269159161479186,9.806650270028001,9.80664954821,9.80665069361,3.6455818731097355e-07,0.03980751458783333,0.026466857488,0.056328253475800005,0.015182570030118832,296.59354668528573,295.89525260799996,296.90278751200003,0.3327327452638577,0.0442882697953,0.036236349167400005,0.0668988107568,0.010603918659679074,439.868595028,439.868595028,439.868595028,0.3284774524248764,0.905755130488,0.905755130488,0.905755130488,nan,0.011603697132994284,0.0040049889059,0.0236872689744,0.008878852720271092,0.8161431414430197,0.7920619389650001,0.9428543903059999,0.04262984141974918,45.453317121975,44.5499518169,47.312086346899996,1.260635028281973,1014.9022,1014.9022,1014.9022,0.0,nan,nan,nan,nan,72.24931927906285,72.24931927906285,72.24931927906285,nan,nan,nan,nan,nan,nan,nan,nan,nan,nan,nan,nan,nan,Still,U15
30,,,9.736772428193749,9.6964135589,9.758527821,0.022827759854740143,9.806649855586667,9.806649364330001,9.806650348180002,3.5347193837963936e-07,0.031914115581608754,0.007132724094069999,0.0561004477116,0.01608403103895149,296.64508432966664,296.493995505,296.76511387700003,0.1382020330542975,0.041294226691333334,0.0382833836203,0.046356818418399996,0.0044104809001336695,439.658999215,439.658999215,439.658999215,0.3284774524248764,0.9055279851970001,0.9055279851970001,0.9055279851970001,nan,0.011042146524785556,0.00369823438776,0.0310028446555,0.00927386955316348,0.8359010570679557,0.816492670026,0.9428657621100001,0.029776108364127123,44.2690144246,44.2684894525,44.2695393967,0.0007424226636862579,1014.8972,1014.8922,1014.9022,0.007071067811859044,nan,nan,nan,nan,72.24931927906285,72.24931927906285,72.24931927906285,nan,nan,nan,nan,nan,nan,nan,nan,nan,nan,nan,nan,nan,Still,U15
31,,,9.739223812577501,9.71127789222,9.76721491888,0.01741598977008256,9.806650135505,9.80664985001,9.80665056791,3.033912229826429e-07,0.044140514246466665,0.0191919570026,0.07281929069029999,0.018055090114829093,296.15171804333335,295.768547183,296.69952928099997,0.48683853286838885,0.03988471617040001,0.036342971527300004,0.0452914886187,0.004756861998145028,439.569772783,439.569772783,439.569772783,0.3284774524248764,0.9055279851970001,0.9055279851970001,0.9055279851970001,nan,0.009271141908561667,0.0030613177104099995,0.014099732523700002,0.004684042787901224,0.8645493508942291,0.8410094367380001,0.942896203345,0.030593946002150884,44.2690144246,44.2684894525,44.2695393967,0.0007424226636862579,1014.8972,1014.8922,1014.9022,0.007071067811859044,nan,nan,nan,nan,72.24931927906285,72.24931927906285,72.24931927906285,nan,nan,nan,nan,nan,nan,nan,nan,nan,nan,nan,nan,nan,Still,U15
32,,,9.744032574769001,9.72187884366,9.7998039884,0.02140195654030318,9.806649753922725,9.806648961539999,9.806650304760002,4.0344553616849464e-07,0.044692167886225,0.021492637302200003,0.080713967554,0.025378831016526104,296.290331048,296.290331048,296.290331048,0.48683853286838885,0.041776949807224996,0.0394007518311,0.043485956365,0.0018102935868877265,439.569772783,439.569772783,439.569772783,0.3284774524248764,0.905654529306,0.905654529306,0.905654529306,nan,0.009093969434518002,0.0021589433934699996,0.0168531715875,0.007002657951885319,0.8827195254712977,0.8652944020990001,0.9430848323559999,0.01957791167991303,43.94130098065,43.1662956364,44.716306324899996,1.096023068749976,1014.8972,1014.8922,1014.9022,0.007071067811859044,nan,nan,nan,nan,69.39938418999918,69.39938418999918,69.39938418999918,nan,nan,nan,nan,nan,nan,nan,nan,nan,nan,nan,nan,nan,Still,U15
33,,,9.739235701411667,9.6929339478,9.75890436279,0.024229495990804758,9.806650051276,9.80664968281,9.80665046014,3.403475683924043e-07,0.06132929247713333,0.0361896226449,0.0775156718178,0.02206992621260934,295.389532267125,294.423379135,295.926173572,0.5227395658551404,0.045149530327157135,0.035875259403,0.0526868312874,0.005138135803610328,439.6302897025,439.370182374,439.89039703099996,0.3678473116372914,0.9045513959229999,0.9045513959229999,0.9045513959229999,nan,0.03683920321904,0.011201926257,0.06931083235510001,0.02786801999889594,0.9026338278618936,0.8873671755789999,0.943134684682,0.013803325397212296,45.176770888700005,44.96159369430001,45.391948083100004,0.3043065066338705,1014.9055333333332,1014.8922,1014.9122,0.011547005383782014,nan,nan,nan,nan,69.39938418999918,69.39938418999918,69.39938418999918,nan,nan,nan,nan,nan,nan,nan,nan,nan,nan,nan,nan,nan,Still,U15
34,,,9.719987983596665,9.6776671592,9.7526478378,0.032713249535784125,9.806650517946666,9.80665008347,9.806651208689999,3.745678236164162e-07,0.044573974583400004,0.0163795918109,0.08763631837670001,0.03224263512753022,295.4912993055,295.405359,295.577239611,0.1215379455925913,0.0431506309395875,0.0322058100998,0.051764346816,0.0070176373714044265,439.32828017450004,438.581801168,440.074759181,1.055680735019068,0.9045416055940001,0.9045416055940001,0.9045416055940001,nan,0.01720063004169909,0.00409075013034,0.047307905010099995,0.013251693935387146,0.920701121461553,0.909471746542,0.943660512844,0.00809988792306049,44.588826166,44.236701725799996,44.9409506062,0.49797915897387496,1014.8988666666668,1014.8922,1014.9022,0.005773502691891007,nan,nan,nan,nan,69.39938418999918,69.39938418999918,69.39938418999918,nan,nan,nan,nan,nan,nan,nan,nan,nan,nan,nan,nan,nan,Still,U15
35,,,9.745429422242001,9.73571572084,9.76114718207,0.009881983658118787,9.806650090836,9.8066497717,9.80665065663,3.8504798841225414e-07,0.03785994754817142,0.0185210002211,0.060191953102099995,0.015842846077963,295.2189456014286,295.058372013,295.548581277,0.15905627412299783,0.04122491388105,0.0387788971763,0.0449525993052,0.0027487541159315026,439.40986226,438.92035168,439.89937284,0.6922725011611214,0.9045416055940001,0.9045416055940001,0.9045416055940001,nan,0.008174842876138334,0.000905040445325,0.0153572416946,0.0045291114790505,0.9383887947517618,0.9280202063580001,0.944583088829,0.005096125972532926,44.585101332250005,44.5119180231,44.6582846414,0.10349682833927308,1014.8947000000001,1014.8822,1014.9022,0.009574271077554673,nan,nan,nan,nan,75.80992553934219,75.80992553934219,75.80992553934219,nan,nan,nan,nan,nan,nan,nan,nan,nan,nan,nan,nan,nan,Still,U15
36,,,9.738395833022,9.71170090124,9.766128875369999,0.0207992941161676,9.806650326049999,9.80664954011,9.80665090325,4.323057561719674e-07,0.03764024377176667,0.013520958849500001,0.07652051692360001,0.02188694930625912,295.21656180428573,295.1033789,295.401315548,0.10236211210430395,0.0422834467187,0.038347449602900006,0.0451979507531,0.0032012703577455545,439.7601039505,439.116827999,440.403379902,0.9097295749597394,0.9045416055940001,0.9045416055940001,0.9045416055940001,nan,0.01331014109569,0.00875591293143,0.0199167823571,0.004514710728773273,0.9518969050576596,0.944223982047,0.9597034930580001,0.004564665797263082,44.06243975625,43.6087598791,44.5161196334,0.6416002352412921,1014.8922,1014.8922,1014.8922,0.009574271077554673,nan,nan,nan,nan,75.80992553934219,75.80992553934219,75.80992553934219,nan,nan,nan,nan,nan,nan,nan,nan,nan,nan,nan,nan,nan,Still,U15
37,,,9.7488828275975,9.70304186623,9.8026986529,0.04539800875773446,9.806650005272308,9.80664940756,9.80665051581,3.214189016927137e-07,0.06275709172076001,0.022189251782400003,0.11266088196900001,0.035696132075634435,295.7122787262,295.006119042,296.012678649,0.40488141403135913,0.037837087575650005,0.0364371558559,0.0392370192954,0.00197980242446674,439.5678961,439.5678961,439.5678961,0.9097295749597394,0.9045416055940001,0.9045416055940001,0.9045416055940001,nan,0.013038808153108336,0.004917285331020001,0.0206541729637,0.0075872190281880535,0.9639990460193913,0.944088379672,0.971223515874,0.007534210601863281,44.590056539375,43.8096251717,45.5860169058,0.7358184766947379,1014.8988666666668,1014.8922,1014.9022,0.005773502691891007,nan,nan,nan,nan,75.80992553934219,75.80992553934219,75.80992553934219,nan,nan,nan,nan,nan,nan,nan,nan,nan,nan,nan,nan,nan,Still,U15
38,,,9.71773658503875,9.681857401439999,9.793957392200001,0.03418129714597514,9.806650127747144,9.80664943781,9.806650468139999,3.8386428541428893e-07,0.052716674830322226,0.0180098946123,0.0818047836026,0.02388530043388619,295.80110600825,295.702566752,295.931907283,0.09861429494020868,0.04512466123494,0.0369668183111,0.057886677675999997,0.008566534755646383,439.33360843900005,438.38978420800004,440.27743267,1.3347690279765279,0.9045416055940001,0.9045416055940001,0.9045416055940001,nan,0.012787420169901668,0.00473086447912,0.0225407436611,0.006425266607165353,0.974507247684652,0.944753757298,0.982105814021,0.009672038362186948,44.3796123033,43.8043322366,44.95489237,0.8135688724900431,1014.8822,1014.8822,1014.8822,0.0,nan,nan,nan,nan,75.80992553934219,75.80992553934219,75.80992553934219,nan,nan,nan,nan,nan,nan,nan,nan,nan,nan,nan,nan,nan,Still,U15
39,,,9.718608900182,9.680748346749999,9.74380991211,0.023054861330537902,9.80665010734,9.80664951624,9.80665072547,3.5046604298700554e-07,0.041104542795374996,0.0168548527799,0.0628425011046,0.022412166896195043,295.547912597,295.343894222,295.707047954,0.11345528948965172,0.04453474389714999,0.035521759521,0.05512308914419999,0.008691585400773643,439.5332025253333,439.161858786,439.850848747,0.34761956093173174,0.9045416055940001,0.9045416055940001,0.9045416055940001,nan,0.017130671269666668,0.012409767654999999,0.025039728944900003,0.006892185813043924,0.9823667352847143,0.9448040384980001,0.990298359579,0.012890400832609767,44.6417987559,44.6417987559,44.6417987559,0.8135688724900431,1014.9022,1014.9022,1014.9022,0.0,nan,nan,nan,nan,75.80992553934219,75.80992553934219,75.80992553934219,nan,nan,nan,nan,nan,nan,nan,nan,nan,nan,nan,nan,nan,Still,U15
40,,,9.74249875773625,9.71256278393,9.780550603060002,0.026875951118928043,9.806650333498002,9.80664963611,9.806650919660001,4.842579834368479e-07,0.05479406234284286,0.028263452121,0.08917611985469999,0.021423183964376383,296.04566029750004,295.993348566,296.097972029,0.07397996015851688,0.041013275177191666,0.015452151502399999,0.0774585423789,0.013771193842254814,439.5332025253333,439.161858786,439.850848747,0.34761956093173174,0.9045416055940001,0.9045416055940001,0.9045416055940001,nan,0.019593024330393997,0.007387948978920001,0.040058450581,0.015813423171620336,0.98600960645132,0.942684641926,0.996569009602,0.0179768748700441,44.88769324585,44.3725035528,45.40288293890001,0.7285882511061481,1014.9022,1014.9022,1014.9022,0.0,nan,nan,nan,nan,75.80992553934219,75.80992553934219,75.80992553934219,nan,nan,nan,nan,nan,nan,nan,nan,nan,nan,nan,nan,nan,Still,U15
41,,,9.71598210871889,9.67645349559,9.742366476860001,0.021484597155539648,9.80665012943111,9.80664931065,9.80665070772,4.877872577423129e-07,0.0609909442699,0.025796336876599997,0.105056280895,0.031515676496977424,293.70713427628573,292.17607464400004,294.506526875,0.7371466011375594,0.0432212251658875,0.035490332707699995,0.0630192789452,0.009396813239069091,439.309621304,438.743542322,439.81837775800005,0.46773297282091664,0.9045416055940001,0.9045416055940001,0.9045416055940001,nan,0.0555670614318,0.0232026483621,0.0879314745015,0.0457701919014148,0.993375815847,0.9435189374330001,0.9993603311560001,0.015456405145770765,44.88769324585,44.3725035528,45.40288293890001,0.7285882511061481,1014.9022,1014.9022,1014.9022,0.0,nan,nan,nan,nan,75.80992553934219,75.80992553934219,75.80992553934219,nan,nan,nan,nan,nan,nan,nan,nan,nan,nan,nan,nan,nan,Still,U15
42,,,9.741420182214284,9.71384919956,9.82062470797,0.03576966486260307,9.806650073377002,9.80664966559,9.80665099374,3.765013643685204e-07,0.034528242145333336,0.012591128421200002,0.0632719432194,0.0260169842730968,292.8479276334286,292.656589019,293.150916346,0.16282284432255448,0.04553514438451667,0.0284547909995,0.0717412696247,0.015143034111981635,439.309621304,438.743542322,439.81837775800005,0.46773297282091664,0.9045416055940001,0.9045416055940001,0.9045416055940001,nan,0.015497906393286666,0.00412851063896,0.0267491671556,0.011310790963420966,0.9959689197747209,0.944565592587,0.999986980494,0.014201615480277176,44.6245825337,43.6162229063,45.0237619836,0.6773750075110992,1014.90335,1014.9022,1014.9045,0.0016263455967227569,nan,nan,nan,nan,75.80992553934219,75.80992553934219,75.80992553934219,nan,nan,nan,nan,nan,nan,nan,nan,nan,nan,nan,nan,nan,Still,U15
43,,,9.725639652571111,9.71646504372,9.754961763999999,0.011750404397472049,9.806650165395714,9.80664941252,9.80665111053,6.402167285445215e-07,0.054766629401652854,0.009216877904270001,0.0830789907623,0.02671195113692569,292.96154808225,292.799826015,293.103135862,0.1366377442833576,0.04625731044916,0.0422111335857,0.0551836897377,0.005375271535891711,439.8502032123333,439.44610597900004,440.07491815300006,0.35069173462517056,0.9045416055940001,0.9045416055940001,0.9045416055940001,nan,0.02322605664329333,0.00990324824006,0.04325688284509999,0.0130287025227043,0.9934593040813043,0.945314883222,0.99990739338,0.01675113076644961,44.63298927475,44.5633517305,44.702626818999995,0.0984823595287014,1014.909225,1014.90625,1014.9122,0.004207285348048897,nan,nan,nan,nan,75.80992553934219,75.80992553934219,75.80992553934219,nan,nan,nan,nan,nan,nan,nan,nan,nan,nan,nan,nan,nan,Still,U15
44,,,9.74018223651,9.68212007267,9.80453920597,0.039114201539064024,9.806650115882354,9.80664914595,9.80665074568,4.366606595769083e-07,0.050872962855625,0.011526226305499999,0.0766881780217,0.02799569745674381,293.2740720433333,293.00202950700003,293.452729261,0.23942259786987805,0.0464363936611,0.044402732771100004,0.0484700545511,0.0028760308119057344,439.8502032123333,439.44610597900004,440.07491815300006,0.35069173462517056,0.9045416055940001,0.9045416055940001,0.9045416055940001,nan,0.02137042166104,0.00998371466934,0.0351967394151,0.009106994462379269,0.99070493941758,0.9463858477089999,0.997983068261,0.014971582526608605,44.214140772200004,44.214140772200004,44.214140772200004,0.0984823595287014,1014.909225,1014.90625,1014.9122,0.004207285348048897,nan,nan,nan,nan,75.80992553934219,75.80992553934219,75.80992553934219,nan,nan,nan,nan,nan,nan,nan,nan,nan,nan,nan,nan,nan,Still,U15
45,,,9.735047428172221,9.668615628969999,9.77530375381,0.03457879273853461,9.806649980486,9.80664956196,9.80665069615,4.839548836535297e-07,0.04533795896905,0.043272156989099995,0.047403760949,0.0029214851772224855,292.47217180375003,291.39738338,292.84023300900003,0.7165794212402947,0.04304431456959999,0.0378631282431,0.0471848660023,0.0037667903780480463,438.904328134,438.904328134,438.904328134,0.35069173462517056,0.9045416055940001,0.9045416055940001,0.9045416055940001,nan,0.0175191958947,0.014626685679600002,0.0194015602852,0.0025426664773458875,0.9827830223769456,0.946916226261,0.9926514373790001,0.01589677105128407,43.9457469665,43.5165025087,44.374991424300006,0.6070433337942499,1014.9222,1014.9222,1014.9222,0.004207285348048897,nan,nan,nan,nan,75.80992553934219,75.80992553934219,75.80992553934219,nan,nan,nan,nan,nan,nan,nan,nan,nan,nan,nan,nan,nan,Still,U15
46,,,9.726152400654001,9.69130361656,9.78367285481,0.024863101316221402,9.8066501018625,9.806649614089999,9.806650739139998,3.350732851042155e-07,0.09844065984754,0.0440637786187,0.199540887721,0.06171452379710521,292.642438219,292.547494852,292.73738158599997,0.13427019726874473,0.04688630475966666,0.0273319540261,0.0577356602964,0.010567537759146328,438.96372108800006,438.96372108800006,438.96372108800006,0.35069173462517056,0.9045416055940001,0.9045416055940001,0.9045416055940001,nan,0.0251679394762,0.0157548821245,0.040851118740400004,0.013672640369311245,0.9777075868723584,0.947478624179,0.986044797668,0.011067599619166273,44.65216528,44.65216528,44.65216528,0.6070433337942499,1014.9022,1014.9022,1014.9022,0.004207285348048897,nan,nan,nan,nan,75.80992553934219,75.80992553934219,75.80992553934219,nan,nan,nan,nan,nan,nan,nan,nan,nan,nan,nan,nan,nan,Still,U15
47,,,9.736651176033332,9.7171362784,9.7459873018,0.01145051796279102,9.806650356050001,9.80664946985,9.806650943200001,5.887806787699151e-07,0.04755529407596667,0.0351329356204,0.0687645433736,0.01243534409434464,291.86631798757145,291.732615927,291.976998543,0.09687828359493407,0.041421619526074996,0.0380831663307,0.04941255171080001,0.0035256010765014473,439.030291599,439.030291599,439.030291599,0.35069173462517056,0.9045416055940001,0.9045416055940001,0.9045416055940001,nan,0.010015726668263334,0.0050087425243,0.0167855762892,0.006083109763842051,0.9682118106955334,0.9480881067810001,0.975767080906,0.007166992266186613,43.71222493489999,43.3400216279,44.08442824189999,0.5263749647195111,1014.9122,1014.9122,1014.9122,0.004207285348048897,nan,nan,nan,nan,75.80992553934219,75.80992553934219,75.80992553934219,nan,nan,nan,nan,nan,nan,nan,nan,nan,nan,nan,nan,nan,Still,U15
48,,,9.712682610817499,9.672028384199999,9.73307992516,0.027597377624343365,9.8066500893,9.80664953438,9.806650516160001,3.618226901004297e-07,0.09062610401266667,0.0527246266883,0.132657885459,0.04012637565904593,291.87738046357146,291.781438922,292.113309333,0.12600774891555416,0.035388380472639994,0.0242894517988,0.042085957546199995,0.006607733650928501,438.498321529,438.498321529,438.498321529,0.35069173462517056,0.9045416055940001,0.9045416055940001,0.9045416055940001,nan,0.02513936942676857,0.00645022762739,0.0775399033973,0.025202950036512024,0.9555397272276668,0.948718047023,0.9637655261310001,0.004835407690904943,44.27087821596,43.7830063646,45.1311892449,0.6156524036344123,1014.9122,1014.9122,1014.9122,0.004207285348048897,nan,nan,nan,nan,75.80992553934219,75.80992553934219,75.80992553934219,nan,nan,nan,nan,nan,nan,nan,nan,nan,nan,nan,nan,nan,Still,U15
49,,,9.729288682933333,9.71922377974,9.746672783860001,0.015117537775368546,9.806650054542501,9.80664965329,9.80665059407,3.119574169981249e-07,0.07294379111055,0.035070009456899996,0.21052231279599998,0.057595551269268706,291.4480808206667,290.727063925,291.884220737,0.4020046812536508,0.062348016920969994,0.0401832872399,0.098502466527,0.022589147484520886,438.47000880900003,438.47000880900003,438.47000880900003,0.35069173462517056,0.9045416055940001,0.9045416055940001,0.9045416055940001,nan,0.028574214936456246,0.0036258812489499996,0.053636349715999995,0.015720248784431772,0.9410705959654255,0.932844724455,0.949406279445,0.005412184577251677,44.27087821596,43.7830063646,45.1311892449,0.6156524036344123,1014.9122,1014.9122,1014.9122,0.004207285348048897,nan,nan,nan,nan,75.80992553934219,75.80992553934219,75.80992553934219,nan,nan,nan,nan,nan,nan,nan,nan,nan,nan,nan,nan,nan,Still,U15
50,,,9.714798705876001,9.689134454400001,9.75775498656,0.03037519306288436,9.806650291068332,9.80664956771,9.80665082669,4.750411904711342e-07,0.049801725664283335,0.018170197122400002,0.0995662655648,0.03419282354461766,290.85588125366667,290.340137461,291.635591881,0.686883837287881,0.06214131962190001,0.038391968524599994,0.110729069294,0.023049493476588436,439.46970828200006,439.27651557900003,439.662900985,0.27321574073410887,0.9045416055940001,0.9045416055940001,0.9045416055940001,nan,0.014044491161634285,0.0081218909589,0.0193464243267,0.004310417335349387,0.9248934468515956,0.910979180458,0.952078468513,0.011627301488221711,43.68479708233334,43.0807794297,44.2934445033,0.6063457934614858,1014.9322,1014.9322,1014.9322,0.004207285348048897,nan,nan,nan,nan,66.9855505493591,66.9855505493591,66.9855505493591,nan,nan,nan,nan,nan,nan,nan,nan,nan,nan,nan,nan,nan,Still,U15
51,,,9.738195161734001,9.70580208976,9.775178953080001,0.025211428793187714,9.806650100744443,9.80664968998,9.806650669069999,3.682490393996292e-07,0.05733893272888,0.0435998598605,0.0961594507725,0.022240284310186317,290.8004726532,290.722075163,290.868197667,0.05809284434676993,0.04264972660828334,0.025063358670799996,0.0576944515493,0.008361491420183737,439.46970828200006,439.27651557900003,439.662900985,0.27321574073410887,0.9045416055940001,0.9045416055940001,0.9045416055940001,nan,0.013946010228,0.0030670165801000003,0.0270069924228,0.012118226617429095,0.9074963772574347,0.889734227506,0.952833375005,0.02013475158425416,44.3418947527,43.9179507105,44.6775358719,0.32587807499651095,1014.9322,1014.9322,1014.9322,0.004207285348048897,nan,nan,nan,nan,66.9855505493591,66.9855505493591,66.9855505493591,nan,nan,nan,nan,nan,nan,nan,nan,nan,nan,nan,nan,nan,Still,U15
52,,,9.729921680433334,9.6880795582,9.775740459460001,0.029307495070400893,9.806650144812501,9.806649538939999,9.80665047273,2.8955907424219386e-07,0.05311958214971111,0.0214171046372,0.09029277365710002,0.023490835435550115,290.3997760385714,290.012724497,290.817824953,0.31959289450835565,0.04041392475278571,0.0337577729585,0.0471085721282,0.004564132781596185,439.46970828200006,439.27651557900003,439.662900985,0.27321574073410887,0.9045416055940001,0.9045416055940001,0.9045416055940001,nan,0.023867742744732856,0.00968624259123,0.05805579235640001,0.0167424433722455,0.8871326547419285,0.866736970487,0.953139323759,0.02527150380100308,43.1843850334,43.1843850334,43.1843850334,0.32587807499651095,1014.9222,1014.9222,1014.9222,0.004207285348048897,nan,nan,nan,nan,66.9855505493591,66.9855505493591,66.9855505493591,nan,nan,nan,nan,nan,nan,nan,nan,nan,nan,nan,nan,nan,Still,U15
53,,,9.731286173718571,9.697578510289999,9.781109338510001,0.025165387860052638,9.806650467661427,9.80665001655,9.80665113891,4.749480004865318e-07,0.05311958214971111,0.0214171046372,0.09029277365710002,0.023490835435550115,290.1734316071429,289.723609735,290.406023134,0.2622375544081883,0.046123594238819995,0.0366812686055,0.0581160323986,0.00638857418224129,438.86408369400004,438.429712106,439.2679447,0.41994838030580034,0.9045416055940001,0.9045416055940001,0.9045416055940001,nan,0.024072298336833334,0.012313549290100001,0.0309146947345,0.010228809583153815,0.869682221217,0.840200823072,0.953542338241,0.036983226663602646,44.66206252393332,44.1302123666,45.4534270274,0.6987381709379926,1014.94214,1014.94214,1014.94214,0.0,nan,nan,nan,nan,66.9855505493591,66.9855505493591,66.9855505493591,nan,nan,nan,nan,nan,nan,nan,nan,nan,nan,nan,nan,nan,Still,U15
54,,,9.72909557458111,9.65710145886,9.82618970338,0.04770374605085311,9.80665011336625,9.80664972471,9.806650554299999,3.390272692501169e-07,0.08609366844768333,0.0431716425096,0.131856751682,0.030223858593248838,290.0080132753333,289.256674808,291.65587831,0.8742689065252016,0.06184429879645555,0.0430097503299,0.0946371736786,0.017716748642245025,440.832507103,440.832507103,440.832507103,0.41994838030580034,0.9045416055940001,0.9045416055940001,0.9045416055940001,nan,0.016741960890851667,0.006083742544699999,0.046672175917499996,0.015484254533804141,0.8393367368054773,0.817837546672,0.954992150916,0.037340290043266104,45.0427767271,45.0427767271,45.0427767271,0.6987381709379926,1014.94214,1014.94214,1014.94214,0.0,nan,nan,nan,nan,66.9855505493591,66.9855505493591,66.9855505493591,nan,nan,nan,nan,nan,nan,nan,nan,nan,nan,nan,nan,nan,Still,U15
55,,,9.757389519253334,9.73375756147,9.77146687254,0.020590431895889987,9.80665026841857,9.80664976518,9.80665117601,6.102720409454908e-07,0.07427908941788335,0.0245815337363,0.15075351025800002,0.0451635244339918,293.37056127333335,293.03078541,293.665091345,0.3195643769910997,0.038842141122825004,0.036588441602800004,0.0434661222938,0.0031868662928925544,440.832507103,440.832507103,440.832507103,0.41994838030580034,0.9045416055940001,0.9045416055940001,0.9045416055940001,nan,0.018801277564354443,0.00530729549378,0.0582597613814,0.016365596397941905,0.8379476197340001,0.7987336612520001,0.954084188681,0.05521099334037973,45.3902082388,45.3902082388,45.3902082388,0.6987381709379926,1014.94214,1014.94214,1014.94214,0.0,nan,nan,nan,nan,66.9855505493591,66.9855505493591,66.9855505493591,nan,nan,nan,nan,nan,nan,nan,nan,nan,nan,nan,nan,nan,Still,U15
56,,,9.73366698653,9.69495469867,9.760511773180001,0.02725405189533138,9.806650430597498,9.806649648139999,9.80665079707,5.397800578065583e-07,0.04981483570786,0.0388621019759,0.0626693343937,0.01067039958746519,292.3629779341667,290.744309331,293.00605391,0.8665211665643417,0.055671708672687496,0.0436991499706,0.0800117289987,0.011489506921824823,439.74707108900003,439.380499325,440.349052926,0.5254402405173365,0.9045416055940001,0.9045416055940001,0.9045416055940001,nan,0.015160964872984286,0.00631133123385,0.0350794216073,0.009445959557156446,0.8017844609141321,0.768482878919,0.9535237970880001,0.05518543383287761,45.3902082388,45.3902082388,45.3902082388,0.6987381709379926,1014.94214,1014.94214,1014.94214,0.0,nan,nan,nan,nan,75.6980489977331,75.6980489977331,75.6980489977331,nan,nan,nan,nan,nan,nan,nan,nan,nan,nan,nan,nan,nan,Still,U15
57,,,9.737605974022857,9.70040335214,9.767134304099999,0.021963151260583694,9.806650312011667,9.80664989109,9.80665070607,3.8824344394225203e-07,0.045729082575799995,0.026841627537500003,0.0646165376141,0.0267108950738759,290.96742801549993,290.87671512599997,291.15833375,0.10370230805777061,0.05259307874598334,0.042441355319800006,0.08586969299589998,0.016684261167795797,439.73974470775,439.006742364,440.488837867,0.6729546157386717,0.9045416055940001,0.9045416055940001,0.9045416055940001,nan,0.019962839537646673,0.00511342487517,0.0432966487806,0.014917898875601928,0.7716739902713403,0.74545013249,0.95330729782,0.056357615518479294,43.889234393100004,43.6973029513,44.084205304499996,0.19346908411813496,1014.9671649999999,1014.9621599999999,1014.9721699999999,0.0070781388796530564,nan,nan,nan,nan,75.6980489977331,75.6980489977331,75.6980489977331,nan,nan,nan,nan,nan,nan,nan,nan,nan,nan,nan,nan,nan,Still,U15
58,,,9.740800067692,9.70243746916,9.78114207145,0.03100486593539669,9.806650313458332,9.806649280830001,9.8066509229,4.876306845044717e-07,0.033778374150349996,0.0272662546332,0.0402476473872,0.0053201082638074625,291.4494261305714,291.145323059,291.702325112,0.2657963406748502,0.04260114907343334,0.0395671492239,0.046650288222400006,0.002973859587748486,439.9676584675,439.80184867400004,440.13346826099996,0.2344904587419261,0.9045416055940001,0.9045416055940001,0.9045416055940001,nan,0.0062024903393,0.0037615932849499995,0.00865050881687,0.002444465545996438,0.7778196860584601,0.7234280310850001,0.9539320843160001,0.08883512341680733,43.673630416799995,43.0986163227,44.5872073571,0.7999652602109012,1014.9671649999999,1014.9621599999999,1014.9721699999999,0.0070781388796530564,nan,nan,nan,nan,75.6980489977331,75.6980489977331,75.6980489977331,nan,nan,nan,nan,nan,nan,nan,nan,nan,nan,nan,nan,nan,Still,U15
59,,,9.736392574824999,9.704387645299999,9.757482649339998,0.02444881571878587,9.806650316891668,9.8066495615,9.80665151921,5.380381962227493e-07,0.0669441894716,0.06081334577769999,0.0730750331655,0.00867032230070295,291.65706607725,291.47192254099997,291.936655039,0.21051492104959335,0.041554510441657144,0.027624696858299998,0.057582012131799996,0.00920484276898658,439.9676584675,439.80184867400004,440.13346826099996,0.2344904587419261,0.9045416055940001,0.9045416055940001,0.9045416055940001,nan,0.0095820802219,0.00481863747892,0.022306084520400005,0.006653909483801428,0.741698492235857,0.700518613956,0.9532873818719999,0.08088577006261505,43.673630416799995,43.0986163227,44.5872073571,0.7999652602109012,1014.9671649999999,1014.9621599999999,1014.9721699999999,0.0070781388796530564,nan,nan,nan,nan,76.80588663222872,76.80588663222872,76.80588663222872,nan,nan,nan,nan,nan,nan,nan,nan,nan,nan,nan,nan,nan,Still,U15
60,,,9.736185402725999,9.69628546825,9.776155061939999,0.036944605644992114,9.806650301753333,9.80664965693,9.80665097168,4.5689457925107226e-07,0.0903712863697,0.027317914311900005,0.239429342464,0.06513140158206124,291.63204084849997,291.48107481200003,291.84214397799997,0.16337528589781616,0.04525209207988572,0.0359416264354,0.0665158231295,0.011103238369051076,439.113275086,438.99533050699995,439.231219665,0.16679882323023956,0.9045416055940001,0.9045416055940001,0.9045416055940001,nan,0.0711525959271,0.0394286431308,0.154606719851,0.055712088296881686,0.743870466864698,0.6797411397040001,0.9528575407700001,0.10781129769315814,43.673630416799995,43.0986163227,44.5872073571,0.7999652602109012,1014.9671649999999,1014.9621599999999,1014.9721699999999,0.0070781388796530564,nan,nan,nan,nan,76.80588663222872,76.80588663222872,76.80588663222872,nan,nan,nan,nan,nan,nan,nan,nan,nan,nan,nan,nan,nan,Still,U15
61,,,9.714242758512857,9.68914363705,9.72688113882,0.013297120244670004,9.806650198202858,9.806649406950001,9.80665076619,5.365577908499834e-07,0.06709855001994285,0.0205331384377,0.107194501549,0.028327120469725093,291.45650868844444,291.36946782,291.709245614,0.10732892623129679,0.039518718355399995,0.0329967426034,0.049049434045699995,0.004683488981218484,440.973187592,440.973187592,440.973187592,0.16679882323023956,0.9045416055940001,0.9045416055940001,0.9045416055940001,nan,0.023285938662204995,0.0040309203809,0.0839333722637,0.030274963160704525,0.6991999578662222,0.655544736961,0.9512551152519999,0.09030470050091315,43.515605068199996,43.515605068199996,43.515605068199996,0.7999652602109012,1014.95215,1014.95215,1014.95215,0.0070781388796530564,nan,nan,nan,nan,76.80588663222872,76.80588663222872,76.80588663222872,nan,nan,nan,nan,nan,nan,nan,nan,nan,nan,nan,nan,nan,Still,U15
62,,,9.739090198264444,9.69651720003,9.812238806389999,0.03395482724825908,9.806649892364167,9.8066491873,9.80665087013,5.781225004719847e-07,0.059353973914483334,0.032761477489200004,0.0913476802083,0.020575176733418184,291.4967755614286,291.332632643,291.717566099,0.15110070369780257,0.04325063364277778,0.038303802552,0.0541718902381,0.004623763882747068,440.973187592,440.973187592,440.973187592,0.16679882323023956,0.9045416055940001,0.9045416055940001,0.9045416055940001,nan,0.01046195516591,0.00673673373211,0.0214802400383,0.007345773039083451,0.6671161961671499,0.6322236528149999,0.9511484299349999,0.08214392681947508,43.8350516084,43.4505682971,44.2195349197,0.5437415133465796,1014.95215,1014.95215,1014.95215,0.0070781388796530564,nan,nan,nan,nan,76.80588663222872,76.80588663222872,76.80588663222872,nan,nan,nan,nan,nan,nan,nan,nan,nan,nan,nan,nan,nan,Still,U15
63,,,9.729329902338,9.70177411592,9.76761898292,0.028399924966437815,9.806650275138999,9.80664958943,9.806650956439999,4.128348733214803e-07,0.04911736297086,0.0339131077693,0.07951987941750001,0.017909552697734237,290.36130597,289.065941051,291.176276881,0.7843011309041245,0.05815967103605,0.0411261265077,0.11060968410800001,0.02411373115379376,440.046292732,440.046292732,440.046292732,0.16679882323023956,0.9045416055940001,0.9045416055940001,0.9045416055940001,nan,0.011326204388082,0.0076497836343,0.014657367657099999,0.0031143973050717882,0.6836700990326924,0.60506352245,0.9529229218269999,0.1322113008077404,44.0863978709,44.0863978709,44.0863978709,0.5437415133465796,1014.95215,1014.95215,1014.95215,0.0070781388796530564,nan,nan,nan,nan,76.80588663222872,76.80588663222872,76.80588663222872,nan,nan,nan,nan,nan,nan,nan,nan,nan,nan,nan,nan,nan,Still,U15
64,,,9.73601399439143,9.70013379033,9.78322519907,0.02433540337900306,9.806650315367,9.8066493153,9.80665100473,5.337826471053467e-07,0.035177350490716665,0.014220779038899999,0.057540529982500005,0.01573404538055606,288.2484050845,288.067515756,288.468783448,0.16605371990453552,0.03855967172025,0.021537773276,0.0478616382475,0.007610938162147522,440.046292732,440.046292732,440.046292732,0.16679882323023956,0.9045416055940001,0.9045416055940001,0.9045416055940001,nan,0.01831457109481857,0.00427662780176,0.0402590972469,0.014400224162036762,0.651993433566,0.584854945421,0.952597690954,0.12983829041830117,44.3956655574,43.2631484359,45.773482085,1.2730171273104252,1014.95215,1014.95215,1014.95215,0.0070781388796530564,nan,nan,nan,nan,76.80588663222872,76.80588663222872,76.80588663222872,nan,nan,nan,nan,nan,nan,nan,nan,nan,nan,nan,nan,nan,Still,U15
65,,,9.762260368849999,9.69049583781,9.80054682813,0.041638845503311414,9.806650178064,9.806649944650001,9.80665047528,2.1469733613736427e-07,0.09628253684988335,0.037244119978400006,0.273280260146,0.08862432481026337,288.44919558733335,288.186686165,288.747272762,0.28198072972907934,0.05679753962386666,0.028677484618199998,0.08341350885089999,0.019014464499982994,439.10658416866664,438.93339118800003,439.444614766,0.2927728924901158,0.902031252708,0.902031252708,0.902031252708,nan,0.03317391062101428,0.0193075303819,0.06142402555819999,0.015556586031265406,0.6319073714715918,0.569618960447,0.953263911573,0.13242690381473957,44.203678892,43.9290192708,44.47833851319999,0.3884273613372939,1014.9371699999999,1014.9322,1014.94214,0.00702864140501458,nan,nan,nan,nan,76.80588663222872,76.80588663222872,76.80588663222872,nan,nan,nan,nan,nan,nan,nan,nan,nan,nan,nan,nan,nan,Still,U15
66,,,9.735284770706665,9.70367236387,9.75361820936,0.027493546832633692,9.806649616365,9.80664942266,9.806649810069999,2.739402375280289e-07,0.030468139221542862,0.0187317848381,0.08105186916410001,0.022434858659832857,288.7666455996667,288.626143931,288.907754434,0.14080623330517647,0.04286163981826667,0.035416112939,0.0488210531092,0.004023981828061077,439.13538638066666,438.723070043,439.70467596099996,0.5092818411725449,0.902031252708,0.902031252708,0.902031252708,nan,0.009741784950218333,0.0047492352629499995,0.013483417547500001,0.0036410772954485584,0.6185272676070175,0.557596897308,0.952889336569,0.13624997525414614,43.70940683,43.70940683,43.70940683,0.3884273613372939,1014.9371699999999,1014.9322,1014.94214,0.00702864140501458,nan,nan,nan,nan,76.80588663222872,76.80588663222872,76.80588663222872,nan,nan,nan,nan,nan,nan,nan,nan,nan,nan,nan,nan,nan,Still,U15
67,,,9.752277843689999,9.7272716449,9.76680089117,0.01793298014656873,9.806649838010001,9.806649838010001,9.806649838010001,2.739402375280289e-07,0.07706436459084999,0.0259599086229,0.18230363445099998,0.05543111311957174,289.2965545692,288.813010809,289.790718402,0.43148685954128463,0.058215926204873335,0.035113391405800005,0.110225626938,0.024431122209159425,439.13538638066666,438.723070043,439.70467596099996,0.5092818411725449,0.902031252708,0.902031252708,0.902031252708,nan,0.048010495304973,0.0074288993985,0.131386279737,0.04036458911320123,0.6099123633472618,0.547907613052,0.9533198134469999,0.1416883744124068,43.372644496499994,43.372644496499994,43.372644496499994,0.3884273613372939,1014.9371699999999,1014.9322,1014.94214,0.00702864140501458,nan,nan,nan,nan,76.84968848823141,76.84968848823141,76.84968848823141,nan,nan,nan,nan,nan,nan,nan,nan,nan,nan,nan,nan,nan,Still,U15
68,,,9.688446412365712,9.59821359627,9.76859136783,0.058595871046415136,9.806649953316667,9.80664944746,9.80665048645,3.5802277291705353e-07,0.12387645384149999,0.0311297314494,0.209579062866,0.067561955300711,282.49989035924995,273.133927042,289.652777158,7.034642725947311,0.12954907081678751,0.0390450285816,0.237074575048,0.06632462882816655,439.038401561,439.038401561,439.038401561,0.5092818411725449,0.902031252708,0.902031252708,0.902031252708,nan,0.04590716027100166,0.00351336721481,0.145870636678,0.05225048408645369,0.6005204220526327,0.524085362618,0.9542426074729999,0.1454277037829863,43.372644496499994,43.372644496499994,43.372644496499994,0.3884273613372939,1014.93075,1014.9293,1014.9322,0.002050609665408575,nan,nan,nan,nan,75.03194569135108,60.684545215411006,89.37934616729116,20.290288337872656,nan,nan,nan,nan,nan,nan,nan,nan,nan,nan,nan,nan,Still,U15
69,,,9.752777424789999,9.63569884517,9.91958342904,0.09827804245006966,9.806650194425455,9.80664914925,9.806650895419999,4.6534182159540677e-07,0.20190367312564997,0.055874788336100004,0.44156260391999996,0.14669545476865647,269.88259396740006,264.868612602,274.222445385,4.529702876771766,0.0895042707840125,0.033664060398,0.17281079899000001,0.04392499354401224,438.99886867550003,438.391435804,439.606301547,0.8590398051065063,0.906376754043,0.906376754043,0.906376754043,nan,0.0997842600863,0.0699803713382,0.128258094771,0.01976752601658795,0.5804542324973111,0.522752174807,0.9505140743610001,0.13189061622319662,43.372644496499994,43.372644496499994,43.372644496499994,0.3884273613372939,1014.93075,1014.9293,1014.9322,0.002050609665408575,nan,nan,nan,nan,75.03194569135108,60.684545215411006,89.37934616729116,20.290288337872656,nan,nan,nan,nan,nan,nan,nan,nan,nan,nan,nan,nan,Still,U15
70,,,9.675701509013333,9.62406030252,9.71877304796,0.04793438680728901,9.806650003257694,9.80664899085,9.80665067997,4.5693780567384064e-07,0.0416846342915,0.0416846342915,0.0416846342915,0.14669545476865647,272.16050125780004,271.317436775,272.452726799,0.4759588042691968,0.052967866885612495,0.037402930304,0.115290103539,0.026075677649785835,438.3328742425,438.03567125300003,438.63007723199996,0.42030849852867913,0.906376754043,0.906376754043,0.906376754043,nan,0.0233051880127,0.008777093711599999,0.0449598630659,0.015457348389583148,0.6112147457634082,0.5397538374440001,0.945349800787,0.1488075403329712,43.674089287799994,43.674089287799994,43.674089287799994,0.3884273613372939,1014.93075,1014.9293,1014.9322,0.002050609665408575,nan,nan,nan,nan,75.03194569135108,60.684545215411006,89.37934616729116,20.290288337872656,nan,nan,nan,nan,nan,nan,nan,nan,nan,nan,nan,nan,Still,U15
71,,,9.733012829754287,9.7086932544,9.8166529215,0.03791784905773997,9.80665035105,9.80664987634,9.80665083648,3.650944180094171e-07,0.06049577663053334,0.0147274386012,0.199186446199,0.07040055551971248,272.4807797855,271.139699354,274.405250362,1.388529428920473,0.048498630509188886,0.0345553227509,0.0802587073624,0.0132913594702808,439.104514874,439.104514874,439.104514874,0.42030849852867913,0.90066044714,0.90066044714,0.90066044714,nan,0.026575111264434004,0.00460021500908,0.07318606438780001,0.028703352557143836,0.5670702410584285,0.5356942917899999,0.9481568331829999,0.08603211126715672,44.27225220895,44.2098652316,44.3346391863,0.08822850948383573,1014.93075,1014.9293,1014.9322,0.002050609665408575,nan,nan,nan,nan,75.03194569135108,60.684545215411006,89.37934616729116,20.290288337872656,nan,nan,nan,nan,nan,nan,nan,nan,nan,nan,nan,nan,Still,U15
72,,,9.724257644251427,9.66214347366,9.76759729964,0.03944307455087408,9.806649950776666,9.80664954277,9.80665035899,3.109681257021448e-07,0.049104488449433326,0.033836062651599996,0.059585036977199995,0.01352572535097537,274.0087499304444,273.653828087,274.192373668,0.16721162203888512,0.04330340266271667,0.0392986216601,0.048416200457499996,0.003222149883355461,439.632803096,439.632803096,439.632803096,0.42030849852867913,0.90066044714,0.90066044714,0.90066044714,nan,0.017517262687475,0.0091180807038,0.0283496061863,0.008251130044237961,0.60820140214536,0.538904293276,0.9482881937000001,0.1498661616719165,42.9509063711,42.9509063711,42.9509063711,0.08822850948383573,1014.9226699999999,1014.9226699999999,1014.9226699999999,0.002050609665408575,nan,nan,nan,nan,75.03194569135108,60.684545215411006,89.37934616729116,20.290288337872656,nan,nan,nan,nan,nan,nan,nan,nan,nan,nan,nan,nan,Still,U15
73,,,9.710147628588,9.609203144439999,9.74912458584,0.05701009198967563,9.80665018036111,9.80664922305,9.80665086524,5.226917859848931e-07,0.11521581097711112,0.017083384462700003,0.26135561194,0.08424739206411554,272.3880769318,270.234766495,273.982214974,1.7635308399827923,0.07350206499126667,0.0206795159635,0.21036311576400002,0.06450876565864032,438.05311325900004,438.05311325900004,438.05311325900004,0.42030849852867913,0.90066044714,0.90066044714,0.90066044714,nan,0.027270001841621667,0.00907241188908,0.0490783950325,0.015929067395851405,0.5987445456119743,0.548036635476,0.9481838347939999,0.11973194398490355,44.181925918199994,44.181925918199994,44.181925918199994,0.08822850948383573,1014.9205,1014.9188,1014.9222,0.0024041630559934885,nan,nan,nan,nan,67.50961429237145,67.50961429237145,67.50961429237145,20.290288337872656,nan,nan,nan,nan,nan,nan,nan,nan,nan,nan,nan,nan,Still,U15
74,,,9.7397003093775,9.71007187112,9.77322755909,0.034226363800112757,9.80665009937,9.80664975597,9.80665048745,2.620489395394519e-07,0.1324247277508714,0.0476164165357,0.275183593415,0.0785985985060016,268.521579478,267.529483213,269.052982431,0.5430587381243182,0.0936004994072,0.047467427017,0.135889207415,0.0443360707022683,438.05311325900004,438.05311325900004,438.05311325900004,0.42030849852867913,0.90066044714,0.90066044714,0.90066044714,nan,0.07800582468242,0.0491321381542,0.111929669528,0.02614661406482308,0.6622473235985384,0.572503981457,0.947613070511,0.14738526254024184,43.3989126607,43.3989126607,43.3989126607,0.08822850948383573,1014.93759,1014.93304,1014.94214,0.006434671708790122,nan,nan,nan,nan,67.50961429237145,67.50961429237145,67.50961429237145,20.290288337872656,nan,nan,nan,nan,nan,nan,nan,nan,nan,nan,nan,nan,Still,U15
75,,,9.717940550587144,9.69522357916,9.73863539413,0.015568133542877702,9.806650173893333,9.80664953532,9.80665046255,3.8615251408228937e-07,0.05154085531381429,0.0159781424622,0.08602930479160001,0.03017256815507186,269.0862720645,268.95083900099996,269.281108373,0.13947080419161714,0.042737624101700004,0.0390353529484,0.051334075092400004,0.003847819381164747,439.61851787899997,439.14679218099997,440.09024357699997,0.667120879831515,0.90066044714,0.90066044714,0.90066044714,nan,0.0067315919801071425,0.0020730624509400003,0.0158129803023,0.004431109118371433,0.6730683027346087,0.593798613818,0.9436246784919999,0.1439248513665566,43.6953142858,43.6953142858,43.6953142858,0.08822850948383573,1014.9322,1014.9322,1014.9322,0.006434671708790122,nan,nan,nan,nan,67.50961429237145,67.50961429237145,67.50961429237145,20.290288337872656,nan,nan,nan,nan,nan,nan,nan,nan,nan,nan,nan,nan,Still,U15
76,,,9.735727620775,9.691930425539999,9.81729517979,0.055632486721180145,9.806650025870999,9.806649486880001,9.80665069134,3.14616371019242e-07,0.028466655759025,0.0229052996789,0.0390315691331,0.005788878171334383,270.4589123375,270.329360688,270.588463987,0.18321369975070775,0.04734044427002858,0.0362698748582,0.07842810709919999,0.01484257343486272,437.9364823762,437.351883074,439.05140048,0.7058315345172044,0.904658669536,0.904658669536,0.904658669536,nan,0.01152538421991111,0.0031538480254899998,0.023247284605900004,0.005858188129564876,0.6701203901769547,0.600335186998,0.9444708994840001,0.1307783106058149,43.924039250833324,43.3109564236,44.718232613599994,0.7209073021520209,1014.9222,1014.9222,1014.9222,0.006434671708790122,nan,nan,nan,nan,67.50961429237145,67.50961429237145,67.50961429237145,20.290288337872656,nan,nan,nan,nan,nan,nan,nan,nan,nan,nan,nan,nan,Still,U15
77,,,9.662988772986001,9.27543884394,9.83158244109,0.22063675510860084,9.80665029100875,9.80664921364,9.80665108665,6.083247401096675e-07,0.0406080885461,0.0406080885461,0.0406080885461,0.005788878171334383,271.054820002,270.663300672,271.36629831700003,0.2504726105188763,0.05496249385273,0.039534822983400005,0.121549841497,0.025265055145435446,438.121931622,438.121931622,438.121931622,0.7058315345172044,0.904658669536,0.904658669536,0.904658669536,nan,0.04207316947066167,0.00962481316667,0.175849442973,0.06575450300246007,0.6482995826400869,0.6161699823800001,0.947936753291,0.08034174783450294,43.332061449799994,42.6539284073,44.010194492299995,0.9590249457968265,1014.9222,1014.9222,1014.9222,0.006434671708790122,nan,nan,nan,nan,67.50961429237145,67.50961429237145,67.50961429237145,20.290288337872656,nan,nan,nan,nan,nan,nan,nan,nan,nan,nan,nan,nan,Still,U15
78,,,9.7249613851425,9.69538336158,9.751622954310001,0.024878871695851013,9.806649891422499,9.806649446289999,9.806650282769999,2.6276980222990606e-07,0.1427333372298,0.04078731975719999,0.247496039022,0.10952324252045247,266.120902667875,258.48328504299997,270.787041321,6.278105678019204,0.050781365887399996,0.0329131334191,0.08831554674789999,0.01657525011956091,439.124873231,439.124873231,439.124873231,0.7058315345172044,0.904658669536,0.904658669536,0.904658669536,nan,0.028436800551749998,0.0102477393666,0.0591993136228,0.02158154072754047,0.7070991304261459,0.643854319754,0.946777176021,0.08840181822412861,43.332061449799994,42.6539284073,44.010194492299995,0.9590249457968265,1014.9222,1014.9222,1014.9222,0.006434671708790122,nan,nan,nan,nan,67.50961429237145,67.50961429237145,67.50961429237145,20.290288337872656,nan,nan,nan,nan,nan,nan,nan,nan,nan,nan,nan,nan,Still,U15
79,,,9.657499488653334,9.5844891211,9.69101275759,0.03853300830219245,9.806649935282499,9.806649317489999,9.80665076881,4.812536417192664e-07,0.04769421202514,0.015383303887700001,0.07807866168560001,0.026550768412262112,256.2610945417143,255.186874371,257.834159763,0.951454118552277,0.06739102585432,0.0428856809686,0.137663551019,0.03975266523249598,432.38881535400003,432.38881535400003,432.38881535400003,0.7058315345172044,0.904658669536,0.904658669536,0.904658669536,nan,0.04414566228957666,0.006064653660159999,0.0869806304982,0.03760678871642747,0.7568028835220962,0.722376795066,0.942163085748,0.06721243562256944,42.54838262925,41.9959965316,43.10076872689999,0.7811919109629744,1014.94214,1014.94214,1014.94214,0.006434671708790122,nan,nan,nan,nan,67.50961429237145,67.50961429237145,67.50961429237145,20.290288337872656,nan,nan,nan,nan,nan,nan,nan,nan,nan,nan,nan,nan,Still,U15
80,,,9.722155058857998,9.686072480049999,9.77556080597,0.03356531666501892,9.80664997916,9.80664930386,9.80665078669,7.502064924597399e-07,0.07524405647325,0.0506716477265,0.127027340693,0.027296663608254702,254.51397122839998,251.82233727599998,256.58313665,2.278003343830547,0.06081272973475714,0.0343351162022,0.137893674719,0.03500771952773865,432.9266125665,432.35457357,433.498651563,0.8089853070565928,0.856542459087,0.856542459087,0.856542459087,nan,0.02689951822635,0.021771431480799998,0.0362392415535,0.006567067784717035,0.7866778155441886,0.740621011092,0.94014097824,0.07457185500748949,42.914073732700004,42.8012189056,43.0269285598,0.15960082706408765,1014.94214,1014.94214,1014.94214,0.006434671708790122,nan,nan,nan,nan,67.50961429237145,67.50961429237145,67.50961429237145,20.290288337872656,nan,nan,nan,nan,nan,nan,nan,nan,nan,nan,nan,nan,Still,U15
81,,,9.692527420733333,9.6600893527,9.71859488022,0.01974914547246284,9.80665050473,9.80664978621,9.806651303019999,5.237385695098139e-07,0.05283828075776666,0.0257009524739,0.0673589891669,0.023520891311267746,251.51478576237497,250.64708455599998,252.27435934,0.45293124271361535,0.03931731063512222,0.0252583945407,0.044621670941199995,0.005696639195910046,432.9266125665,432.35457357,433.498651563,0.8089853070565928,0.856542459087,0.856542459087,0.856542459087,nan,0.038185449759982504,0.00664372639173,0.0947438962362,0.03985567020551566,0.7894884885526328,0.7665246976629999,0.9365855653899999,0.05022516265291218,43.084821733300004,42.7078443858,43.6635710661,0.4231020861363269,1014.94214,1014.94214,1014.94214,0.006434671708790122,nan,nan,nan,nan,67.50961429237145,67.50961429237145,67.50961429237145,20.290288337872656,nan,nan,nan,nan,nan,nan,nan,nan,nan,nan,nan,nan,Still,U15
82,,,9.64121427037,9.476250240499999,9.69205097723,0.09271344956497436,9.806650193868334,9.80664958676,9.80665090321,3.8151134005233655e-07,0.084392669631825,0.044965650024499995,0.17414663476300002,0.060857195340509665,255.578131319,251.789985095,261.522239491,3.660937591369187,0.0732084972057,0.0398703302636,0.118262985891,0.03861852175896879,431.880895128,431.880895128,431.880895128,0.8089853070565928,0.856542459087,0.856542459087,0.856542459087,nan,0.07185793412167286,0.00349092943791,0.147408013915,0.05675917674653135,0.7983187776588124,0.77639055278,0.9408175738689999,0.043049441522317995,43.02031595345,42.7657799269,43.27485198,0.3599683008595674,1014.94214,1014.94214,1014.94214,0.006434671708790122,nan,nan,nan,nan,67.50961429237145,67.50961429237145,67.50961429237145,20.290288337872656,nan,nan,nan,nan,nan,nan,nan,nan,nan,nan,nan,nan,Still,U15
83,,,9.680285764616,9.65962719646,9.69642785163,0.013626938849727144,9.80665003634182,9.806649311000001,9.80665063199,4.449047132981786e-07,0.052337702691099997,0.052337702691099997,0.052337702691099997,0.060857195340509665,254.92554625900001,254.756918843,255.15657422099997,0.20700598154859925,0.0450948325797,0.0363545704094,0.076611885098,0.012084614613499176,432.395284656,432.395284656,432.395284656,0.8089853070565928,0.856542459087,0.856542459087,0.856542459087,nan,0.01566305564588857,0.007092858978219999,0.0383797980088,0.010326064075203827,0.8142707140974782,0.793846033615,0.938345850036,0.03891358439868031,43.211460723375,42.7526195684,43.5033832541,0.35794160745177467,1014.94214,1014.94214,1014.94214,0.0,nan,nan,nan,nan,67.50961429237145,67.50961429237145,67.50961429237145,20.290288337872656,nan,nan,nan,nan,nan,nan,nan,nan,nan,nan,nan,nan,Still,U15
84,,,9.689332338716,9.67584399612,9.70195168658,0.012000103618272365,9.8066502053425,9.806649913989999,9.806650535489998,3.1044192664980166e-07,0.043496969934299995,0.0269113302182,0.0664131762562,0.016548519225269682,256.05289452066665,255.24262847,257.566039856,1.3115218579035286,0.040384578337725,0.0392157594306,0.041635732709699995,0.000813784509498513,433.2083019795,433.027135298,433.38946866099997,0.25620837802739005,0.856542459087,0.856542459087,0.856542459087,nan,0.006960268124853334,0.00218541876217,0.0196215687808,0.0066642253792755434,0.8326970886527778,0.811424754393,0.9383248448970001,0.03783135398174085,42.829328854559996,42.2072904363,43.4469160047,0.5861252797697488,1014.9122,1014.9122,1014.9122,0.0,nan,nan,nan,nan,67.50961429237145,67.50961429237145,67.50961429237145,20.290288337872656,nan,nan,nan,nan,nan,nan,nan,nan,nan,nan,nan,nan,Still,U15
85,,,9.687821193221668,9.654869185379999,9.7306846899,0.027613105297643135,9.806650126916667,9.8066498962,9.806650494089999,3.214551740352444e-07,0.05604098024034444,0.0250674066892,0.08855364852610001,0.019824282747475046,257.1876207775,256.837721034,257.719697054,0.3801326570628331,0.04173607126276,0.0365081089806,0.053225532578300004,0.006742922808360653,433.4791529035,433.016169223,433.942136584,0.6547578001205154,0.8649186342499999,0.8649186342499999,0.8649186342499999,nan,0.014284544238342,0.00817102111561,0.0208510834775,0.004967492318659992,0.84639621257194,0.825014444926,0.9380178532529999,0.0344704110724526,42.829328854559996,42.2072904363,43.4469160047,0.5861252797697488,1014.9182000000001,1014.9142,1014.9222,0.005656854249439002,nan,nan,nan,nan,67.50961429237145,67.50961429237145,67.50961429237145,20.290288337872656,nan,nan,nan,nan,nan,nan,nan,nan,nan,nan,nan,nan,Still,U15
86,,,9.697967033262,9.67912052072,9.72878983106,0.020346783206592757,9.806649990827502,9.80664931752,9.80665075278,5.381769374970761e-07,0.036124664195287495,0.025368328209099997,0.06212273884740001,0.011598153005502987,257.10627388849997,257.015791726,257.27996549200003,0.09372771253901255,0.03940647753051429,0.0342369894457,0.0425296929144,0.002705125742702129,433.4458558835,433.074157735,433.817554032,0.5256605627176714,0.8649186342499999,0.8649186342499999,0.8649186342499999,nan,0.0042616713676599995,0.00391827161797,0.00460507111735,0.0004856405833271241,0.8600832331242999,0.843277866874,0.937708981814,0.026450417794577935,43.35086459785,43.001927635,43.699801560699996,0.49347138527574286,1014.9182000000001,1014.9142,1014.9222,0.005656854249439002,nan,nan,nan,nan,67.50961429237145,67.50961429237145,67.50961429237145,20.290288337872656,nan,nan,nan,nan,nan,nan,nan,nan,nan,nan,nan,nan,Still,U15
87,,,9.71355142470111,9.666559636939999,9.763133287,0.027102195550567094,9.806650011687001,9.80664957008,9.806650924380001,4.277448619343407e-07,0.0425918914565,0.0355531101983,0.0521334390704,0.008568821736397957,257.1834296256,257.034191912,257.315592953,0.12441425638379627,0.0396645351506,0.0366365174728,0.041877982055699994,0.002112185626953621,434.757509711,434.757509711,434.757509711,0.5256605627176714,0.8649186342499999,0.8649186342499999,0.8649186342499999,nan,0.020481207506535,0.0031493046381599996,0.042088402784,0.014231741926278019,0.8706950324992045,0.8596861172820001,0.937632825745,0.015434981054621235,43.788727873999996,43.788727873999996,43.788727873999996,0.49347138527574286,1014.9182000000001,1014.9142,1014.9222,0.005656854249439002,nan,nan,nan,nan,67.50961429237145,67.50961429237145,67.50961429237145,20.290288337872656,nan,nan,nan,nan,nan,nan,nan,nan,nan,nan,nan,nan,Still,U15
88,,,9.698188860675,9.65516622269,9.72270888829,0.020784859389147935,9.806650029387272,9.806649403029999,9.80665064573,3.876324402404187e-07,0.0408049582808,0.029236369483,0.052373547078599994,0.016360455175366214,257.14215291166664,256.671652666,257.750339859,0.4835584942715464,0.04623408016348333,0.0378368286046,0.0578556316358,0.00822720837732982,433.72804105225,432.489328509,435.356321335,1.1979056290879766,0.8649186342499999,0.8649186342499999,0.8649186342499999,nan,0.014118399708551999,0.00564991543126,0.0192488092358,0.00538048472684895,0.8930709754715833,0.8750372980159999,0.9369988358670001,0.020236862229579284,42.4503705942,42.4503705942,42.4503705942,0.49347138527574286,1014.9222,1014.9222,1014.9222,0.005656854249439002,nan,nan,nan,nan,67.50961429237145,67.50961429237145,67.50961429237145,20.290288337872656,nan,nan,nan,nan,nan,nan,nan,nan,nan,nan,nan,nan,Still,U15
89,,,9.691079730594002,9.67556912041,9.70549805388,0.011682203406985937,9.806650108471999,9.80664924006,9.80665080255,5.871362433277851e-07,0.04429948923293333,0.0240244505156,0.09596766705039998,0.026046987258503032,256.91277380400004,256.731144818,257.062085997,0.1398651285895856,0.040677125212536365,0.0384152341033,0.0434730079914,0.0013834174159383567,434.010957829,433.991557863,434.030357795,0.0274356950267492,0.8649186342499999,0.8649186342499999,0.8649186342499999,nan,0.007104627991987999,0.0014147127826400002,0.0150637405437,0.005023420462586097,0.9080300881639131,0.892291206683,0.936972832402,0.016732230723955178,43.2692339137,42.6145397904,44.0559399475,0.7297115605548339,1014.9022,1014.9022,1014.9022,0.005656854249439002,nan,nan,nan,nan,67.50961429237145,67.50961429237145,67.50961429237145,20.290288337872656,nan,nan,nan,nan,nan,nan,nan,nan,nan,nan,nan,nan,Still,U15
90,,,9.671753015978002,9.58696872872,9.73257537746,0.0473010998757959,9.806649860941999,9.80664961075,9.806650306669999,2.74434724134215e-07,0.08046069348457499,0.050945107469100005,0.118346670859,0.028216000095454774,256.307996838,254.88377180000003,257.552255434,1.151019315934518,0.07087358715053334,0.0208692151751,0.211180522503,0.05597703708703085,434.010957829,433.991557863,434.030357795,0.0274356950267492,0.8680472629129999,0.8680472629129999,0.8680472629129999,nan,0.061752297045373994,0.00517929690467,0.132401187471,0.04874195583079386,0.92016333356358,0.906863444249,0.938115470478,0.010125408673039403,42.127254767400004,42.1208302752,42.1336792596,0.009085604000601212,1014.9022,1014.9022,1014.9022,0.005656854249439002,nan,nan,nan,nan,78.87878928944433,78.87878928944433,78.87878928944433,20.290288337872656,nan,nan,nan,nan,nan,nan,nan,nan,nan,nan,nan,nan,Still,U15
91,,,9.718004122076666,9.6752331497,9.86611567243,0.07318428615138556,9.806650210448998,9.80664917257,9.80665099522,5.57354380357024e-07,0.086935044305214,0.00962920163967,0.18432619241599998,0.06892782932554144,257.24687463580005,255.761596114,260.616228572,1.9968009441306274,0.06860574826056666,0.0336096126942,0.101121119597,0.033824052602328576,434.439262231,434.439262231,434.439262231,0.0274356950267492,0.8680472629129999,0.8680472629129999,0.8680472629129999,nan,0.05815298382370001,0.0502805805186,0.0662494621589,0.007986798634297305,0.9305197922865192,0.922597577826,0.9396534955149999,0.005743876813413376,43.07486635206667,42.4359685594,43.7864385086,0.6781618120298647,1014.9059000000001,1014.8922,1014.9133,0.011877289253033763,nan,nan,nan,nan,78.87878928944433,78.87878928944433,78.87878928944433,20.290288337872656,nan,nan,nan,nan,nan,nan,nan,nan,nan,nan,nan,nan,Still,U15
92,,,9.686519111443333,9.652403642100001,9.75266657611,0.03498281323137507,9.806650190315713,9.80664977411,9.80665096353,4.996320726017582e-07,0.04811537434185,0.0240362584766,0.0721944902071,0.03405301222658972,254.98309893200002,254.680840495,255.386163285,0.32432211041934234,0.04180721631577273,0.032553166264200004,0.057554144231000005,0.008053678585144108,433.467123011,433.467123011,433.467123011,0.0274356950267492,0.870798321707,0.870798321707,0.870798321707,nan,0.022748936559498,0.00730660230198,0.0626593700097,0.01725542213171354,0.9437546770720666,0.93761461305,0.950100811637,0.003860756628597318,42.7012772826,42.7012772826,42.7012772826,0.6781618120298647,1014.8972,1014.8922,1014.9022,0.007071067811859044,nan,nan,nan,nan,67.18152452118524,67.18152452118524,67.18152452118524,20.290288337872656,nan,nan,nan,nan,nan,nan,nan,nan,nan,nan,nan,nan,Still,U15
93,,,9.686717348457499,9.66103934261,9.70701971837,0.016795852498409442,9.80665019694,9.80664961953,9.806650632410001,3.258181069597321e-07,0.047398533902126665,0.008057674332380001,0.0801552454699,0.036496961444295005,256.39470813033336,255.627226175,257.243224701,0.8110411615141266,0.04825040050845,0.034862840116699996,0.0643737370162,0.01063098904607352,433.467123011,433.467123011,433.467123011,0.0274356950267492,0.870798321707,0.870798321707,0.870798321707,nan,0.014622207979976666,0.00336980938028,0.0341576027618,0.010031744876462639,0.9523455733617441,0.938432444993,0.9608926889920001,0.007019929098648712,42.18492318733333,41.27739062,43.0006321758,0.8652826371399778,1014.8972,1014.8922,1014.9022,0.007071067811859044,nan,nan,nan,nan,67.18152452118524,67.18152452118524,67.18152452118524,20.290288337872656,nan,nan,nan,nan,nan,nan,nan,nan,nan,nan,nan,nan,Still,U15
94,,,9.700282491235,9.656728812619999,9.72793575798,0.02541374900786862,9.806650253023333,9.806649831289999,9.80665090928,3.5350676680192115e-07,0.0639493766893375,0.021368171672999998,0.106894637852,0.028117436305619265,257.0188152582,256.799036001,257.480763725,0.27585338367860907,0.0405779176043375,0.0298081921222,0.0525285623401,0.008324013295834171,434.63080893800003,434.63080893800003,434.63080893800003,0.0274356950267492,0.869847054164,0.869847054164,0.869847054164,nan,0.021341528121266665,0.018471367412400002,0.025182258869,0.003459121374832913,0.9633850292260638,0.938250243219,0.970818702349,0.00895699660387456,42.18492318733333,41.27739062,43.0006321758,0.8652826371399778,1014.9122,1014.9122,1014.9122,0.007071067811859044,nan,nan,nan,nan,67.18152452118524,67.18152452118524,67.18152452118524,20.290288337872656,nan,nan,nan,nan,nan,nan,nan,nan,nan,nan,nan,nan,Still,U15
95,,,9.689118822156667,9.67237929788,9.71853445842,0.025555578108159165,9.806650083934443,9.80664964735,9.806650681519999,2.7147023480558814e-07,0.048728668910125,0.035138772442800004,0.0744287030677,0.017941266687794978,256.608460535,256.474036039,256.752635253,0.10044282288618231,0.04075595312196923,0.0360737588066,0.046321354126000004,0.003177275489909088,434.07604632550004,433.94461745800004,434.20747519300005,0.18586848690584457,0.8698554305959999,0.8698554305959999,0.8698554305959999,nan,0.009485155772742856,0.0035091565659999997,0.019375435421799998,0.0055309624040595405,0.9725443890933488,0.938424051372,0.979030953786,0.009742794939994479,43.00081017965,42.0851954344,43.9164249249,1.2948747906413365,1014.9322,1014.9322,1014.9322,0.007071067811859044,nan,nan,nan,nan,67.18152452118524,67.18152452118524,67.18152452118524,20.290288337872656,nan,nan,nan,nan,nan,nan,nan,nan,nan,nan,nan,nan,Still,U15
96,,,9.6537371077075,9.56418818975,9.70982071278,0.05074256606311138,9.80664993576125,9.806649553080002,9.806650589530001,3.317206269372394e-07,0.06770656839393334,0.0315013051795,0.142291822493,0.04438155160274206,256.6554883488,256.490262881,256.871777597,0.13792189608328861,0.04655643781073334,0.0340347248459,0.080239146306,0.01743277349131724,432.86779164049995,432.59150514099997,433.14407814,0.3907281146934915,0.8698554305959999,0.8698554305959999,0.8698554305959999,nan,0.0491906380695975,0.00272295644111,0.14585118648700002,0.059139139904540616,0.9778348405275653,0.938142649067,0.9868749327680001,0.014117490339111253,43.09802010120001,42.4717018649,43.5010639016,0.549804652530916,1014.9322,1014.9322,1014.9322,0.007071067811859044,nan,nan,nan,nan,67.18152452118524,67.18152452118524,67.18152452118524,20.290288337872656,nan,nan,nan,nan,nan,nan,nan,nan,nan,nan,nan,nan,Still,U15
97,,,9.623929747705,9.41474665673,9.74242514852,0.14365864756672622,9.80665021435375,9.8066496052,9.80665062365,3.548517689764793e-07,0.41231997540647136,0.06763620319590001,1.8993799006799998,0.6613951195515779,264.83866453325,255.944826032,288.212150685,14.10773279156812,0.19540338211912003,0.0399125968144,0.7696853453110001,0.3213508184138877,433.59102051599996,433.59102051599996,433.59102051599996,0.3907281146934915,0.8698554305959999,0.8698554305959999,0.8698554305959999,nan,0.2555776853035225,0.007193883725789999,0.8562159308059999,0.40521688428331487,0.981111145326349,0.9357654651489999,0.999936634523,0.017880058703068195,43.101815760449995,42.504669059,43.698962461899995,0.8444929639169436,1014.9122,1014.9122,1014.9122,0.007071067811859044,nan,nan,nan,nan,77.01292470366133,77.01292470366133,77.01292470366133,20.290288337872656,nan,nan,nan,nan,nan,nan,nan,nan,nan,nan,nan,nan,Still,U15
98,,,9.027621672185,8.054575813169999,10.0006675312,1.376094650629992,9.806650201876666,9.80664988462,9.806650417,2.8050049797149793e-07,0.9118298344206668,0.151555318305,3.50003597799,1.3065892172130535,108.77391904547143,89.67583910190001,186.88503869099998,34.565490679391225,0.274368850502,0.12899431938,0.470457355331,0.14538034862406024,433.59102051599996,433.59102051599996,433.59102051599996,0.3907281146934915,0.8698554305959999,0.8698554305959999,0.8698554305959999,nan,0.8122869702843335,0.451302079613,1.13924264818,0.3452304258921431,0.9326399291863439,0.724855100134,0.989977954068,0.06941593420984625,43.101815760449995,42.504669059,43.698962461899995,0.8444929639169436,1014.9122,1014.9122,1014.9122,0.007071067811859044,nan,nan,nan,nan,77.01292470366133,77.01292470366133,77.01292470366133,20.290288337872656,nan,nan,nan,nan,nan,nan,nan,nan,nan,nan,nan,nan,Still,U15
