time,activityrecognition#0,activityrecognition#1,android.sensor.accelerometer#mean,android.sensor.accelerometer#min,android.sensor.accelerometer#max,android.sensor.accelerometer#std,android.sensor.gravity#mean,android.sensor.gravity#min,android.sensor.gravity#max,android.sensor.gravity#std,android.sensor.linear_acceleration#mean,android.sensor.linear_acceleration#min,android.sensor.linear_acceleration#max,android.sensor.linear_acceleration#std,android.sensor.orientation#mean,android.sensor.orientation#min,android.sensor.orientation#max,android.sensor.orientation#std,android.sensor.gyroscope_uncalibrated#mean,android.sensor.gyroscope_uncalibrated#min,android.sensor.gyroscope_uncalibrated#max,android.sensor.gyroscope_uncalibrated#std,android.sensor.magnetic_field_uncalibrated#mean,android.sensor.magnetic_field_uncalibrated#min,android.sensor.magnetic_field_uncalibrated#max,android.sensor.magnetic_field_uncalibrated#std,android.sensor.rotation_vector#mean,android.sensor.rotation_vector#min,android.sensor.rotation_vector#max,android.sensor.rotation_vector#std,android.sensor.gyroscope#mean,android.sensor.gyroscope#min,android.sensor.gyroscope#max,android.sensor.gyroscope#std,android.sensor.game_rotation_vector#mean,android.sensor.game_rotation_vector#min,android.sensor.game_rotation_vector#max,android.sensor.game_rotation_vector#std,android.sensor.magnetic_field#mean,android.sensor.magnetic_field#min,android.sensor.magnetic_field#max,android.sensor.magnetic_field#std,android.sensor.pressure#mean,android.sensor.pressure#min,android.sensor.pressure#max,android.sensor.pressure#std,android.sensor.light#mean,android.sensor.light#min,android.sensor.light#max,android.sensor.light#std,sound#mean,sound#min,sound#max,sound#std,speed#mean,speed#min,speed#max,speed#std,android.sensor.proximity#mean,android.sensor.proximity#min,android.sensor.proximity#max,android.sensor.proximity#std,android.sensor.step_counter#mean,android.sensor.step_counter#min,android.sensor.step_counter#max,android.sensor.step_counter#std,target,user
1,,,9.832228323243104,8.99295046414,10.676387074500001,0.3378024842037897,9.80664944695,9.80664944695,9.80664944695,4.278066745405219e-07,0.2781092168535,0.208264733521,0.347953700186,0.09877501558576311,nan,nan,nan,nan,0.16137794623016666,0.08065271914149999,0.28388874655,0.10786911655747458,170.31797197635186,166.442094261,173.40674727400003,2.4340534450093467,nan,nan,nan,nan,0.09133573247525001,0.0158354371477,0.146388598403,0.05796112065871614,0.094624874272,0.094624874272,0.094624874272,0.07138756794619752,82.33960165069999,82.33960165069999,82.33960165069999,nan,1026.9785000000002,1026.9519,1027.0051,0.03761808075916728,nan,nan,nan,nan,75.68418347766061,73.32286854583117,78.04549840949005,3.339403601627295,nan,nan,nan,nan,nan,nan,nan,nan,nan,nan,nan,nan,Train,U7
2,,,9.7575250810275,8.676064769989999,11.8259809906,0.5281575571867492,9.80664944695,9.80664944695,9.80664944695,4.278066745405219e-07,0.335334006282,0.102728463537,0.567939549027,0.32895391323313367,96.17144173944999,96.1586780618,96.18420541709999,0.01805056603837795,0.14992669886521667,0.0326455913037,0.637088821939,0.2393093533648645,174.41015697044682,173.06863695799998,175.253816353,0.4813687518752703,nan,nan,nan,nan,0.055043255749633334,0.023690233344200003,0.0930923366879,0.03518225244407684,0.14161411080500003,0.140264988518,0.142963233092,0.0019079470355752091,77.2094553795,77.2094553795,77.2094553795,nan,1026.5165,1026.3188,1026.9082,0.3392271952541993,nan,nan,nan,nan,79.31155915821056,79.31155915821056,79.31155915821056,3.339403601627295,nan,nan,nan,nan,nan,nan,nan,nan,nan,nan,nan,nan,Train,U7
3,,,9.76383640001097,7.94393161113,10.8249861846,0.4644404075382599,9.80664944695,9.80664944695,9.80664944695,4.278066745405219e-07,0.335334006282,0.102728463537,0.567939549027,0.32895391323313367,96.17144173944999,96.1586780618,96.18420541709999,0.01805056603837795,1.7083954913163002,0.0819015185626,3.33488946407,2.300209835386378,181.51053027936842,174.293029121,185.28891188400002,2.7956363100706603,nan,nan,nan,nan,0.42293434163825006,0.124628484332,0.623987415184,0.21800435140642838,0.170931009214,0.170931009214,0.170931009214,0.0019079470355752091,81.18449601036667,70.8306430862,98.30712080010001,14.936579639150196,1026.281,1026.269,1026.3010000000002,0.013885484027156874,nan,nan,nan,nan,71.72274050461589,71.72274050461589,71.72274050461589,3.339403601627295,nan,nan,nan,nan,nan,nan,nan,nan,nan,nan,nan,nan,Train,U7
4,,,9.749566150621481,6.70932030741,13.215219252799999,1.3878868442172132,9.80664944695,9.80664944695,9.80664944695,4.278066745405219e-07,2.2620289610900004,2.2620289610900004,2.2620289610900004,0.32895391323313367,96.17144173944999,96.1586780618,96.18420541709999,0.01805056603837795,0.8899764105104285,0.171464979597,1.5217514844600002,0.4776932464270644,179.8162448033889,165.933631311,209.05031417799998,15.462763737693974,nan,nan,nan,nan,1.2947273098945,0.643508758378,1.6005308066,0.44090521641929514,0.367789684085,0.367789684085,0.367789684085,0.0019079470355752091,110.4284295365,106.67450492,114.18235415299999,5.308851104780511,1026.2632749999998,1026.2598,1026.2666,0.002792101956068263,nan,nan,nan,nan,71.72274050461589,71.72274050461589,71.72274050461589,3.339403601627295,nan,nan,nan,nan,nan,nan,nan,nan,nan,nan,nan,nan,Train,U7
5,,,9.976346467920001,6.48457915232,22.7649076744,2.1905096502937083,9.80664944695,9.80664944695,9.80664944695,4.278066745405219e-07,2.2620289610900004,2.2620289610900004,2.2620289610900004,0.32895391323313367,32.1016457317,32.1016457317,32.1016457317,0.01805056603837795,1.29416114382,1.17796422241,1.41035806523,0.1643272621640227,171.19381214299997,162.30865657799998,186.192212512,9.80655281779866,0.427047907803,0.427047907803,0.427047907803,nan,1.0317259762620696,0.00938429052983,2.3392940569599996,1.089766113847203,0.6386830007746668,0.55954643918,0.695019382405,0.07055576334584944,117.323058262,117.323058262,117.323058262,5.308851104780511,1026.3113,1026.3113,1026.3113,0.002792101956068263,nan,nan,nan,nan,69.90533488775621,69.90533488775621,69.90533488775621,3.339403601627295,nan,nan,nan,nan,nan,nan,nan,nan,nan,nan,nan,nan,Train,U7
6,,,9.782441800347438,8.336935167030001,10.3651066208,0.18470003990022657,9.80664971775,9.80664971775,9.80664971775,4.278066745405219e-07,2.2620289610900004,2.2620289610900004,2.2620289610900004,0.32895391323313367,32.1016457317,32.1016457317,32.1016457317,0.01805056603837795,0.049244415617,0.0416464977261,0.0608662146722,0.010222186389924472,152.50976136666668,151.363470357,153.269892673,0.7680545208447235,0.427047907803,0.427047907803,0.427047907803,nan,1.0317259762620696,0.00938429052983,2.3392940569599996,1.089766113847203,0.6958511833750001,0.6958511833750001,0.6958511833750001,0.07055576334584944,117.323058262,117.323058262,117.323058262,5.308851104780511,1026.276075,1026.2622,1026.2991,0.016176191352330987,nan,nan,nan,nan,69.90533488775621,69.90533488775621,69.90533488775621,3.339403601627295,nan,nan,nan,nan,nan,nan,nan,nan,nan,nan,nan,nan,Train,U7
7,,,9.788873756785243,9.603573086139999,9.9280108612,0.07200331179884197,9.80664971775,9.80664971775,9.80664971775,4.278066745405219e-07,0.10663793450999999,0.10663793450999999,0.10663793450999999,0.32895391323313367,32.1016457317,32.1016457317,32.1016457317,0.01805056603837795,0.0442517216319,0.0421098473259,0.0463935959379,0.0030290676924436626,150.053257212,150.053257212,150.053257212,0.7680545208447235,0.17532598395166668,0.174720903374,0.175771460252,0.0005431598130252208,0.017191271974400003,0.017191271974400003,0.017191271974400003,1.089766113847203,0.696469907896,0.696469907896,0.696469907896,0.07055576334584944,156.40524287899999,156.40524287899999,156.40524287899999,5.308851104780511,1026.30844,1026.3008,1026.3179,0.006167900777426986,nan,nan,nan,nan,68.91830827902247,68.91830827902247,68.91830827902247,3.339403601627295,nan,nan,nan,nan,nan,nan,nan,nan,nan,nan,nan,nan,Train,U7
8,,,9.773742314581309,9.6541973814,9.94917198745,0.06574033807180446,9.806649943160002,9.806649943160002,9.806649943160002,4.278066745405219e-07,0.0690698621303,0.0690698621303,0.0690698621303,0.32895391323313367,32.1016457317,32.1016457317,32.1016457317,0.01805056603837795,0.040941646025,0.040941646025,0.040941646025,0.0030290676924436626,149.81856962266667,149.619183262,150.090173397,0.2436584555158196,0.172785231593,0.17257146343199997,0.17299899975400002,0.0003023138324897864,0.017191271974400003,0.017191271974400003,0.017191271974400003,1.089766113847203,0.696469907896,0.696469907896,0.696469907896,0.07055576334584944,155.972473751,155.972473751,155.972473751,5.308851104780511,1026.2696333333336,1026.2659,1026.2730000000001,0.003564173583513175,nan,nan,nan,nan,68.91830827902247,68.91830827902247,68.91830827902247,3.339403601627295,nan,nan,nan,nan,nan,nan,nan,nan,nan,nan,nan,nan,Train,U7
9,,,9.774935385842777,9.62069652089,9.90748604598,0.06871087568456595,9.806649943160002,9.806649943160002,9.806649943160002,4.278066745405219e-07,0.11560987375399999,0.11560987375399999,0.11560987375399999,0.32895391323313367,19.6893641891,19.6893641891,19.6893641891,0.01805056603837795,0.045589390895866666,0.0434015339013,0.048146104333600004,0.0023936955640835025,150.05292089710716,149.416130321,150.470628363,0.2785664027105671,0.171181309171,0.170890654806,0.171471963536,0.0004110473449459451,0.00772690213379,0.00772690213379,0.00772690213379,1.089766113847203,0.7049860360986667,0.7042077250100001,0.7062765888120001,0.001125541189533879,155.738145616,155.738145616,155.738145616,5.308851104780511,1026.39835,1026.2942,1026.5239,0.12055677777152983,nan,nan,nan,nan,68.91830827902247,68.91830827902247,68.91830827902247,3.339403601627295,nan,nan,nan,nan,nan,nan,nan,nan,nan,nan,nan,nan,Train,U7
10,,,9.773887805151725,9.62977818508,9.8627851969,0.056301148164144305,9.806649257482501,9.806649026799999,9.80664948008,2.0033868143810975e-07,0.04185881172225,0.038333143049400005,0.04538448039509999,0.004986048453578412,19.6893641891,19.6893641891,19.6893641891,0.01805056603837795,0.046136080127933334,0.0424276619011,0.0488844906329,0.0033337472065953387,149.91267595653846,149.479363124,150.47086096700002,0.2402913522783216,0.16977921807000002,0.169291640798,0.170266795342,0.000689538390767288,0.00598523265639,0.00598523265639,0.00598523265639,1.089766113847203,0.7049860360986667,0.7042077250100001,0.7062765888120001,0.001125541189533879,155.738145616,155.738145616,155.738145616,5.308851104780511,1026.8855,1026.8552,1026.9246,0.03392943658050443,nan,nan,nan,nan,68.91830827902247,68.91830827902247,68.91830827902247,3.339403601627295,nan,nan,nan,nan,nan,nan,nan,nan,nan,nan,nan,nan,Train,U7
11,,,9.773826945341428,9.668547716660001,9.875685708099999,0.05718879654823942,9.8066500017,9.8066500017,9.8066500017,2.0033868143810975e-07,0.04185881172225,0.038333143049400005,0.04538448039509999,0.004986048453578412,19.6893641891,19.6893641891,19.6893641891,0.01805056603837795,0.043670059305700004,0.0400384763727,0.0473016422387,0.005135833836731265,149.67152378783334,149.442229641,149.92458104,0.13402108109452887,0.16977921807000002,0.169291640798,0.170266795342,0.000689538390767288,0.0075273332348766665,0.00722785499312,0.00782289222301,0.00029753797514017337,0.7049860360986667,0.7042077250100001,0.7062765888120001,0.001125541189533879,155.71053648633333,155.522281362,155.896418689,0.18707995064037003,1026.94065,1026.9377,1026.9431,0.0026210684844378187,nan,nan,nan,nan,69.41459204837292,69.2089356776144,69.62024841913146,0.29084202871513637,nan,nan,nan,nan,nan,nan,nan,nan,nan,nan,nan,nan,Train,U7
12,,,9.773522628317975,9.6317824916,9.91223421618,0.061851364207430405,9.80665009421,9.80665009421,9.80665009421,2.0033868143810975e-07,0.04185881172225,0.038333143049400005,0.04538448039509999,0.004986048453578412,19.337502910599998,19.337502910599998,19.337502910599998,0.01805056603837795,0.04416807195773333,0.04391437446819999,0.044421286101000004,0.00025345616205707804,149.77376272200001,149.77376272200001,149.77376272200001,0.13402108109452887,0.168105558025,0.168105558025,0.168105558025,0.000689538390767288,0.00710986634962,0.00532539992339,0.00889433277585,0.0025236166215739145,0.7049860360986667,0.7042077250100001,0.7062765888120001,0.001125541189533879,155.60748746299998,155.60748746299998,155.60748746299998,0.18707995064037003,1026.9322124999999,1026.9236,1026.9431,0.006427493957291659,nan,nan,nan,nan,69.41459204837292,69.2089356776144,69.62024841913146,0.29084202871513637,nan,nan,nan,nan,nan,nan,nan,nan,nan,nan,nan,nan,Train,U7
13,,,9.770698031111548,9.58711280317,9.942797005820001,0.07160796648573803,9.80665009421,9.80665009421,9.80665009421,2.0033868143810975e-07,0.110457110098,0.110457110098,0.110457110098,0.004986048453578412,19.310563355899998,19.310563355899998,19.310563355899998,0.01805056603837795,0.04631577764555,0.0417717500077,0.0508598052834,0.006426225513245651,149.387017605,149.28516336200002,149.488871848,0.14404365183583234,0.168105558025,0.168105558025,0.168105558025,0.000689538390767288,0.015567849520905,0.0065792199067099995,0.0245564791351,0.01271184190754301,0.7049860360986667,0.7042077250100001,0.7062765888120001,0.001125541189533879,155.922384538,155.922384538,155.922384538,0.18707995064037003,1026.917,1026.9033,1026.9260000000002,0.009719053451920132,nan,nan,nan,nan,69.41459204837292,69.2089356776144,69.62024841913146,0.29084202871513637,nan,nan,nan,nan,nan,nan,nan,nan,nan,nan,nan,nan,Train,U7
14,,,9.808981559485384,9.34864798901,10.1937492151,0.15407180413611002,9.806649367270001,9.80664931463,9.80664941991,7.444420180249078e-08,0.548583085104,0.548583085104,0.548583085104,0.004986048453578412,359.603255903,359.374348223,359.85718207699995,0.2423872447626422,0.0467680005367,0.0418609900441,0.0516750110293,0.006939560789342001,148.45802999699998,148.39962938,148.516430614,0.08259094461236206,0.14287635975649998,0.14258195156099998,0.14317076795199998,0.0004163560629498911,0.023750070273533333,0.014711583365499999,0.029549719574599998,0.007931590214022488,0.7049860360986667,0.7042077250100001,0.7062765888120001,0.001125541189533879,155.922384538,155.922384538,155.922384538,0.18707995064037003,1026.87685,1026.8538,1026.8999,0.03259762261255604,nan,nan,nan,nan,68.15121698972726,68.15121698972726,68.15121698972726,0.29084202871513637,nan,nan,nan,nan,nan,nan,nan,nan,nan,nan,nan,nan,Train,U7
15,,,9.798328237030375,9.441034850800001,10.2607134431,0.17981821507296195,9.80664954763,9.80664954763,9.80664954763,7.444420180249078e-08,0.38647553533,0.38647553533,0.38647553533,0.004986048453578412,358.9433727485,358.787804049,359.098941448,0.2200073647136569,0.04523034379783333,0.0414308974643,0.0503287714996,0.004588960125483712,146.5107355775,146.064129751,146.957341404,0.6315960168711515,0.13706540101700002,0.13706540101700002,0.13706540101700002,0.0004163560629498911,0.013983344257,0.013983344257,0.013983344257,0.007931590214022488,0.7255734136134999,0.7251556369329999,0.725991190294,0.0005908254476064267,155.922384538,155.922384538,155.922384538,0.18707995064037003,1026.839475,1026.8271,1026.8518,0.010677507511891358,nan,nan,nan,nan,71.59109920801997,71.59109920801997,71.59109920801997,0.29084202871513637,nan,nan,nan,nan,nan,nan,nan,nan,nan,nan,nan,nan,Train,U7
16,,,9.81005622985,9.408045732,10.1574802139,0.20777577194268457,9.80664945396,9.80664945396,9.80664945396,7.444420180249078e-08,0.38647553533,0.38647553533,0.38647553533,0.004986048453578412,358.19980743400004,358.19980743400004,358.19980743400004,0.2200073647136569,0.043720690049800004,0.0417181148179,0.044972294872500006,0.001752252656884742,144.36982652581818,142.973459075,146.151603573,0.7948418900938579,0.14404268236566667,0.141990642565,0.146132678669,0.0020712789029440066,0.0204799351133,0.0204799351133,0.0204799351133,0.007931590214022488,0.7279210074439999,0.7279210074439999,0.7279210074439999,0.0005908254476064267,167.075255325,167.075255325,167.075255325,0.18707995064037003,1026.8225,1026.8225,1026.8225,0.010677507511891358,nan,nan,nan,nan,71.59109920801997,71.59109920801997,71.59109920801997,0.29084202871513637,nan,nan,nan,nan,nan,nan,nan,nan,nan,nan,nan,nan,Train,U7
17,,,9.802050585233555,9.28674138843,10.4526173061,0.2723044520711074,9.80664945396,9.80664945396,9.80664945396,7.444420180249078e-08,0.38647553533,0.38647553533,0.38647553533,0.004986048453578412,357.804179955,357.804179955,357.804179955,0.2200073647136569,0.0443203673009,0.0443203673009,0.0443203673009,0.001752252656884742,146.73874523156098,141.12625553,148.496935995,1.8828305547541029,0.142387444246,0.142387444246,0.142387444246,0.0020712789029440066,0.0557229763904,0.0538947942067,0.057551158574099995,0.0025854400386773973,0.7279210074439999,0.7279210074439999,0.7279210074439999,0.0005908254476064267,168.97255039799998,168.97255039799998,168.97255039799998,0.18707995064037003,1026.7873,1026.7666,1026.8139999999999,0.024302811908567645,nan,nan,nan,nan,74.76926878923905,74.76926878923905,74.76926878923905,0.29084202871513637,nan,nan,nan,nan,nan,nan,nan,nan,nan,nan,nan,nan,Train,U7
18,,,9.793717715849365,9.07397426303,10.4841469376,0.25344809584234307,9.80664880872,9.80664880872,9.80664880872,7.444420180249078e-08,0.38647553533,0.38647553533,0.38647553533,0.004986048453578412,357.804179955,357.804179955,357.804179955,0.2200073647136569,0.0590209603002,0.042038892598699994,0.0760030280017,0.024016270460599398,145.27034468443478,142.557848631,149.63158383,2.0714123960873745,0.142387444246,0.142387444246,0.142387444246,0.0020712789029440066,0.01804702726,0.010148456146700001,0.0259455983733,0.011170266391797214,0.7279210074439999,0.7279210074439999,0.7279210074439999,0.0005908254476064267,177.75573127200002,177.75573127200002,177.75573127200002,0.18707995064037003,1026.7400666666665,1026.7014,1026.7661,0.03415001220113636,nan,nan,nan,nan,77.32220079688753,77.32220079688753,77.32220079688753,0.29084202871513637,nan,nan,nan,nan,nan,nan,nan,nan,nan,nan,nan,nan,Train,U7
19,,,9.783692561222603,8.84105880624,10.8200375698,0.3938603219656531,9.80664880872,9.80664880872,9.80664880872,7.444420180249078e-08,0.447846225602,0.447846225602,0.447846225602,0.004986048453578412,357.804179955,357.804179955,357.804179955,0.2200073647136569,0.052235323711050004,0.050742278494300005,0.0537283689278,0.002111484794764125,146.65065595364285,142.824437685,151.272238035,2.246800608268244,0.142387444246,0.142387444246,0.142387444246,0.0020712789029440066,0.00712385165392,0.00712385165392,0.00712385165392,0.011170266391797214,0.7447000932394999,0.744307558359,0.7450926281199999,0.0005551281517075324,178.84228501099997,178.84228501099997,178.84228501099997,0.18707995064037003,1026.7021,1026.7021,1026.7021,0.03415001220113636,124.0,124.0,124.0,nan,77.14061596545248,77.14061596545248,77.14061596545248,0.29084202871513637,nan,nan,nan,nan,nan,nan,nan,nan,nan,nan,nan,nan,Train,U7
20,,,9.82328069207,8.81249421904,11.156729979400001,0.4705698282194616,9.80664880872,9.80664880872,9.80664880872,7.444420180249078e-08,0.447846225602,0.447846225602,0.447846225602,0.004986048453578412,354.748775861,354.748775861,354.748775861,0.2200073647136569,0.06250785171495,0.05190557497380001,0.0731101284561,0.014993883559367146,146.7176690567778,145.704429349,147.632042592,0.5349706756694029,0.149425414408,0.149425414408,0.149425414408,0.0020712789029440066,0.03189613908,0.0300008850375,0.0337913931225,0.002680293971045933,0.7447000932394999,0.744307558359,0.7450926281199999,0.0005551281517075324,183.673027598,183.673027598,183.673027598,0.18707995064037003,1026.5163666666667,1026.4741,1026.5381,0.03660892423082322,124.0,124.0,124.0,nan,77.14061596545248,77.14061596545248,77.14061596545248,0.29084202871513637,nan,nan,nan,nan,nan,nan,nan,nan,nan,nan,nan,nan,Train,U7
21,,,9.918829474640454,8.295660929610001,12.416570023199998,0.6847865884974873,9.80664880872,9.80664880872,9.80664880872,7.444420180249078e-08,1.100361810061,0.633268651442,1.5674549686800001,0.6605694798106773,354.748775861,354.748775861,354.748775861,0.2200073647136569,0.049661079735100006,0.0462647257844,0.05305743368580001,0.004803169819699386,153.11144029185715,146.241789776,181.094260223,9.845878934841995,0.14621928192349998,0.142484731782,0.149953832065,0.005281451459471655,0.4865959521592667,0.059313726158800005,0.786410208241,0.3799386609447374,0.7522454335590001,0.7522454335590001,0.7522454335590001,0.0005551281517075324,183.86685692900002,183.86685692900002,183.86685692900002,0.18707995064037003,1026.3766,1026.3315,1026.4258,0.04528009128380441,124.0,124.0,124.0,nan,78.37405415250585,78.26355667980934,78.48455162520236,0.1562670244953527,nan,nan,nan,nan,nan,nan,nan,nan,nan,nan,nan,nan,Train,U7
22,,,9.974076043332904,8.342027777310001,12.032501720299999,0.8945586519568909,9.80664880872,9.80664880872,9.80664880872,7.444420180249078e-08,0.31200524450399997,0.31200524450399997,0.31200524450399997,0.6605694798106773,201.23134664034998,44.369214068699996,358.093479212,221.83655530559383,0.28514519651500003,0.28514519651500003,0.28514519651500003,0.004803169819699386,191.6613266736415,179.01921684599998,206.729025538,9.008357715578358,0.387380321648,0.387380321648,0.387380321648,0.005281451459471655,0.8115261437554999,0.235572330218,2.11673510752,0.8795430332198982,0.7522454335590001,0.7522454335590001,0.7522454335590001,0.0005551281517075324,135.9489042715,120.49556073299999,151.40224781,21.854328016157346,1026.21755,1026.1917,1026.2434,0.03655742058733216,124.0,124.0,124.0,nan,78.37405415250585,78.26355667980934,78.48455162520236,0.1562670244953527,nan,nan,nan,nan,nan,nan,nan,nan,nan,nan,nan,nan,Train,U7
23,,,9.779789960180507,9.175887775689999,10.4856771673,0.2245978385291181,9.806648928346666,9.8066481302,9.8066498067,8.411229962093233e-07,0.31200524450399997,0.31200524450399997,0.31200524450399997,0.6605694798106773,201.23134664034998,44.369214068699996,358.093479212,221.83655530559383,0.28514519651500003,0.28514519651500003,0.28514519651500003,0.004803169819699386,180.64019368888003,175.93845739900001,184.59634604200002,2.3647996571855194,0.25568177267700004,0.25568177267700004,0.25568177267700004,0.005281451459471655,0.047615894459799996,0.04745915700159999,0.047772631918,0.00022166023911833002,0.7522454335590001,0.7522454335590001,0.7522454335590001,0.0005551281517075324,155.769993073,155.769993073,155.769993073,21.854328016157346,1026.0758833333334,1026.0586,1026.0974,0.01520479091162169,124.0,124.0,124.0,nan,78.37405415250585,78.26355667980934,78.48455162520236,0.1562670244953527,nan,nan,nan,nan,nan,nan,nan,nan,nan,nan,nan,nan,Train,U7
24,,,9.791468589523108,9.03863784834,10.741000311099999,0.36140457826621963,9.80664854067,9.80664778346,9.80664929788,1.0708566509863562e-06,0.31200524450399997,0.31200524450399997,0.31200524450399997,0.6605694798106773,201.23134664034998,44.369214068699996,358.093479212,221.83655530559383,0.130302337189025,0.030616479533599996,0.330642345042,0.13577483008327812,175.27812874825003,169.97261544100002,178.934048479,4.139115555450196,0.257549897641,0.257549897641,0.257549897641,0.005281451459471655,0.369703808696,0.261418922898,0.477988694494,0.15313795409555334,0.786704309827,0.786704309827,0.786704309827,0.0005551281517075324,144.669738875,141.43316873,147.903279206,3.235056302097523,1025.930425,1025.8665,1025.9802,0.05669799379166541,124.0,124.0,124.0,nan,78.37405415250585,78.26355667980934,78.48455162520236,0.1562670244953527,nan,nan,nan,nan,nan,nan,nan,nan,nan,nan,nan,nan,Train,U7
25,,,9.800157884716883,8.782928719410002,12.066341606199998,0.423115426222623,9.80664854067,9.80664778346,9.80664929788,1.0708566509863562e-06,0.31200524450399997,0.31200524450399997,0.31200524450399997,0.6605694798106773,201.23134664034998,44.369214068699996,358.093479212,221.83655530559383,0.12555509508163334,0.0353035715099,0.274511729343,0.12996096802227927,166.83473846200002,165.016635525,168.03389539,1.2282859275812454,0.257549897641,0.257549897641,0.257549897641,0.005281451459471655,0.09240558286045,0.0511670296529,0.133644136068,0.0583201212387617,0.786704309827,0.786704309827,0.786704309827,0.0005551281517075324,132.35035709649998,131.958821785,132.74189240799998,0.5537145476712647,1025.7076749999999,1025.677,1025.7341,0.029580891918050405,124.0,124.0,124.0,nan,78.37405415250585,78.26355667980934,78.48455162520236,0.1562670244953527,nan,nan,nan,nan,nan,nan,nan,nan,nan,nan,nan,nan,Train,U7
26,,,9.823424890815671,7.4514518414,15.7614432558,1.0213362086617503,9.806648640174998,9.8066483462,9.80664893415,4.1574343185536235e-07,0.31200524450399997,0.31200524450399997,0.31200524450399997,0.6605694798106773,28.822388836300004,28.488341183200003,29.380391791100003,0.4863697715045042,0.1446337585725,0.036097949646,0.253169567499,0.15349281298699113,170.497332474,167.342433351,174.572477785,2.5341855858951483,0.255545613915,0.255545613915,0.255545613915,0.005281451459471655,0.23390761403306662,0.034490904767199994,0.5629831689989999,0.2871142290786351,0.698832861831,0.698832861831,0.698832861831,0.0005551281517075324,128.813430977,128.813430977,128.813430977,0.5537145476712647,1025.52,1025.52,1025.52,0.029580891918050405,124.0,124.0,124.0,nan,81.95919762011754,80.208543454341,85.04492100946237,2.680381379152954,nan,nan,nan,nan,nan,nan,nan,nan,nan,nan,nan,nan,Train,U7
27,,,9.795855400034084,8.834953636569999,11.1856920895,0.3736691379711628,9.80664832018,9.80664832018,9.80664832018,4.1574343185536235e-07,0.31200524450399997,0.31200524450399997,0.31200524450399997,0.6605694798106773,28.822388836300004,28.488341183200003,29.380391791100003,0.4863697715045042,0.08971424724225,0.0630109800575,0.116417514427,0.03776412261234587,164.73844961407696,161.93745706299998,176.387244948,3.978765970291396,0.302498061977,0.302498061977,0.302498061977,0.005281451459471655,0.231252637696,0.231252637696,0.231252637696,0.2871142290786351,0.57629605926,0.57629605926,0.57629605926,0.0005551281517075324,135.80643993966666,129.004534804,147.775812625,10.397944913103503,1025.362425,1025.3188,1025.3899,0.031438551175216024,124.0,124.0,124.0,nan,81.95919762011754,80.208543454341,85.04492100946237,2.680381379152954,nan,nan,nan,nan,nan,nan,nan,nan,nan,nan,nan,nan,Train,U7
28,,,9.796086773635714,9.18192595505,10.4720527691,0.2610235362148647,9.80664812584,9.80664812584,9.80664812584,4.1574343185536235e-07,0.31200524450399997,0.31200524450399997,0.31200524450399997,0.6605694798106773,41.0970816646,41.0970816646,41.0970816646,0.4863697715045042,0.0895452950765,0.071259467456,0.107831122697,0.025860065420127646,164.24266670668422,162.573469202,166.501600804,1.2687415880626534,0.35168606750299997,0.35168606750299997,0.35168606750299997,0.005281451459471655,0.07335471729960001,0.07335471729960001,0.07335471729960001,0.2871142290786351,0.5035665127296666,0.48745698927299996,0.520811017948,0.016705955372640864,135.80643993966666,129.004534804,147.775812625,10.397944913103503,1025.2454750000002,1025.1838,1025.3091,0.06878281641025973,124.0,124.0,124.0,nan,77.28749978330768,76.14122479834478,78.0867358440499,1.0181258853566892,nan,nan,nan,nan,nan,nan,nan,nan,nan,nan,nan,nan,Train,U7
29,,,9.777423837951943,8.90996292425,10.6212515138,0.30345523962438026,9.80664812584,9.80664812584,9.80664812584,4.1574343185536235e-07,0.31200524450399997,0.31200524450399997,0.31200524450399997,0.6605694798106773,48.458796836000005,48.458796836000005,48.458796836000005,0.4863697715045042,0.05928922546217501,0.0345125344896,0.09780713720180001,0.02737137176617626,163.2306845481,160.815111685,164.446528838,1.0600217577368054,0.381167767291,0.374833861245,0.38750167333700003,0.00895749583305016,0.0479597294647,0.0479597294647,0.0479597294647,0.2871142290786351,0.5035665127296666,0.48745698927299996,0.520811017948,0.016705955372640864,131.170086753,118.1183305,144.221843006,18.45797070578045,1025.0946333333331,1025.0552,1025.1196,0.03455145920697295,124.0,124.0,124.0,nan,79.74917704094622,79.05391199173833,80.44444209015411,0.9832532620337956,nan,nan,nan,nan,nan,nan,nan,nan,nan,nan,nan,nan,Train,U7
30,,,9.776450045219212,8.833910111,10.4962850461,0.35377200868250885,9.80664812584,9.80664812584,9.80664812584,4.1574343185536235e-07,0.31200524450399997,0.31200524450399997,0.31200524450399997,0.6605694798106773,54.11114113045,54.0053144962,54.3587922774,0.1660007359037334,0.0702787120855,0.0702787120855,0.0702787120855,0.02737137176617626,164.10108071899998,163.37436475200002,164.717273079,0.3870851385127322,0.381167767291,0.374833861245,0.38750167333700003,0.00895749583305016,0.046658543568949995,0.043931361164199996,0.049385725973699994,0.00385681834386272,0.5035665127296666,0.48745698927299996,0.520811017948,0.016705955372640864,116.790156403,116.57829986799999,117.002012938,0.29961038507437393,1024.9391999999998,1024.9116,1024.9668,0.03903229432150694,124.0,124.0,124.0,nan,84.53986541372178,84.24481777603069,84.83491305141288,0.4172603707688946,nan,nan,nan,nan,nan,nan,nan,nan,nan,nan,nan,nan,Train,U7
31,,,9.72618861701323,8.6003044023,10.3836558671,0.3373363833255814,9.8066473611,9.8066473611,9.8066473611,4.1574343185536235e-07,0.31200524450399997,0.31200524450399997,0.31200524450399997,0.6605694798106773,54.11114113045,54.0053144962,54.3587922774,0.1660007359037334,0.1001133478879,0.0889936523812,0.125565129262,0.01707212740950573,164.415536735,163.358379652,165.332664649,0.6036738246804139,0.44587448191650003,0.44348054223800004,0.448268421595,0.003385541960837773,0.09833274662140001,0.08800700793880001,0.108658485304,0.014602799686453413,0.440017871839,0.43915359301299994,0.440882150665,0.0012222748374011562,116.101378349,116.101378349,116.101378349,0.29961038507437393,1024.7422,1024.6682,1024.7803,0.06409531964184857,124.0,124.0,124.0,nan,81.71651067041486,81.71651067041486,81.71651067041486,0.4172603707688946,nan,nan,nan,nan,nan,nan,nan,nan,nan,nan,nan,nan,Train,U7
32,,,9.732526092515888,8.73794915871,11.5415973403,0.46573026344174767,9.8066473611,9.8066473611,9.8066473611,4.1574343185536235e-07,0.31200524450399997,0.31200524450399997,0.31200524450399997,0.6605694798106773,52.97102825100001,52.97102825100001,52.97102825100001,0.1660007359037334,0.053332053674875,0.0350915369374,0.0695099105135,0.014433392445968944,164.61813658100002,163.747641204,165.382012323,0.5050759072837976,0.43071499841099997,0.43071499841099997,0.43071499841099997,0.003385541960837773,0.09833274662140001,0.08800700793880001,0.108658485304,0.014602799686453413,0.436578845621,0.436578845621,0.436578845621,0.0012222748374011562,116.101378349,116.101378349,116.101378349,0.29961038507437393,1024.5166142857142,1024.4353,1024.6128,0.07635165199197272,124.0,124.0,124.0,nan,81.71651067041486,81.71651067041486,81.71651067041486,0.4172603707688946,nan,nan,nan,nan,nan,nan,nan,nan,nan,nan,nan,nan,Train,U7
33,,,9.881547391088427,8.06669028652,11.5561102995,0.7371919175320759,9.8066473611,9.8066473611,9.8066473611,4.1574343185536235e-07,1.55318165707,1.16392053596,1.94244277818,0.5504983567783178,48.347798240299994,48.347798240299994,48.347798240299994,0.1660007359037334,0.053332053674875,0.0350915369374,0.0695099105135,0.014433392445968944,161.02914932435715,151.883411741,164.562854376,4.046613228026372,0.38980599711999997,0.38980599711999997,0.38980599711999997,0.003385541960837773,0.275770315597,0.275770315597,0.275770315597,0.014602799686453413,0.436578845621,0.436578845621,0.436578845621,0.0012222748374011562,136.99968853299998,132.192322016,141.80705505,6.798642927639716,1024.3403250000001,1024.3118,1024.3647,0.026986092097062948,75.0,75.0,75.0,nan,78.22421786275106,78.22421786275106,78.22421786275106,0.4172603707688946,nan,nan,nan,nan,nan,nan,nan,nan,nan,nan,nan,nan,Train,U7
34,,,9.723950705505128,8.92421551878,11.4223652247,0.3798146341739991,9.8066473611,9.8066473611,9.8066473611,4.1574343185536235e-07,1.55318165707,1.16392053596,1.94244277818,0.5504983567783178,48.347798240299994,48.347798240299994,48.347798240299994,0.1660007359037334,0.11149526645716666,0.0553161985845,0.15988339968499998,0.05271715928877569,166.5282182944,164.631953734,170.827690964,2.5766834771050164,0.4232061563856666,0.422920049313,0.42369695961099996,0.00042699272707154816,0.0786285857324,0.0786285857324,0.0786285857324,0.014602799686453413,0.46509081184,0.462742002579,0.467439621101,0.003321717912333736,136.99968853299998,132.192322016,141.80705505,6.798642927639716,1024.11686,1024.0232,1024.2124,0.09341179261739388,75.0,75.0,75.0,nan,78.22421786275106,78.22421786275106,78.22421786275106,0.4172603707688946,nan,nan,nan,nan,nan,nan,nan,nan,nan,nan,nan,nan,Train,U7
35,,,9.693687372564723,8.514816334319999,10.5225000986,0.3205726359323362,9.80664888137,9.80664888137,9.80664888137,4.1574343185536235e-07,0.295184868747,0.295184868747,0.295184868747,0.5504983567783178,47.0345347924,45.9783219656,48.0907476192,1.4937105044129841,0.08573740029718,0.026988908876400004,0.12603380051899998,0.03968241771437419,163.9753905302,163.46978314,164.42840439,0.3864726491153377,0.405664619502,0.405664619502,0.405664619502,0.00042699272707154816,0.08731641920196666,0.0618514246894,0.12467638010399999,0.03305845466392108,0.5090167231739999,0.5086100333169999,0.509423413031,0.0005751463114490341,142.10992225299998,142.10992225299998,142.10992225299998,6.798642927639716,1023.9873,1023.9873,1023.9873,0.09341179261739388,75.0,75.0,75.0,nan,81.83193241620116,81.83193241620116,81.83193241620116,0.4172603707688946,nan,nan,nan,nan,nan,nan,nan,nan,nan,nan,nan,nan,Train,U7
36,,,9.767621983705972,8.16941358416,11.243457328800002,0.5979179255563464,9.80664888137,9.80664888137,9.80664888137,4.1574343185536235e-07,0.295184868747,0.295184868747,0.295184868747,0.5504983567783178,47.0345347924,45.9783219656,48.0907476192,1.4937105044129841,0.32138642167905,0.0776832292071,0.99107119264,0.34642114368991034,164.97344329342855,164.20356269,166.103853056,0.6508276620890027,0.35821213236125005,0.323585309307,0.37774173727399996,0.024089157130951902,0.0738671044978,0.0432637508686,0.104470458127,0.04327967775651451,0.543243793683,0.543243793683,0.543243793683,0.0005751463114490341,126.95326979699999,119.543967771,134.362571823,10.478335412887649,1023.86761,1023.8447,1023.90454,0.025773068631170973,75.0,75.0,75.0,nan,81.83193241620116,81.83193241620116,81.83193241620116,0.4172603707688946,nan,nan,nan,nan,nan,nan,nan,nan,nan,nan,nan,nan,Train,U7
37,,,9.814979251647673,8.583489898060002,10.9302358176,0.47034303692367113,9.80664878163,9.80664878163,9.80664878163,4.1574343185536235e-07,0.295184868747,0.295184868747,0.295184868747,0.5504983567783178,47.0345347924,45.9783219656,48.0907476192,1.4937105044129841,0.10833188714084999,0.07356806379139999,0.17707085962299998,0.047568679023728085,161.214593786,160.352892085,163.700488698,0.9653457545631817,0.35821213236125005,0.323585309307,0.37774173727399996,0.024089157130951902,0.252476191899,0.11232613937899999,0.392626244419,0.1982021050410856,0.586224016737,0.586224016737,0.586224016737,0.0005751463114490341,126.95326979699999,119.543967771,134.362571823,10.478335412887649,1023.8601866666667,1023.8589,1023.8618,0.001477339951891462,75.0,75.0,75.0,nan,83.87917956038373,83.87917956038373,83.87917956038373,0.4172603707688946,nan,nan,nan,nan,nan,nan,nan,nan,nan,nan,nan,nan,Train,U7
38,,,9.743794685922632,8.73785063401,10.7465126899,0.4958568273700191,9.806648376110001,9.806648376110001,9.806648376110001,4.1574343185536235e-07,0.295184868747,0.295184868747,0.295184868747,0.5504983567783178,47.0345347924,45.9783219656,48.0907476192,1.4937105044129841,0.0961615327671,0.09503617903030001,0.0972868865039,0.0015914905170497904,161.1899287915,159.785700236,162.47230533200002,1.0922564668013874,0.226552307424,0.226552307424,0.226552307424,0.024089157130951902,0.061354715217699994,0.061354715217699994,0.061354715217699994,0.1982021050410856,0.6104799835479999,0.606057285047,0.614902682049,0.006254640202401389,122.88096888366665,122.68855289700001,123.16147936799999,0.24846597781684213,1023.8945233333334,1023.8901400000001,1023.9011,0.005799864940922643,75.0,75.0,75.0,nan,83.87917956038373,83.87917956038373,83.87917956038373,0.4172603707688946,nan,nan,nan,nan,nan,nan,nan,nan,nan,nan,nan,nan,Train,U7
39,,,9.772457651492106,8.8704886048,10.595887771100001,0.36985257326598603,9.80664921012,9.80664921012,9.80664921012,4.1574343185536235e-07,0.295184868747,0.295184868747,0.295184868747,0.5504983567783178,23.510139378699996,23.394639866,23.625638891399998,0.16334097730782296,0.08473049713323333,0.055571952753,0.131158329432,0.04064475751895711,161.28408849583334,160.704738846,161.959069084,0.47336204939681353,0.217963148608,0.217963148608,0.217963148608,0.024089157130951902,0.061354715217699994,0.061354715217699994,0.061354715217699994,0.1982021050410856,0.6104799835479999,0.606057285047,0.614902682049,0.006254640202401389,122.88096888366665,122.68855289700001,123.16147936799999,0.24846597781684213,1023.93831,1023.9087,1023.94995,0.01641638449842601,75.0,75.0,75.0,nan,83.87917956038373,83.87917956038373,83.87917956038373,0.4172603707688946,nan,nan,nan,nan,nan,nan,nan,nan,nan,nan,nan,nan,Train,U7
40,,,9.647924714358933,7.26546843288,11.156982167999999,0.7352094056241171,9.80664974411,9.80664974411,9.80664974411,4.1574343185536235e-07,0.5953138575745001,0.199596938123,0.9910307770260001,0.5596282343488129,22.3059653756,22.3059653756,22.3059653756,0.16334097730782296,0.10857169602543999,0.0569515171722,0.15357400029999999,0.034588980459780365,160.3827162755,159.296045149,161.469387402,1.53678504493554,0.193019097436,0.193019097436,0.193019097436,0.024089157130951902,0.0466518106307,0.0130445124792,0.0708709004027,0.030034590516643676,0.6808606299609999,0.6808606299609999,0.6808606299609999,0.006254640202401389,123.97741572400001,123.71196385200001,124.24286759600001,0.37540563753972667,1023.9476766666667,1023.9277300000001,1023.9607,0.017541511717380182,75.0,75.0,75.0,nan,82.66694531172487,82.66694531172487,82.66694531172487,0.4172603707688946,nan,nan,nan,nan,nan,nan,nan,nan,nan,nan,nan,nan,Train,U7
41,,,9.760296154665065,8.24171517504,10.9078550801,0.43030795184326864,9.80664974411,9.80664974411,9.80664974411,4.1574343185536235e-07,0.346127640769,0.346127640769,0.346127640769,0.5596282343488129,22.3059653756,22.3059653756,22.3059653756,0.16334097730782296,0.10857169602543999,0.0569515171722,0.15357400029999999,0.034588980459780365,159.72587558800004,158.37456574700002,160.758795159,0.8533049069361027,0.198390246291,0.197935731426,0.198844761156,0.0006427810863831838,0.06983561682252001,0.019585829398700003,0.13350445837000002,0.04478925203048878,0.6808606299609999,0.6808606299609999,0.6808606299609999,0.006254640202401389,123.68809454466667,123.361460757,124.29682216399999,0.527643760338863,1023.9855500000001,1023.9563,1024.0230000000001,0.027639404238678437,75.0,75.0,75.0,nan,80.9283423396798,80.9283423396798,80.9283423396798,0.4172603707688946,nan,nan,nan,nan,nan,nan,nan,nan,nan,nan,nan,nan,Train,U7
42,,,9.754982509632331,9.06048407725,10.1549920185,0.210892900441335,9.80664974411,9.80664974411,9.80664974411,4.1574343185536235e-07,0.10748320512199999,0.10748320512199999,0.10748320512199999,0.5596282343488129,22.3059653756,22.3059653756,22.3059653756,0.16334097730782296,0.0562935899614,0.019317254796900003,0.0856954852065,0.027479120859871656,160.5628236874762,159.563466997,161.081004467,0.36004996170457565,0.20097528688766667,0.19997499943500002,0.202892586358,0.0016609520293265423,0.013659362151500001,0.013659362151500001,0.013659362151500001,0.04478925203048878,0.6808606299609999,0.6808606299609999,0.6808606299609999,0.006254640202401389,122.84800294833333,122.20695625200001,123.98044263700001,0.9835719567631168,1024.0452,1024.0295,1024.0635,0.014823180045621219,75.0,75.0,75.0,nan,80.9283423396798,80.9283423396798,80.9283423396798,0.4172603707688946,nan,nan,nan,nan,nan,nan,nan,nan,nan,nan,nan,nan,Train,U7
43,,,9.76424351079625,8.81640814568,10.3077058743,0.24851523618253132,9.80664974411,9.80664974411,9.80664974411,4.1574343185536235e-07,0.10748320512199999,0.10748320512199999,0.10748320512199999,0.5596282343488129,22.3059653756,22.3059653756,22.3059653756,0.16334097730782296,0.05349160308545,0.044471660088099996,0.0625115460828,0.012756125718684603,158.57201493366665,156.171124091,159.91826056,0.8845700215938521,0.200864667971,0.200864667971,0.200864667971,0.0016609520293265423,0.13397320408399999,0.13397320408399999,0.13397320408399999,0.04478925203048878,0.6294597063605001,0.614452264935,0.644467147786,0.021223727200461884,122.84800294833333,122.20695625200001,123.98044263700001,0.9835719567631168,1024.0223,1024.0168,1024.0278,0.007778174593028871,85.0,85.0,85.0,nan,80.9283423396798,80.9283423396798,80.9283423396798,0.4172603707688946,nan,nan,nan,nan,nan,nan,nan,nan,nan,nan,nan,nan,Train,U7
44,,,9.773201744001012,9.1296814419,10.161407533,0.18952260775855728,9.80664974411,9.80664974411,9.80664974411,4.1574343185536235e-07,0.712489685785,0.712489685785,0.712489685785,0.5596282343488129,22.3059653756,22.3059653756,22.3059653756,0.16334097730782296,0.0380212778464,0.029524451597700004,0.05219235022509999,0.012353388559556666,157.0628049006667,156.506357698,158.308875779,0.6992894817059122,0.200864667971,0.200864667971,0.200864667971,0.0016609520293265423,0.0520634964731,0.0520634964731,0.0520634964731,0.04478925203048878,0.560389796088,0.560389796088,0.560389796088,0.021223727200461884,124.354372661,124.354372661,124.354372661,0.9835719567631168,1024.0421666666668,1024.0132,1024.0635,0.02600429451706105,108.0,108.0,108.0,nan,80.9283423396798,80.9283423396798,80.9283423396798,0.4172603707688946,nan,nan,nan,nan,nan,nan,nan,nan,nan,nan,nan,nan,Train,U7
45,,,9.75357817766247,8.83059664628,10.888281046900001,0.33570848733173014,9.80664974411,9.80664974411,9.80664974411,4.1574343185536235e-07,0.902022450535,0.902022450535,0.902022450535,0.5596282343488129,22.3059653756,22.3059653756,22.3059653756,0.16334097730782296,0.0354301851379,0.0354301851379,0.0354301851379,0.012353388559556666,159.55146049833334,157.039294446,163.190940643,3.2270443954718244,0.34354832524000006,0.34354832524000006,0.34354832524000006,0.0016609520293265423,0.105677920578,0.105677920578,0.105677920578,0.04478925203048878,0.499397461819,0.499397461819,0.499397461819,0.021223727200461884,118.05909640700001,118.05909640700001,118.05909640700001,0.9835719567631168,1024.0489,1024.0288,1024.065,0.015617511538858903,108.0,108.0,108.0,nan,80.9283423396798,80.9283423396798,80.9283423396798,0.4172603707688946,nan,nan,nan,nan,nan,nan,nan,nan,nan,nan,nan,nan,Train,U7
46,,,9.762356020241038,9.44971317757,10.0583481452,0.11884471937556716,9.8066491316,9.8066491316,9.8066491316,4.1574343185536235e-07,0.902022450535,0.902022450535,0.902022450535,0.5596282343488129,44.042212448375004,43.325497838900006,44.4852657596,0.49919500130805883,0.0341104034547,0.0328961001835,0.035324706725900004,0.0017172841549650594,156.986664937,156.986664937,156.986664937,3.2270443954718244,0.37767328043166665,0.36414824140600005,0.39535128569399997,0.01601071015389046,0.0479634002168,0.024495620033,0.07587526621139999,0.022965679453518868,0.499397461819,0.499397461819,0.499397461819,0.021223727200461884,120.476802746,120.476802746,120.476802746,0.9835719567631168,1023.9862533333334,1023.9643599999999,1024.0022,0.019608379161297103,108.0,108.0,108.0,nan,80.20260554430295,80.20260554430295,80.20260554430295,0.4172603707688946,nan,nan,nan,nan,nan,nan,nan,nan,nan,nan,nan,nan,Train,U7
47,,,9.739167209814516,9.02407806431,10.155206097899999,0.1585397646388725,9.806648783295,9.80664853263,9.80664903396,3.544938424254657e-07,0.268811993212,0.268811993212,0.268811993212,0.5596282343488129,44.042212448375004,43.325497838900006,44.4852657596,0.49919500130805883,0.10468008056256667,0.049067351848,0.25788065588500003,0.07688901462548227,156.27927180359998,152.881294442,157.324069926,1.1148846312595566,0.405633073977,0.405633073977,0.405633073977,0.01601071015389046,0.0444716596485,0.0444716596485,0.0444716596485,0.022965679453518868,0.4176653605435,0.41255211506399997,0.42277860602300005,0.007231221104851875,116.58036272550001,116.24947706100001,116.91124839,0.46794299433072656,1023.920175,1023.9116,1023.9263,0.007136000280259173,108.0,108.0,108.0,nan,78.04005782701459,78.04005782701459,78.04005782701459,0.4172603707688946,nan,nan,nan,nan,nan,nan,nan,nan,nan,nan,nan,nan,Train,U7
48,,,9.756784860492537,9.160858637010001,10.121146729400001,0.12253220332454871,9.80664914215,9.80664897392,9.80664931038,2.379131471858644e-07,0.268811993212,0.268811993212,0.268811993212,0.5596282343488129,53.933209355,53.909597097799995,53.9568216122,0.03339277437048669,0.05083122185193333,0.0490064708818,0.0535753566115,0.0024192207664801234,157.29727048961539,155.587081853,159.738317257,1.0549063525362108,0.4387334445676667,0.43749673324500005,0.440607206024,0.001650192377218023,0.015639585995449998,0.0121560651411,0.0191231068498,0.00492644243703128,0.395678713957,0.395678713957,0.395678713957,0.007231221104851875,116.58036272550001,116.24947706100001,116.91124839,0.46794299433072656,1023.8997333333333,1023.89526,1023.90454,0.004648971212352448,131.0,131.0,131.0,nan,78.04005782701459,78.04005782701459,78.04005782701459,0.4172603707688946,nan,nan,nan,nan,nan,nan,nan,nan,nan,nan,nan,nan,Train,U7
49,,,9.757501918631998,9.615635177489999,10.0615400309,0.08409187029366959,9.80664963373,9.80664947688,9.806649790580002,2.2181939802660363e-07,0.140911392473,0.140911392473,0.140911392473,0.5596282343488129,52.9611096016,52.9611096016,52.9611096016,0.03339277437048669,0.051559342639,0.051559342639,0.051559342639,0.0024192207664801234,156.35313769257144,153.518012625,158.872842236,1.9015268092072584,0.4387334445676667,0.43749673324500005,0.440607206024,0.001650192377218023,0.013194656431063332,0.00772690213379,0.0192785823336,0.0058004378666631886,0.39827847348049994,0.397996347007,0.39856059995399995,0.0003989870851281694,116.58036272550001,116.24947706100001,116.91124839,0.46794299433072656,1023.810925,1023.80005,1023.8218,0.015379572490805479,131.0,131.0,131.0,nan,74.96220934989968,74.96220934989968,74.96220934989968,0.4172603707688946,nan,nan,nan,nan,nan,nan,nan,nan,nan,nan,nan,nan,Train,U7
50,,,9.765532720293042,9.5042882248,10.1090380843,0.11640565644331922,9.80664963373,9.80664947688,9.806649790580002,2.2181939802660363e-07,0.140911392473,0.140911392473,0.140911392473,0.5596282343488129,52.0417460058,52.0417460058,52.0417460058,0.03339277437048669,0.042645614294149994,0.023468677856,0.0587066623107,0.014834677946163433,157.50493171033332,154.48229672,159.618577241,1.4142724096111368,0.42949970141000005,0.42949970141000005,0.42949970141000005,0.001650192377218023,0.0164820450667,0.0164820450667,0.0164820450667,0.0058004378666631886,0.39827847348049994,0.397996347007,0.39856059995399995,0.0003989870851281694,116.6368542445,116.56834904899999,116.70535944,0.09688097656912315,1023.81625,1023.8091,1023.82715,0.00959153272422976,131.0,131.0,131.0,nan,74.96220934989968,74.96220934989968,74.96220934989968,0.4172603707688946,nan,nan,nan,nan,nan,nan,nan,nan,nan,nan,nan,nan,Train,U7
51,,,9.747825884441665,9.39304258502,10.3246855507,0.1744104531793625,9.80664963373,9.80664947688,9.806649790580002,2.2181939802660363e-07,0.208676877903,0.208676877903,0.208676877903,0.5596282343488129,52.0965920588,52.0965920588,52.0965920588,0.03339277437048669,0.054112055712333344,0.0292705812033,0.07537195938880001,0.023258439433292664,160.24111523858065,149.388888476,168.169745103,4.504705146606592,0.42949970141000005,0.42949970141000005,0.42949970141000005,0.001650192377218023,0.03310938623575,0.015550090073299999,0.0506686823982,0.024832594778662634,0.39827847348049994,0.397996347007,0.39856059995399995,0.0003989870851281694,119.77369334585715,110.95156601,127.52055043,7.4078728033973,1023.7971200000001,1023.7639,1023.81616,0.028871806316849314,131.0,131.0,131.0,nan,77.70496215562774,77.70496215562774,77.70496215562774,0.4172603707688946,nan,nan,nan,nan,nan,nan,nan,nan,nan,nan,nan,nan,Train,U7
52,,,9.769533910049999,9.459304780560002,10.4161150626,0.18714841893835008,9.80664918867,9.80664868371,9.80664977651,5.510941668597915e-07,0.208676877903,0.208676877903,0.208676877903,0.5596282343488129,52.0965920588,52.0965920588,52.0965920588,0.03339277437048669,0.040582522716025006,0.0325081313361,0.046005899343600005,0.005836154830212562,162.3964614918182,143.801738515,173.886917945,8.44391847803142,0.3845961404076667,0.377508791903,0.389909928562,0.0063879718883229535,0.05153382224925,0.0282322872306,0.0748353572679,0.032953346847486444,0.45010127443299996,0.44802904776299995,0.452173501103,0.0029305710610252507,111.0937498435,101.757018736,120.430480951,13.204131760457269,1023.7649833333334,1023.7593,1023.77295,0.007105690208089495,131.0,131.0,131.0,nan,79.81299176637708,79.81299176637708,79.81299176637708,0.4172603707688946,nan,nan,nan,nan,nan,nan,nan,nan,nan,nan,nan,nan,Train,U7
53,,,9.745237060213189,9.26259963197,10.2513279953,0.1248101252510464,9.80664918867,9.80664868371,9.80664977651,5.510941668597915e-07,0.208676877903,0.208676877903,0.208676877903,0.5596282343488129,52.0965920588,52.0965920588,52.0965920588,0.03339277437048669,0.048376988624699996,0.017191271974400003,0.07956270527499999,0.044103263439178704,157.627367428,155.39099995799998,160.693683759,1.4494586253123511,0.41503278304733326,0.41388098583899996,0.415802360473,0.0010161147045196347,0.017529075333749998,0.0157408956809,0.0193172549866,0.002528867917020081,0.45010127443299996,0.44802904776299995,0.452173501103,0.0029305710610252507,114.337137086,114.337137086,114.337137086,13.204131760457269,1023.7616333333332,1023.76,1023.76416,0.0022192190818315282,131.0,131.0,131.0,nan,74.60272007993355,74.60272007993355,74.60272007993355,0.4172603707688946,nan,nan,nan,nan,nan,nan,nan,nan,nan,nan,nan,nan,Train,U7
54,,,9.750853417398824,9.58992462806,9.9372244033,0.08529039498183566,9.806649237846665,9.80664890008,9.80664967625,3.9775089068962534e-07,0.0754104267403,0.0754104267403,0.0754104267403,0.5596282343488129,52.0965920588,52.0965920588,52.0965920588,0.03339277437048669,0.0420921176805,0.0420921176805,0.0420921176805,0.044103263439178704,156.41188885749997,155.009354687,159.711029669,1.5266992648583657,0.42263710509,0.42263710509,0.42263710509,0.0010161147045196347,0.017529075333749998,0.0157408956809,0.0193172549866,0.002528867917020081,0.411660924073,0.405082808324,0.41823903982199995,0.009302860507095806,115.679214709,115.679214709,115.679214709,13.204131760457269,1023.7619075,1023.75415,1023.77124,0.007042808980343855,131.0,131.0,131.0,nan,74.66833972345069,74.12069321428702,75.21598623261436,0.7744891206455432,nan,nan,nan,nan,nan,nan,nan,nan,nan,nan,nan,nan,Train,U7
55,,,9.766663001296887,9.284131202989998,10.0286298183,0.13219728432134,9.806649237846665,9.80664890008,9.80664967625,3.9775089068962534e-07,0.17545969993764998,0.0486872081993,0.30223219167599996,0.1792833771522057,53.5728205556,53.5728205556,53.5728205556,0.03339277437048669,0.0203703178698,0.0203703178698,0.0203703178698,0.044103263439178704,154.84202081988235,149.748088469,158.422410031,2.6029925501471247,0.47996381758600004,0.479344186228,0.480583448944,0.0008762910701552588,0.0262316660299,0.0262316660299,0.0262316660299,0.002528867917020081,0.39240224918225,0.384869501466,0.39790413376999995,0.00552896171118564,120.78058618799999,120.78058618799999,120.78058618799999,13.204131760457269,1023.8175866666667,1023.7827,1023.8545,0.03270413470291824,131.0,131.0,131.0,nan,78.20928631991228,78.20928631991228,78.20928631991228,0.7744891206455432,nan,nan,nan,nan,nan,nan,nan,nan,nan,nan,nan,nan,Train,U7
56,,,9.759387005238462,9.65839673968,9.83749386555,0.04164958173519752,9.806649237846665,9.80664890008,9.80664967625,3.9775089068962534e-07,0.17545969993764998,0.0486872081993,0.30223219167599996,0.1792833771522057,60.461013070199996,59.1719333875,61.7500927529,1.8230339702539495,0.03797683375425,0.0299510923602,0.048053004856599996,0.008435696639544828,158.77665991492856,156.281029618,161.377663301,1.8338366314285508,0.47996381758600004,0.479344186228,0.480583448944,0.0008762910701552588,0.00791771841953,0.00791771841953,0.00791771841953,0.002528867917020081,0.372410777739,0.372410777739,0.372410777739,0.00552896171118564,108.74566475033333,107.04097346299999,110.987656971,2.0274607019127364,1023.83428,1023.7856400000001,1023.86084,0.028696579064385167,131.0,131.0,131.0,nan,77.49543274368597,77.49543274368597,77.49543274368597,0.7744891206455432,nan,nan,nan,nan,nan,nan,nan,nan,nan,nan,nan,nan,Train,U7
57,,,9.749906474056202,9.51441243276,10.0183789879,0.0647875987078094,9.806649237846665,9.80664890008,9.80664967625,3.9775089068962534e-07,0.17545969993764998,0.0486872081993,0.30223219167599996,0.1792833771522057,60.461013070199996,59.1719333875,61.7500927529,1.8230339702539495,0.06638996905953333,0.04902169598119999,0.0752530429043,0.015042430018185376,159.02088049325,158.874362211,159.109679152,0.10209783569286883,0.47996381758600004,0.479344186228,0.480583448944,0.0008762910701552588,0.013715269067843336,0.00938429052983,0.0161157323214,0.0037580904853348586,0.35721169121150004,0.35635404978600005,0.358069332637,0.0012128881355950784,112.279205555,112.279205555,112.279205555,2.0274607019127364,1023.73896,1023.6902,1023.7876,0.05186331780104546,131.0,131.0,131.0,nan,69.28979094867942,69.28979094867942,69.28979094867942,0.7744891206455432,nan,nan,nan,nan,nan,nan,nan,nan,nan,nan,nan,nan,Train,U7
58,,,9.745395117646714,9.71586015445,9.78240701356,0.016500423191349586,9.806649463080001,9.806649463080001,9.806649463080001,3.9775089068962534e-07,0.06612559912853333,0.05542514060880001,0.0767189596212,0.010647313488564287,58.323205794325,58.20990473609999,58.429440074700004,0.0912508094992565,0.044421286651,0.044421286651,0.044421286651,0.015042430018185376,159.825006258,159.608969009,159.998571971,0.1439566701737288,0.476573741285,0.476569129541,0.47657835302900003,6.521990911015318e-06,0.007429512847529999,0.0038634511617600003,0.010995574533299999,0.005043172800274996,0.35898953579500004,0.35861904821699997,0.35936002337300005,0.0005239485574984156,112.279205555,112.279205555,112.279205555,2.0274607019127364,1023.5795899999999,1023.1172,1023.6897,0.2271096859228908,78.0,78.0,78.0,nan,69.28979094867942,69.28979094867942,69.28979094867942,0.7744891206455432,nan,nan,nan,nan,nan,nan,nan,nan,nan,nan,nan,nan,Train,U7
59,,,9.744932848356896,9.71723991283,9.78685555653,0.01626937258418018,9.8066492315,9.8066492315,9.8066492315,3.9775089068962534e-07,0.06612559912853333,0.05542514060880001,0.0767189596212,0.010647313488564287,58.1287529317,58.1287529317,58.1287529317,0.0912508094992565,0.04500055294134,0.0403541121533,0.0494159405287,0.003427590874389343,159.82594581390563,159.395451629,160.27636444,0.22860539102325783,0.475754707718,0.475754707718,0.475754707718,6.521990911015318e-06,0.00791771841953,0.00791771841953,0.00791771841953,0.005043172800274996,0.35898953579500004,0.35861904821699997,0.35936002337300005,0.0005239485574984156,111.65241101333334,111.521707046,111.798883264,0.13925926549301904,1023.1296466666668,1023.1177,1023.14404,0.013339360304504643,78.0,78.0,78.0,nan,69.28979094867942,69.28979094867942,69.28979094867942,0.7744891206455432,nan,nan,nan,nan,nan,nan,nan,nan,nan,nan,nan,nan,Train,U7
60,,,9.745178726702182,9.7170323178,9.78394897117,0.016258424335501693,9.8066492315,9.8066492315,9.8066492315,3.9775089068962534e-07,0.06612559912853333,0.05542514060880001,0.0767189596212,0.010647313488564287,58.1287529317,58.1287529317,58.1287529317,0.0912508094992565,0.04254664263392,0.0397015420085,0.0454838318558,0.0022136263233040196,159.9954717104,159.63361174899998,160.426214243,0.20479929302915226,0.47450461128099997,0.474352493168,0.474656729394,0.00021512749848720994,0.00741107053502,0.00440501204575,0.00954202011363,0.0026779795885150904,0.35898953579500004,0.35861904821699997,0.35936002337300005,0.0005239485574984156,111.75627048000001,111.650750109,111.86179085100001,0.14922833977484676,1023.1237066666666,1023.1094,1023.1347699999999,0.012992252819710462,78.0,78.0,78.0,nan,69.86024463409395,69.22997053566037,70.49051873252752,0.8913421780172357,nan,nan,nan,nan,nan,nan,nan,nan,nan,nan,nan,nan,Train,U7
61,,,9.743843129485294,9.71078979827,9.78901669485,0.019126642179234956,9.80664847501,9.80664847501,9.80664847501,3.9775089068962534e-07,0.06612559912853333,0.05542514060880001,0.0767189596212,0.010647313488564287,58.1287529317,58.1287529317,58.1287529317,0.0912508094992565,0.04104346372123333,0.0400757401197,0.041985603026099994,0.0009551884617642767,159.9954717104,159.63361174899998,160.426214243,0.20479929302915226,0.4742504046335,0.474215133372,0.47428567589500004,4.988109637533553e-05,0.005317319882219999,0.00440501204575,0.00622962771869,0.0012901981153951294,0.360976272593,0.360976272593,0.360976272593,0.0005239485574984156,111.75627048000001,111.650750109,111.86179085100001,0.14922833977484676,1023.10815,1023.10815,1023.10815,0.012992252819710462,78.0,78.0,78.0,nan,70.65763438814795,70.65763438814795,70.65763438814795,0.8913421780172357,nan,nan,nan,nan,nan,nan,nan,nan,nan,nan,nan,nan,Train,U7
62,,,9.74974281898,9.7128610285,9.78385140936,0.017331260425387178,9.80664884212,9.80664884212,9.80664884212,3.9775089068962534e-07,0.06612559912853333,0.05542514060880001,0.0767189596212,0.010647313488564287,57.9674471791,57.9674471791,57.9674471791,0.0912508094992565,0.044512243947699995,0.0428477480778,0.0466982421899,0.0017736394868652571,159.4282181065,159.293251583,159.641012863,0.15924148532124552,0.473445712486,0.473445712486,0.473445712486,4.988109637533553e-05,0.005317319882219999,0.00440501204575,0.00622962771869,0.0012901981153951294,0.360976272593,0.360976272593,0.360976272593,0.0005239485574984156,112.195849278,112.15672183299999,112.23497672299999,0.05533456338000497,1023.130005,1023.11914,1023.14087,0.010031232891993373,78.0,78.0,78.0,nan,70.65763438814795,70.65763438814795,70.65763438814795,0.8913421780172357,nan,nan,nan,nan,nan,nan,nan,nan,nan,nan,nan,nan,Train,U7
63,,,9.749073265158517,9.70357038072,9.7927499753,0.02041891054313001,9.80664884212,9.80664884212,9.80664884212,3.9775089068962534e-07,0.0457601962976,0.043525117888199995,0.047995274707000005,0.0031608781995407717,57.8697711455,57.8697711455,57.8697711455,0.0912508094992565,0.04408281656215,0.0437611504416,0.044404482682699996,0.0004549045902377472,159.64456855766667,159.084285836,159.971528825,0.487472620928112,0.473017559073,0.473017559073,0.473017559073,4.988109637533553e-05,0.0050677180825650005,0.00440501204575,0.00573042411938,0.0009372078651302968,0.36249939845699997,0.36240684265100004,0.36259195426299995,0.00013089367612151,112.195849278,112.15672183299999,112.23497672299999,0.05533456338000497,1023.1204125,1023.1145,1023.1245,0.004445292453822986,78.0,78.0,78.0,nan,70.65763438814795,70.65763438814795,70.65763438814795,0.8913421780172357,nan,nan,nan,nan,nan,nan,nan,nan,nan,nan,nan,nan,Train,U7
64,,,9.750507864852986,9.706726666669999,9.78427775359,0.01962683332304013,9.80664884212,9.80664884212,9.80664884212,3.9775089068962534e-07,0.0622139311811,0.0622139311811,0.0622139311811,0.0031608781995407717,57.8697711455,57.8697711455,57.8697711455,0.0912508094992565,0.04465713259699999,0.0430735796466,0.0467461624079,0.0018877489708711748,159.7161998785,159.4202622,160.04231627299998,0.2633166376605884,0.471503855238,0.471503855238,0.471503855238,4.988109637533553e-05,0.00457129703015,0.00457129703015,0.00457129703015,0.0009372078651302968,0.36424114104499994,0.364155914075,0.364363005739,0.00010829811373934269,112.004865966,112.004865966,112.004865966,0.05533456338000497,1023.090332,1023.08105,1023.09985,0.007227231143376395,78.0,78.0,78.0,nan,70.71853482791138,70.71853482791138,70.71853482791138,0.8913421780172357,nan,nan,nan,nan,nan,nan,nan,nan,nan,nan,nan,nan,Train,U7
65,,,9.754069797202726,9.682638321339999,9.797823619119999,0.020072041369335502,9.806648839580001,9.806648839580001,9.806648839580001,3.9775089068962534e-07,0.0341643304019,0.0341643304019,0.0341643304019,0.0031608781995407717,57.8697711455,57.8697711455,57.8697711455,0.0912508094992565,0.04271743101195,0.0397954214065,0.0456312676416,0.0024313356194159965,160.10975535966665,159.850774161,160.263043225,0.2255432459999372,0.471503855238,0.471503855238,0.471503855238,4.988109637533553e-05,0.00457129703015,0.00457129703015,0.00457129703015,0.0009372078651302968,0.3650612336885,0.3649349982,0.365187469177,0.00017852393988948266,111.44229906199999,111.379037525,111.50556059899999,0.08946532360196081,1023.0954633333334,1023.07715,1023.1155,0.016463985746676867,78.0,78.0,78.0,nan,70.71853482791138,70.71853482791138,70.71853482791138,0.8913421780172357,nan,nan,nan,nan,nan,nan,nan,nan,nan,nan,nan,nan,Train,U7
66,,,9.748314764789304,9.71598203432,9.800036832710001,0.017192249717176797,9.80664931147,9.80664931147,9.80664931147,3.9775089068962534e-07,0.0876110848636,0.0876110848636,0.0876110848636,0.0031608781995407717,57.50456794765,57.459028682799996,57.5501072125,0.06440224597137466,0.042114172533199996,0.038499050937699994,0.0457292941287,0.005112553989983965,159.95024083212502,159.357334315,160.358722868,0.3610729530371147,0.470049604191,0.470049604191,0.470049604191,4.988109637533553e-05,0.0075312526020500006,0.0075312526020500006,0.0075312526020500006,0.0009372078651302968,0.3650612336885,0.3649349982,0.365187469177,0.00017852393988948266,111.703939053,111.703939053,111.703939053,0.08946532360196081,1023.09609,1023.08105,1023.1211,0.01498534283890396,78.0,78.0,78.0,nan,70.36665178192467,69.91920789763411,70.81409566621525,0.6327812095646237,nan,nan,nan,nan,nan,nan,nan,nan,nan,nan,nan,nan,Train,U7
67,,,9.702261081776388,7.809084927260001,10.639709752,0.3164512574773066,9.80664931147,9.80664931147,9.80664931147,3.9775089068962534e-07,0.0876110848636,0.0876110848636,0.0876110848636,0.0031608781995407717,51.267861023100004,51.267861023100004,51.267861023100004,0.06440224597137466,0.050775152067022225,0.039418562335900006,0.0771627045167,0.012390764132757389,160.04106462175002,159.644887171,160.407730487,0.3832994809379112,0.4638590384295,0.458140093858,0.469577983001,0.008087808975475314,0.007061594932685,0.00669169335785,0.00743149650752,0.0005231198238748235,0.3650612336885,0.3649349982,0.365187469177,0.00017852393988948266,112.78393829999999,111.897184951,113.239304131,0.7680445080499019,1023.0624166666666,1023.0503,1023.08105,0.01637805951063263,78.0,78.0,78.0,nan,70.92097732803468,70.92097732803468,70.92097732803468,0.6327812095646237,nan,nan,nan,nan,nan,nan,nan,nan,nan,nan,nan,nan,Train,U7
68,,,9.746456397194475,9.47488820047,9.858480052680001,0.056537457874653925,9.80664931147,9.80664931147,9.80664931147,3.9775089068962534e-07,0.12497083823899999,0.12497083823899999,0.12497083823899999,0.0031608781995407717,60.1477153413,60.1477153413,60.1477153413,0.06440224597137466,0.100420009451,0.100420009451,0.100420009451,0.012390764132757389,159.55335713828572,158.141265962,161.89638661799998,1.1864710774806324,0.493235186482,0.493235186482,0.493235186482,0.008087808975475314,0.1537467714538,0.0100002956356,0.297493247272,0.20328821564543456,0.37231692147099993,0.34554277534199995,0.418347613392,0.03667701829776785,111.53016859933332,111.29550754600001,111.75280779299999,0.22888703067003147,1023.5697466666667,1023.4731400000001,1023.6206,0.08370267936766418,78.0,78.0,78.0,nan,75.02866163638694,75.02866163638694,75.02866163638694,0.6327812095646237,nan,nan,nan,nan,nan,nan,nan,nan,nan,nan,nan,nan,Train,U7
69,,,9.741588170644185,9.6577937476,9.90563316782,0.0367502219878918,9.80664935804,9.80664935804,9.80664935804,3.9775089068962534e-07,0.12497083823899999,0.12497083823899999,0.12497083823899999,0.0031608781995407717,60.1477153413,60.1477153413,60.1477153413,0.06440224597137466,0.04474685027045,0.042795458351,0.0466982421899,0.0027596849179914546,160.92160657772502,159.48311189,162.284626505,0.752170063131981,0.49319194878399997,0.49305348594099996,0.493330411627,0.00019581603045534929,0.1537467714538,0.0100002956356,0.297493247272,0.20328821564543456,0.345835921992,0.34575181521399995,0.34592002876999994,0.00011894494613510053,110.26966503733333,110.228626046,110.304170365,0.03819361993809088,1023.683642,1023.6697,1023.71045,0.016145520121716727,78.0,78.0,78.0,nan,75.02866163638694,75.02866163638694,75.02866163638694,0.6327812095646237,nan,nan,nan,nan,nan,nan,nan,nan,nan,nan,nan,nan,Train,U7
70,,,9.753854422781796,9.52814199582,9.99057533683,0.09800062091535101,9.80664935804,9.80664935804,9.80664935804,3.9775089068962534e-07,0.12497083823899999,0.12497083823899999,0.12497083823899999,0.0031608781995407717,59.514924936499995,59.514924936499995,59.514924936499995,0.06440224597137466,0.03569387347875,0.0342302636637,0.0371574832938,0.0020698568504660887,159.07893902783334,158.423293742,160.018498931,0.5899351729254914,0.49319194878399997,0.49305348594099996,0.493330411627,0.00019581603045534929,0.0184072258237,0.0184072258237,0.0184072258237,0.20328821564543456,0.343747814765,0.343747814765,0.343747814765,0.00011894494613510053,112.63527327349999,112.120159893,113.150386654,0.7284803288629588,1023.6725480000001,1023.6633,1023.69995,0.015509541256881218,78.0,78.0,78.0,nan,68.10351092435978,68.10351092435978,68.10351092435978,0.6327812095646237,nan,nan,nan,nan,nan,nan,nan,nan,nan,nan,nan,nan,Train,U7
71,,,9.76807177596566,9.57670423033,9.9726434365,0.09659027704109266,9.80664855031,9.80664855031,9.80664855031,3.9775089068962534e-07,0.1254510778955,0.09612084737099999,0.15478130842,0.04147920979527725,59.5369584225,59.5369584225,59.5369584225,0.06440224597137466,0.052084772613499995,0.0389423577955,0.08669122605869999,0.01751036900019162,158.76313076410003,155.488198909,165.111690199,3.2367269598314268,0.488951196223,0.488517673257,0.489384719189,0.0006130940581174016,0.01752970585247,0.00914259389994,0.025916817805,0.011861167472409416,0.33134125973,0.327145440628,0.335537078832,0.005933784279312513,110.74141527633334,107.187965742,112.97486446100001,3.1110850017849176,1023.6316479999999,1023.62354,1023.65796,0.014801193195136151,78.0,78.0,78.0,nan,68.10351092435978,68.10351092435978,68.10351092435978,0.6327812095646237,nan,nan,nan,nan,nan,nan,nan,nan,nan,nan,nan,nan,Train,U7
72,,,9.743251347128648,9.53012009029,9.95673144393,0.09266391159267041,9.80664953902,9.80664953902,9.80664953902,3.9775089068962534e-07,0.1254510778955,0.09612084737099999,0.15478130842,0.04147920979527725,59.5369584225,59.5369584225,59.5369584225,0.06440224597137466,0.038432672782049995,0.030665191718299997,0.0462001538458,0.010984877065831447,155.35752548279999,150.052867152,159.844527269,4.7183751013648125,0.500546643282,0.497128377455,0.503697672816,0.0032927908849843877,0.015909641311300002,0.0128136170604,0.0190056655622,0.004378439485058782,0.305593726631,0.305593726631,0.305593726631,0.005933784279312513,114.99038975633334,113.07223355,117.02691998,1.9799988625984746,1023.6192960000001,1023.5967,1023.64355,0.02144791901324608,78.0,78.0,78.0,nan,71.29805345058409,71.29805345058409,71.29805345058409,0.6327812095646237,nan,nan,nan,nan,nan,nan,nan,nan,nan,nan,nan,nan,Train,U7
73,,,9.78609809671473,9.5478547194,10.0797806468,0.10592423187843351,9.80664963155,9.80664963155,9.80664963155,3.9775089068962534e-07,0.154189445356,0.154189445356,0.154189445356,0.04147920979527725,59.5369584225,59.5369584225,59.5369584225,0.06440224597137466,0.0379219092589,0.0238472279423,0.046167838820199994,0.008804643079948275,150.9584193826,144.449922273,154.655229462,3.8451559962127537,0.549026412821,0.549026412821,0.549026412821,0.0032927908849843877,0.03080411185785,0.023468677856,0.040038478112,0.0068792621081354855,0.305593726631,0.305593726631,0.305593726631,0.005933784279312513,120.95461726233333,118.9045869,124.884750401,3.4046554468632215,1023.5955466666668,1023.5835,1023.61914,0.020433955401116775,78.0,78.0,78.0,nan,71.29805345058409,71.29805345058409,71.29805345058409,0.6327812095646237,nan,nan,nan,nan,nan,nan,nan,nan,nan,nan,nan,nan,Train,U7
74,,,9.740470208959756,9.44169705427,9.99720016603,0.1081831249103818,9.806649325739999,9.806649325739999,9.806649325739999,3.9775089068962534e-07,0.223080694102,0.223080694102,0.223080694102,0.04147920979527725,59.5369584225,59.5369584225,59.5369584225,0.06440224597137466,0.0418764691106,0.0291428172312,0.05461012099,0.018008103186385127,150.16948500433332,143.313712702,153.648364865,5.93749195826733,0.572687164972,0.572687164972,0.572687164972,0.0032927908849843877,0.03253449716784999,0.0250678137971,0.040001180538599995,0.010559484888860306,0.305593726631,0.305593726631,0.305593726631,0.005933784279312513,120.95461726233333,118.9045869,124.884750401,3.4046554468632215,1023.601362,1023.5808,1023.62915,0.019431281995816813,78.0,78.0,78.0,nan,71.29805345058409,71.29805345058409,71.29805345058409,0.6327812095646237,nan,nan,nan,nan,nan,nan,nan,nan,nan,nan,nan,nan,Train,U7
75,,,9.734860057908,8.847668485549999,10.6637149097,0.2416738436694432,9.806649325739999,9.806649325739999,9.806649325739999,3.9775089068962534e-07,0.223080694102,0.223080694102,0.223080694102,0.04147920979527725,59.5369584225,59.5369584225,59.5369584225,0.06440224597137466,0.04328766125063333,0.022160185552500003,0.0745355718317,0.027615442665990763,156.95421390628573,150.92481572,160.860094505,4.254455087326578,0.572687164972,0.572687164972,0.572687164972,0.0032927908849843877,0.0319287245085,0.0317884786928,0.0320689703242,0.00019833753462901931,0.305593726631,0.305593726631,0.305593726631,0.005933784279312513,120.95461726233333,118.9045869,124.884750401,3.4046554468632215,1023.6277475,1023.6152300000001,1023.6367,0.009031490740690963,78.0,78.0,78.0,nan,85.35563319430719,85.35563319430719,85.35563319430719,0.6327812095646237,nan,nan,nan,nan,nan,nan,nan,nan,nan,nan,nan,nan,Train,U7
76,,,9.740747174883685,8.73531288735,11.1763755391,0.27027990229724586,9.8066485519,9.8066485519,9.8066485519,3.9775089068962534e-07,0.11701962652235001,0.06597783357669999,0.16806141946800002,0.07218399583157761,59.5369584225,59.5369584225,59.5369584225,0.06440224597137466,0.050796637791950004,0.044471660459,0.05712161512490001,0.008944868725960302,155.41248548016668,152.302406179,159.98759392,2.835469698545682,0.621639482395,0.614336687871,0.628942276919,0.01032771105906471,0.0327141002115,0.0327141002115,0.0327141002115,0.00019833753462901931,0.250274188391,0.250274188391,0.250274188391,0.005933784279312513,104.01737925906666,98.30839231719999,109.56226540200001,5.628730909925833,1023.60753,1023.5969,1023.61816,0.015033090168014579,78.0,78.0,78.0,nan,76.0445247538214,76.0445247538214,76.0445247538214,0.6327812095646237,nan,nan,nan,nan,nan,nan,nan,nan,nan,nan,nan,nan,Train,U7
77,,,9.739169692782,9.511469421889998,10.036941909500001,0.17330874002092972,9.8066485519,9.8066485519,9.8066485519,3.9775089068962534e-07,0.11701962652235001,0.06597783357669999,0.16806141946800002,0.07218399583157761,59.5369584225,59.5369584225,59.5369584225,0.06440224597137466,0.050796637791950004,0.044471660459,0.05712161512490001,0.008944868725960302,156.6100585755,155.961854311,157.628994795,0.7640603274290148,0.621639482395,0.614336687871,0.628942276919,0.01032771105906471,0.0200378699989,0.0200378699989,0.0200378699989,0.00019833753462901931,0.250274188391,0.250274188391,0.250274188391,0.005933784279312513,108.031758395,108.031758395,108.031758395,5.628730909925833,1023.6023,1023.6011,1023.6035,0.0016970562749040504,78.0,78.0,78.0,nan,76.0445247538214,76.0445247538214,76.0445247538214,0.6327812095646237,nan,nan,nan,nan,nan,nan,nan,nan,nan,nan,nan,nan,Train,U7
