time,activityrecognition#0,activityrecognition#1,android.sensor.accelerometer#mean,android.sensor.accelerometer#min,android.sensor.accelerometer#max,android.sensor.accelerometer#std,android.sensor.gravity#mean,android.sensor.gravity#min,android.sensor.gravity#max,android.sensor.gravity#std,android.sensor.linear_acceleration#mean,android.sensor.linear_acceleration#min,android.sensor.linear_acceleration#max,android.sensor.linear_acceleration#std,android.sensor.orientation#mean,android.sensor.orientation#min,android.sensor.orientation#max,android.sensor.orientation#std,android.sensor.gyroscope_uncalibrated#mean,android.sensor.gyroscope_uncalibrated#min,android.sensor.gyroscope_uncalibrated#max,android.sensor.gyroscope_uncalibrated#std,android.sensor.magnetic_field_uncalibrated#mean,android.sensor.magnetic_field_uncalibrated#min,android.sensor.magnetic_field_uncalibrated#max,android.sensor.magnetic_field_uncalibrated#std,android.sensor.rotation_vector#mean,android.sensor.rotation_vector#min,android.sensor.rotation_vector#max,android.sensor.rotation_vector#std,android.sensor.gyroscope#mean,android.sensor.gyroscope#min,android.sensor.gyroscope#max,android.sensor.gyroscope#std,android.sensor.game_rotation_vector#mean,android.sensor.game_rotation_vector#min,android.sensor.game_rotation_vector#max,android.sensor.game_rotation_vector#std,android.sensor.magnetic_field#mean,android.sensor.magnetic_field#min,android.sensor.magnetic_field#max,android.sensor.magnetic_field#std,android.sensor.pressure#mean,android.sensor.pressure#min,android.sensor.pressure#max,android.sensor.pressure#std,android.sensor.light#mean,android.sensor.light#min,android.sensor.light#max,android.sensor.light#std,sound#mean,sound#min,sound#max,sound#std,speed#mean,speed#min,speed#max,speed#std,android.sensor.proximity#mean,android.sensor.proximity#min,android.sensor.proximity#max,android.sensor.proximity#std,android.sensor.step_counter#mean,android.sensor.step_counter#min,android.sensor.step_counter#max,android.sensor.step_counter#std,target,user
1,,,9.625319211249188,1.72057264883,9.8815954997,1.3362613339969271,9.806650054275,9.80664973887,9.80665036968,4.4605002849244886e-07,0.10147873111885598,0.0383690775888,0.6729467043709999,0.12556589287988554,299.1750379896923,298.404905468,299.82558131900004,0.442976892776845,0.05176961025066714,0.00634829807067,0.0904245628108,0.02981000576651083,172.66838757850002,172.602470515,172.734304642,0.09322080519352191,0.5000889060296666,0.497916458229,0.502088922547,0.001795500322255579,0.018803790909615002,0.00872490064466,0.04265571861240001,0.01599883439066584,0.03242372707042,0.028422469702699998,0.0380719631094,0.003606984034999114,nan,nan,nan,nan,nan,nan,nan,nan,nan,nan,nan,nan,90.12225003593146,90.12225003593146,90.12225003593146,nan,nan,nan,nan,nan,nan,nan,nan,nan,nan,nan,nan,nan,Still,U14
2,,,9.867332014008065,9.80005930403,9.94509043543,0.02437401034044094,9.80665057528,9.80665057528,9.80665057528,4.4605002849244886e-07,0.24719438948938333,0.026505394281599995,4.466931896469999,0.7377016984016652,300.4681478496316,257.544037854,315.97410229900004,11.053577833494305,0.011891405661000002,0.011263799039200002,0.0125190122828,0.00088756979638472,172.66838757850002,172.602470515,172.734304642,0.09322080519352191,0.5000889060296666,0.497916458229,0.502088922547,0.001795500322255579,0.016234781999065997,0.00518336352799,0.05630574146919999,0.02241216997274653,0.080767114044,0.080767114044,0.080767114044,0.003606984034999114,nan,nan,nan,nan,996.2634,996.2634,996.2634,nan,nan,nan,nan,nan,90.12225003593146,90.12225003593146,90.12225003593146,nan,nan,nan,nan,nan,nan,nan,nan,nan,nan,nan,nan,nan,Still,U14
3,,,9.864704533442069,9.801696035219999,9.89432976708,0.02113559953305784,9.806650544410001,9.806650544410001,9.806650544410001,4.4605002849244886e-07,0.08099093691459064,0.0151950829669,0.276831404976,0.04584388561336053,303.13479383000004,301.83935343400003,311.652225652,2.1672729464252467,0.043704262961031665,0.00559867249509,0.06709514152269999,0.02766620181901948,172.66838757850002,172.602470515,172.734304642,0.09322080519352191,0.484135569806,0.484135569806,0.484135569806,0.001795500322255579,0.00855211354286,0.00855211354286,0.00855211354286,0.02241216997274653,0.10133754671345001,0.0909221856095,0.110068534214,0.008741804854260255,43.0948759035,43.01267260149999,43.1770792055,0.11625302456025628,996.2634,996.2634,996.2634,nan,nan,nan,nan,nan,83.43569881108245,83.43569881108245,83.43569881108245,nan,nan,nan,nan,nan,nan,nan,nan,nan,nan,nan,nan,nan,Still,U14
4,,,9.870762132268107,9.84375038338,9.8993013448,0.011962772484006255,9.80665004124,9.80665004124,9.80665004124,4.4605002849244886e-07,0.07418011914212501,0.0349367687804,0.115963842139,0.023230378482498194,302.6006286356667,301.938614875,303.21335287200003,0.3895895758556811,0.039738689351891815,0.00423219859831,0.0717500164175,0.02559299971437008,172.66838757850002,172.602470515,172.734304642,0.09322080519352191,0.4802342180343333,0.477571293475,0.483737743649,0.0031680016631587984,0.010221730641799999,0.010221730641799999,0.010221730641799999,0.02241216997274653,0.12161950250928573,0.113017478078,0.129824410767,0.005838618768278241,42.6668511165,42.6668511165,42.6668511165,0.11625302456025628,996.2634,996.2634,996.2634,nan,nan,nan,nan,nan,83.43569881108245,83.43569881108245,83.43569881108245,nan,nan,nan,nan,nan,nan,nan,nan,nan,nan,nan,nan,nan,Still,U14
5,,,9.876314916852069,9.83906477588,10.121133840599999,0.048497924949637713,9.806649910307499,9.80664924714,9.80665055179,5.742429977327279e-07,0.07833093089232084,0.0375017122954,0.347428939217,0.05849533261025794,302.4165148103846,301.70490690599996,303.213682544,0.5067481084552603,0.049741819655949995,0.0149630819268,0.0709130112004,0.024234293188615752,172.8774689725,172.68474987099998,173.07018807400001,0.272545967069682,0.482490868514,0.482490868514,0.482490868514,0.0031680016631587984,0.013998454100552856,0.00922386286707,0.021090337976599996,0.00451702269910002,0.14370472531,0.14055409873400002,0.146335623739,0.0029255932485477277,43.52844995216666,43.4539986653,43.6094027054,0.07790574894408293,996.2634,996.2634,996.2634,nan,nan,nan,nan,nan,83.220853500707,80.97427276161939,85.46743423979458,3.1771449501838527,nan,nan,nan,nan,nan,nan,nan,nan,nan,nan,nan,nan,Still,U14
6,,,9.86481084637,9.84870355032,9.87966008111,0.008443967711346399,9.806649910307499,9.80664924714,9.80665055179,5.742429977327279e-07,0.0629028008765207,0.04150994476580001,0.0839289099938,0.010435315736778193,302.1474520086666,301.585887001,302.651343321,0.35805844858307073,0.05987412469902857,0.052548616352800004,0.069057496814,0.005659665770882931,172.74439801299997,172.57720011599997,172.91159591,0.23645353353767157,0.483486169498,0.483486169498,0.483486169498,0.0031680016631587984,0.05283493167369666,0.00598523265639,0.0926423025451,0.04375565940207197,0.18126264949774998,0.172771116093,0.19131854383699998,0.009517824365142069,43.17299699495,43.124586954499996,43.2214070354,0.06846213575942181,996.2634,996.2634,996.2634,nan,nan,nan,nan,nan,83.220853500707,80.97427276161939,85.46743423979458,3.1771449501838527,nan,nan,nan,nan,nan,nan,nan,nan,nan,nan,nan,nan,Still,U14
7,,,9.862154337204812,9.84344449997,9.89635291998,0.012782477302085506,9.806649910307499,9.80664924714,9.80665055179,5.742429977327279e-07,0.06911078357105,0.0385234869248,0.20949402317000002,0.03325772534782291,301.9448206676153,301.77095316,302.38804427,0.17435638964183764,0.04870222273975556,0.017060537756,0.0610009424242,0.01660749147163888,173.097600926,173.07018807400001,173.15242663,0.047480452444362053,0.48809432746600007,0.484753162134,0.491789721531,0.003393509708144078,0.060645181875776666,0.00938429052983,0.114419475981,0.05256268106521178,0.205561611553,0.194769708114,0.217600143741,0.009143274714457928,43.3932022824,43.3932022824,43.3932022824,0.06846213575942181,996.2634,996.2634,996.2634,nan,nan,nan,nan,nan,85.12280453269067,85.12280453269067,85.12280453269067,3.1771449501838527,nan,nan,nan,nan,nan,nan,nan,nan,nan,nan,nan,nan,Still,U14
8,,,9.864165522174064,9.805086462010001,9.98401560822,0.03210029455301503,9.80665009395,9.80665009395,9.80665009395,5.742429977327279e-07,0.08871214591381665,0.0399420182354,0.254943675941,0.054092047456366324,302.0448039806667,301.592213862,302.397662483,0.4118818601735705,0.056493955716044444,0.0483934835226,0.0659960678164,0.004886673695899581,172.9696085945,172.843368458,173.095848731,0.17853051315413312,0.48327984854149997,0.482523543789,0.484036153294,0.0010695764382727551,0.026178403103458068,0.0027318724481800003,0.06635694853490001,0.022537507042895782,0.23196189341100001,0.222927617793,0.238188274352,0.008008440175263917,43.5415893141,43.5415893141,43.5415893141,0.06846213575942181,996.2634,996.2634,996.2634,nan,0.0,0.0,0.0,nan,85.12280453269067,85.12280453269067,85.12280453269067,3.1771449501838527,nan,nan,nan,nan,nan,nan,nan,nan,nan,nan,nan,nan,Still,U14
9,,,9.861885119362665,9.83714321735,9.882864149560001,0.011773929720782686,9.806650727049998,9.806650108169999,9.8066510827,5.379541855385647e-07,0.06421377811887778,0.0459360986522,0.08812192207589999,0.013049690711887777,302.0448039806667,301.592213862,302.397662483,0.4118818601735705,0.048879796789759,0.00532539992339,0.0678583018807,0.022309634143717023,172.9696085945,172.843368458,173.095848731,0.17853051315413312,0.484852386592,0.484852386592,0.484852386592,0.0010695764382727551,0.03740520023531764,0.002443461,0.0969410626117,0.027959625607332037,0.23196189341100001,0.222927617793,0.238188274352,0.008008440175263917,43.245695328000004,43.245695328000004,43.245695328000004,0.06846213575942181,996.2634,996.2634,996.2634,nan,0.0,0.0,0.0,nan,85.12280453269067,85.12280453269067,85.12280453269067,3.1771449501838527,nan,nan,nan,nan,nan,nan,nan,nan,nan,nan,nan,nan,Still,U14
10,,,9.86342559350111,9.842163488039999,9.88292737491,0.011750774573083921,9.806650727049998,9.806650108169999,9.8066510827,5.379541855385647e-07,0.12410242244558001,0.066479527147,0.208406513706,0.07210825721924266,302.289115038,302.289115038,302.289115038,0.4118818601735705,0.04828608680476223,0.007330383,0.06728397343880001,0.023590023862851,172.49771013,172.49771013,172.49771013,0.17853051315413312,0.48750038963950004,0.48648846443800003,0.488512314841,0.0014310783440683991,0.0248672117532946,0.0029926163282,0.0686999374431,0.022351496518796685,0.23196189341100001,0.222927617793,0.238188274352,0.008008440175263917,43.4882742817,43.4882742817,43.4882742817,0.06846213575942181,996.2634,996.2634,996.2634,nan,0.0,0.0,0.0,nan,85.12280453269067,85.12280453269067,85.12280453269067,3.1771449501838527,nan,nan,nan,nan,nan,nan,nan,nan,nan,nan,nan,nan,Still,U14
11,,,9.855112957153795,9.836644083160001,9.87769365402,0.01107148440248487,9.806650727049998,9.806650108169999,9.8066510827,5.379541855385647e-07,0.12410242244558001,0.066479527147,0.208406513706,0.07210825721924266,302.289115038,302.289115038,302.289115038,0.4118818601735705,0.05839008097527143,0.0485781922492,0.06886269585180001,0.007479053055970883,172.987976461,172.987976461,172.987976461,0.17853051315413312,0.484677372848,0.484677372848,0.484677372848,0.0014310783440683991,0.0333974979120283,0.0029926163282,0.0817829713842,0.024612368868808757,0.3185243726945,0.317984236691,0.319064508698,0.000763867661675705,43.4833616374,43.4358147155,43.5309085593,0.06724150180007493,996.2634,996.2634,996.2634,nan,0.0,0.0,0.0,nan,85.0084537775198,82.06923244189409,87.94767511314552,4.156686675658253,nan,nan,nan,nan,nan,nan,nan,nan,nan,nan,nan,nan,Still,U14
12,,,9.853605504341317,9.83447315528,9.89191419152,0.011428820696169597,9.806650727049998,9.806650108169999,9.8066510827,5.379541855385647e-07,0.0394489217958,0.0394489217958,0.0394489217958,0.07210825721924266,302.289115038,302.289115038,302.289115038,0.4118818601735705,0.059440390171941006,0.00457129703015,0.0793090379754,0.009931715192651933,173.246327522,173.246327522,173.246327522,0.17853051315413312,0.484677372848,0.484677372848,0.484677372848,0.0014310783440683991,0.0260183964999125,0.00457129703015,0.06751650200619999,0.02853782618928973,0.3185243726945,0.317984236691,0.319064508698,0.000763867661675705,43.7673394211,43.7673394211,43.7673394211,0.06724150180007493,996.2634,996.2634,996.2634,nan,0.0,0.0,0.0,nan,82.11497111053987,82.11497111053987,82.11497111053987,4.156686675658253,nan,nan,nan,nan,nan,nan,nan,nan,nan,nan,nan,nan,Still,U14
13,,,9.857944673609428,9.83202709541,9.87711676597,0.010938654270849741,9.806650727049998,9.806650108169999,9.8066510827,5.379541855385647e-07,0.0677230707066,0.0642426002051,0.0712035412081,0.004922128586660789,302.518518987,302.518518987,302.518518987,0.4118818601735705,0.04256635348731667,0.0075312524884999996,0.0667941420484,0.026410944675941836,172.9696085945,172.843368458,173.095848731,0.17853051315413312,0.484677372848,0.484677372848,0.484677372848,0.0014310783440683991,0.03632938876733714,0.00345557568533,0.0723198360791,0.02564162091482244,0.371687266174,0.371687266174,0.371687266174,0.000763867661675705,43.383868232299996,43.383868232299996,43.383868232299996,0.06724150180007493,996.2634,996.2634,996.2634,nan,0.0,0.0,0.0,nan,82.11497111053987,82.11497111053987,82.11497111053987,4.156686675658253,nan,nan,nan,nan,nan,nan,nan,nan,nan,nan,nan,nan,Still,U14
14,,,9.859862885867333,9.84408057278,9.87466069781,0.00873408976334355,9.806650064343332,9.80664989865,9.80665020393,1.5430533979862508e-07,0.05525286390371666,0.0363644325386,0.0730170378698,0.015250380953554242,301.901450871,301.901450871,301.901450871,0.4118818601735705,0.051163580457008334,0.010221730641799999,0.06877593987710001,0.01985021674202424,173.16409225900003,173.16409225900003,173.16409225900003,0.17853051315413312,0.488296697687,0.487806114861,0.48878728051299997,0.0006937888859964921,0.020852052915406576,0.00172778784266,0.06990604888730001,0.02203553283306734,0.392974072886,0.388359377299,0.399231859325,0.005619388490963031,43.4551492921,43.4551492921,43.4551492921,0.06724150180007493,996.2634,996.2634,996.2634,nan,0.0,0.0,0.0,nan,82.11497111053987,82.11497111053987,82.11497111053987,4.156686675658253,nan,nan,nan,nan,nan,nan,nan,nan,nan,nan,nan,nan,Still,U14
15,,,9.856207399514544,9.83174431258,9.87006904612,0.009683502813808777,9.806650064343332,9.80664989865,9.80665020393,1.5430533979862508e-07,0.0521018567098,0.0470829507198,0.0571207626998,0.007097804919333564,301.267625283,301.267625283,301.267625283,0.4118818601735705,0.05220973004595855,0.0029926163282,0.0739626393278,0.019351459595476628,173.1205036273333,172.951033533,173.379295188,0.22767466821495166,0.48280214028800006,0.47552168445200005,0.490082596124,0.010296119383529525,0.025040439882715294,0.00610865256,0.0626546467538,0.02224971858761848,0.392974072886,0.388359377299,0.399231859325,0.005619388490963031,43.4551492921,43.4551492921,43.4551492921,0.06724150180007493,996.2634,996.2634,996.2634,nan,0.0,0.0,0.0,nan,82.11497111053987,82.11497111053987,82.11497111053987,4.156686675658253,nan,nan,nan,nan,nan,nan,nan,nan,nan,nan,nan,nan,Still,U14
16,,,9.872201379519257,9.8420560258,9.8891355724,0.010369450768880384,9.806650064343332,9.80664989865,9.80665020393,1.5430533979862508e-07,0.0657560538822,0.0509471204585,0.0940688388267,0.024528272527400877,302.45607250433335,301.762905101,303.381991131,0.8342599967082636,0.04973275257076848,0.0021160992991600003,0.0665815106624,0.020073375841305866,172.61761971074998,172.534808082,172.69898667900003,0.08621560699978804,0.48280214028800006,0.47552168445200005,0.490082596124,0.010296119383529525,0.025455794350067826,0.00172778784266,0.068034042547,0.024437314378196694,0.392974072886,0.388359377299,0.399231859325,0.005619388490963031,43.0507840152,43.0507840152,43.0507840152,0.06724150180007493,996.2634,996.2634,996.2634,nan,0.0,0.0,0.0,nan,85.36875104522908,85.36875104522908,85.36875104522908,4.156686675658253,nan,nan,nan,nan,nan,nan,nan,nan,nan,nan,nan,nan,Still,U14
17,,,9.8724736834652,9.846166583039999,9.894089901880001,0.012378202432426056,9.80665039919,9.80665039919,9.80665039919,1.5430533979862508e-07,0.072257257193,0.072257257193,0.072257257193,0.024528272527400877,303.0520834315,302.19239040900004,303.911776454,1.2157895318969933,0.04205854608524417,0.00634829807067,0.0643122440472,0.023897566446551062,172.61761971074998,172.534808082,172.69898667900003,0.08621560699978804,0.4784559425193333,0.473672617531,0.483849901518,0.005116046594680657,0.030370948919565672,0.0021160992991600003,0.07112318397869999,0.02514806003442855,0.392974072886,0.388359377299,0.399231859325,0.005619388490963031,43.0507840152,43.0507840152,43.0507840152,0.06724150180007493,996.2634,996.2634,996.2634,nan,0.0,0.0,0.0,nan,83.5825827592715,82.98130160415242,84.1838639143906,0.8503399643687769,nan,nan,nan,nan,nan,nan,nan,nan,nan,nan,nan,nan,Still,U14
18,,,9.884235098253795,9.82694406049,10.0768032848,0.04800355806640089,9.806649972225,9.80664971894,9.806650225510001,3.5819908352153007e-07,0.09041251040712,0.044546475131,0.15434782144200002,0.04563954201586923,303.0520834315,302.19239040900004,303.911776454,1.2157895318969933,0.043730717858449994,0.002443461,0.06571274960109999,0.026065049766037705,172.723018958,172.710335591,172.735702325,0.017936989627966898,0.4784559425193333,0.473672617531,0.483849901518,0.005116046594680657,0.03078879253406674,0.0036651915,0.0654966073068,0.02392101488179173,0.44651329237899995,0.44651329237899995,0.44651329237899995,0.005619388490963031,43.40049052435,43.1605162666,43.6404647821,0.33937484993046574,996.2634,996.2634,996.2634,nan,0.0,0.0,0.0,nan,83.5825827592715,82.98130160415242,84.1838639143906,0.8503399643687769,nan,nan,nan,nan,nan,nan,nan,nan,nan,nan,nan,nan,Still,U14
19,,,9.872473764844,9.83385788106,9.911411659439999,0.01489199326216059,9.806649800630002,9.806649800630002,9.806649800630002,3.5819908352153007e-07,0.09933319733176667,0.05348354955159999,0.18568154751200003,0.07482771103175186,303.0520834315,302.19239040900004,303.911776454,1.2157895318969933,0.0430216626677,0.014142552920799998,0.06226032262180001,0.025466323731650822,173.113439247,173.113439247,173.113439247,0.017936989627966898,0.4760949584466667,0.473363843477,0.47798867146000007,0.002423466524513642,0.036483946561906996,0.00172778784266,0.08164597553860001,0.02445860047557016,0.44651329237899995,0.44651329237899995,0.44651329237899995,0.005619388490963031,43.40049052435,43.1605162666,43.6404647821,0.33937484993046574,996.2634,996.2634,996.2634,nan,0.0,0.0,0.0,nan,83.5825827592715,82.98130160415242,84.1838639143906,0.8503399643687769,nan,nan,nan,nan,nan,nan,nan,nan,nan,nan,nan,nan,Still,U14
20,,,9.893014580926316,9.604841362230001,10.1063601988,0.06426600254207057,9.806650404489998,9.806650404489998,9.806650404489998,3.5819908352153007e-07,0.103326793391,0.103326793391,0.103326793391,0.07482771103175186,303.0520834315,302.19239040900004,303.911776454,1.2157895318969933,0.0414932101346,0.0151119717169,0.0689493426121,0.022462762430099408,172.761164675,172.761164675,172.761164675,0.017936989627966898,0.4811030902745,0.480911759722,0.48129442082699997,0.00027058226224180884,0.031423104156625005,0.0012217305,0.08127951666069999,0.026649893434134594,0.510112242916,0.508581253886,0.511643231946,0.002165145450070487,43.40049052435,43.1605162666,43.6404647821,0.33937484993046574,996.2634,996.2634,996.2634,nan,0.0,0.0,0.0,nan,83.5825827592715,82.98130160415242,84.1838639143906,0.8503399643687769,nan,nan,nan,nan,nan,nan,nan,nan,nan,nan,nan,nan,Still,U14
21,,,9.920924646614447,9.8719858113,10.0974715425,0.05099904224235053,9.80665000022,9.80665000022,9.80665000022,3.5819908352153007e-07,0.155986581035,0.155986581035,0.155986581035,0.07482771103175186,293.839652107,293.839652107,293.839652107,1.2157895318969933,0.03316053850175272,0.0027318724481800003,0.06414957851219999,0.02489234840139187,173.76438887700002,173.76438887700002,173.76438887700002,0.017936989627966898,0.5699354680153333,0.497824136333,0.613424974215,0.0628911368972233,0.06219218734281191,0.00518336366942,0.604144211605,0.09175011774189903,0.510112242916,0.508581253886,0.511643231946,0.002165145450070487,44.3767957383,44.3767957383,44.3767957383,0.33937484993046574,996.2634,996.2634,996.2634,nan,0.0,0.0,0.0,nan,83.5825827592715,82.98130160415242,84.1838639143906,0.8503399643687769,nan,nan,nan,nan,nan,nan,nan,nan,nan,nan,nan,nan,Still,U14
22,,,9.897424688921667,9.72886341208,10.0277729592,0.05540268339491222,9.80665002107,9.80665002107,9.80665002107,3.5819908352153007e-07,0.3087199273781611,0.051364167032199995,2.86266023394,0.668917963044369,286.3116588468,285.598818149,287.04664702599996,0.48482275791937407,0.04709051344055833,0.00669169335785,0.07843852513560001,0.021256891420445862,173.88654636099997,173.88654636099997,173.88654636099997,0.017936989627966898,0.5699354680153333,0.497824136333,0.613424974215,0.0628911368972233,0.028238520716661424,0.00855211354286,0.0464578968764,0.011149549750335736,0.510112242916,0.508581253886,0.511643231946,0.002165145450070487,44.2770344039,44.190724868500006,44.3492957193,0.08021342184905839,996.2634,996.2634,996.2634,nan,0.0,0.0,0.0,nan,87.68670979868568,87.68670979868568,87.68670979868568,0.8503399643687769,nan,nan,nan,nan,nan,nan,nan,nan,nan,nan,nan,nan,Still,U14
23,,,9.889114104154414,9.76962360097,10.0300039403,0.04067946776313988,9.80665064573,9.80665064573,9.80665064573,3.5819908352153007e-07,0.09450457849926087,0.0201408167349,0.217648780446,0.044538919933810955,286.1642976897778,285.369728192,287.176287372,0.3980474550788951,0.047671075953472725,0.0128136176134,0.0710706942909,0.01808999397557898,173.88654636099997,173.88654636099997,173.88654636099997,0.017936989627966898,0.5699354680153333,0.497824136333,0.613424974215,0.0628911368972233,0.021840441744765713,0.00855211354286,0.039038065798999995,0.01337389527723917,0.510112242916,0.508581253886,0.511643231946,0.002165145450070487,44.583427774099995,44.4424350233,44.7005596567,0.13070611066593082,996.2634,996.2634,996.2634,nan,0.0,0.0,0.0,nan,87.68670979868568,87.68670979868568,87.68670979868568,0.8503399643687769,nan,nan,nan,nan,nan,nan,nan,nan,nan,nan,nan,nan,Still,U14
24,,,9.873481352118967,9.82550797979,9.91776011398,0.020139307680056003,9.8066504701,9.8066504701,9.8066504701,3.5819908352153007e-07,0.09731132311657725,0.0483628412137,0.177779060734,0.030975846448854538,285.7512020793636,285.041188265,286.731402885,0.5629252618566009,0.04207416861983727,0.00782289222301,0.0653483071247,0.01866943695639143,173.88654636099997,173.88654636099997,173.88654636099997,0.017936989627966898,0.604554210889,0.604554210889,0.604554210889,0.0628911368972233,0.025035665999469412,0.00546374489637,0.046313094868,0.014964157085001258,0.510112242916,0.508581253886,0.511643231946,0.002165145450070487,44.67655642445,44.3383584586,44.9855551083,0.3221921871224102,996.2634,996.2634,996.2634,nan,0.0,0.0,0.0,nan,87.68670979868568,87.68670979868568,87.68670979868568,0.8503399643687769,nan,nan,nan,nan,nan,nan,nan,nan,nan,nan,nan,nan,Still,U14
25,,,9.873212852290001,9.84569177808,9.896190726110001,0.01354699187264412,9.8066504701,9.8066504701,9.8066504701,3.5819908352153007e-07,0.07719146130051667,0.0726531285132,0.08515935660589999,0.004791311374626068,285.7512020793636,285.041188265,286.731402885,0.5629252618566009,0.04849599759989778,0.008286179445680001,0.0680011274118,0.02127140605374073,174.5440379895,174.52893742900002,174.55913855,0.021355417458518603,0.604554210889,0.604554210889,0.604554210889,0.0628911368972233,0.03243665761621725,0.0021160992991600003,0.0838466777407,0.024562244099050144,0.5483341965785,0.546227293561,0.550441099596,0.002979610821953291,44.5610817061,44.5610817061,44.5610817061,0.3221921871224102,996.2634,996.2634,996.2634,nan,0.0,0.0,0.0,nan,84.54127184685652,84.54127184685652,84.54127184685652,0.8503399643687769,nan,nan,nan,nan,nan,nan,nan,nan,nan,nan,nan,nan,Still,U14
26,,,9.883427873618276,9.84081997927,10.1304862534,0.05351308876725402,9.8066504701,9.8066504701,9.8066504701,3.5819908352153007e-07,0.07719146130051667,0.0726531285132,0.08515935660589999,0.004791311374626068,285.874471309,285.603522641,286.145419977,0.3831792809925488,0.058575736158429995,0.048470530625300004,0.0731713572535,0.0070521801240939624,174.00888197700002,174.00888197700002,174.00888197700002,0.021355417458518603,0.6055318280016667,0.6024508275899999,0.607357031703,0.0026833707781199175,0.03180672149769755,0.00172778784266,0.245154156914,0.041120849061574205,0.564555660653,0.564555660653,0.564555660653,0.002979610821953291,44.5610817061,44.5610817061,44.5610817061,0.3221921871224102,996.2634,996.2634,996.2634,nan,0.0,0.0,0.0,nan,84.54127184685652,84.54127184685652,84.54127184685652,0.8503399643687769,nan,nan,nan,nan,nan,nan,nan,nan,nan,nan,nan,nan,Still,U14
27,,,9.863576729103825,9.81196030631,10.0124613702,0.03317797711622186,9.806649947015,9.80664975921,9.80665013482,2.6559637807572754e-07,0.07719146130051667,0.0726531285132,0.08515935660589999,0.004791311374626068,285.35572404,285.35572404,285.35572404,0.3831792809925488,0.049091143746109,0.00772690213379,0.0714686246756,0.02124840521989887,174.0853127125,173.947837009,174.222788416,0.19442000438646453,0.60526637398,0.60526637398,0.60526637398,0.0026833707781199175,0.03883640642456674,0.0012217305,0.106353723844,0.028098602834147102,0.564555660653,0.564555660653,0.564555660653,0.002979610821953291,44.5610817061,44.5610817061,44.5610817061,0.3221921871224102,996.2634,996.2634,996.2634,nan,0.0,0.0,0.0,nan,84.54127184685652,84.54127184685652,84.54127184685652,0.8503399643687769,nan,nan,nan,nan,nan,nan,nan,nan,nan,nan,nan,nan,Still,U14
28,,,9.849664427836831,9.66591594909,9.91728151123,0.039449209135266006,9.80665008863,9.80665008863,9.80665008863,2.6559637807572754e-07,0.052577628187649994,0.04919287243559999,0.055962383939699996,0.004786767489869457,285.520361899,285.520361899,285.520361899,0.3831792809925488,0.06074579694334286,0.052420638709199996,0.0708708976273,0.007426098593318402,174.00011651533336,173.863193345,174.10778270900002,0.12489182222322406,0.6070530657553334,0.605405755763,0.609585926347,0.0022263437348755233,0.033572048149615834,0.00405202175389,0.0743551180676,0.025213168069163117,0.5752665667710001,0.5752665667710001,0.5752665667710001,0.002979610821953291,44.23159409835,44.0863924584,44.3767957383,0.20534612849610348,996.2634,996.2634,996.2634,nan,0.0,0.0,0.0,nan,84.54127184685652,84.54127184685652,84.54127184685652,0.8503399643687769,nan,nan,nan,nan,nan,nan,nan,nan,nan,nan,nan,nan,Still,U14
29,,,9.918720372636875,9.75938104045,10.549690869900001,0.19162615387935586,9.806649788955001,9.806649432210001,9.8066501457,5.045136169739558e-07,0.07454202963819999,0.07454202963819999,0.07454202963819999,0.004786767489869457,303.45539899899995,301.23722803,305.673569968,3.136967468022069,0.12348402786487557,0.0027318724481800003,0.463488539367,0.19190316568205182,176.77510942066667,173.08278366099998,180.01449941599998,3.4879842218662604,0.6070530657553334,0.605405755763,0.609585926347,0.0022263437348755233,0.4932742361232376,0.0038634511617600003,3.53594234211,1.0008536309370129,0.5752665667710001,0.5752665667710001,0.5752665667710001,0.002979610821953291,43.3352050878,43.3352050878,43.3352050878,0.20534612849610348,996.2634,996.2634,996.2634,nan,0.0,0.0,0.0,nan,84.54127184685652,84.54127184685652,84.54127184685652,0.8503399643687769,nan,nan,nan,nan,nan,nan,nan,nan,nan,nan,nan,nan,Still,U14
30,,,9.86151955958923,9.78585588407,9.898771756,0.016977564804459094,9.806650994049999,9.806650994049999,9.806650994049999,5.045136169739558e-07,0.06639519104155,0.017919624724,0.12068417380100001,0.03314932476304718,305.3364094975,305.103617931,305.569201064,0.3292169905504153,0.04725901149743417,0.00518336366942,0.063058340448,0.020451457837467615,176.77510942066667,173.08278366099998,180.01449941599998,3.4879842218662604,0.468093393415,0.468093393415,0.468093393415,0.0022263437348755233,0.031202197187719705,0.00172778784266,0.0731713565356,0.025471642198863016,0.639298096602,0.639298096602,0.639298096602,0.002979610821953291,43.3352050878,43.3352050878,43.3352050878,0.20534612849610348,996.2634,996.2634,996.2634,nan,0.0,0.0,0.0,nan,88.84206643862913,88.84206643862913,88.84206643862913,0.8503399643687769,nan,nan,nan,nan,nan,nan,nan,nan,nan,nan,nan,nan,Still,U14
31,,,9.829892018499,8.17223082431,9.97356703352,0.3147546865900391,9.806650512815,9.80665021827,9.80665080736,4.1654953365261216e-07,0.1197994571007,0.0661311712049,0.255215930666,0.06143832943561145,302.790132217,302.790132217,302.790132217,0.3292169905504153,0.040065569640966664,0.0129871729355,0.0663457025277,0.025441792221040146,176.77510942066667,173.08278366099998,180.01449941599998,3.4879842218662604,0.512161776863,0.512161776863,0.512161776863,0.0022263437348755233,0.041221197612797085,0.0036651915,0.22934064782699998,0.036800373191489176,0.649891498076,0.649891498076,0.649891498076,0.002979610821953291,43.3352050878,43.3352050878,43.3352050878,0.20534612849610348,996.2634,996.2634,996.2634,nan,0.0,0.0,0.0,nan,88.84206643862913,88.84206643862913,88.84206643862913,0.8503399643687769,nan,nan,nan,nan,nan,nan,nan,nan,nan,nan,nan,nan,Still,U14
32,,,9.907955425802106,9.73350739044,9.98194892143,0.03628326942045537,9.806650306449999,9.80664987876,9.80665083469,4.7191001284844737e-07,0.10190864402666666,0.061705622002,0.14064111362,0.03948828753673439,314.716278453,314.716278453,314.716278453,0.3292169905504153,0.0450316241272125,0.00634829807067,0.0663119467066,0.023969326464774253,171.078052362,171.078052362,171.078052362,3.4879842218662604,0.4160872127595,0.414263485418,0.417910940101,0.002579139940419918,0.03325616965636923,0.002443461,0.0679132712651,0.022071056048258406,0.649891498076,0.649891498076,0.649891498076,0.002979610821953291,43.3352050878,43.3352050878,43.3352050878,0.20534612849610348,996.2634,996.2634,996.2634,nan,0.0,0.0,0.0,nan,88.84206643862913,88.84206643862913,88.84206643862913,0.8503399643687769,nan,nan,nan,nan,nan,nan,nan,nan,nan,nan,nan,nan,Still,U14
33,,,9.912094286221723,9.82520558901,9.9418607912,0.021790235257756172,9.80665061339,9.80665061339,9.80665061339,4.7191001284844737e-07,0.12481703523571427,0.10347481001299999,0.149470749944,0.016788508919518923,310.877136148,310.877136148,310.877136148,0.3292169905504153,0.06430871674422,0.061549033479399995,0.0690574995915,0.0034296128264934564,171.078052362,171.078052362,171.078052362,3.4879842218662604,0.4160872127595,0.414263485418,0.417910940101,0.002579139940419918,0.03220659019287373,0.00172778784266,0.106346709051,0.0269727356359506,0.702121309948,0.6968004877830001,0.708628281454,0.006002448539996218,43.1679298137,43.1679298137,43.1679298137,0.20534612849610348,996.2634,996.2634,996.2634,nan,0.0,0.0,0.0,nan,88.84206643862913,88.84206643862913,88.84206643862913,0.8503399643687769,nan,nan,nan,nan,nan,nan,nan,nan,nan,nan,nan,nan,Still,U14
34,,,9.903495266017273,9.87538807702,9.928707394089999,0.014977141968813177,9.806650754169999,9.806650754169999,9.806650754169999,4.7191001284844737e-07,0.10239018541138001,0.07941934082789999,0.128612925222,0.023763750596851946,307.52619571400004,307.52619571400004,307.52619571400004,0.3292169905504153,0.039406612391149995,0.00743149650752,0.06222435242549999,0.025305885591905077,172.280355734,172.280355734,172.280355734,3.4879842218662604,0.4434974418275,0.44305182765,0.443943056005,0.0006301936134062285,0.039667772127997505,0.00532539992339,0.0968794568241,0.025836081531948375,0.702121309948,0.6968004877830001,0.708628281454,0.006002448539996218,43.2631482904,43.2631482904,43.2631482904,0.0,996.2634,996.2634,996.2634,nan,0.0,0.0,0.0,nan,80.5061173052954,80.5061173052954,80.5061173052954,0.8503399643687769,nan,nan,nan,nan,nan,nan,nan,nan,nan,nan,nan,nan,Still,U14
35,,,9.900377292465624,9.875094635630001,9.92316594082,0.010971413961876791,9.806650754169999,9.806650754169999,9.806650754169999,4.7191001284844737e-07,0.08562301164529999,0.08562301164529999,0.08562301164529999,0.023763750596851946,308.125495816,308.125495816,308.125495816,0.3292169905504153,0.0628518876176,0.0548283461904,0.07666784624760001,0.00910323831196624,172.280355734,172.280355734,172.280355734,3.4879842218662604,0.4434974418275,0.44305182765,0.443943056005,0.0006301936134062285,0.03107930737302275,0.0027318724481800003,0.09880922620310001,0.025884169032942755,0.7425821220276667,0.737415864543,0.746215910031,0.004595818445188053,42.6167807325,42.6167807325,42.6167807325,0.0,996.2634,996.2634,996.2634,nan,0.0,0.0,0.0,nan,80.5061173052954,80.5061173052954,80.5061173052954,0.8503399643687769,nan,nan,nan,nan,nan,nan,nan,nan,nan,nan,nan,nan,Still,U14
36,,,9.920796442,9.87112837139,10.143722865199999,0.05821722616226564,9.806650754169999,9.806650754169999,9.806650754169999,4.7191001284844737e-07,0.11324589888305,0.08409403299610001,0.20933659620099998,0.03129405601319073,308.125495816,308.125495816,308.125495816,0.3292169905504153,0.051402799445675,0.0438803689591,0.0553296890873,0.005380862596305264,172.280355734,172.280355734,172.280355734,3.4879842218662604,0.42718551134599997,0.42718551134599997,0.42718551134599997,0.0006301936134062285,0.036124202279463044,0.00405202175389,0.0934284421157,0.02795206406939205,0.754052630394,0.754052630394,0.754052630394,0.004595818445188053,42.6167807325,42.6167807325,42.6167807325,0.0,996.2634,996.2634,996.2634,nan,0.0,0.0,0.0,nan,80.5061173052954,80.5061173052954,80.5061173052954,0.8503399643687769,nan,nan,nan,nan,nan,nan,nan,nan,nan,nan,nan,nan,Still,U14
37,,,9.909359676238823,9.86791708785,10.1081071011,0.038219352178751664,9.80665038507,9.80665038507,9.80665038507,4.7191001284844737e-07,0.10645536631947501,0.0853620114443,0.132715968989,0.0222429356882856,309.223844735,308.859669164,309.588020306,0.5150220315931315,0.0687038855850875,0.052235229344199996,0.10754698356799999,0.018145254741756777,172.280355734,172.280355734,172.280355734,3.4879842218662604,0.434855453452,0.432599912857,0.43967692646300005,0.00327566965137369,0.035176257249524494,0.0029926163282,0.08040249185449999,0.025545312899961335,0.754052630394,0.754052630394,0.754052630394,0.004595818445188053,43.63452811875,43.5452640872,43.7237921503,0.12623840405010728,996.2634,996.2634,996.2634,nan,0.0,0.0,0.0,nan,83.43569881108245,83.43569881108245,83.43569881108245,0.8503399643687769,nan,nan,nan,nan,nan,nan,nan,nan,nan,nan,nan,nan,Still,U14
38,,,9.925548958309722,9.86816920759,11.0094038083,0.18619547709694872,9.806650373035001,9.80665012535,9.806650620720001,3.502794869169704e-07,0.08887845721556667,0.0590729606592,0.11018397408,0.012566390245930096,307.98780059641666,307.59383874099996,308.902998124,0.3872236328291682,0.0545887766996,0.041718116575000005,0.059664994643400006,0.006519276319079338,173.325511273,173.325511273,173.325511273,3.4879842218662604,0.441502539517,0.441502539517,0.441502539517,0.00327566965137369,0.029493091974132864,0.0038634511617600003,0.10718552847400001,0.029002964024336914,0.793809874242,0.793809874242,0.793809874242,0.004595818445188053,43.761741281599996,43.761741281599996,43.761741281599996,0.12623840405010728,996.2634,996.2634,996.2634,nan,0.0,0.0,0.0,nan,83.39818883802137,83.39818883802137,83.39818883802137,0.8503399643687769,nan,nan,nan,nan,nan,nan,nan,nan,nan,nan,nan,nan,Still,U14
39,,,9.914528603678965,9.879859680900001,10.2482544131,0.06858807600788845,9.806650933119998,9.806650933119998,9.806650933119998,3.502794869169704e-07,0.09312853422667354,0.061722622286400006,0.12854414135,0.015152407310116052,307.5823412216667,307.06230586099997,307.957914414,0.3163188229042003,0.04140152799610286,0.0029926163282,0.062404002865199995,0.025923577135200604,172.99805727350002,172.80523718900002,173.190877358,0.272688778597805,0.441502539517,0.441502539517,0.441502539517,0.00327566965137369,0.046966403541000006,0.0036651915999999997,0.090267615482,0.06123716119415402,0.793809874242,0.793809874242,0.793809874242,0.004595818445188053,43.6377651897,43.286256532799996,43.9014806128,0.25857653744665654,996.2634,996.2634,996.2634,nan,0.0,0.0,0.0,nan,85.74079855034483,85.74079855034483,85.74079855034483,0.8503399643687769,nan,nan,nan,nan,8.0,8.0,8.0,nan,nan,nan,nan,nan,Still,U14
40,,,9.89478616373657,9.86567211009,9.922811519360001,0.013349175059504602,9.806650933119998,9.806650933119998,9.806650933119998,3.502794869169704e-07,0.09376120211857307,0.0663193596138,0.13316344098,0.017313472875682346,307.38960223770584,306.378049479,308.873421586,0.8471926533730081,0.03786674467547556,0.0027318724481800003,0.0544321735303,0.019467114380373768,173.24725388,173.24725388,173.24725388,0.272688778597805,0.445288805418,0.445288805418,0.445288805418,0.00327566965137369,0.034820534981425,0.007330383,0.105395057695,0.047147681203943886,0.833958045563,0.831441034729,0.8364750563969999,0.0035595908580827672,43.6377651897,43.286256532799996,43.9014806128,0.25857653744665654,996.2634,996.2634,996.2634,nan,0.0,0.0,0.0,nan,88.69233603039044,88.69233603039044,88.69233603039044,0.8503399643687769,nan,nan,nan,nan,8.0,8.0,8.0,nan,nan,nan,nan,nan,Still,U14
41,,,9.887538145987353,9.81192669494,9.92711718577,0.022698494831516414,9.80665038041,9.80664966787,9.80665109295,1.0076837322085691e-06,0.08873686323629523,0.0258334182753,0.133028289727,0.024466745907517965,308.26473134404546,307.257480801,309.178019719,0.6034201831754125,0.05828179937654,0.0524206374739,0.0629042933318,0.004340945907683504,172.900258373,172.874231807,172.92628493900003,0.03680712261921681,0.432001263738,0.432001263738,0.432001263738,0.00327566965137369,0.041714290978456,0.00930442278348,0.07234047234360001,0.029296505083883363,0.833958045563,0.831441034729,0.8364750563969999,0.0035595908580827672,43.699887392633336,43.4521578152,43.9932949437,0.27344506928584666,996.2634,996.2634,996.2634,nan,0.0,0.0,0.0,nan,87.66876670513311,87.66876670513311,87.66876670513311,0.8503399643687769,nan,nan,nan,nan,8.0,8.0,8.0,nan,nan,nan,nan,nan,Still,U14
42,,,9.878623170763637,9.83429478508,9.90114020942,0.015134316209513055,9.806650330750001,9.806650330750001,9.806650330750001,1.0076837322085691e-06,0.0816768464189125,0.052130944282800004,0.20056705405900002,0.030813391422780455,307.9893424868947,307.416793804,308.688897446,0.4279823746713837,0.05905496715638572,0.05035842112530001,0.0652340014745,0.004877776966224116,172.94139542599999,172.679153411,173.20363744099998,0.3708662142370461,0.435336109433,0.435336109433,0.435336109433,0.00327566965137369,0.009614976793220001,0.00712385165392,0.012578484825799999,0.002757827942120592,0.8628922142615001,0.860828600231,0.864955828292,0.002918390949436481,43.666094633933334,43.500229937600004,43.8618304796,0.18264159483957593,996.3254400000001,996.3254400000001,996.3254400000001,nan,0.0,0.0,0.0,nan,87.66876670513311,87.66876670513311,87.66876670513311,0.8503399643687769,nan,nan,nan,nan,8.0,8.0,8.0,nan,nan,nan,nan,nan,Still,U14
43,,,9.876350170873547,9.82254212065,9.913263048660001,0.018466985052086663,9.80665119849,9.80665119849,9.80665119849,1.0076837322085691e-06,0.08458583833061152,0.055242669104000004,0.248714987652,0.03897059545115766,308.3644800102222,307.130540786,309.096194237,0.5331883944338002,0.037682415602554996,0.00440501204575,0.0742044145663,0.03233355274082567,172.94139542599999,172.679153411,173.20363744099998,0.3708662142370461,0.435336109433,0.435336109433,0.435336109433,0.00327566965137369,0.03936237602551286,0.00172778784266,0.097776614067,0.04199673511979435,0.8729788558535,0.869486900456,0.876470811251,0.004938370682346466,43.866381494660004,43.652376796700004,44.1498584892,0.2079966748768334,996.3254400000001,996.3254400000001,996.3254400000001,nan,0.0,0.0,0.0,nan,78.04005782701459,78.04005782701459,78.04005782701459,0.8503399643687769,nan,nan,nan,nan,8.0,8.0,8.0,nan,nan,nan,nan,nan,Still,U14
44,,,9.882555186136052,9.843749800960001,10.119370343,0.04548671147575247,9.806649741869998,9.806649741869998,9.806649741869998,1.0076837322085691e-06,0.1254069628788393,0.0553069061125,0.55030664822,0.12314058032954928,307.84330572026664,307.088971088,308.349625636,0.3881666178517573,0.05380816141234375,0.00440501204575,0.0790828686162,0.021446303530332413,172.906832855,172.906832855,172.906832855,0.3708662142370461,0.435336109433,0.435336109433,0.435336109433,0.00327566965137369,0.03502515940426,0.00622962746374,0.0584135381051,0.025978870290579763,0.8729788558535,0.869486900456,0.876470811251,0.004938370682346466,43.8618304796,43.8618304796,43.8618304796,0.2079966748768334,996.3254400000001,996.3254400000001,996.3254400000001,nan,0.0,0.0,0.0,nan,78.04005782701459,78.04005782701459,78.04005782701459,0.8503399643687769,nan,nan,nan,nan,8.0,8.0,8.0,nan,nan,nan,nan,nan,Still,U14
45,,,9.867618528688148,9.83677316697,9.89158501929,0.012668143591208028,9.806650199145,9.80664993325,9.80665051118,2.582914335146845e-07,0.07574080312312222,0.0476154049633,0.236264869242,0.041172646765317594,307.5229958814286,306.96952679599997,308.082321811,0.35775591790160594,0.059665660874088894,0.050150510566,0.0657241059758,0.004953685857505638,173.051796075,172.887535699,173.317165913,0.2319760174562599,0.43585892187200004,0.43585892187200004,0.43585892187200004,0.00327566965137369,0.036597198734289405,0.0012217305,0.0941763262065,0.02932574374927117,0.8992212955375001,0.896489490053,0.901953101022,0.003863356365945064,43.6919901655,43.6919901655,43.6919901655,0.2079966748768334,996.3254400000001,996.3254400000001,996.3254400000001,nan,0.0,0.0,0.0,nan,85.87167026992233,85.87167026992233,85.87167026992233,0.8503399643687769,nan,nan,nan,nan,8.0,8.0,8.0,nan,nan,nan,nan,nan,Still,U14
46,,,9.863028544368717,9.82176966301,9.94480942658,0.02056401898683181,9.806650199145,9.80664993325,9.80665051118,2.582914335146845e-07,0.06283094539616667,0.0570521881167,0.06898845594710001,0.005015179745373272,307.390261665,307.390261665,307.390261665,0.35775591790160594,0.06199665880309999,0.057213001006699994,0.0653597277566,0.002976836906776403,173.051796075,172.887535699,173.317165913,0.2319760174562599,0.440868341644,0.440099526697,0.441981836079,0.0009873576426388153,0.03696059696737429,0.0027318724481800003,0.105331310722,0.030127799415327613,0.8992212955375001,0.896489490053,0.901953101022,0.003863356365945064,43.6919901655,43.6919901655,43.6919901655,0.2079966748768334,996.3254400000001,996.3254400000001,996.3254400000001,nan,0.0,0.0,0.0,nan,79.21607249823539,79.21607249823539,79.21607249823539,0.8503399643687769,nan,nan,nan,nan,8.0,8.0,8.0,nan,nan,nan,nan,nan,Still,U14
47,,,9.910200029046452,9.842107281739999,11.2990386083,0.2579662883808563,9.806650318818,9.80664967692,9.80665093528,5.029162833931578e-07,0.061532616230925,0.0381957075662,0.07302583725839999,0.015785489989453762,307.179936669,306.943964731,307.602295845,0.3111692800594501,0.060936561171499995,0.0560533359591,0.0671062661407,0.00457339889609327,172.848372925,172.848372925,172.848372925,0.2319760174562599,0.44465484051799997,0.44465484051799997,0.44465484051799997,0.0009873576426388153,0.031466181449134774,0.0038634511617600003,0.0694239692161,0.022942107171763513,0.8992212955375001,0.896489490053,0.901953101022,0.003863356365945064,43.3867510468,43.3867510468,43.3867510468,0.2079966748768334,996.3254400000001,996.3254400000001,996.3254400000001,nan,0.0,0.0,0.0,nan,89.57334965136698,89.57334965136698,89.57334965136698,0.8503399643687769,nan,nan,nan,nan,8.0,8.0,8.0,nan,nan,nan,nan,nan,Still,U14
48,,,9.863927053093846,9.839276851460001,9.92307668691,0.015504373007337618,9.80665066092,9.80665066092,9.80665066092,5.029162833931578e-07,0.05559801522975,0.05176841681699999,0.059427613642499995,0.005415870013753529,303.932187507,303.55192351799997,304.212119485,0.3413422959937182,0.060286920919433336,0.05312772060740001,0.0665366616158,0.006750574963370467,172.848372925,172.848372925,172.848372925,0.2319760174562599,0.44465484051799997,0.44465484051799997,0.44465484051799997,0.0009873576426388153,0.05334339376829965,0.0036651915999999997,0.40603196565099997,0.07268582882365648,0.9289091075113333,0.926406050997,0.930688766804,0.0022311188507379413,43.3867510468,43.3867510468,43.3867510468,0.2079966748768334,996.3254400000001,996.3254400000001,996.3254400000001,nan,0.0,0.0,0.0,nan,84.77565710021048,82.03219234466223,87.51912185575874,3.879845065188927,nan,nan,nan,nan,8.0,8.0,8.0,nan,nan,nan,nan,nan,Still,U14
49,,,9.858915127534168,9.83642262607,9.87720701583,0.011097872277621632,9.806650375830001,9.806650375830001,9.806650375830001,5.029162833931578e-07,0.06885810379293635,0.052362071643000004,0.09444895655030001,0.012927643621393857,302.32173289850004,301.949785737,302.69368006,0.5260127202794804,0.06378428423288333,0.051559345363999996,0.07385155997510001,0.007428620281045573,173.2915722965,173.26041094299998,173.32273365,0.04406880874161729,0.48005206217699997,0.48005206217699997,0.48005206217699997,0.0009873576426388153,0.028957207108340936,0.0029926163282,0.07003403968210001,0.02355910935860987,0.9403966056929999,0.937048216476,0.943783577895,0.003096651613454622,43.3867510468,43.3867510468,43.3867510468,0.2079966748768334,996.3364,996.3364,996.3364,nan,0.0,0.0,0.0,nan,84.77565710021048,82.03219234466223,87.51912185575874,3.879845065188927,nan,nan,nan,nan,8.0,8.0,8.0,nan,nan,nan,nan,nan,Still,U14
50,,,9.86186200483,9.824868638789999,9.974844400630001,0.023765197692486417,9.806650167139999,9.806650167139999,9.806650167139999,5.029162833931578e-07,0.059698769121662505,0.0490197912989,0.08604976471100001,0.01274271098980681,302.2531996832,301.881244947,302.622281289,0.32800116412679753,0.06174680083327501,0.0561065666158,0.07137457932010001,0.00714666501934014,173.2915722965,173.26041094299998,173.32273365,0.04406880874161729,0.485249019189,0.485249019189,0.485249019189,0.0009873576426388153,0.03453134967253525,0.0038634511617600003,0.125148388324,0.029175099328151922,0.9403966056929999,0.937048216476,0.943783577895,0.003096651613454622,44.184273220200005,44.184273220200005,44.184273220200005,0.2079966748768334,996.3364,996.3364,996.3364,nan,0.0,0.0,0.0,nan,86.53899988331999,86.53899988331999,86.53899988331999,3.879845065188927,nan,nan,nan,nan,8.0,8.0,8.0,nan,nan,nan,nan,nan,Still,U14
51,,,9.86299233813857,9.819867338069999,9.90148527476,0.014967902369802612,9.80665037508,9.80665037508,9.80665037508,5.029162833931578e-07,0.06238803497412,0.037434057878,0.10711866683700001,0.02793671495204588,302.455232527,302.455232527,302.455232527,0.32800116412679753,0.0384331574716,0.0029926163282,0.0736390340845,0.027966095228830173,173.339865009,173.12160466,173.55812535799998,0.30866674568407165,0.48726886263700003,0.48726886263700003,0.48726886263700003,0.0009873576426388153,0.025805582756440747,0.0029926163282,0.0698205904863,0.022608304276453915,0.9557343347600001,0.9557343347600001,0.9557343347600001,0.003096651613454622,44.184273220200005,44.184273220200005,44.184273220200005,0.2079966748768334,996.3213,996.3213,996.3213,nan,0.0,0.0,0.0,nan,86.53899988331999,86.53899988331999,86.53899988331999,3.879845065188927,nan,nan,nan,nan,8.0,8.0,8.0,nan,nan,nan,nan,nan,Still,U14
52,,,9.859340622691715,9.83881045371,9.884372308889999,0.011847846640945986,9.80665094876,9.80665094876,9.80665094876,5.029162833931578e-07,0.072624756945,0.0552167772177,0.0826686645622,0.015135180812459572,302.292946529,302.292946529,302.292946529,0.32800116412679753,0.06112534753226667,0.0560400190102,0.0660299827343,0.004997432476696107,173.339865009,173.12160466,173.55812535799998,0.30866674568407165,0.48701070541,0.48701070541,0.48701070541,0.0009873576426388153,0.02341654659533721,0.0021160992991600003,0.06937019687589999,0.022333836557709232,0.9590250678655,0.958922850448,0.9591272852830001,0.0001445572581393238,43.6688678901,43.6688678901,43.6688678901,0.2079966748768334,996.3462,996.3462,996.3462,nan,0.0,0.0,0.0,nan,86.81337065017696,84.23788846601974,89.03971777897817,2.419878644241391,nan,nan,nan,nan,8.0,8.0,8.0,nan,nan,nan,nan,nan,Still,U14
53,,,9.861360705815683,9.80535159755,9.916052093,0.017752041769918788,9.80665000773,9.80665000773,9.80665000773,5.029162833931578e-07,0.072624756945,0.0552167772177,0.0826686645622,0.015135180812459572,302.330593632,302.330593632,302.330593632,0.32800116412679753,0.04191632574761625,0.00172778784266,0.0762089572623,0.028782623244493852,173.339865009,173.12160466,173.55812535799998,0.30866674568407165,0.48680334641949996,0.48645254460299997,0.487154148236,0.0004961086865994435,0.03224449084390375,0.0027318724481800003,0.08046744283589999,0.02542669756739326,0.9590250678655,0.958922850448,0.9591272852830001,0.0001445572581393238,43.6688678901,43.6688678901,43.6688678901,0.2079966748768334,996.3462,996.3462,996.3462,nan,0.0,0.0,0.0,nan,86.81337065017696,84.23788846601974,89.03971777897817,2.419878644241391,nan,nan,nan,nan,8.0,8.0,8.0,nan,nan,nan,nan,nan,Still,U14
54,,,9.859736379494725,9.79643195615,9.93206295994,0.030117559756414624,9.80665000773,9.80665000773,9.80665000773,5.029162833931578e-07,0.054895058856000004,0.0529884358177,0.0568016818943,0.0026963721590968596,301.570808538,301.570808538,301.570808538,0.32800116412679753,0.045016044957152855,0.0027318724481800003,0.0694239680194,0.02893093331668615,173.4117654205,173.31119415599997,173.512336685,0.1422292462409383,0.490827628738,0.488081603009,0.49357365446699997,0.003883466828577243,0.03175076525970977,0.0027318724481800003,0.07432500588289999,0.026491203804623612,0.966230046231,0.966230046231,0.966230046231,0.0001445572581393238,43.7673394211,43.7673394211,43.7673394211,0.2079966748768334,996.3462,996.3462,996.3462,nan,0.0,0.0,0.0,nan,86.69725245235973,86.41206395519241,86.98244094952706,0.4033174405268331,nan,nan,nan,nan,8.0,8.0,8.0,nan,nan,nan,nan,nan,Still,U14
55,,,9.866634700131874,9.810714023280001,10.1570614738,0.054716696510427,9.806650332105,9.80664986697,9.80665079724,6.578002251218267e-07,0.05316800966825,0.046541086708500004,0.0758839903118,0.011316236200871724,300.98889533333335,300.839207575,301.272311753,0.24557549429201858,0.05056685393350857,0.0021160992991600003,0.0633770860483,0.02171993805156658,173.305510588,173.305510588,173.305510588,0.1422292462409383,0.4896559586775,0.487431911224,0.491880006131,0.003145278072101077,0.03252140448798171,0.002443461,0.07311013161439998,0.024926218459735874,0.9722004821539999,0.9722004821539999,0.9722004821539999,0.0001445572581393238,43.7673394211,43.7673394211,43.7673394211,0.2079966748768334,996.3462,996.3462,996.3462,nan,0.0,0.0,0.0,nan,85.62021257442966,85.62021257442966,85.62021257442966,0.4033174405268331,nan,nan,nan,nan,8.0,8.0,8.0,nan,nan,nan,nan,nan,Still,U14
56,,,9.848454270479168,9.742986541519999,9.88853036604,0.025746524943837265,9.806650479570001,9.806650479570001,9.806650479570001,6.578002251218267e-07,0.09595074667103332,0.06646402041669999,0.13440743303,0.034848557611389296,300.98889533333335,300.839207575,301.272311753,0.24557549429201858,0.049490422387814544,0.00984990618996,0.07334454284410001,0.02386821898765883,173.438721167,173.438721167,173.438721167,0.1422292462409383,0.49549638535499996,0.49549638535499996,0.49549638535499996,0.003145278072101077,0.023168804737278604,0.0012217305,0.0651653235721,0.021168458090511905,0.9722004821539999,0.9722004821539999,0.9722004821539999,0.0001445572581393238,43.7673394211,43.7673394211,43.7673394211,0.2079966748768334,996.3462,996.3462,996.3462,nan,0.0,0.0,0.0,nan,86.7395955040131,86.7395955040131,86.7395955040131,0.4033174405268331,nan,nan,nan,nan,8.0,8.0,8.0,nan,nan,nan,nan,nan,Still,U14
57,,,9.845184724671379,9.76205023771,9.885108831930001,0.029447395446898082,9.806650479570001,9.806650479570001,9.806650479570001,6.578002251218267e-07,0.107490574463,0.107490574463,0.107490574463,0.034848557611389296,301.76223431799997,301.76223431799997,301.76223431799997,0.24557549429201858,0.06156934645970222,0.00782289217616,0.134534659738,0.01982462458440338,173.438721167,173.438721167,173.438721167,0.1422292462409383,0.48035729888400003,0.47699132857500004,0.48372326919299996,0.0047602008615329015,0.041060868601825715,0.0027318724481800003,0.118230443072,0.04006689552230146,0.9768279626063334,0.9757811614290001,0.978920219911,0.001811948101902488,43.77407913729999,43.77407913729999,43.77407913729999,0.2079966748768334,996.3462,996.3462,996.3462,nan,0.0,0.0,0.0,nan,86.7395955040131,86.7395955040131,86.7395955040131,0.4033174405268331,nan,nan,nan,nan,8.0,8.0,8.0,nan,nan,nan,nan,nan,Still,U14
