time,activityrecognition#0,activityrecognition#1,android.sensor.accelerometer#mean,android.sensor.accelerometer#min,android.sensor.accelerometer#max,android.sensor.accelerometer#std,android.sensor.gravity#mean,android.sensor.gravity#min,android.sensor.gravity#max,android.sensor.gravity#std,android.sensor.linear_acceleration#mean,android.sensor.linear_acceleration#min,android.sensor.linear_acceleration#max,android.sensor.linear_acceleration#std,android.sensor.orientation#mean,android.sensor.orientation#min,android.sensor.orientation#max,android.sensor.orientation#std,android.sensor.gyroscope_uncalibrated#mean,android.sensor.gyroscope_uncalibrated#min,android.sensor.gyroscope_uncalibrated#max,android.sensor.gyroscope_uncalibrated#std,android.sensor.magnetic_field_uncalibrated#mean,android.sensor.magnetic_field_uncalibrated#min,android.sensor.magnetic_field_uncalibrated#max,android.sensor.magnetic_field_uncalibrated#std,android.sensor.rotation_vector#mean,android.sensor.rotation_vector#min,android.sensor.rotation_vector#max,android.sensor.rotation_vector#std,android.sensor.gyroscope#mean,android.sensor.gyroscope#min,android.sensor.gyroscope#max,android.sensor.gyroscope#std,android.sensor.game_rotation_vector#mean,android.sensor.game_rotation_vector#min,android.sensor.game_rotation_vector#max,android.sensor.game_rotation_vector#std,android.sensor.magnetic_field#mean,android.sensor.magnetic_field#min,android.sensor.magnetic_field#max,android.sensor.magnetic_field#std,android.sensor.pressure#mean,android.sensor.pressure#min,android.sensor.pressure#max,android.sensor.pressure#std,android.sensor.light#mean,android.sensor.light#min,android.sensor.light#max,android.sensor.light#std,sound#mean,sound#min,sound#max,sound#std,speed#mean,speed#min,speed#max,speed#std,android.sensor.proximity#mean,android.sensor.proximity#min,android.sensor.proximity#max,android.sensor.proximity#std,android.sensor.step_counter#mean,android.sensor.step_counter#min,android.sensor.step_counter#max,android.sensor.step_counter#std,target,user
1,,,10.162885754743508,6.90337007878,17.8090370168,2.5044997165757446,9.79394860578,9.79394860578,9.79394860578,nan,nan,nan,nan,nan,297.214051934,297.214051934,297.214051934,nan,nan,nan,nan,nan,nan,nan,nan,nan,nan,nan,nan,nan,nan,nan,nan,nan,nan,nan,nan,nan,45.805613872810525,44.931668119499996,47.2412277571,0.6622545338508097,nan,nan,nan,nan,nan,nan,nan,nan,57.086120836021614,57.086120836021614,57.086120836021614,nan,nan,nan,nan,nan,nan,nan,nan,nan,nan,nan,nan,nan,Walking,U4
2,,,10.101777959027144,6.58411545405,14.729922912000001,2.024659874387338,9.797522863314999,9.79553019142,9.79951553521,0.0028180636192694304,nan,nan,nan,nan,261.939855624,261.939855624,261.939855624,nan,nan,nan,nan,nan,nan,nan,nan,nan,nan,nan,nan,nan,nan,nan,nan,nan,nan,nan,nan,nan,46.560994913758336,45.263389179300006,48.343209834700005,0.9091511363597907,nan,nan,nan,nan,nan,nan,nan,nan,59.590967494081895,59.590967494081895,59.590967494081895,nan,nan,nan,nan,nan,nan,nan,nan,nan,nan,nan,nan,nan,Walking,U4
3,,,9.903548567858163,6.926871911569999,14.1393923577,1.850181689409434,9.797522863314999,9.79553019142,9.79951553521,0.0028180636192694304,nan,nan,nan,nan,261.939855624,261.939855624,261.939855624,nan,nan,nan,nan,nan,nan,nan,nan,nan,nan,nan,nan,nan,nan,nan,nan,nan,nan,nan,nan,nan,46.51431399787021,42.81452978,49.9312847822,2.4068235060235157,nan,nan,nan,nan,nan,nan,nan,nan,59.590967494081895,59.590967494081895,59.590967494081895,nan,nan,nan,nan,nan,nan,nan,nan,nan,nan,nan,nan,nan,Walking,U4
4,,,10.322828920671915,5.54676563581,16.8810990805,2.445015634707665,9.797522863314999,9.79553019142,9.79951553521,0.0028180636192694304,3.74365861544,2.3843778594,6.290831513780001,2.207580314452518,273.877952849,273.877952849,273.877952849,nan,nan,nan,nan,nan,nan,nan,nan,nan,nan,nan,nan,nan,nan,nan,nan,nan,nan,nan,nan,nan,44.272732750009304,42.874983145,45.4406026641,0.633218745892109,nan,nan,nan,nan,nan,nan,nan,nan,59.39703414329409,56.50852235535646,62.28554593123173,4.08497254557596,nan,nan,nan,nan,nan,nan,nan,nan,nan,nan,nan,nan,Walking,U4
5,,,9.879526516220679,6.18419296072,15.613749101400002,2.4812197036012487,9.79772658391,9.79772658391,9.79772658391,0.0028180636192694304,3.74365861544,2.3843778594,6.290831513780001,2.207580314452518,254.512811405,254.512811405,254.512811405,nan,nan,nan,nan,nan,nan,nan,nan,nan,nan,nan,nan,nan,nan,nan,nan,nan,nan,nan,nan,nan,45.53769359643334,43.642111067200005,48.0707841546,1.056952562779638,nan,nan,nan,nan,nan,nan,nan,nan,59.39703414329409,56.50852235535646,62.28554593123173,4.08497254557596,nan,nan,nan,nan,nan,nan,nan,nan,nan,nan,nan,nan,Walking,U4
6,,,10.24554565831807,5.987312049550001,16.720769592899998,2.8081601130843845,9.79329469758,9.79329469758,9.79329469758,0.0028180636192694304,3.74365861544,2.3843778594,6.290831513780001,2.207580314452518,292.97553752,292.97553752,292.97553752,nan,nan,nan,nan,nan,nan,nan,nan,nan,nan,nan,nan,nan,nan,nan,nan,nan,nan,nan,nan,nan,44.77084479420526,43.749914053400005,46.585044493699996,0.7677084888566261,nan,nan,nan,nan,nan,nan,nan,nan,59.39703414329409,56.50852235535646,62.28554593123173,4.08497254557596,nan,nan,nan,nan,nan,nan,nan,nan,nan,nan,nan,nan,Walking,U4
7,,,10.104542011887922,6.154810407239999,16.0146750401,2.4422517461719258,9.79329469758,9.79329469758,9.79329469758,0.0028180636192694304,4.592406180559999,3.94329636416,5.24151599696,0.9179799058223893,292.97553752,292.97553752,292.97553752,nan,nan,nan,nan,nan,nan,nan,nan,nan,nan,nan,nan,nan,nan,nan,nan,nan,nan,nan,nan,nan,45.40816467733095,43.844730435699994,47.3091148909,0.7966732148905828,nan,nan,nan,nan,nan,nan,nan,nan,59.39703414329409,56.50852235535646,62.28554593123173,4.08497254557596,nan,nan,nan,nan,nan,nan,nan,nan,nan,nan,nan,nan,Walking,U4
8,,,10.22789082898898,6.461023781390001,16.5924990981,2.514893534064338,9.79944885039,9.79636310219,9.80253459859,0.004363906954508624,1.24064843229,1.24064843229,1.24064843229,0.9179799058223893,292.97553752,292.97553752,292.97553752,nan,nan,nan,nan,nan,nan,nan,nan,nan,nan,nan,nan,nan,nan,nan,nan,nan,nan,nan,nan,nan,45.489473809165915,44.039999558599995,47.4578758564,0.7858798597374732,nan,nan,nan,nan,nan,nan,nan,nan,69.10603543314153,69.10603543314153,69.10603543314153,4.08497254557596,nan,nan,nan,nan,nan,nan,nan,nan,nan,nan,nan,nan,Walking,U4
9,,,9.9204427592432,6.31140622725,16.5243877575,2.46117816081249,9.793834641110001,9.793834641110001,9.793834641110001,0.004363906954508624,1.90655690127,1.90655690127,1.90655690127,0.9179799058223893,257.212774068,257.212774068,257.212774068,nan,nan,nan,nan,nan,nan,nan,nan,nan,nan,nan,nan,nan,nan,nan,nan,nan,nan,nan,nan,nan,44.6321986654907,43.1887068572,46.2238376555,0.5758697876094208,nan,nan,nan,nan,nan,nan,nan,nan,69.10603543314153,69.10603543314153,69.10603543314153,4.08497254557596,nan,nan,nan,nan,nan,nan,nan,nan,nan,nan,nan,nan,Walking,U4
10,,,10.517100472099466,7.2220109675,17.6398676233,2.5914581308944453,9.793834641110001,9.793834641110001,9.793834641110001,0.004363906954508624,1.90655690127,1.90655690127,1.90655690127,0.9179799058223893,288.422424381,288.422424381,288.422424381,nan,nan,nan,nan,nan,nan,nan,nan,nan,nan,nan,nan,nan,nan,nan,nan,nan,nan,nan,nan,nan,44.13689187172307,42.7148168892,45.0406597616,0.5823221460535069,nan,nan,nan,nan,nan,nan,nan,nan,69.10603543314153,69.10603543314153,69.10603543314153,4.08497254557596,nan,nan,nan,nan,nan,nan,nan,nan,nan,nan,nan,nan,Walking,U4
11,,,10.397773367759608,6.408107607200001,16.4541971298,2.81277767060761,9.78985154959,9.78941093501,9.79029216417,0.0006231231148146947,1.90655690127,1.90655690127,1.90655690127,0.9179799058223893,288.422424381,288.422424381,288.422424381,nan,nan,nan,nan,nan,nan,nan,nan,nan,nan,nan,nan,nan,nan,nan,nan,nan,nan,nan,nan,nan,45.4722093973,43.073689950100004,46.97559366310001,0.9582599096030326,nan,nan,nan,nan,nan,nan,nan,nan,70.14091744854652,70.14091744854652,70.14091744854652,4.08497254557596,nan,nan,nan,nan,nan,nan,nan,nan,nan,nan,nan,nan,Walking,U4
12,,,10.047770723090537,6.31076695076,16.6201228551,1.5754833536516293,9.797857363325,9.79190227539,9.80381245126,0.008421766122802475,1.90655690127,1.90655690127,1.90655690127,0.9179799058223893,260.668226958,260.668226958,260.668226958,nan,nan,nan,nan,nan,nan,nan,nan,nan,nan,nan,nan,nan,nan,nan,nan,nan,nan,nan,nan,nan,48.73906323797837,47.1000379376,49.6140499552,0.6510499030754857,nan,nan,nan,nan,nan,nan,nan,nan,70.14091744854652,70.14091744854652,70.14091744854652,4.08497254557596,nan,nan,nan,nan,nan,nan,nan,nan,nan,nan,nan,nan,Walking,U4
13,,,10.067897316569445,8.39984762271,13.592255373199999,0.6823675513316381,9.797857363325,9.79190227539,9.80381245126,0.008421766122802475,0.563724461141,0.563724461141,0.563724461141,0.9179799058223893,248.130361808,248.130361808,248.130361808,nan,nan,nan,nan,nan,nan,nan,nan,nan,nan,nan,nan,nan,nan,nan,nan,nan,nan,nan,nan,nan,46.746824023047495,44.6401996055,48.738063153999995,1.097261589547956,nan,nan,nan,nan,nan,nan,nan,nan,70.14091744854652,70.14091744854652,70.14091744854652,4.08497254557596,nan,nan,nan,nan,nan,nan,nan,nan,nan,nan,nan,nan,Walking,U4
14,,,10.326644545800727,7.7166306978699994,13.9218221093,1.4054789141002917,9.800708375260001,9.800708375260001,9.800708375260001,0.008421766122802475,0.563724461141,0.563724461141,0.563724461141,0.9179799058223893,174.746897046,174.746897046,174.746897046,nan,nan,nan,nan,nan,nan,nan,nan,nan,nan,nan,nan,nan,nan,nan,nan,nan,nan,nan,nan,nan,41.17950446600263,39.761760279899995,44.2684537792,1.1615426912146025,nan,nan,nan,nan,nan,nan,nan,nan,73.1709584849817,71.162166032611,75.17975093735241,2.8408615301353617,nan,nan,nan,nan,nan,nan,nan,nan,nan,nan,nan,nan,Walking,U4
15,,,9.996880660627594,5.66479268217,16.7786450998,2.0481855208574022,9.800708375260001,9.800708375260001,9.800708375260001,0.008421766122802475,1.8478047772200001,1.8478047772200001,1.8478047772200001,0.9179799058223893,198.06756189450002,197.341152017,198.79397177200002,1.0272987006022838,nan,nan,nan,nan,nan,nan,nan,nan,nan,nan,nan,nan,nan,nan,nan,nan,nan,nan,nan,nan,42.26908884535751,40.3023172046,44.125666000600006,0.9687300961101208,nan,nan,nan,nan,nan,nan,nan,nan,73.1709584849817,71.162166032611,75.17975093735241,2.8408615301353617,nan,nan,nan,nan,nan,nan,nan,nan,nan,nan,nan,nan,Walking,U4
16,,,10.091208997767893,7.45112499136,12.452073727,0.8872815392652783,9.800708375260001,9.800708375260001,9.800708375260001,0.008421766122802475,0.674997823319,0.674997823319,0.674997823319,0.9179799058223893,198.06756189450002,197.341152017,198.79397177200002,1.0272987006022838,nan,nan,nan,nan,nan,nan,nan,nan,nan,nan,nan,nan,nan,nan,nan,nan,nan,nan,nan,nan,40.610141946741024,38.6207548502,42.6918444071,1.2182407419752195,nan,nan,nan,nan,nan,nan,nan,nan,73.1709584849817,71.162166032611,75.17975093735241,2.8408615301353617,nan,nan,nan,nan,nan,nan,nan,nan,nan,nan,nan,nan,Walking,U4
17,,,10.190675603890927,8.44175820544,13.342468363499998,0.7688822891312177,9.800708375260001,9.800708375260001,9.800708375260001,0.008421766122802475,0.674997823319,0.674997823319,0.674997823319,0.9179799058223893,198.06756189450002,197.341152017,198.79397177200002,1.0272987006022838,nan,nan,nan,nan,nan,nan,nan,nan,nan,nan,nan,nan,nan,nan,nan,nan,nan,nan,nan,nan,41.773859412272095,40.0388855274,43.0408317763,0.6759086530211542,nan,nan,nan,nan,nan,nan,nan,nan,73.1709584849817,71.162166032611,75.17975093735241,2.8408615301353617,nan,nan,nan,nan,nan,nan,nan,nan,nan,nan,nan,nan,Walking,U4
18,,,10.072156902292454,9.003512629189999,11.5977823978,0.4489613368499276,9.800708375260001,9.800708375260001,9.800708375260001,0.008421766122802475,0.5143864255785,0.45785443240199997,0.570918418755,0.07994831145818962,119.76454880345,95.9545358449,143.574561762,33.672443246260556,nan,nan,nan,nan,nan,nan,nan,nan,nan,nan,nan,nan,nan,nan,nan,nan,nan,nan,nan,nan,41.74000127806842,40.624298147800005,43.7380658009,0.6977838493734126,nan,nan,nan,nan,nan,nan,nan,nan,58.6433246149126,56.482516678330974,60.80413255149423,3.055843889597159,nan,nan,nan,nan,nan,nan,nan,nan,nan,nan,nan,nan,Walking,U4
19,,,10.068321772388163,9.39577944759,10.9476097778,0.2684932595516421,9.800708375260001,9.800708375260001,9.800708375260001,0.008421766122802475,0.25077719324000003,0.25077719324000003,0.25077719324000003,0.07994831145818962,73.2246483166,73.2246483166,73.2246483166,33.672443246260556,nan,nan,nan,nan,nan,nan,nan,nan,nan,nan,nan,nan,nan,nan,nan,nan,nan,nan,nan,nan,41.82720148374565,40.9026209429,42.9397577908,0.43519065131006773,nan,nan,nan,nan,nan,nan,nan,nan,58.6433246149126,56.482516678330974,60.80413255149423,3.055843889597159,nan,nan,nan,nan,nan,nan,nan,nan,nan,nan,nan,nan,Walking,U4
20,,,10.085334070640176,8.60198245385,13.142369968699999,0.8345885034245146,9.796978852475,9.7954641106,9.79849359435,0.0021421685031192987,0.25077719324000003,0.25077719324000003,0.25077719324000003,0.07994831145818962,364.210202337,352.537815528,375.882589146,16.507247730552596,nan,nan,nan,nan,nan,nan,nan,nan,nan,nan,nan,nan,nan,nan,nan,nan,nan,nan,nan,nan,41.05709989318889,39.460251281,45.4267361834,1.4812554468946253,nan,nan,nan,nan,nan,nan,nan,nan,58.6433246149126,56.482516678330974,60.80413255149423,3.055843889597159,nan,nan,nan,nan,nan,nan,nan,nan,nan,nan,nan,nan,Walking,U4
21,,,10.041992551405471,9.79169842109,10.4266667405,0.12755834047858178,9.796978852475,9.7954641106,9.79849359435,0.0021421685031192987,0.25077719324000003,0.25077719324000003,0.25077719324000003,0.07994831145818962,150.560981258,150.560981258,150.560981258,16.507247730552596,nan,nan,nan,nan,nan,nan,nan,nan,nan,nan,nan,nan,nan,nan,nan,nan,nan,nan,nan,nan,45.28590878889762,44.0848137118,46.3086125899,0.48487136330258807,nan,nan,nan,nan,nan,nan,nan,nan,55.283522647806606,55.283522647806606,55.283522647806606,3.055843889597159,nan,nan,nan,nan,nan,nan,nan,nan,nan,nan,nan,nan,Walking,U4
22,,,10.006591948787884,9.101715735780001,11.0967509555,0.29964068470062294,9.796978852475,9.7954641106,9.79849359435,0.0021421685031192987,0.25077719324000003,0.25077719324000003,0.25077719324000003,0.07994831145818962,129.54837616265,95.2067112713,163.890041054,48.56644824381913,nan,nan,nan,nan,nan,nan,nan,nan,nan,nan,nan,nan,nan,nan,nan,nan,nan,nan,nan,nan,45.401763827045244,43.69112371,46.92889766020001,0.8002816519096193,nan,nan,nan,nan,nan,nan,nan,nan,60.8751025393736,60.8751025393736,60.8751025393736,3.055843889597159,nan,nan,nan,nan,nan,nan,nan,nan,nan,nan,nan,nan,Walking,U4
23,,,10.010215098465272,9.85967929918,10.201600995,0.06035230981151005,9.80241144894,9.80241144894,9.80241144894,0.0021421685031192987,0.25077719324000003,0.25077719324000003,0.25077719324000003,0.07994831145818962,93.0391527022,93.0391527022,93.0391527022,48.56644824381913,nan,nan,nan,nan,nan,nan,nan,nan,nan,nan,nan,nan,nan,nan,nan,nan,nan,nan,nan,nan,45.616804771605,43.9826587791,47.5385563668,0.7024964443791819,nan,nan,nan,nan,nan,nan,nan,nan,60.8751025393736,60.8751025393736,60.8751025393736,3.055843889597159,nan,nan,nan,nan,nan,nan,nan,nan,nan,nan,nan,nan,Walking,U4
24,,,9.935361263287545,6.80588949895,14.119649535399999,1.0439823819887617,9.80241144894,9.80241144894,9.80241144894,0.0021421685031192987,0.25077719324000003,0.25077719324000003,0.25077719324000003,0.07994831145818962,93.0391527022,93.0391527022,93.0391527022,48.56644824381913,nan,nan,nan,nan,nan,nan,nan,nan,nan,nan,nan,nan,nan,nan,nan,nan,nan,nan,nan,nan,43.59924979072564,35.2449826216,49.6687641751,4.9722375398250875,nan,nan,nan,nan,nan,nan,nan,nan,60.676513879066206,60.676513879066206,60.676513879066206,3.055843889597159,nan,nan,nan,nan,nan,nan,nan,nan,nan,nan,nan,nan,Walking,U4
25,,,10.066882621713859,9.215366490669998,11.816203938900001,0.4756061339718008,9.80241144894,9.80241144894,9.80241144894,0.0021421685031192987,0.31356393635200003,0.31356393635200003,0.31356393635200003,0.07994831145818962,93.0391527022,93.0391527022,93.0391527022,48.56644824381913,nan,nan,nan,nan,nan,nan,nan,nan,nan,nan,nan,nan,nan,nan,nan,nan,nan,nan,nan,nan,40.6491543431973,34.9751094248,45.2524916441,2.800014456396016,nan,nan,nan,nan,nan,nan,nan,nan,62.89331153033388,57.36112723646083,68.42549582420693,7.823690057942693,nan,nan,nan,nan,nan,nan,nan,nan,nan,nan,nan,nan,Walking,U4
26,,,10.141250046927274,8.389594337710001,12.629267014000002,0.703258856118828,9.80241144894,9.80241144894,9.80241144894,0.0021421685031192987,0.31356393635200003,0.31356393635200003,0.31356393635200003,0.07994831145818962,93.0391527022,93.0391527022,93.0391527022,48.56644824381913,nan,nan,nan,nan,nan,nan,nan,nan,nan,nan,nan,nan,nan,nan,nan,nan,nan,nan,nan,nan,37.1798666869725,34.1989999854,40.6845122188,1.712099922857511,nan,nan,nan,nan,nan,nan,nan,nan,53.27401850779296,53.27401850779296,53.27401850779296,7.823690057942693,nan,nan,nan,nan,nan,nan,nan,nan,nan,nan,nan,nan,Walking,U4
27,,,10.35205443859224,7.953184901739999,15.474353643299999,1.3068487329982812,9.80241144894,9.80241144894,9.80241144894,0.0021421685031192987,0.31356393635200003,0.31356393635200003,0.31356393635200003,0.07994831145818962,363.066584261,363.066584261,363.066584261,48.56644824381913,nan,nan,nan,nan,nan,nan,nan,nan,nan,nan,nan,nan,nan,nan,nan,nan,nan,nan,nan,nan,36.950707176860526,31.749524336599997,40.713658641799995,2.444017776785454,nan,nan,nan,nan,nan,nan,nan,nan,53.27401850779296,53.27401850779296,53.27401850779296,7.823690057942693,nan,nan,nan,nan,nan,nan,nan,nan,nan,nan,nan,nan,Walking,U4
28,,,10.394041505383282,6.750799639119999,18.6883174727,2.437977298829511,9.80241144894,9.80241144894,9.80241144894,0.0021421685031192987,0.31356393635200003,0.31356393635200003,0.31356393635200003,0.07994831145818962,363.066584261,363.066584261,363.066584261,48.56644824381913,nan,nan,nan,nan,nan,nan,nan,nan,nan,nan,nan,nan,nan,nan,nan,nan,nan,nan,nan,nan,43.824189106190005,37.6248322255,46.8191499282,2.581198965470007,nan,nan,nan,nan,nan,nan,nan,nan,63.39455416523779,61.540086535867005,65.24902179460858,2.6226132724380506,nan,nan,nan,nan,nan,nan,nan,nan,nan,nan,nan,nan,Walking,U4
29,,,10.162744283491167,5.18664324798,16.5844438064,2.238250057354982,9.80241144894,9.80241144894,9.80241144894,0.0021421685031192987,0.31356393635200003,0.31356393635200003,0.31356393635200003,0.07994831145818962,242.467370847,242.467370847,242.467370847,48.56644824381913,nan,nan,nan,nan,nan,nan,nan,nan,nan,nan,nan,nan,nan,nan,nan,nan,nan,nan,nan,nan,47.0324072755,45.5759130357,49.212803164600004,0.933547222967453,nan,nan,nan,nan,nan,nan,nan,nan,63.39455416523779,61.540086535867005,65.24902179460858,2.6226132724380506,nan,nan,nan,nan,nan,nan,nan,nan,nan,nan,nan,nan,Walking,U4
30,,,10.20724144149151,5.04481425366,18.0898000011,2.6455742163523914,9.79561542987,9.79561542987,9.79561542987,0.0021421685031192987,3.54549356804,1.4553390375400002,5.63564809854,2.9559248844886685,242.467370847,242.467370847,242.467370847,48.56644824381913,nan,nan,nan,nan,nan,nan,nan,nan,nan,nan,nan,nan,nan,nan,nan,nan,nan,nan,nan,nan,47.65671860818,45.791047159899996,49.5149068463,1.067299630529303,nan,nan,nan,nan,nan,nan,nan,nan,56.637395485610035,56.637395485610035,56.637395485610035,2.6226132724380506,nan,nan,nan,nan,nan,nan,nan,nan,nan,nan,nan,nan,Walking,U4
31,,,9.77660238588415,7.25199564293,16.3784065803,1.9111462039419138,9.79561542987,9.79561542987,9.79561542987,0.0021421685031192987,3.54549356804,1.4553390375400002,5.63564809854,2.9559248844886685,245.655928696,225.067742895,266.244114497,29.116091584431377,nan,nan,nan,nan,nan,nan,nan,nan,nan,nan,nan,nan,nan,nan,nan,nan,nan,nan,nan,nan,47.201647963022495,44.0683556398,49.936619829499996,1.5316150502451975,nan,nan,nan,nan,nan,nan,nan,nan,65.32864912611483,60.323947070248785,70.33335118198086,7.077717523042261,nan,nan,nan,nan,nan,nan,nan,nan,nan,nan,nan,nan,Walking,U4
32,,,10.06482296055724,7.02936327166,15.195567618499998,2.1521058846134067,9.79561542987,9.79561542987,9.79561542987,0.0021421685031192987,3.54549356804,1.4553390375400002,5.63564809854,2.9559248844886685,245.655928696,225.067742895,266.244114497,29.116091584431377,nan,nan,nan,nan,nan,nan,nan,nan,nan,nan,nan,nan,nan,nan,nan,nan,nan,nan,nan,nan,43.79004692209189,42.7150278005,45.6166548532,0.7865379741685874,nan,nan,nan,nan,nan,nan,nan,nan,57.83074915345129,57.83074915345129,57.83074915345129,7.077717523042261,nan,nan,nan,nan,nan,nan,nan,nan,nan,nan,nan,nan,Walking,U4
33,,,10.565988315973751,6.47614540429,16.4200602001,2.404338927080892,9.800112142160001,9.800112142160001,9.800112142160001,0.0021421685031192987,3.54549356804,1.4553390375400002,5.63564809854,2.9559248844886685,271.81686255700004,271.81686255700004,271.81686255700004,29.116091584431377,nan,nan,nan,nan,nan,nan,nan,nan,nan,nan,nan,nan,nan,nan,nan,nan,nan,nan,nan,nan,43.23315358506923,41.4892081972,44.7613669295,0.9160619948248657,nan,nan,nan,nan,nan,nan,nan,nan,57.83074915345129,57.83074915345129,57.83074915345129,7.077717523042261,nan,nan,nan,nan,nan,nan,nan,nan,nan,nan,nan,nan,Walking,U4
34,,,10.207588200028889,5.807628917230001,17.2104145518,2.5269278537126487,9.796401056519999,9.796401056519999,9.796401056519999,0.0021421685031192987,3.54549356804,1.4553390375400002,5.63564809854,2.9559248844886685,271.81686255700004,271.81686255700004,271.81686255700004,29.116091584431377,nan,nan,nan,nan,nan,nan,nan,nan,nan,nan,nan,nan,nan,nan,nan,nan,nan,nan,nan,nan,42.95179759535,40.7237357697,45.5337132947,1.5122606332607316,nan,nan,nan,nan,nan,nan,nan,nan,57.83074915345129,57.83074915345129,57.83074915345129,7.077717523042261,nan,nan,nan,nan,nan,nan,nan,nan,nan,nan,nan,nan,Walking,U4
35,,,9.93935880591371,6.57894562327,15.1100463248,2.0380098534710798,9.796401056519999,9.796401056519999,9.796401056519999,0.0021421685031192987,2.5039592343400003,2.5039592343400003,2.5039592343400003,2.9559248844886685,271.81686255700004,271.81686255700004,271.81686255700004,29.116091584431377,nan,nan,nan,nan,nan,nan,nan,nan,nan,nan,nan,nan,nan,nan,nan,nan,nan,nan,nan,nan,47.19029322627419,45.1672887882,50.0727943714,1.1482561495214978,nan,nan,nan,nan,nan,nan,nan,nan,57.83074915345129,57.83074915345129,57.83074915345129,7.077717523042261,nan,nan,nan,nan,nan,nan,nan,nan,nan,nan,nan,nan,Walking,U4
36,,,10.23075498659158,6.580910766819999,16.3762779831,2.283335129627375,9.796401056519999,9.796401056519999,9.796401056519999,0.0021421685031192987,2.5039592343400003,2.5039592343400003,2.5039592343400003,2.9559248844886685,271.81686255700004,271.81686255700004,271.81686255700004,29.116091584431377,nan,nan,nan,nan,nan,nan,nan,nan,nan,nan,nan,nan,nan,nan,nan,nan,nan,nan,nan,nan,45.2507793078225,43.132405300200006,47.2509806641,1.4347753827822805,nan,nan,nan,nan,nan,nan,nan,nan,57.83074915345129,57.83074915345129,57.83074915345129,7.077717523042261,nan,nan,nan,nan,nan,nan,nan,nan,nan,nan,nan,nan,Walking,U4
37,,,10.083850276280499,7.4693756726,13.9899351771,1.083902368711902,9.796401056519999,9.796401056519999,9.796401056519999,0.0021421685031192987,0.40724612781099995,0.40724612781099995,0.40724612781099995,2.9559248844886685,271.81686255700004,271.81686255700004,271.81686255700004,29.116091584431377,nan,nan,nan,nan,nan,nan,nan,nan,nan,nan,nan,nan,nan,nan,nan,nan,nan,nan,nan,nan,42.66098201574865,37.8841444406,44.9211709554,1.6436941504294553,nan,nan,nan,nan,nan,nan,nan,nan,57.83074915345129,57.83074915345129,57.83074915345129,7.077717523042261,nan,nan,nan,nan,nan,nan,nan,nan,nan,nan,nan,nan,Walking,U4
38,,,9.990808019694311,6.61132677854,16.3017761156,1.9814511380116995,9.796401056519999,9.796401056519999,9.796401056519999,0.0021421685031192987,0.40724612781099995,0.40724612781099995,0.40724612781099995,2.9559248844886685,212.799136879,212.799136879,212.799136879,29.116091584431377,nan,nan,nan,nan,nan,nan,nan,nan,nan,nan,nan,nan,nan,nan,nan,nan,nan,nan,nan,nan,43.003979145638894,41.3621130988,44.025201860100005,0.6531999938420173,nan,nan,nan,nan,nan,nan,nan,nan,75.65661610405185,75.65661610405185,75.65661610405185,7.077717523042261,nan,nan,nan,nan,nan,nan,nan,nan,nan,nan,nan,nan,Walking,U4
39,,,10.492568963712882,4.549840028809999,16.0383954173,2.6120793097942188,9.78955267151,9.78955267151,9.78955267151,0.0021421685031192987,0.40724612781099995,0.40724612781099995,0.40724612781099995,2.9559248844886685,212.799136879,212.799136879,212.799136879,29.116091584431377,nan,nan,nan,nan,nan,nan,nan,nan,nan,nan,nan,nan,nan,nan,nan,nan,nan,nan,nan,nan,41.319508997254054,39.633892358400004,42.8630189955,0.8233353954711194,nan,nan,nan,nan,nan,nan,nan,nan,75.65661610405185,75.65661610405185,75.65661610405185,7.077717523042261,nan,nan,nan,nan,nan,nan,nan,nan,nan,nan,nan,nan,Walking,U4
40,,,10.107900382974817,6.5924404192,15.2307147799,2.291304799562797,9.78955267151,9.78955267151,9.78955267151,0.0021421685031192987,2.76143934105,2.76143934105,2.76143934105,2.9559248844886685,212.799136879,212.799136879,212.799136879,29.116091584431377,nan,nan,nan,nan,nan,nan,nan,nan,nan,nan,nan,nan,nan,nan,nan,nan,nan,nan,nan,nan,41.77964014182439,36.9414883219,44.4898280509,2.0502380756426883,nan,nan,nan,nan,nan,nan,nan,nan,74.93112722820739,74.93112722820739,74.93112722820739,7.077717523042261,nan,nan,nan,nan,nan,nan,nan,nan,nan,nan,nan,nan,Walking,U4
41,,,10.555681280610193,6.368411056,16.4859436277,2.68826759916944,9.78955267151,9.78955267151,9.78955267151,0.0021421685031192987,2.76143934105,2.76143934105,2.76143934105,2.9559248844886685,212.799136879,212.799136879,212.799136879,29.116091584431377,nan,nan,nan,nan,nan,nan,nan,nan,nan,nan,nan,nan,nan,nan,nan,nan,nan,nan,nan,nan,41.546910887193334,37.6240663241,43.797123130200006,0.9894953620044017,nan,nan,nan,nan,nan,nan,nan,nan,74.93112722820739,74.93112722820739,74.93112722820739,7.077717523042261,nan,nan,nan,nan,nan,nan,nan,nan,nan,nan,nan,nan,Walking,U4
42,,,10.326549912911634,6.1184705316,14.926709495799999,2.3205775374255144,9.79948779238,9.79948779238,9.79948779238,0.0021421685031192987,2.76143934105,2.76143934105,2.76143934105,2.9559248844886685,212.799136879,212.799136879,212.799136879,29.116091584431377,nan,nan,nan,nan,nan,nan,nan,nan,nan,nan,nan,nan,nan,nan,nan,nan,nan,nan,nan,nan,42.101470463587496,39.6988761337,43.8291269071,0.974990495155121,nan,nan,nan,nan,nan,nan,nan,nan,66.13278882048523,66.13278882048523,66.13278882048523,7.077717523042261,nan,nan,nan,nan,nan,nan,nan,nan,nan,nan,nan,nan,Walking,U4
43,,,9.9873213312525,6.59453403766,16.3776896084,2.3747983349241624,9.79948779238,9.79948779238,9.79948779238,0.0021421685031192987,2.76143934105,2.76143934105,2.76143934105,2.9559248844886685,212.799136879,212.799136879,212.799136879,29.116091584431377,nan,nan,nan,nan,nan,nan,nan,nan,nan,nan,nan,nan,nan,nan,nan,nan,nan,nan,nan,nan,41.64088421745,38.0215412628,44.1782978396,1.3801032603607446,nan,nan,nan,nan,nan,nan,nan,nan,62.33879293101512,62.33879293101512,62.33879293101512,7.077717523042261,nan,nan,nan,nan,nan,nan,nan,nan,nan,nan,nan,nan,Walking,U4
44,,,10.168690001342778,6.65833294408,15.5434786402,1.6025267351844001,9.80124816898,9.80124816898,9.80124816898,0.0021421685031192987,2.76143934105,2.76143934105,2.76143934105,2.9559248844886685,212.799136879,212.799136879,212.799136879,29.116091584431377,nan,nan,nan,nan,nan,nan,nan,nan,nan,nan,nan,nan,nan,nan,nan,nan,nan,nan,nan,nan,44.01324773901,41.8437952361,46.8026518653,1.144409723248464,nan,nan,nan,nan,nan,nan,nan,nan,62.33879293101512,62.33879293101512,62.33879293101512,7.077717523042261,nan,nan,nan,nan,nan,nan,nan,nan,nan,nan,nan,nan,Walking,U4
45,,,10.281600446189632,6.719841286880001,16.719266527000002,2.3655137655583602,9.796490265989998,9.791448426989998,9.801532104989999,0.007130237093102221,2.7999010386000003,2.7999010386000003,2.7999010386000003,2.9559248844886685,222.4952838525,215.71505744900003,229.275510256,9.588688135789827,nan,nan,nan,nan,nan,nan,nan,nan,nan,nan,nan,nan,nan,nan,nan,nan,nan,nan,nan,nan,46.33382541036286,38.5867162801,56.6936484459,5.5873710274507795,nan,nan,nan,nan,nan,nan,nan,nan,75.33866187674569,75.33866187674569,75.33866187674569,7.077717523042261,nan,nan,nan,nan,nan,nan,nan,nan,nan,nan,nan,nan,Walking,U4
46,,,9.732188590083492,3.87711679241,14.5946134378,1.6581171328280713,9.796490265989998,9.791448426989998,9.801532104989999,0.007130237093102221,2.7999010386000003,2.7999010386000003,2.7999010386000003,2.9559248844886685,222.4952838525,215.71505744900003,229.275510256,9.588688135789827,nan,nan,nan,nan,nan,nan,nan,nan,nan,nan,nan,nan,nan,nan,nan,nan,nan,nan,nan,nan,39.01659879557576,26.499425443699998,51.207600426499994,5.554943296188554,nan,nan,nan,nan,nan,nan,nan,nan,77.87523524115886,77.87523524115886,77.87523524115886,7.077717523042261,nan,nan,nan,nan,nan,nan,nan,nan,nan,nan,nan,nan,Walking,U4
47,,,10.785973815693156,5.8273431671,16.0425212672,2.912892894116146,9.796490265989998,9.791448426989998,9.801532104989999,0.007130237093102221,2.7999010386000003,2.7999010386000003,2.7999010386000003,2.9559248844886685,181.89262807225,169.04182954700002,191.99051134200002,11.873015464236925,nan,nan,nan,nan,nan,nan,nan,nan,nan,nan,nan,nan,nan,nan,nan,nan,nan,nan,nan,nan,39.05579456774412,37.1041183698,41.9900988304,1.2397934398555615,nan,nan,nan,nan,nan,nan,nan,nan,69.24196762270311,69.24196762270311,69.24196762270311,7.077717523042261,nan,nan,nan,nan,nan,nan,nan,nan,nan,nan,nan,nan,Walking,U4
48,,,9.743729763387648,3.9468761209500003,23.5583053557,3.931821045144803,9.798910007389999,9.798910007389999,9.798910007389999,0.007130237093102221,2.7999010386000003,2.7999010386000003,2.7999010386000003,2.9559248844886685,181.89262807225,169.04182954700002,191.99051134200002,11.873015464236925,nan,nan,nan,nan,nan,nan,nan,nan,nan,nan,nan,nan,nan,nan,nan,nan,nan,nan,nan,nan,43.843802209260716,39.7528866587,47.4516933312,2.6707766956646775,nan,nan,nan,nan,nan,nan,nan,nan,69.24196762270311,69.24196762270311,69.24196762270311,7.077717523042261,nan,nan,nan,nan,nan,nan,nan,nan,nan,nan,nan,nan,Walking,U4
49,,,10.330569226386093,6.48836970155,15.3452363903,2.516517869783147,9.798910007389999,9.798910007389999,9.798910007389999,0.007130237093102221,2.7999010386000003,2.7999010386000003,2.7999010386000003,2.9559248844886685,234.03222141499998,212.131056673,255.933386157,30.972924209903855,nan,nan,nan,nan,nan,nan,nan,nan,nan,nan,nan,nan,nan,nan,nan,nan,nan,nan,nan,nan,40.40910781022068,38.5320541887,42.956857426999996,1.043942687026558,nan,nan,nan,nan,nan,nan,nan,nan,72.60245285718624,72.60245285718624,72.60245285718624,7.077717523042261,nan,nan,nan,nan,nan,nan,nan,nan,nan,nan,nan,nan,Walking,U4
50,,,9.892851639686825,6.94210174508,16.0523772947,2.4582489297439705,9.797045162884999,9.795795245379999,9.79829508039,0.0017676502874192127,2.7999010386000003,2.7999010386000003,2.7999010386000003,2.9559248844886685,234.03222141499998,212.131056673,255.933386157,30.972924209903855,nan,nan,nan,nan,nan,nan,nan,nan,nan,nan,nan,nan,nan,nan,nan,nan,nan,nan,nan,nan,40.092843143375,37.6957129212,42.3129341928,1.2188725311100381,nan,nan,nan,nan,nan,nan,nan,nan,67.94837084702695,67.94837084702695,67.94837084702695,7.077717523042261,nan,nan,nan,nan,nan,nan,nan,nan,nan,nan,nan,nan,Walking,U4
51,,,10.073415259376317,6.68146848255,14.701037941600001,2.166789418935179,9.797045162884999,9.795795245379999,9.79829508039,0.0017676502874192127,2.7999010386000003,2.7999010386000003,2.7999010386000003,2.9559248844886685,231.63236416700002,231.63236416700002,231.63236416700002,30.972924209903855,nan,nan,nan,nan,nan,nan,nan,nan,nan,nan,nan,nan,nan,nan,nan,nan,nan,nan,nan,nan,39.97359375230256,37.9373690126,41.6998245939,1.1728180720052528,nan,nan,nan,nan,nan,nan,nan,nan,67.94837084702695,67.94837084702695,67.94837084702695,7.077717523042261,nan,nan,nan,nan,nan,nan,nan,nan,nan,nan,nan,nan,Walking,U4
52,,,10.23675506620905,6.502722331009999,15.338651121300002,2.522528734646319,9.79079461765,9.79079461765,9.79079461765,0.0017676502874192127,2.7999010386000003,2.7999010386000003,2.7999010386000003,2.9559248844886685,231.63236416700002,231.63236416700002,231.63236416700002,30.972924209903855,nan,nan,nan,nan,nan,nan,nan,nan,nan,nan,nan,nan,nan,nan,nan,nan,nan,nan,nan,nan,40.36234588616969,39.0779221556,42.912543324299996,0.9447681696390406,nan,nan,nan,nan,nan,nan,nan,nan,67.94837084702695,67.94837084702695,67.94837084702695,7.077717523042261,nan,nan,nan,nan,nan,nan,nan,nan,nan,nan,nan,nan,Walking,U4
53,,,10.262108180644908,6.16532933472,15.3738080816,2.4043496389136036,9.79531689063,9.79471578349,9.79591799777,0.0008500938698267549,3.5220124110300004,3.5220124110300004,3.5220124110300004,2.9559248844886685,231.63236416700002,231.63236416700002,231.63236416700002,30.972924209903855,nan,nan,nan,nan,nan,nan,nan,nan,nan,nan,nan,nan,nan,nan,nan,nan,nan,nan,nan,nan,38.86816125941026,37.0853871054,40.809351869400004,1.0680440485787033,nan,nan,nan,nan,nan,nan,nan,nan,67.94837084702695,67.94837084702695,67.94837084702695,7.077717523042261,nan,nan,nan,nan,nan,nan,nan,nan,nan,nan,nan,nan,Walking,U4
54,,,10.082097593091605,6.369526854430001,16.3624273596,2.310999316998868,9.79531689063,9.79471578349,9.79591799777,0.0008500938698267549,2.87586130496,2.87586130496,2.87586130496,2.9559248844886685,240.94729254799998,240.94729254799998,240.94729254799998,30.972924209903855,nan,nan,nan,nan,nan,nan,nan,nan,nan,nan,nan,nan,nan,nan,nan,nan,nan,nan,nan,nan,42.554516514548716,40.3227677621,44.5572620344,0.8224501072116095,nan,nan,nan,nan,nan,nan,nan,nan,67.94837084702695,67.94837084702695,67.94837084702695,7.077717523042261,nan,nan,nan,nan,nan,nan,nan,nan,nan,nan,nan,nan,Walking,U4
55,,,9.878796907222545,5.7212662623,16.2515672924,2.429017926995591,9.7947438174,9.7947438174,9.7947438174,0.0008500938698267549,2.87586130496,2.87586130496,2.87586130496,2.9559248844886685,264.208861528,264.208861528,264.208861528,30.972924209903855,nan,nan,nan,nan,nan,nan,nan,nan,nan,nan,nan,nan,nan,nan,nan,nan,nan,nan,nan,nan,41.40981001637949,38.5214018437,45.8309674661,2.283067369498542,nan,nan,nan,nan,nan,nan,nan,nan,78.02262502710744,78.02262502710744,78.02262502710744,7.077717523042261,nan,nan,nan,nan,nan,nan,nan,nan,nan,nan,nan,nan,Walking,U4
56,,,10.406215839515484,6.451925431039999,15.4934416122,2.435629334274604,9.7947438174,9.7947438174,9.7947438174,0.0008500938698267549,2.37236584565,2.37236584565,2.37236584565,2.9559248844886685,264.042602489,264.042602489,264.042602489,30.972924209903855,nan,nan,nan,nan,nan,nan,nan,nan,nan,nan,nan,nan,nan,nan,nan,nan,nan,nan,nan,nan,41.0232535815353,38.8133669635,43.5423515888,1.3952379425709736,nan,nan,nan,nan,nan,nan,nan,nan,78.02262502710744,78.02262502710744,78.02262502710744,7.077717523042261,nan,nan,nan,nan,nan,nan,nan,nan,nan,nan,nan,nan,Walking,U4
57,,,10.19431230839678,7.08049913396,20.4654201987,2.3370567637816757,9.7947438174,9.7947438174,9.7947438174,0.0008500938698267549,2.8947397147249996,2.51858599672,3.3126859602599996,0.32509539956483424,264.042602489,264.042602489,264.042602489,30.972924209903855,nan,nan,nan,nan,nan,nan,nan,nan,nan,nan,nan,nan,nan,nan,nan,nan,nan,nan,nan,nan,41.99529037910909,39.1643738579,44.607528512600005,1.4461848213278041,nan,nan,nan,nan,nan,nan,nan,nan,78.02262502710744,78.02262502710744,78.02262502710744,7.077717523042261,nan,nan,nan,nan,nan,nan,nan,nan,nan,nan,nan,nan,Walking,U4
58,,,10.554048327880192,7.05158014147,15.784515604500001,2.297599353280128,9.79300168288,9.79300168288,9.79300168288,0.0008500938698267549,6.584561464,6.584561464,6.584561464,0.32509539956483424,225.13394027799998,225.13394027799998,225.13394027799998,30.972924209903855,nan,nan,nan,nan,nan,nan,nan,nan,nan,nan,nan,nan,nan,nan,nan,nan,nan,nan,nan,nan,43.221820957712495,38.7158106629,45.7420419308,2.014022490847469,nan,nan,nan,nan,nan,nan,nan,nan,64.43177990578438,61.791037657729085,66.01190967779927,2.3016546810288987,nan,nan,nan,nan,nan,nan,nan,nan,nan,nan,nan,nan,Walking,U4
59,,,10.571575414768681,6.7739169952900005,15.362625315,2.457202102449278,9.79300168288,9.79300168288,9.79300168288,0.0008500938698267549,1.5719250803900002,1.3831864181400002,1.7606637426400003,0.2669167758981049,243.966478822,243.966478822,243.966478822,30.972924209903855,nan,nan,nan,nan,nan,nan,nan,nan,nan,nan,nan,nan,nan,nan,nan,nan,nan,nan,nan,nan,40.31688158898536,37.8143773927,45.1331230916,1.8629329007437718,nan,nan,nan,nan,nan,nan,nan,nan,64.43177990578438,61.791037657729085,66.01190967779927,2.3016546810288987,nan,nan,nan,nan,nan,nan,nan,nan,nan,nan,nan,nan,Walking,U4
60,,,10.354922659185423,7.3117273661699995,16.236281125399998,2.22387886700368,9.79300168288,9.79300168288,9.79300168288,0.0008500938698267549,3.2169402819700004,3.2169402819700004,3.2169402819700004,0.2669167758981049,242.5712725515,237.001531033,248.14101407,7.87680399437523,nan,nan,nan,nan,nan,nan,nan,nan,nan,nan,nan,nan,nan,nan,nan,nan,nan,nan,nan,nan,42.921606525319994,40.0030827932,44.833170574899995,1.2133169276300049,nan,nan,nan,nan,nan,nan,nan,nan,62.04867411362673,62.04867411362673,62.04867411362673,2.3016546810288987,nan,nan,nan,nan,nan,nan,nan,nan,nan,nan,nan,nan,Walking,U4
61,,,10.382047923146347,6.7808187253900005,15.8247125413,2.3259655480754162,9.79300168288,9.79300168288,9.79300168288,0.0008500938698267549,3.2169402819700004,3.2169402819700004,3.2169402819700004,0.2669167758981049,243.76952680000002,243.76952680000002,243.76952680000002,7.87680399437523,nan,nan,nan,nan,nan,nan,nan,nan,nan,nan,nan,nan,nan,nan,nan,nan,nan,nan,nan,nan,43.86824038471591,42.1462707674,45.300635757100004,0.58890586518219,nan,nan,nan,nan,nan,nan,nan,nan,62.04867411362673,62.04867411362673,62.04867411362673,2.3016546810288987,nan,nan,nan,nan,nan,nan,nan,nan,nan,nan,nan,nan,Walking,U4
62,,,10.386287826743507,8.46517689722,15.1584997273,1.2722508181730274,9.8003959321,9.8003959321,9.8003959321,0.0008500938698267549,0.23669640643399997,0.23669640643399997,0.23669640643399997,0.2669167758981049,251.13417394599998,236.29370754599998,265.974640346,20.987588854822235,nan,nan,nan,nan,nan,nan,nan,nan,nan,nan,nan,nan,nan,nan,nan,nan,nan,nan,nan,nan,43.73192175059706,42.6054063048,45.1624659894,0.6268748700316046,nan,nan,nan,nan,nan,nan,nan,nan,69.91366135233831,69.91366135233831,69.91366135233831,2.3016546810288987,nan,nan,nan,nan,nan,nan,nan,nan,nan,nan,nan,nan,Walking,U4
63,,,10.16974139917232,6.572153127999999,18.5777904762,2.629377582465705,9.800807780555001,9.80008376768,9.80153179343,0.0010239088271572837,0.23669640643399997,0.23669640643399997,0.23669640643399997,0.2669167758981049,251.13417394599998,236.29370754599998,265.974640346,20.987588854822235,nan,nan,nan,nan,nan,nan,nan,nan,nan,nan,nan,nan,nan,nan,nan,nan,nan,nan,nan,nan,43.56185736217692,41.680009562399995,45.6396932318,1.045345640868199,nan,nan,nan,nan,nan,nan,nan,nan,69.91366135233831,69.91366135233831,69.91366135233831,2.3016546810288987,nan,nan,nan,nan,nan,nan,nan,nan,nan,nan,nan,nan,Walking,U4
64,,,10.351238286709501,6.288345916390001,18.2748805912,2.8767841207824776,9.800807780555001,9.80008376768,9.80153179343,0.0010239088271572837,0.23669640643399997,0.23669640643399997,0.23669640643399997,0.2669167758981049,251.13417394599998,236.29370754599998,265.974640346,20.987588854822235,nan,nan,nan,nan,nan,nan,nan,nan,nan,nan,nan,nan,nan,nan,nan,nan,nan,nan,nan,nan,41.75007449803784,38.8160121599,43.3315059678,1.4136594202449058,nan,nan,nan,nan,nan,nan,nan,nan,69.91366135233831,69.91366135233831,69.91366135233831,2.3016546810288987,nan,nan,nan,nan,nan,nan,nan,nan,nan,nan,nan,nan,Walking,U4
65,,,11.452423987554527,6.61798241718,17.6116120736,2.685334328049788,9.800807780555001,9.80008376768,9.80153179343,0.0010239088271572837,0.23669640643399997,0.23669640643399997,0.23669640643399997,0.2669167758981049,259.8728998605,252.74065834900003,267.005141372,10.08651267568368,nan,nan,nan,nan,nan,nan,nan,nan,nan,nan,nan,nan,nan,nan,nan,nan,nan,nan,nan,nan,44.57614625983572,41.841085072,47.9899114398,1.4413305385141217,nan,nan,nan,nan,nan,nan,nan,nan,69.91366135233831,69.91366135233831,69.91366135233831,2.3016546810288987,nan,nan,nan,nan,nan,nan,nan,nan,nan,nan,nan,nan,Walking,U4
66,,,10.431337301631455,5.862695454580001,19.6771321469,3.4126903574990357,9.800807780555001,9.80008376768,9.80153179343,0.0010239088271572837,0.23669640643399997,0.23669640643399997,0.23669640643399997,0.2669167758981049,259.8728998605,252.74065834900003,267.005141372,10.08651267568368,nan,nan,nan,nan,nan,nan,nan,nan,nan,nan,nan,nan,nan,nan,nan,nan,nan,nan,nan,nan,45.0761474743375,43.3368230769,47.524429364,1.2017237518310877,nan,nan,nan,nan,nan,nan,nan,nan,69.91366135233831,69.91366135233831,69.91366135233831,2.3016546810288987,nan,nan,nan,nan,nan,nan,nan,nan,nan,nan,nan,nan,Walking,U4
67,,,10.70074541783793,6.29577972875,18.239163841,2.9715912122636987,9.794544647925001,9.79181732749,9.79727196836,0.003857013548114936,4.41977659227,4.41977659227,4.41977659227,0.2669167758981049,208.49104915599997,208.49104915599997,208.49104915599997,10.08651267568368,nan,nan,nan,nan,nan,nan,nan,nan,nan,nan,nan,nan,nan,nan,nan,nan,nan,nan,nan,nan,43.53835866768285,41.583462971399996,46.745427859399996,1.3864309615100272,nan,nan,nan,nan,nan,nan,nan,nan,69.91366135233831,69.91366135233831,69.91366135233831,2.3016546810288987,nan,nan,nan,nan,nan,nan,nan,nan,nan,nan,nan,nan,Walking,U4
68,,,9.822422449580865,5.3003625989300005,16.693189613,2.9774663539823707,9.794544647925001,9.79181732749,9.79727196836,0.003857013548114936,6.72156913216,6.72156913216,6.72156913216,0.2669167758981049,238.63870288,238.63870288,238.63870288,10.08651267568368,nan,nan,nan,nan,nan,nan,nan,nan,nan,nan,nan,nan,nan,nan,nan,nan,nan,nan,nan,nan,41.996781185237836,37.3645874781,45.625413970699995,2.552748583341978,nan,nan,nan,nan,nan,nan,nan,nan,69.91366135233831,69.91366135233831,69.91366135233831,2.3016546810288987,nan,nan,nan,nan,nan,nan,nan,nan,nan,nan,nan,nan,Walking,U4
69,,,10.441018278820861,6.29502232515,17.320405856,2.672018285474397,9.79681300456,9.79527436131,9.79835164781,0.0021759701518037763,1.9390706707599998,1.9390706707599998,1.9390706707599998,0.2669167758981049,238.63870288,238.63870288,238.63870288,10.08651267568368,nan,nan,nan,nan,nan,nan,nan,nan,nan,nan,nan,nan,nan,nan,nan,nan,nan,nan,nan,nan,41.82408162966111,38.1921072349,45.1379884268,1.8009552124742947,nan,nan,nan,nan,nan,nan,nan,nan,69.91366135233831,69.91366135233831,69.91366135233831,2.3016546810288987,nan,nan,nan,nan,nan,nan,nan,nan,nan,nan,nan,nan,Walking,U4
70,,,9.921454826902742,6.8968766199500005,15.1164030999,2.1590365199122994,9.788292636,9.788292636,9.788292636,0.0021759701518037763,1.9390706707599998,1.9390706707599998,1.9390706707599998,0.2669167758981049,238.63870288,238.63870288,238.63870288,10.08651267568368,nan,nan,nan,nan,nan,nan,nan,nan,nan,nan,nan,nan,nan,nan,nan,nan,nan,nan,nan,nan,44.44540685237941,42.3648439152,46.20346740229999,0.8715401889489505,nan,nan,nan,nan,nan,nan,nan,nan,69.91366135233831,69.91366135233831,69.91366135233831,2.3016546810288987,nan,nan,nan,nan,nan,nan,nan,nan,nan,nan,nan,nan,Walking,U4
71,,,10.354474538750807,7.70752700137,15.751643783499999,1.5333967909959003,9.788292636,9.788292636,9.788292636,0.0021759701518037763,1.9390706707599998,1.9390706707599998,1.9390706707599998,0.2669167758981049,238.63870288,238.63870288,238.63870288,10.08651267568368,nan,nan,nan,nan,nan,nan,nan,nan,nan,nan,nan,nan,nan,nan,nan,nan,nan,nan,nan,nan,40.416061260058825,34.691676235100005,44.439266420600006,3.2144496461317025,nan,nan,nan,nan,nan,nan,nan,nan,69.91366135233831,69.91366135233831,69.91366135233831,2.3016546810288987,nan,nan,nan,nan,nan,nan,nan,nan,nan,nan,nan,nan,Walking,U4
72,,,10.129526637062064,6.68605163423,14.875247731500002,1.7144820851816356,9.788292636,9.788292636,9.788292636,0.0021759701518037763,1.9390706707599998,1.9390706707599998,1.9390706707599998,0.2669167758981049,238.63870288,238.63870288,238.63870288,10.08651267568368,nan,nan,nan,nan,nan,nan,nan,nan,nan,nan,nan,nan,nan,nan,nan,nan,nan,nan,nan,nan,38.00934922445143,35.056947334899995,43.4128493923,2.1450664742821846,nan,nan,nan,nan,nan,nan,nan,nan,69.91366135233831,69.91366135233831,69.91366135233831,2.3016546810288987,nan,nan,nan,nan,nan,nan,nan,nan,nan,nan,nan,nan,Walking,U4
73,,,10.115485716674238,5.0580500947500004,13.585793537799999,1.1529300198211068,9.788292636,9.788292636,9.788292636,0.0021759701518037763,0.524515999585,0.524515999585,0.524515999585,0.2669167758981049,354.61161441699994,354.61161441699994,354.61161441699994,10.08651267568368,nan,nan,nan,nan,nan,nan,nan,nan,nan,nan,nan,nan,nan,nan,nan,nan,nan,nan,nan,nan,40.29028048701714,37.6865917801,42.1964235181,1.1456081854414415,nan,nan,nan,nan,nan,nan,nan,nan,61.48169378056488,61.48169378056488,61.48169378056488,2.3016546810288987,nan,nan,nan,nan,nan,nan,nan,nan,nan,nan,nan,nan,Walking,U4
74,,,9.992290891673276,9.32616301925,10.9034076767,0.26987082842016796,9.788292636,9.788292636,9.788292636,0.0021759701518037763,0.524515999585,0.524515999585,0.524515999585,0.2669167758981049,354.61161441699994,354.61161441699994,354.61161441699994,10.08651267568368,nan,nan,nan,nan,nan,nan,nan,nan,nan,nan,nan,nan,nan,nan,nan,nan,nan,nan,nan,nan,41.83683700164103,40.3046826768,44.3285079647,0.9863456657936813,nan,nan,nan,nan,nan,nan,nan,nan,61.48169378056488,61.48169378056488,61.48169378056488,2.3016546810288987,nan,nan,nan,nan,nan,nan,nan,nan,nan,nan,nan,nan,Walking,U4
75,,,9.954403328841225,9.182699221510001,11.3596306142,0.3847314174681632,9.788292636,9.788292636,9.788292636,0.0021759701518037763,0.994378603659,0.994378603659,0.994378603659,0.2669167758981049,354.61161441699994,354.61161441699994,354.61161441699994,10.08651267568368,nan,nan,nan,nan,nan,nan,nan,nan,nan,nan,nan,nan,nan,nan,nan,nan,nan,nan,nan,nan,50.02266650264889,45.0154373069,53.306581207200004,2.0231175242695394,nan,nan,nan,nan,nan,nan,nan,nan,69.68884415284813,69.68884415284813,69.68884415284813,2.3016546810288987,nan,nan,nan,nan,nan,nan,nan,nan,nan,nan,nan,nan,Walking,U4
76,,,10.005765411190179,9.50518680129,11.1270255021,0.2546342057003771,9.788292636,9.788292636,9.788292636,0.0021759701518037763,0.4920714613623333,0.38039558818499997,0.7134774384460001,0.1917456688449412,326.255899461,326.255899461,326.255899461,10.08651267568368,nan,nan,nan,nan,nan,nan,nan,nan,nan,nan,nan,nan,nan,nan,nan,nan,nan,nan,nan,nan,49.890064560460004,44.354449607700005,52.080481990900005,2.5567695499213308,nan,nan,nan,nan,nan,nan,nan,nan,71.858367972049,67.13580920703433,76.58092673706365,6.678706654587668,nan,nan,nan,nan,nan,nan,nan,nan,nan,nan,nan,nan,Walking,U4
77,,,10.027419423493168,9.086749818660001,10.907385696199999,0.3817572504857248,9.788292636,9.788292636,9.788292636,0.0021759701518037763,0.4920714613623333,0.38039558818499997,0.7134774384460001,0.1917456688449412,321.8310603735,291.63951831400004,352.02260243300003,42.69728824950262,nan,nan,nan,nan,nan,nan,nan,nan,nan,nan,nan,nan,nan,nan,nan,nan,nan,nan,nan,nan,45.73296024408857,44.0856303119,47.9502867562,1.2108143187981046,nan,nan,nan,nan,nan,nan,nan,nan,71.858367972049,67.13580920703433,76.58092673706365,6.678706654587668,nan,nan,nan,nan,nan,nan,nan,nan,nan,nan,nan,nan,Walking,U4
78,,,10.076698614961167,8.511022889389999,11.5463489656,0.5652833610412414,9.788292636,9.788292636,9.788292636,0.0021759701518037763,1.21983878177,1.21983878177,1.21983878177,0.1917456688449412,321.8310603735,291.63951831400004,352.02260243300003,42.69728824950262,nan,nan,nan,nan,nan,nan,nan,nan,nan,nan,nan,nan,nan,nan,nan,nan,nan,nan,nan,nan,46.630059498899996,42.0901600833,54.928384136800005,2.9181236389063994,nan,nan,nan,nan,nan,nan,nan,nan,71.858367972049,67.13580920703433,76.58092673706365,6.678706654587668,nan,nan,nan,nan,nan,nan,nan,nan,nan,nan,nan,nan,Walking,U4
79,,,10.022840736318654,9.022541520199999,12.325752483299999,0.48304034842793225,9.788292636,9.788292636,9.788292636,0.0021759701518037763,1.21983878177,1.21983878177,1.21983878177,0.1917456688449412,340.71381859,340.71381859,340.71381859,42.69728824950262,nan,nan,nan,nan,nan,nan,nan,nan,nan,nan,nan,nan,nan,nan,nan,nan,nan,nan,nan,nan,38.986093224731114,34.7959118806,50.2999363817,4.314837599375753,nan,nan,nan,nan,nan,nan,nan,nan,71.858367972049,67.13580920703433,76.58092673706365,6.678706654587668,nan,nan,nan,nan,nan,nan,nan,nan,nan,nan,nan,nan,Walking,U4
80,,,10.022825975520968,9.602963342030002,10.4355253015,0.1762761268028249,9.788292636,9.788292636,9.788292636,0.0021759701518037763,1.21983878177,1.21983878177,1.21983878177,0.1917456688449412,340.71381859,340.71381859,340.71381859,42.69728824950262,nan,nan,nan,nan,nan,nan,nan,nan,nan,nan,nan,nan,nan,nan,nan,nan,nan,nan,nan,nan,39.90588492681765,36.9363704367,41.9090873201,1.3885589416107305,nan,nan,nan,nan,nan,nan,nan,nan,68.53997917513074,68.53997917513074,68.53997917513074,6.678706654587668,nan,nan,nan,nan,nan,nan,nan,nan,nan,nan,nan,nan,Walking,U4
81,,,10.059884079337275,9.525770050239998,10.3205546362,0.15135006240740836,9.798455573060002,9.798455573060002,9.798455573060002,0.0021759701518037763,0.849717532859,0.849717532859,0.849717532859,0.1917456688449412,340.71381859,340.71381859,340.71381859,42.69728824950262,nan,nan,nan,nan,nan,nan,nan,nan,nan,nan,nan,nan,nan,nan,nan,nan,nan,nan,nan,nan,39.9235090951275,38.4066537173,41.9389699443,0.8766454353099743,nan,nan,nan,nan,nan,nan,nan,nan,68.53997917513074,68.53997917513074,68.53997917513074,6.678706654587668,nan,nan,nan,nan,nan,nan,nan,nan,nan,nan,nan,nan,Walking,U4
82,,,10.061068325120525,8.02618688612,11.8078151196,0.4973220576470805,9.798455573060002,9.798455573060002,9.798455573060002,0.0021759701518037763,0.849717532859,0.849717532859,0.849717532859,0.1917456688449412,343.98014928099997,331.920622747,358.16009987900003,12.263378474933965,nan,nan,nan,nan,nan,nan,nan,nan,nan,nan,nan,nan,nan,nan,nan,nan,nan,nan,nan,nan,39.215867686624996,36.120249168600004,40.880521554699996,1.1082350035531012,nan,nan,nan,nan,nan,nan,nan,nan,68.53997917513074,68.53997917513074,68.53997917513074,6.678706654587668,nan,nan,nan,nan,nan,nan,nan,nan,nan,nan,nan,nan,Walking,U4
83,,,10.028531588800172,9.643730098310002,10.6110760905,0.1602396755462368,9.798455573060002,9.798455573060002,9.798455573060002,0.0021759701518037763,0.23194615925200002,0.23194615925200002,0.23194615925200002,0.1917456688449412,330.848998509,330.848998509,330.848998509,12.263378474933965,nan,nan,nan,nan,nan,nan,nan,nan,nan,nan,nan,nan,nan,nan,nan,nan,nan,nan,nan,nan,40.45708464634594,39.3906283271,41.1172489075,0.43649420407410905,nan,nan,nan,nan,nan,nan,nan,nan,68.53997917513074,68.53997917513074,68.53997917513074,6.678706654587668,nan,nan,nan,nan,nan,nan,nan,nan,nan,nan,nan,nan,Walking,U4
84,,,10.00672231380877,9.78093965335,10.302058304400001,0.09481213942932375,9.798455573060002,9.798455573060002,9.798455573060002,0.0021759701518037763,0.41129258783949996,0.195013707579,0.6275714681,0.30586452571926576,338.22979141099995,337.793971937,338.665610885,0.6163418108771067,nan,nan,nan,nan,nan,nan,nan,nan,nan,nan,nan,nan,nan,nan,nan,nan,nan,nan,nan,nan,40.43737299528611,39.757142754499995,41.7864571337,0.49823448124555625,nan,nan,nan,nan,nan,nan,nan,nan,68.53997917513074,68.53997917513074,68.53997917513074,6.678706654587668,nan,nan,nan,nan,nan,nan,nan,nan,nan,nan,nan,nan,Walking,U4
85,,,10.183481455545635,8.43883545605,13.468194690999999,0.9143308679013888,9.798455573060002,9.798455573060002,9.798455573060002,0.0021759701518037763,0.41129258783949996,0.195013707579,0.6275714681,0.30586452571926576,343.279815804,343.279815804,343.279815804,0.6163418108771067,nan,nan,nan,nan,nan,nan,nan,nan,nan,nan,nan,nan,nan,nan,nan,nan,nan,nan,nan,nan,40.8313883619575,37.022187642,43.092616349,1.37513324615539,nan,nan,nan,nan,nan,nan,nan,nan,61.08459819726795,61.08459819726795,61.08459819726795,6.678706654587668,nan,nan,nan,nan,nan,nan,nan,nan,nan,nan,nan,nan,Walking,U4
86,,,10.1405938069545,6.39849662776,15.0008693425,1.7716533377173678,9.798455573060002,9.798455573060002,9.798455573060002,0.0021759701518037763,0.41129258783949996,0.195013707579,0.6275714681,0.30586452571926576,314.099663734,314.099663734,314.099663734,0.6163418108771067,nan,nan,nan,nan,nan,nan,nan,nan,nan,nan,nan,nan,nan,nan,nan,nan,nan,nan,nan,nan,40.923406247789195,38.524018481999995,43.1326558422,1.3524610910319332,nan,nan,nan,nan,nan,nan,nan,nan,61.08459819726795,61.08459819726795,61.08459819726795,6.678706654587668,nan,nan,nan,nan,nan,nan,nan,nan,nan,nan,nan,nan,Walking,U4
87,,,10.30203975643091,6.83881905961,14.981462246500001,1.4951583511822766,9.798455573060002,9.798455573060002,9.798455573060002,0.0021759701518037763,0.41129258783949996,0.195013707579,0.6275714681,0.30586452571926576,314.099663734,314.099663734,314.099663734,0.6163418108771067,nan,nan,nan,nan,nan,nan,nan,nan,nan,nan,nan,nan,nan,nan,nan,nan,nan,nan,nan,nan,42.750134712385375,38.5946910815,44.9171236835,1.685639513232666,nan,nan,nan,nan,nan,nan,nan,nan,61.08459819726795,61.08459819726795,61.08459819726795,6.678706654587668,nan,nan,nan,nan,nan,nan,nan,nan,nan,nan,nan,nan,Walking,U4
88,,,10.253537989764139,7.1164372899,15.42374438,1.6326601148159796,9.793910552389999,9.793910552389999,9.793910552389999,0.0021759701518037763,0.41129258783949996,0.195013707579,0.6275714681,0.30586452571926576,314.099663734,314.099663734,314.099663734,0.6163418108771067,nan,nan,nan,nan,nan,nan,nan,nan,nan,nan,nan,nan,nan,nan,nan,nan,nan,nan,nan,nan,41.09094895210769,38.0031203321,44.3233928467,1.8962103237823205,nan,nan,nan,nan,nan,nan,nan,nan,61.08459819726795,61.08459819726795,61.08459819726795,6.678706654587668,nan,nan,nan,nan,nan,nan,nan,nan,nan,nan,nan,nan,Walking,U4
89,,,10.093950812037031,7.0295201348,13.1944974801,1.4022654560332413,9.797461383325,9.79485750062,9.80006526603,0.0036824462362402186,0.41129258783949996,0.195013707579,0.6275714681,0.30586452571926576,272.1426168235,159.905439281,384.379794366,158.72733868308046,nan,nan,nan,nan,nan,nan,nan,nan,nan,nan,nan,nan,nan,nan,nan,nan,nan,nan,nan,nan,39.043432195606904,35.7903897716,41.6542619222,1.483865100205061,nan,nan,nan,nan,nan,nan,nan,nan,61.08459819726795,61.08459819726795,61.08459819726795,6.678706654587668,nan,nan,nan,nan,nan,nan,nan,nan,nan,nan,nan,nan,Walking,U4
90,,,10.169597834086666,6.47947260576,13.4347382561,1.45008151629165,9.795340796880001,9.795340796880001,9.795340796880001,0.0036824462362402186,1.8174280694005,0.596969094381,3.03788704442,1.7259896347925434,272.1426168235,159.905439281,384.379794366,158.72733868308046,nan,nan,nan,nan,nan,nan,nan,nan,nan,nan,nan,nan,nan,nan,nan,nan,nan,nan,nan,nan,40.810807564732436,37.949656124899995,43.1176291064,1.5129557871417207,nan,nan,nan,nan,nan,nan,nan,nan,61.08459819726795,61.08459819726795,61.08459819726795,6.678706654587668,nan,nan,nan,nan,nan,nan,nan,nan,nan,nan,nan,nan,Walking,U4
91,,,10.112521806624283,7.383301783039999,14.366452819000001,1.288102652493614,9.795340796880001,9.795340796880001,9.795340796880001,0.0036824462362402186,1.8174280694005,0.596969094381,3.03788704442,1.7259896347925434,144.40216838,144.40216838,144.40216838,158.72733868308046,nan,nan,nan,nan,nan,nan,nan,nan,nan,nan,nan,nan,nan,nan,nan,nan,nan,nan,nan,nan,38.689200475256754,35.3292505859,41.9495694204,1.6017611994087952,nan,nan,nan,nan,nan,nan,nan,nan,61.08459819726795,61.08459819726795,61.08459819726795,6.678706654587668,nan,nan,nan,nan,nan,nan,nan,nan,nan,nan,nan,nan,Walking,U4
92,,,10.25710098733768,6.94237222198,14.728808425999999,1.5891141089027419,9.795340796880001,9.795340796880001,9.795340796880001,0.0036824462362402186,1.11503987849,1.11503987849,1.11503987849,1.7259896347925434,144.40216838,144.40216838,144.40216838,158.72733868308046,nan,nan,nan,nan,nan,nan,nan,nan,nan,nan,nan,nan,nan,nan,nan,nan,nan,nan,nan,nan,39.44996446916829,36.816196754699995,41.955490701500004,1.4065838483445574,nan,nan,nan,nan,nan,nan,nan,nan,61.08459819726795,61.08459819726795,61.08459819726795,6.678706654587668,nan,nan,nan,nan,nan,nan,nan,nan,nan,nan,nan,nan,Walking,U4
93,,,10.372586848391723,7.07732527517,15.7976041673,1.6395628939768156,9.79472492576,9.79472492576,9.79472492576,0.0036824462362402186,1.57735722793,1.52675525955,1.6279591963100002,0.07156198996577064,144.40216838,144.40216838,144.40216838,158.72733868308046,nan,nan,nan,nan,nan,nan,nan,nan,nan,nan,nan,nan,nan,nan,nan,nan,nan,nan,nan,nan,41.5059850277,36.5140300993,43.899911818599996,1.524408626301414,nan,nan,nan,nan,nan,nan,nan,nan,66.90355233085408,66.90355233085408,66.90355233085408,6.678706654587668,nan,nan,nan,nan,nan,nan,nan,nan,nan,nan,nan,nan,Walking,U4
94,,,10.06183661797356,7.39947640518,13.4871156813,0.9543568442766596,9.79472492576,9.79472492576,9.79472492576,0.0036824462362402186,1.57735722793,1.52675525955,1.6279591963100002,0.07156198996577064,150.833610315,150.833610315,150.833610315,158.72733868308046,nan,nan,nan,nan,nan,nan,nan,nan,nan,nan,nan,nan,nan,nan,nan,nan,nan,nan,nan,nan,38.43086337968889,35.8467739134,42.4498190272,1.545793952612606,nan,nan,nan,nan,nan,nan,nan,nan,66.90355233085408,66.90355233085408,66.90355233085408,6.678706654587668,nan,nan,nan,nan,nan,nan,nan,nan,nan,nan,nan,nan,Walking,U4
95,,,10.047599532257333,7.90666189518,13.5899208873,0.808715189159021,9.80205250297,9.80205250297,9.80205250297,0.0036824462362402186,0.318553091944,0.318553091944,0.318553091944,0.07156198996577064,360.812258101,360.812258101,360.812258101,158.72733868308046,nan,nan,nan,nan,nan,nan,nan,nan,nan,nan,nan,nan,nan,nan,nan,nan,nan,nan,nan,nan,39.2875004474,35.0619280163,44.5190697302,2.5842376978010053,nan,nan,nan,nan,nan,nan,nan,nan,66.90355233085408,66.90355233085408,66.90355233085408,6.678706654587668,nan,nan,nan,nan,nan,nan,nan,nan,nan,nan,nan,nan,Walking,U4
96,,,10.73750732621095,7.20275823565,15.5379194005,2.1988193790353194,9.80205250297,9.80205250297,9.80205250297,0.0036824462362402186,0.318553091944,0.318553091944,0.318553091944,0.07156198996577064,360.812258101,360.812258101,360.812258101,158.72733868308046,nan,nan,nan,nan,nan,nan,nan,nan,nan,nan,nan,nan,nan,nan,nan,nan,nan,nan,nan,nan,39.75428716102353,38.2853128794,41.2868889601,0.6904605657654328,nan,nan,nan,nan,nan,nan,nan,nan,66.90355233085408,66.90355233085408,66.90355233085408,6.678706654587668,nan,nan,nan,nan,nan,nan,nan,nan,nan,nan,nan,nan,Walking,U4
97,,,10.509038014627167,7.24442851329,15.7048267749,1.8112176805192013,9.80205250297,9.80205250297,9.80205250297,0.0036824462362402186,3.3395692938700003,3.3395692938700003,3.3395692938700003,0.07156198996577064,360.812258101,360.812258101,360.812258101,158.72733868308046,nan,nan,nan,nan,nan,nan,nan,nan,nan,nan,nan,nan,nan,nan,nan,nan,nan,nan,nan,nan,39.86733974915278,38.600196065300004,41.27616049,0.6221215963126864,nan,nan,nan,nan,nan,nan,nan,nan,66.90355233085408,66.90355233085408,66.90355233085408,6.678706654587668,nan,nan,nan,nan,nan,nan,nan,nan,nan,nan,nan,nan,Walking,U4
98,,,10.253335109134385,8.03218380711,14.434690162799999,1.77109368274402,9.80205250297,9.80205250297,9.80205250297,0.0036824462362402186,3.3395692938700003,3.3395692938700003,3.3395692938700003,0.07156198996577064,360.812258101,360.812258101,360.812258101,158.72733868308046,nan,nan,nan,nan,nan,nan,nan,nan,nan,nan,nan,nan,nan,nan,nan,nan,nan,nan,nan,nan,40.32514081079488,38.8016803154,42.769098315,1.1025402589785684,nan,nan,nan,nan,nan,nan,nan,nan,66.90355233085408,66.90355233085408,66.90355233085408,6.678706654587668,nan,nan,nan,nan,nan,nan,nan,nan,nan,nan,nan,nan,Walking,U4
99,,,9.95483513191569,6.847310008890001,14.1307659357,1.8335199543643754,9.80205250297,9.80205250297,9.80205250297,0.0036824462362402186,1.4272147539500002,1.4272147539500002,1.4272147539500002,0.07156198996577064,316.5068118875,305.15529523,327.858328545,16.053468810540622,nan,nan,nan,nan,nan,nan,nan,nan,nan,nan,nan,nan,nan,nan,nan,nan,nan,nan,nan,nan,43.831480784838234,40.6270451793,47.028595556300004,2.0882724396989807,nan,nan,nan,nan,nan,nan,nan,nan,72.15553207483386,72.15553207483386,72.15553207483386,6.678706654587668,nan,nan,nan,nan,nan,nan,nan,nan,nan,nan,nan,nan,Walking,U4
100,,,10.067418904150507,6.88386601633,15.070717953399999,1.69155027578773,9.80205250297,9.80205250297,9.80205250297,0.0036824462362402186,1.4272147539500002,1.4272147539500002,1.4272147539500002,0.07156198996577064,316.5068118875,305.15529523,327.858328545,16.053468810540622,nan,nan,nan,nan,nan,nan,nan,nan,nan,nan,nan,nan,nan,nan,nan,nan,nan,nan,nan,nan,41.948199564525716,39.5640746132,44.9761937029,1.3343627700312248,nan,nan,nan,nan,nan,nan,nan,nan,64.00606365963169,64.00606365963169,64.00606365963169,6.678706654587668,nan,nan,nan,nan,nan,nan,nan,nan,nan,nan,nan,nan,Walking,U4
101,,,10.186971203725845,7.48813233722,17.3214815247,1.3575500023785794,9.796107513239999,9.796107513239999,9.796107513239999,0.0036824462362402186,1.4272147539500002,1.4272147539500002,1.4272147539500002,0.07156198996577064,271.059969038,271.059969038,271.059969038,16.053468810540622,nan,nan,nan,nan,nan,nan,nan,nan,nan,nan,nan,nan,nan,nan,nan,nan,nan,nan,nan,nan,41.6337147884871,40.3951511508,42.5998732391,0.500136220593555,nan,nan,nan,nan,nan,nan,nan,nan,64.00606365963169,64.00606365963169,64.00606365963169,6.678706654587668,nan,nan,nan,nan,nan,nan,nan,nan,nan,nan,nan,nan,Walking,U4
102,,,10.197519843335087,7.181640750210001,14.6924163972,1.2392832454417286,9.79397633038,9.79397633038,9.79397633038,0.0036824462362402186,1.4272147539500002,1.4272147539500002,1.4272147539500002,0.07156198996577064,271.059969038,271.059969038,271.059969038,16.053468810540622,nan,nan,nan,nan,nan,nan,nan,nan,nan,nan,nan,nan,nan,nan,nan,nan,nan,nan,nan,nan,41.96066685548718,39.0342311311,44.6392338644,1.555648064843565,nan,nan,nan,nan,nan,nan,nan,nan,64.00606365963169,64.00606365963169,64.00606365963169,6.678706654587668,nan,nan,nan,nan,nan,nan,nan,nan,nan,nan,nan,nan,Walking,U4
103,,,10.223740978057002,2.59474923697,20.0528018478,2.1677447144238804,9.795013222495,9.79170354485,9.798322900139999,0.004680591012641273,1.4272147539500002,1.4272147539500002,1.4272147539500002,0.07156198996577064,271.059969038,271.059969038,271.059969038,16.053468810540622,nan,nan,nan,nan,nan,nan,nan,nan,nan,nan,nan,nan,nan,nan,nan,nan,nan,nan,nan,nan,41.32319522780476,38.006718665,45.269154613699996,1.3546951393677447,nan,nan,nan,nan,nan,nan,nan,nan,78.49591991595824,78.49591991595824,78.49591991595824,6.678706654587668,nan,nan,nan,nan,nan,nan,nan,nan,nan,nan,nan,nan,Walking,U4
104,,,10.302524171582544,7.46935055335,16.4217885129,2.0814232153949774,9.795013222495,9.79170354485,9.798322900139999,0.004680591012641273,1.4272147539500002,1.4272147539500002,1.4272147539500002,0.07156198996577064,326.408159045,326.408159045,326.408159045,16.053468810540622,nan,nan,nan,nan,nan,nan,nan,nan,nan,nan,nan,nan,nan,nan,nan,nan,nan,nan,nan,nan,42.34940489448,38.4556938759,44.7541685209,2.009149945022542,nan,nan,nan,nan,nan,nan,nan,nan,74.10015918666672,74.10015918666672,74.10015918666672,6.678706654587668,nan,nan,nan,nan,nan,nan,nan,nan,nan,nan,nan,nan,Walking,U4
105,,,9.939111951094473,7.837485850489999,14.19008493,1.6310001697640337,9.795013222495,9.79170354485,9.798322900139999,0.004680591012641273,1.4272147539500002,1.4272147539500002,1.4272147539500002,0.07156198996577064,326.408159045,326.408159045,326.408159045,16.053468810540622,nan,nan,nan,nan,nan,nan,nan,nan,nan,nan,nan,nan,nan,nan,nan,nan,nan,nan,nan,nan,41.52825145811111,38.4560216351,43.7296281928,1.5632167073295204,nan,nan,nan,nan,nan,nan,nan,nan,62.44431756545654,62.44431756545654,62.44431756545654,6.678706654587668,nan,nan,nan,nan,nan,nan,nan,nan,nan,nan,nan,nan,Walking,U4
106,,,10.115893934757958,8.17984344263,13.7320120948,0.9253319731002495,9.795013222495,9.79170354485,9.798322900139999,0.004680591012641273,1.4208966594699999,1.4208966594699999,1.4208966594699999,0.07156198996577064,147.756550529,147.756550529,147.756550529,16.053468810540622,nan,nan,nan,nan,nan,nan,nan,nan,nan,nan,nan,nan,nan,nan,nan,nan,nan,nan,nan,nan,39.42087152351291,36.6089988382,41.9049203192,1.1109420866353095,nan,nan,nan,nan,nan,nan,nan,nan,62.44431756545654,62.44431756545654,62.44431756545654,6.678706654587668,nan,nan,nan,nan,nan,nan,nan,nan,nan,nan,nan,nan,Walking,U4
107,,,9.994820423036613,6.76810643222,11.7925691424,0.7658370164715711,9.795013222495,9.79170354485,9.798322900139999,0.004680591012641273,1.4208966594699999,1.4208966594699999,1.4208966594699999,0.07156198996577064,147.756550529,147.756550529,147.756550529,16.053468810540622,nan,nan,nan,nan,nan,nan,nan,nan,nan,nan,nan,nan,nan,nan,nan,nan,nan,nan,nan,nan,40.37238608197714,37.204547862300004,43.0518703301,1.6580940795819672,nan,nan,nan,nan,nan,nan,nan,nan,62.44431756545654,62.44431756545654,62.44431756545654,6.678706654587668,nan,nan,nan,nan,nan,nan,nan,nan,nan,nan,nan,nan,Walking,U4
108,,,10.272674440385185,8.97414260368,12.615893576,0.6897445739129571,9.795013222495,9.79170354485,9.798322900139999,0.004680591012641273,1.4208966594699999,1.4208966594699999,1.4208966594699999,0.07156198996577064,378.83579145199997,378.83579145199997,378.83579145199997,16.053468810540622,nan,nan,nan,nan,nan,nan,nan,nan,nan,nan,nan,nan,nan,nan,nan,nan,nan,nan,nan,nan,40.07854849576829,37.6627986215,46.4453094071,1.8345307398759452,nan,nan,nan,nan,nan,nan,nan,nan,62.44431756545654,62.44431756545654,62.44431756545654,6.678706654587668,nan,nan,nan,nan,nan,nan,nan,nan,nan,nan,nan,nan,Walking,U4
109,,,10.00997620772035,8.92774129586,10.9607417629,0.4121310281863566,9.799123097625,9.797925881260001,9.80032031399,0.0016931196204768054,1.4208966594699999,1.4208966594699999,1.4208966594699999,0.07156198996577064,378.83579145199997,378.83579145199997,378.83579145199997,16.053468810540622,nan,nan,nan,nan,nan,nan,nan,nan,nan,nan,nan,nan,nan,nan,nan,nan,nan,nan,nan,nan,41.81425542965898,35.4496922074,47.462426979700005,3.6178528443600255,nan,nan,nan,nan,nan,nan,nan,nan,62.44431756545654,62.44431756545654,62.44431756545654,6.678706654587668,nan,nan,nan,nan,nan,nan,nan,nan,nan,nan,nan,nan,Walking,U4
110,,,10.010741579928853,9.91648209105,10.1130265364,0.03390437994530699,9.79515115784,9.79515115784,9.79515115784,0.0016931196204768054,0.21492546387699998,0.21492546387699998,0.21492546387699998,0.07156198996577064,378.83579145199997,378.83579145199997,378.83579145199997,16.053468810540622,nan,nan,nan,nan,nan,nan,nan,nan,nan,nan,nan,nan,nan,nan,nan,nan,nan,nan,nan,nan,45.18750018777273,44.255033612,46.7270970637,0.5515102328703293,nan,nan,nan,nan,nan,nan,nan,nan,62.44431756545654,62.44431756545654,62.44431756545654,6.678706654587668,nan,nan,nan,nan,nan,nan,nan,nan,nan,nan,nan,nan,Walking,U4
111,,,10.001002645898254,9.42444367584,10.5442472442,0.18295809029419055,9.79515115784,9.79515115784,9.79515115784,0.0016931196204768054,0.21492546387699998,0.21492546387699998,0.21492546387699998,0.07156198996577064,351.81684450800003,351.81684450800003,351.81684450800003,16.053468810540622,nan,nan,nan,nan,nan,nan,nan,nan,nan,nan,nan,nan,nan,nan,nan,nan,nan,nan,nan,nan,44.04347818613125,40.7253725184,45.7474327125,1.6546216937951332,nan,nan,nan,nan,nan,nan,nan,nan,66.19686009432141,66.19686009432141,66.19686009432141,6.678706654587668,nan,nan,nan,nan,nan,nan,nan,nan,nan,nan,nan,nan,Walking,U4
112,,,10.115565184949446,8.75411839902,11.559046670899999,0.4670935067484646,9.79798192464,9.79798192464,9.79798192464,0.0016931196204768054,0.882278954311,0.882278954311,0.882278954311,0.07156198996577064,350.33179481,350.33179481,350.33179481,16.053468810540622,nan,nan,nan,nan,nan,nan,nan,nan,nan,nan,nan,nan,nan,nan,nan,nan,nan,nan,nan,nan,43.46108070334999,36.6324427002,46.2270291323,2.0611255528250485,nan,nan,nan,nan,nan,nan,nan,nan,66.19686009432141,66.19686009432141,66.19686009432141,6.678706654587668,nan,nan,nan,nan,nan,nan,nan,nan,nan,nan,nan,nan,Walking,U4
113,,,10.015802982494755,9.76068811962,10.4901051394,0.14260372964903986,9.79860688424,9.79860688424,9.79860688424,0.0016931196204768054,0.882278954311,0.882278954311,0.882278954311,0.07156198996577064,389.17946621,389.17946621,389.17946621,16.053468810540622,nan,nan,nan,nan,nan,nan,nan,nan,nan,nan,nan,nan,nan,nan,nan,nan,nan,nan,nan,nan,46.33833253330909,43.409906201700004,48.401852435600006,0.8753861443853946,nan,nan,nan,nan,nan,nan,nan,nan,68.25592857433087,68.25592857433087,68.25592857433087,6.678706654587668,nan,nan,nan,nan,nan,nan,nan,nan,nan,nan,nan,nan,Walking,U4
114,,,9.964614947847757,7.876759148310001,13.5563551525,0.9909586711986805,9.79860688424,9.79860688424,9.79860688424,0.0016931196204768054,1.7796666159249996,1.10324814889,2.4560850829599996,0.9566001699205151,389.17946621,389.17946621,389.17946621,16.053468810540622,nan,nan,nan,nan,nan,nan,nan,nan,nan,nan,nan,nan,nan,nan,nan,nan,nan,nan,nan,nan,43.862935197325,23.9888217693,50.212973200200004,5.152947364858627,nan,nan,nan,nan,nan,nan,nan,nan,76.78032134143021,76.47209256710316,77.08855011575724,0.4359013129669379,nan,nan,nan,nan,nan,nan,nan,nan,nan,nan,nan,nan,Walking,U4
115,,,10.12868303402125,8.95697685511,12.2722289202,0.5618909921211597,9.79860688424,9.79860688424,9.79860688424,0.0016931196204768054,1.7796666159249996,1.10324814889,2.4560850829599996,0.9566001699205151,137.429436795,137.429436795,137.429436795,16.053468810540622,nan,nan,nan,nan,nan,nan,nan,nan,nan,nan,nan,nan,nan,nan,nan,nan,nan,nan,nan,nan,45.29619702877179,42.3852332776,51.9738546841,2.2466159866180444,nan,nan,nan,nan,nan,nan,nan,nan,73.34345344957738,73.34345344957738,73.34345344957738,0.4359013129669379,nan,nan,nan,nan,nan,nan,nan,nan,nan,nan,nan,nan,Walking,U4
116,,,10.246038763514816,7.058996753280001,15.0240222673,1.16509323489844,9.79762244347,9.79762244347,9.79762244347,0.0016931196204768054,1.7796666159249996,1.10324814889,2.4560850829599996,0.9566001699205151,69.2477824273,69.2477824273,69.2477824273,16.053468810540622,nan,nan,nan,nan,nan,nan,nan,nan,nan,nan,nan,nan,nan,nan,nan,nan,nan,nan,nan,nan,45.48872076941219,42.1723173829,49.944692718599995,1.923346906893276,nan,nan,nan,nan,nan,nan,nan,nan,73.34345344957738,73.34345344957738,73.34345344957738,0.4359013129669379,nan,nan,nan,nan,nan,nan,nan,nan,nan,nan,nan,nan,Walking,U4
117,,,9.935920689617369,6.43671855327,15.501868841199999,2.2259209872359653,9.79762244347,9.79762244347,9.79762244347,0.0016931196204768054,1.7796666159249996,1.10324814889,2.4560850829599996,0.9566001699205151,69.2477824273,69.2477824273,69.2477824273,16.053468810540622,nan,nan,nan,nan,nan,nan,nan,nan,nan,nan,nan,nan,nan,nan,nan,nan,nan,nan,nan,nan,46.51132373876,40.440712159899995,64.222706265,5.0475117682610415,nan,nan,nan,nan,nan,nan,nan,nan,64.5680071740601,64.5680071740601,64.5680071740601,0.4359013129669379,nan,nan,nan,nan,nan,nan,nan,nan,nan,nan,nan,nan,Walking,U4
118,,,9.915551468794687,6.74791228219,15.839665294100001,1.8778982670434314,9.79762244347,9.79762244347,9.79762244347,0.0016931196204768054,1.7796666159249996,1.10324814889,2.4560850829599996,0.9566001699205151,288.189507813,267.949383238,308.429632388,28.62385867808599,nan,nan,nan,nan,nan,nan,nan,nan,nan,nan,nan,nan,nan,nan,nan,nan,nan,nan,nan,nan,61.67279015031935,36.6739899149,90.1368759166,13.691423010107288,nan,nan,nan,nan,nan,nan,nan,nan,64.5680071740601,64.5680071740601,64.5680071740601,0.4359013129669379,nan,nan,nan,nan,nan,nan,nan,nan,nan,nan,nan,nan,Walking,U4
119,,,10.20677224203246,7.8547913961399995,14.619368189000001,1.7432054853753187,9.796699456245,9.795548886699999,9.79785002579,0.001627151054993119,4.50936359654,4.50936359654,4.50936359654,0.9566001699205151,209.34709886099998,209.34709886099998,209.34709886099998,28.62385867808599,nan,nan,nan,nan,nan,nan,nan,nan,nan,nan,nan,nan,nan,nan,nan,nan,nan,nan,nan,nan,79.35589471954063,45.3509911689,150.279615384,32.913333043225805,nan,nan,nan,nan,nan,nan,nan,nan,64.5680071740601,64.5680071740601,64.5680071740601,0.4359013129669379,nan,nan,nan,nan,nan,nan,nan,nan,nan,nan,nan,nan,Walking,U4
120,,,10.063590047059831,9.153869374410002,11.924178189800001,0.49120498243917465,9.796514949630001,9.796514949630001,9.796514949630001,0.001627151054993119,4.50936359654,4.50936359654,4.50936359654,0.9566001699205151,209.34709886099998,209.34709886099998,209.34709886099998,28.62385867808599,nan,nan,nan,nan,nan,nan,nan,nan,nan,nan,nan,nan,nan,nan,nan,nan,nan,nan,nan,nan,45.6000008620973,41.248243599,61.6013587256,4.897281271852718,nan,nan,nan,nan,nan,nan,nan,nan,64.5680071740601,64.5680071740601,64.5680071740601,0.4359013129669379,nan,nan,nan,nan,nan,nan,nan,nan,nan,nan,nan,nan,Walking,U4
121,,,10.007785409514561,9.797546264500001,10.1710916161,0.07413665968669368,9.79924032285,9.79924032285,9.79924032285,0.001627151054993119,0.23625380040400001,0.225456872143,0.24705072866500002,0.015269162378675571,209.34709886099998,209.34709886099998,209.34709886099998,28.62385867808599,nan,nan,nan,nan,nan,nan,nan,nan,nan,nan,nan,nan,nan,nan,nan,nan,nan,nan,nan,nan,43.90851076896486,42.7150255666,44.805539836099996,0.3836013877278449,nan,nan,nan,nan,nan,nan,nan,nan,64.5680071740601,64.5680071740601,64.5680071740601,0.4359013129669379,nan,nan,nan,nan,nan,nan,nan,nan,nan,nan,nan,nan,Walking,U4
122,,,10.010413102574706,9.38598902506,10.443800878,0.17906682797941398,9.79669482124,9.79669482124,9.79669482124,0.001627151054993119,0.28440121249899997,0.28440121249899997,0.28440121249899997,0.015269162378675571,208.07308908299999,208.07308908299999,208.07308908299999,28.62385867808599,nan,nan,nan,nan,nan,nan,nan,nan,nan,nan,nan,nan,nan,nan,nan,nan,nan,nan,nan,nan,43.90623108383333,42.218048273200004,52.6515284587,1.9917134955493745,nan,nan,nan,nan,nan,nan,nan,nan,64.5680071740601,64.5680071740601,64.5680071740601,0.4359013129669379,nan,nan,nan,nan,nan,nan,nan,nan,nan,nan,nan,nan,Walking,U4
123,,,10.125930393320385,8.95447832213,11.9920509085,0.66385990697026,9.804890980289999,9.804890980289999,9.804890980289999,0.001627151054993119,0.28440121249899997,0.28440121249899997,0.28440121249899997,0.015269162378675571,131.83089056143334,81.2332284373,163.68264452100001,44.30613228235509,nan,nan,nan,nan,nan,nan,nan,nan,nan,nan,nan,nan,nan,nan,nan,nan,nan,nan,nan,nan,47.71799656709047,43.0426281772,78.3499119808,7.981668443815743,nan,nan,nan,nan,nan,nan,nan,nan,64.5680071740601,64.5680071740601,64.5680071740601,0.4359013129669379,nan,nan,nan,nan,nan,nan,nan,nan,nan,nan,nan,nan,Walking,U4
124,,,10.053004880910478,8.944496108260001,11.2912949196,0.3760620115807257,9.80076504922,9.79956300968,9.80196708876,0.0016999406199765272,0.958469965989,0.958469965989,0.958469965989,0.015269162378675571,131.83089056143334,81.2332284373,163.68264452100001,44.30613228235509,nan,nan,nan,nan,nan,nan,nan,nan,nan,nan,nan,nan,nan,nan,nan,nan,nan,nan,nan,nan,45.41134675891613,41.137121065500004,52.6930832432,2.5507801601978954,nan,nan,nan,nan,nan,nan,nan,nan,64.5680071740601,64.5680071740601,64.5680071740601,0.4359013129669379,nan,nan,nan,nan,nan,nan,nan,nan,nan,nan,nan,nan,Walking,U4
125,,,10.177894982848814,9.07720136741,12.3931348042,0.6556072238261569,9.80076504922,9.79956300968,9.80196708876,0.0016999406199765272,0.36190161535300003,0.36190161535300003,0.36190161535300003,0.015269162378675571,333.363681643,333.363681643,333.363681643,44.30613228235509,nan,nan,nan,nan,nan,nan,nan,nan,nan,nan,nan,nan,nan,nan,nan,nan,nan,nan,nan,nan,48.04432061544286,42.3972905472,55.2254596504,4.778434459701638,nan,nan,nan,nan,nan,nan,nan,nan,64.5680071740601,64.5680071740601,64.5680071740601,0.4359013129669379,nan,nan,nan,nan,nan,nan,nan,nan,nan,nan,nan,nan,Walking,U4
126,,,10.296167317920188,6.61122300285,15.861533550199999,1.4920795881418811,9.79941137125,9.79941137125,9.79941137125,0.0016999406199765272,1.84373424222,1.84373424222,1.84373424222,0.015269162378675571,333.363681643,333.363681643,333.363681643,44.30613228235509,nan,nan,nan,nan,nan,nan,nan,nan,nan,nan,nan,nan,nan,nan,nan,nan,nan,nan,nan,nan,46.67402101621429,43.6909174818,55.4582112946,3.1556824004567092,nan,nan,nan,nan,nan,nan,nan,nan,60.91428117881735,60.91428117881735,60.91428117881735,0.4359013129669379,nan,nan,nan,nan,nan,nan,nan,nan,nan,nan,nan,nan,Walking,U4
127,,,10.891308115513793,3.8358071464199996,17.265154970999998,2.704211959099847,9.79941137125,9.79941137125,9.79941137125,0.0016999406199765272,1.84373424222,1.84373424222,1.84373424222,0.015269162378675571,190.66133396,190.66133396,190.66133396,44.30613228235509,nan,nan,nan,nan,nan,nan,nan,nan,nan,nan,nan,nan,nan,nan,nan,nan,nan,nan,nan,nan,44.47378766598621,38.7903131635,46.9922586574,2.0999978279997698,nan,nan,nan,nan,14.0,14.0,14.0,nan,60.91428117881735,60.91428117881735,60.91428117881735,0.4359013129669379,nan,nan,nan,nan,0.0,0.0,0.0,nan,nan,nan,nan,nan,Walking,U4
128,,,10.902340199300001,10.902340199300001,10.902340199300001,2.704211959099847,9.79941137125,9.79941137125,9.79941137125,0.0016999406199765272,1.84373424222,1.84373424222,1.84373424222,0.015269162378675571,190.66133396,190.66133396,190.66133396,44.30613228235509,nan,nan,nan,nan,nan,nan,nan,nan,nan,nan,nan,nan,nan,nan,nan,nan,nan,nan,nan,nan,44.47378766598621,38.7903131635,46.9922586574,2.0999978279997698,nan,nan,nan,nan,14.0,14.0,14.0,nan,60.91428117881735,60.91428117881735,60.91428117881735,0.4359013129669379,nan,nan,nan,nan,0.0,0.0,0.0,nan,nan,nan,nan,nan,Walking,U4
