time,activityrecognition#0,activityrecognition#1,android.sensor.accelerometer#mean,android.sensor.accelerometer#min,android.sensor.accelerometer#max,android.sensor.accelerometer#std,android.sensor.gravity#mean,android.sensor.gravity#min,android.sensor.gravity#max,android.sensor.gravity#std,android.sensor.linear_acceleration#mean,android.sensor.linear_acceleration#min,android.sensor.linear_acceleration#max,android.sensor.linear_acceleration#std,android.sensor.orientation#mean,android.sensor.orientation#min,android.sensor.orientation#max,android.sensor.orientation#std,android.sensor.gyroscope_uncalibrated#mean,android.sensor.gyroscope_uncalibrated#min,android.sensor.gyroscope_uncalibrated#max,android.sensor.gyroscope_uncalibrated#std,android.sensor.magnetic_field_uncalibrated#mean,android.sensor.magnetic_field_uncalibrated#min,android.sensor.magnetic_field_uncalibrated#max,android.sensor.magnetic_field_uncalibrated#std,android.sensor.rotation_vector#mean,android.sensor.rotation_vector#min,android.sensor.rotation_vector#max,android.sensor.rotation_vector#std,android.sensor.gyroscope#mean,android.sensor.gyroscope#min,android.sensor.gyroscope#max,android.sensor.gyroscope#std,android.sensor.game_rotation_vector#mean,android.sensor.game_rotation_vector#min,android.sensor.game_rotation_vector#max,android.sensor.game_rotation_vector#std,android.sensor.magnetic_field#mean,android.sensor.magnetic_field#min,android.sensor.magnetic_field#max,android.sensor.magnetic_field#std,android.sensor.pressure#mean,android.sensor.pressure#min,android.sensor.pressure#max,android.sensor.pressure#std,android.sensor.light#mean,android.sensor.light#min,android.sensor.light#max,android.sensor.light#std,sound#mean,sound#min,sound#max,sound#std,speed#mean,speed#min,speed#max,speed#std,android.sensor.proximity#mean,android.sensor.proximity#min,android.sensor.proximity#max,android.sensor.proximity#std,android.sensor.step_counter#mean,android.sensor.step_counter#min,android.sensor.step_counter#max,android.sensor.step_counter#std,target,user
1,,,9.857793931408223,7.26047017107,13.2381919532,1.5375400948291915,9.80659683835,9.80659683835,9.80659683835,nan,0.9544228887519998,0.520409617513,1.5562213242299998,0.5379036799902257,257.60386905692854,238.10853274299998,283.14675806,15.061480649784386,0.344410538209,0.199636135877,0.439349290083,0.12739031798875594,254.61255313866664,247.60711066099998,267.781948374,11.412789071280177,0.8271795275250001,0.785453242249,0.8464985665189999,0.022308348495925286,1.232195310511,0.304338441675,2.6988145388499998,1.284942646579424,0.32237582735320003,0.255712019645,0.426848815942,0.05584627222633178,42.2507858655,42.2507858655,42.2507858655,nan,nan,nan,nan,nan,2929.0,2929.0,2929.0,nan,nan,nan,nan,nan,nan,nan,nan,nan,5.0,5.0,5.0,nan,nan,nan,nan,nan,Walking,U10
2,,,9.683688872179808,7.44557145857,12.7310194966,1.1987981541105308,9.80656188923,9.806561525189998,9.80656225327,5.14830306393111e-07,2.75544779205,2.75544779205,2.75544779205,0.5379036799902257,225.9493075380833,217.616459626,234.667975342,5.548834855307397,0.273985633822,0.24813161987399998,0.29983964777,0.03656309716704478,250.45590461400002,250.45590461400002,250.45590461400002,11.412789071280177,0.911690887607,0.9011728071799999,0.9231066634270001,0.011562726265896852,0.24302436902199998,0.114092885549,0.385164961084,0.13601793244274882,0.4325480178948334,0.408717382893,0.45698383382200003,0.01231205429771902,44.8778724707,44.8778724707,44.8778724707,nan,nan,nan,nan,nan,2929.0,2929.0,2929.0,nan,nan,nan,nan,nan,nan,nan,nan,nan,5.0,5.0,5.0,nan,nan,nan,nan,nan,Walking,U10
3,,,10.035142923058814,6.4664441437699995,15.450894973399999,1.9559553134463268,9.80656188923,9.806561525189998,9.80656225327,5.14830306393111e-07,1.763345556155,1.19131123631,2.3353798759999997,0.8089786932676677,215.398161350875,188.999710317,277.146765992,38.33836458207738,0.273985633822,0.24813161987399998,0.29983964777,0.03656309716704478,240.274371162,240.274371162,240.274371162,11.412789071280177,0.8465831155007999,0.783728947654,0.9300614500040001,0.05707520991152511,1.2244597604493335,0.608359228928,1.81139949605,0.6020500270685887,0.488876044573077,0.347048994511,0.583217554729,0.07882691870542126,46.0958580026,46.0958580026,46.0958580026,nan,nan,nan,nan,nan,3469.0,3469.0,3469.0,nan,62.81644360218621,62.81644360218621,62.81644360218621,nan,nan,nan,nan,nan,5.0,5.0,5.0,nan,nan,nan,nan,nan,Walking,U10
4,,,9.638905618410925,5.578060580519999,14.165755008,2.0445384180320403,9.806546624580001,9.806546624580001,9.806546624580001,5.14830306393111e-07,1.763345556155,1.19131123631,2.3353798759999997,0.8089786932676677,227.6908802113636,187.851774933,270.789315151,31.59400753573008,1.482777264816,0.293217867261,3.8112103413800003,2.0166414417402274,286.36965294,286.36965294,286.36965294,11.412789071280177,0.871070197551,0.862080123896,0.880060271206,0.01271388408963412,1.0482831218695,0.479449453962,1.53981667953,0.4599169670289887,0.6453837466206668,0.545263046405,0.713493350884,0.0528698745738191,44.6103792575,44.6103792575,44.6103792575,nan,nan,nan,nan,nan,3469.0,3469.0,3469.0,nan,76.0376741425048,76.0376741425048,76.0376741425048,nan,nan,nan,nan,nan,5.0,5.0,5.0,nan,1180.0,1180.0,1180.0,nan,Walking,U10
5,,,10.006160210934999,5.056708213299999,15.826990592000001,2.621185948256815,9.80652453764,9.80652453764,9.80652453764,5.14830306393111e-07,3.67166035385,2.9200146462400003,4.42330606146,1.0629875538015836,278.83607957341667,270.861623158,293.66338296099997,7.587924351862959,1.482777264816,0.293217867261,3.8112103413800003,2.0166414417402274,303.256819017,301.990919772,304.522718262,1.7902518808768815,0.8153176296079999,0.7867804164509999,0.869714019011,0.04712768141428433,0.7101303531883333,0.537310056027,0.797055349359,0.1496676531560497,0.7966753354927858,0.685527217396,0.871957261152,0.07163225064214924,44.6103792575,44.6103792575,44.6103792575,nan,nan,nan,nan,nan,3469.0,3469.0,3469.0,nan,61.64133868570226,61.64133868570226,61.64133868570226,nan,1.4126637,1.4126637,1.4126637,nan,5.0,5.0,5.0,nan,1184.0,1184.0,1184.0,nan,Walking,U10
6,,,10.085817407858235,4.833337651030001,15.2668024917,2.6750594819356572,9.80652453764,9.80652453764,9.80652453764,5.14830306393111e-07,5.958811123309999,5.958811123309999,5.958811123309999,1.0629875538015836,244.76045107627272,124.527441689,281.24666078,57.37784923564551,0.213736495191,0.213736495191,0.213736495191,2.0166414417402274,301.2813597285,300.460908959,302.101810498,1.1602926054863607,0.85303004132,0.848512710202,0.8575473724379999,0.006388470932805554,0.9167992473288751,0.343236691412,1.8246314304099998,0.4916103580297192,0.82837834018325,0.739917158063,0.876129402671,0.051362959079777774,48.8056173125,48.8056173125,48.8056173125,nan,nan,nan,nan,nan,3469.0,3469.0,3469.0,nan,61.64133868570226,61.64133868570226,61.64133868570226,nan,1.2886163,1.2886163,1.2886163,nan,5.0,5.0,5.0,nan,1184.0,1184.0,1184.0,nan,Walking,U10
7,,,9.900543777035093,5.8873453499399995,14.3593919195,2.271203662794731,9.80657772433,9.80653653692,9.80661891174,5.82477938209095e-05,4.337767863440001,4.337767863440001,4.337767863440001,1.0629875538015836,247.0311264366,228.698941624,263.483065982,12.676390769802923,1.1959465398546667,0.907913475824,1.4904235531999999,0.2913084978561831,295.9033500275,295.50021150599997,296.306488549,0.5701239646203536,0.904051756854,0.904051756854,0.904051756854,0.006388470932805554,1.1319814807142499,0.274650350767,1.60123518636,0.6090783284909791,0.7211181346910716,0.622800105041,0.7748215585539999,0.05708487109505363,48.8056173125,48.8056173125,48.8056173125,nan,nan,nan,nan,nan,3469.0,3469.0,3469.0,nan,62.77209571230575,57.58191759000145,67.96227383461004,7.34002029169486,1.2886163,1.2886163,1.2886163,nan,5.0,5.0,5.0,nan,1184.0,1184.0,1184.0,nan,Walking,U10
8,,,9.671352592005572,5.5480550829699995,15.4511441871,2.5647130743681235,9.806596567709999,9.80659377275,9.80659936267,3.952670337500411e-06,4.74105930087,4.74105930087,4.74105930087,1.0629875538015836,237.95965752866667,230.93196392599998,250.38182148599998,7.358435986830783,1.4930851011500001,1.4930851011500001,1.4930851011500001,0.2913084978561831,288.9285816355999,284.40813680599996,295.390717155,5.260465208219121,0.9398923109370001,0.9398923109370001,0.9398923109370001,0.006388470932805554,0.977415366044,0.5571171334480001,1.39771359864,0.5943914607787047,0.7606789764831999,0.703611368424,0.798325650924,0.0379454416255808,48.8056173125,48.8056173125,48.8056173125,nan,nan,nan,nan,nan,3469.0,3469.0,3469.0,nan,55.64945248332572,55.64945248332572,55.64945248332572,7.34002029169486,1.2886163,1.2886163,1.2886163,nan,5.0,5.0,5.0,nan,1184.0,1184.0,1184.0,nan,Walking,U10
9,,,10.391680521700678,5.23963368463,13.5528333079,2.0172855296503394,9.806596567709999,9.80659377275,9.80659936267,3.952670337500411e-06,4.50831773984,4.50831773984,4.50831773984,1.0629875538015836,244.3859786152857,238.237381324,247.914538511,3.472969410870129,1.4930851011500001,1.4930851011500001,1.4930851011500001,0.2913084978561831,288.9285816355999,284.40813680599996,295.390717155,5.260465208219121,0.9533571051195,0.953159222816,0.953554987423,0.00027984783736338697,1.3271761470695,0.597970636543,2.8395030180000003,1.0214010115732512,0.7353105299348667,0.556870991522,0.797840190037,0.0611591737081276,47.66759757245,47.49263923229999,47.842555912600005,0.24742845749042383,nan,nan,nan,nan,3469.0,3469.0,3469.0,nan,76.48133552771758,66.20111475501783,86.76155630041733,14.538427640941604,1.2886163,1.2886163,1.2886163,nan,5.0,5.0,5.0,nan,1184.0,1184.0,1184.0,nan,Walking,U10
10,,,9.98072241520288,6.22448985868,13.566062988699999,2.164059712331405,9.806596567709999,9.80659377275,9.80659936267,3.952670337500411e-06,3.48084141704,3.48084141704,3.48084141704,1.0629875538015836,241.24057122837496,233.514465933,248.38048581700002,5.523540903114534,0.326926494765,0.326926494765,0.326926494765,0.2913084978561831,285.4625586386667,284.215387899,286.538398659,1.1709442383433057,0.9018059056386667,0.863892636283,0.936139813071,0.03625634444194272,1.3271761470695,0.597970636543,2.8395030180000003,1.0214010115732512,0.5915819953228124,0.531184779963,0.757032691415,0.0743265602894265,47.66759757245,47.49263923229999,47.842555912600005,0.24742845749042383,nan,nan,nan,nan,3469.0,3469.0,3469.0,nan,90.30873362283398,90.30873362283398,90.30873362283398,14.538427640941604,1.2886163,1.2886163,1.2886163,nan,5.0,5.0,5.0,nan,1234.0,1234.0,1234.0,nan,Walking,U10
11,,,10.45401782290983,5.0201653449300006,14.231544304100002,2.5714799341118937,9.806596567709999,9.80659377275,9.80659936267,3.952670337500411e-06,2.955328947345,2.7225572427399998,3.18810065195,0.3291889015890951,239.67173631650002,225.736794077,250.693367438,10.561174172969595,0.326926494765,0.326926494765,0.326926494765,0.2913084978561831,285.4625586386667,284.215387899,286.538398659,1.1709442383433057,0.9283308705355,0.912427673493,0.944234067578,0.02249051694259517,0.9224421511390001,0.9224421511390001,0.9224421511390001,1.0214010115732512,0.7979575771357333,0.720079087556,0.851598878794,0.044971060153033586,47.66759757245,47.49263923229999,47.842555912600005,0.24742845749042383,nan,nan,nan,nan,3469.0,3469.0,3469.0,nan,90.30873362283398,90.30873362283398,90.30873362283398,14.538427640941604,1.2886163,1.2886163,1.2886163,nan,5.0,5.0,5.0,nan,1234.0,1234.0,1234.0,nan,Walking,U10
12,,,9.998835275709245,5.20121105148,14.4763495827,2.7129898661349294,9.80653862431,9.80653862431,9.80653862431,3.952670337500411e-06,2.955328947345,2.7225572427399998,3.18810065195,0.3291889015890951,229.36482303084617,218.590542336,239.56666808900002,7.299115563957555,0.713498033356,0.422460913002,1.00453515371,0.41158864275863755,289.2515611895,286.924920765,291.578201614,3.2903664430933937,0.9528836522985,0.927270930807,0.969824525151,0.018144159987648237,0.37042819255500004,0.37042819255500004,0.37042819255500004,1.0214010115732512,0.7787030711590626,0.7347878467899999,0.8487913182969999,0.042259186059706466,47.66759757245,47.49263923229999,47.842555912600005,0.24742845749042383,nan,nan,nan,nan,3469.0,3469.0,3469.0,nan,90.30873362283398,90.30873362283398,90.30873362283398,14.538427640941604,1.2886163,1.2886163,1.2886163,nan,5.0,5.0,5.0,nan,1250.0,1248.0,1252.0,2.8284271247461903,Walking,U10
13,,,10.189779268571112,4.86287759241,14.716199615699999,2.7698488939821186,9.806592716043333,9.80655070297,9.80663417131,4.1736965711290904e-05,2.21448019338,2.0422793981200003,2.3866809886400002,0.24352870010812455,228.56502327630767,213.728378095,243.49319613400002,10.314522516403885,1.25971234282,0.77281577567,1.7466089099700002,0.6885757287364325,287.744383799,284.39990275599996,289.914656084,2.9389114860258796,0.946759805141,0.9375620720119999,0.9559575382700001,0.01300755893412023,0.7328962597215,0.52351830096,0.942274218483,0.2961051489425079,0.8305871151879002,0.7746403748810001,0.8719022293809999,0.03635537413781998,47.7809296934,47.4556536411,48.106205745699995,0.4600098046778371,nan,nan,nan,nan,3469.0,3469.0,3469.0,nan,72.10394534776755,72.10394534776755,72.10394534776755,14.538427640941604,1.2886163,1.2886163,1.2886163,nan,5.0,5.0,5.0,nan,1255.0,1255.0,1255.0,2.8284271247461903,Walking,U10
14,,,10.570942051184602,5.71356678844,13.8957117178,2.486218155815796,9.806592716043333,9.80655070297,9.80663417131,4.1736965711290904e-05,4.31602194851,4.31602194851,4.31602194851,0.24352870010812455,231.32342135387498,222.800797575,239.214564261,5.77800830173688,0.8377175437186667,0.483450356941,1.30224205301,0.42038371550739145,288.90877744025,282.552995582,293.362317312,4.608579755241928,0.9386398840983333,0.918334580627,0.955769115465,0.018918289434959212,1.27221329983,1.27221329983,1.27221329983,0.2961051489425079,0.8622574708081764,0.815844037801,0.8960337224700001,0.023785907121885077,47.301621331999996,46.965080112799996,47.6381625512,0.4759411564902178,nan,nan,nan,nan,3469.0,3469.0,3469.0,nan,72.79172173346853,72.79172173346853,72.79172173346853,14.538427640941604,1.2886163,1.2886163,1.2886163,nan,5.0,5.0,5.0,nan,1266.0,1266.0,1266.0,2.8284271247461903,Walking,U10
15,,,9.94672963461327,4.77640762918,13.983980891300002,2.622202067128048,9.806592716043333,9.80655070297,9.80663417131,4.1736965711290904e-05,4.31602194851,4.31602194851,4.31602194851,0.24352870010812455,223.351558231625,215.13968731,235.252736222,7.135055298942921,0.8377175437186667,0.483450356941,1.30224205301,0.42038371550739145,290.63448056375,289.434429643,291.398842064,0.8839397577856873,0.9567130347237999,0.930121085661,0.981078968451,0.023973368689129606,0.82253811056475,0.122648595002,1.71479662659,0.6985312522227577,0.8685027290124117,0.815905696619,0.9089014390350001,0.030330279420937904,47.918224612399996,47.918224612399996,47.918224612399996,0.4759411564902178,nan,nan,nan,nan,3469.0,3469.0,3469.0,nan,61.56913636106586,61.56913636106586,61.56913636106586,14.538427640941604,1.4390322,1.4390322,1.4390322,nan,5.0,5.0,5.0,nan,1276.0,1276.0,1276.0,2.8284271247461903,Walking,U10
16,,,10.215923904326209,5.0679315936,14.158139183800001,2.5111889909057123,9.80659562512,9.80659562512,9.80659562512,4.1736965711290904e-05,3.76139220236,3.76139220236,3.76139220236,0.24352870010812455,237.60893087280002,225.303827975,246.964749839,9.11881699962166,0.8377175437186667,0.483450356941,1.30224205301,0.42038371550739145,290.47051793649996,290.214178722,290.726857151,0.3625183937139692,0.9465574605684,0.91178900285,0.9705211423479999,0.022435700011948428,0.951353617124,0.818224747438,1.08448248681,0.18827265305334162,0.9024689491217333,0.82826674957,0.9634923114920001,0.04526731245327936,47.918224612399996,47.918224612399996,47.918224612399996,0.4759411564902178,nan,nan,nan,nan,3469.0,3469.0,3469.0,nan,64.11491081885326,64.11491081885326,64.11491081885326,14.538427640941604,1.4390322,1.4390322,1.4390322,nan,5.0,5.0,5.0,nan,1276.0,1276.0,1276.0,2.8284271247461903,Walking,U10
17,,,10.66590023620157,5.539377666189999,14.9164996545,2.3426937343181424,9.80659562512,9.80659562512,9.80659562512,4.1736965711290904e-05,2.7078460987240005,1.10678130434,4.06581756791,1.1345669281282549,219.40146893566666,196.669095387,234.082624302,13.156045174903042,0.590294348806,0.590294348806,0.590294348806,0.42038371550739145,290.407364482,284.026283445,294.08067823700003,5.547226009317777,0.9608155835075001,0.945152285666,0.972230579325,0.01310633347148757,1.26004308183,1.26004308183,1.26004308183,0.18827265305334162,0.9114632887635264,0.826638718372,0.961922029597,0.037658356263215696,48.1117676614,48.1117676614,48.1117676614,0.4759411564902178,nan,nan,nan,nan,3469.0,3469.0,3469.0,nan,61.84922992796908,59.572738967689496,64.12572088824865,3.219444390647129,1.4390322,1.4390322,1.4390322,nan,5.0,5.0,5.0,nan,1276.0,1276.0,1276.0,2.8284271247461903,Walking,U10
18,,,9.93981828057125,5.319440060330001,14.6653309775,2.5575806219000814,9.806601693760001,9.806601693760001,9.806601693760001,4.1736965711290904e-05,2.6052403519,2.0925970116299997,3.11788369217,0.7249871644700796,223.96397871755556,208.28169572599998,231.588800215,6.989585231716621,1.3425412752885,0.702367540187,1.98271501039,0.9053423784555824,290.407364482,284.026283445,294.08067823700003,5.547226009317777,0.96470530637,0.952719884069,0.970875886049,0.010381204073392096,1.110297669751,0.922419471162,1.29817586834,0.2656998965187895,0.9449892153166469,0.8472251396439999,0.98581782457,0.036950699580133986,51.300013706099996,51.300013706099996,51.300013706099996,0.4759411564902178,nan,nan,nan,nan,3469.0,3469.0,3469.0,nan,71.80345663192628,71.80345663192628,71.80345663192628,3.219444390647129,1.4390322,1.4390322,1.4390322,nan,5.0,5.0,5.0,nan,1276.0,1276.0,1276.0,2.8284271247461903,Walking,U10
19,,,10.4089549832228,5.79906284401,13.954383681500001,2.345369938254182,9.80658926284,9.80658926284,9.80658926284,4.1736965711290904e-05,2.6052403519,2.0925970116299997,3.11788369217,0.7249871644700796,213.57136056978575,203.611280885,223.195850669,7.157976325506763,1.20696213691,1.20696213691,1.20696213691,0.9053423784555824,290.407364482,284.026283445,294.08067823700003,5.547226009317777,0.962543301684,0.962543301684,0.962543301684,0.010381204073392096,0.8935825076137499,0.5606252150150001,1.18362422688,0.30164367094858857,0.982385988257909,0.9545814776639999,0.99842358126,0.01330473445761035,51.300013706099996,51.300013706099996,51.300013706099996,0.4759411564902178,nan,nan,nan,nan,3469.0,3469.0,3469.0,nan,71.80345663192628,71.80345663192628,71.80345663192628,3.219444390647129,1.4390322,1.4390322,1.4390322,nan,5.0,5.0,5.0,nan,1276.0,1276.0,1276.0,2.8284271247461903,Walking,U10
20,,,11.05987441188298,6.21577557595,13.701318378,1.8620141544529334,9.80658926284,9.80658926284,9.80658926284,4.1736965711290904e-05,0.836395887125,0.836395887125,0.836395887125,0.7249871644700796,216.08633676000002,203.708968653,229.69715845,8.46031842739377,0.62767687719625,0.299993925525,1.09058592666,0.3320662351908517,280.2278542006666,276.540387534,283.020669243,3.331488241565878,0.9647229158691667,0.952713186305,0.9855743538420001,0.013286878647187854,0.8828745279036001,0.38696470572400005,1.50839144546,0.4756880301694371,0.989273787218,0.9784335134059999,0.9989769620550001,0.00809944221116993,48.8325023038,48.8325023038,48.8325023038,0.4759411564902178,nan,nan,nan,nan,3469.0,3469.0,3469.0,nan,71.80345663192628,71.80345663192628,71.80345663192628,3.219444390647129,1.4390322,1.4390322,1.4390322,nan,5.0,5.0,5.0,nan,1276.0,1276.0,1276.0,2.8284271247461903,Walking,U10
21,,,10.588056467520982,5.752417176410001,13.9794449721,2.244554986974816,9.806553060070001,9.80654074381,9.806565376330001,1.7417821930153465e-05,3.84668450641,3.19089612178,4.35762288805,0.5966983989482166,218.32739711811112,208.621089298,233.113042535,9.69282969499665,0.62767687719625,0.299993925525,1.09058592666,0.3320662351908517,287.557208982,287.557208982,287.557208982,3.331488241565878,0.9721066586605,0.9623509359379999,0.981862381383,0.013796675384910912,0.6277477492626667,0.154832348004,1.47335875261,0.7340330229444597,0.9939601889711579,0.9870028094140001,0.999993881979,0.0045222319272473265,48.8325023038,48.8325023038,48.8325023038,0.4759411564902178,nan,nan,nan,nan,3469.0,3469.0,3469.0,nan,71.80345663192628,71.80345663192628,71.80345663192628,3.219444390647129,1.4390322,1.4390322,1.4390322,nan,5.0,5.0,5.0,nan,1326.0,1326.0,1326.0,2.8284271247461903,Walking,U10
22,,,9.742853655749231,5.67520168812,14.331043931300002,2.5512337336046516,9.80656578976,9.80656578976,9.80656578976,1.7417821930153465e-05,3.84668450641,3.19089612178,4.35762288805,0.5966983989482166,216.8370097463,206.648634595,226.255355414,7.682978251401708,0.9295857604175,0.751676092496,1.2356437455299998,0.21283037113658174,284.5388451305,275.486636189,293.591054072,12.801756654504297,0.9645869828675,0.944864002717,0.984309963018,0.02789250601925245,0.6277477492626667,0.154832348004,1.47335875261,0.7340330229444597,0.997515533103941,0.994636839233,0.999989825388,0.0017684538094369035,44.6983815423,44.6983815423,44.6983815423,0.4759411564902178,nan,nan,nan,nan,3469.0,3469.0,3469.0,nan,71.80345663192628,71.80345663192628,71.80345663192628,3.219444390647129,1.4390322,1.4390322,1.4390322,nan,5.0,5.0,5.0,nan,1326.0,1326.0,1326.0,2.8284271247461903,Walking,U10
23,,,10.33413865653,5.36671278761,14.3191323954,2.4763989518883855,9.80656578976,9.80656578976,9.80656578976,1.7417821930153465e-05,3.66043717744,3.66043717744,3.66043717744,0.5966983989482166,230.2796870526,216.305234921,246.025418402,12.436736511314109,0.24709781751600002,0.24709781751600002,0.24709781751600002,0.21283037113658174,284.5388451305,275.486636189,293.591054072,12.801756654504297,0.96222457552,0.9386342911929999,0.983023256408,0.023872655504151893,1.49743551791,1.49743551791,1.49743551791,0.7340330229444597,0.9974811801805624,0.9886460594320001,0.9999934730940001,0.003354302789010874,48.7801989797,48.7801989797,48.7801989797,0.4759411564902178,nan,nan,nan,nan,3469.0,3469.0,3469.0,nan,62.047416643279874,60.077823324738205,64.01700996182154,2.7854255834410604,1.4390322,1.4390322,1.4390322,nan,5.0,5.0,5.0,nan,1326.0,1326.0,1326.0,2.8284271247461903,Walking,U10
24,,,9.782647690953635,5.27507347754,13.6286879989,2.5049030597867894,9.80656578976,9.80656578976,9.80656578976,1.7417821930153465e-05,2.88401722834,2.88401722834,2.88401722834,0.5966983989482166,234.65779174808335,220.86672927400002,247.766754945,9.959672824308614,0.24709781751600002,0.24709781751600002,0.24709781751600002,0.21283037113658174,284.649532265,282.43135919400004,285.883867921,1.925073030268746,0.9435931468915,0.913837086925,0.959412935068,0.02151030149581432,1.43420682819,1.13435154626,1.70707671114,0.28731461403884095,0.9862746020004374,0.956352651366,0.9997915513299999,0.012456860906579935,48.7801989797,48.7801989797,48.7801989797,0.4759411564902178,nan,nan,nan,nan,3469.0,3469.0,3469.0,nan,63.06409800168568,63.06409800168568,63.06409800168568,2.7854255834410604,1.4390322,1.4390322,1.4390322,nan,5.0,5.0,5.0,nan,1351.0,1351.0,1351.0,2.8284271247461903,Walking,U10
25,,,9.918299391833035,5.20493077564,14.6851704602,2.4135401043197184,9.806575915732498,9.80654221732,9.80660560358,2.598136185868221e-05,3.8667021696800004,3.8667021696800004,3.8667021696800004,0.5966983989482166,227.13375690123078,214.641936157,243.350432955,9.624691110371094,1.20352464627,1.07031473515,1.33673455739,0.18838726294841862,284.649532265,282.43135919400004,285.883867921,1.925073030268746,0.9571555768706667,0.947974590527,0.9617621634289999,0.00795098369253984,0.9864016009204999,0.712362145511,1.26044105633,0.3875503144654519,0.9770825751608333,0.9488936596940001,0.994912077518,0.015511663232327584,49.216120961499996,49.216120961499996,49.216120961499996,0.4759411564902178,nan,nan,nan,nan,3469.0,3469.0,3469.0,nan,63.06409800168568,63.06409800168568,63.06409800168568,2.7854255834410604,1.4390322,1.4390322,1.4390322,nan,5.0,5.0,5.0,nan,1367.0,1367.0,1367.0,2.8284271247461903,Walking,U10
26,,,10.149940246662323,4.84148074187,17.1803375681,2.9889504210379036,9.806575915732498,9.80654221732,9.80660560358,2.598136185868221e-05,3.5036358028250003,2.82188630439,4.18538530126,0.9641393868278323,236.83391983450002,224.96622146400003,242.02442021,5.515879800610509,1.084877425623,0.6805795827159999,1.48917526853,0.5717634926772664,292.3406167185,290.099107526,294.582125911,3.1699727002174507,0.9610223349532221,0.929646773617,0.983528337916,0.021830887586470497,1.0446464532235,0.818631459287,1.27066144716,0.3196334697246711,0.9506022431088331,0.912424982376,0.983759432959,0.028602421449139506,49.216120961499996,49.216120961499996,49.216120961499996,0.4759411564902178,nan,nan,nan,nan,3469.0,3469.0,3469.0,nan,68.7009528267993,68.7009528267993,68.7009528267993,2.7854255834410604,1.4874246000000002,1.4874246000000002,1.4874246000000002,nan,5.0,5.0,5.0,nan,1367.0,1367.0,1367.0,2.8284271247461903,Walking,U10
27,,,10.579641092655356,5.583779182840001,15.348445520899999,2.2836019907363956,9.806575915732498,9.80654221732,9.80660560358,2.598136185868221e-05,2.404710693995,1.6376422106200001,3.17177917737,1.0847986524578859,224.73071884945455,210.374093278,235.650481009,9.421642101327052,0.7951850682475,0.753546289733,0.8368238467620001,0.05888612529585539,292.3406167185,290.099107526,294.582125911,3.1699727002174507,0.9536792006070002,0.942757527978,0.968511968388,0.01210961783987235,0.622542103528,0.622542103528,0.622542103528,0.3196334697246711,0.9313468159033333,0.9024063691069999,0.9603610882989999,0.018864302178745726,45.802664142750004,44.6635425291,46.9417857564,1.6109612352161569,nan,nan,nan,nan,3469.0,3469.0,3469.0,nan,57.67322870307235,57.67322870307235,57.67322870307235,2.7854255834410604,1.4874246000000002,1.4874246000000002,1.4874246000000002,nan,5.0,5.0,5.0,nan,1382.5,1379.0,1386.0,4.949747468305833,Walking,U10
28,,,9.922857334847723,5.72962823083,14.285363643499998,2.638475474051586,9.80655926255,9.80655926255,9.80655926255,2.598136185868221e-05,2.60141552113,1.8490755338799998,3.35375550838,1.0639694134845514,220.09690890109087,208.94514915599999,230.20978389299998,7.291381285010039,0.16134707446399998,0.16134707446399998,0.16134707446399998,0.05888612529585539,281.71292619933337,278.129473279,287.538760974,5.089683783625671,0.978675589895,0.978675589895,0.978675589895,0.01210961783987235,0.48001687722,0.20873007320700002,0.7513036812330001,0.3836574775280364,0.8989444355432308,0.874816182392,0.9297192821700001,0.019119886460226807,45.802664142750004,44.6635425291,46.9417857564,1.6109612352161569,nan,nan,nan,nan,3469.0,3469.0,3469.0,nan,56.33807678751321,56.33807678751321,56.33807678751321,2.7854255834410604,1.4874246000000002,1.4874246000000002,1.4874246000000002,nan,5.0,5.0,5.0,nan,1387.0,1387.0,1387.0,4.949747468305833,Walking,U10
29,,,9.701662230204908,4.066208821519999,14.9769533585,3.06996906467174,9.80654090034,9.80654090034,9.80654090034,2.598136185868221e-05,2.60141552113,1.8490755338799998,3.35375550838,1.0639694134845514,207.6801972932727,185.502553415,224.338645922,10.647731432374343,0.961595836038,0.961595836038,0.961595836038,0.05888612529585539,277.95283890250005,273.49047344,282.415204365,6.310737757332793,0.974098094347,0.950309725492,0.987984655395,0.020697449943992256,0.48001687722,0.20873007320700002,0.7513036812330001,0.3836574775280364,0.886796786916125,0.8091609959899999,0.917188317568,0.03157868849505684,45.359070895500004,45.359070895500004,45.359070895500004,1.6109612352161569,nan,nan,nan,nan,3469.0,3469.0,3469.0,nan,56.062161949684224,55.32825694224799,56.9267422425961,0.8072148639196693,1.4874246000000002,1.4874246000000002,1.4874246000000002,nan,5.0,5.0,5.0,nan,1387.0,1387.0,1387.0,4.949747468305833,Walking,U10
30,,,10.520139478980749,4.42765512616,15.022814543299999,2.779744504242778,9.806584317895002,9.80658283858,9.806585797210001,2.092067336410212e-06,1.91283393795,1.91283393795,1.91283393795,1.0639694134845514,200.434365005,185.976433085,212.534991824,9.265112404599963,1.0847733316543335,0.9554924245630001,1.25980556015,0.15723074979271676,272.603671506,272.603671506,272.603671506,6.310737757332793,0.992706532637,0.9833035275390001,0.998231880195,0.008184809054193878,0.743858309038,0.743858309038,0.743858309038,0.3836574775280364,0.8511389553403077,0.746447776381,0.915311342654,0.04553329519589339,45.714937041999995,45.714937041999995,45.714937041999995,1.6109612352161569,nan,nan,nan,nan,3469.0,3469.0,3469.0,nan,54.94823615772846,54.94823615772846,54.94823615772846,0.8072148639196693,1.4874246000000002,1.4874246000000002,1.4874246000000002,nan,5.0,5.0,5.0,nan,1387.0,1387.0,1387.0,4.949747468305833,Walking,U10
