60,sound,-Infinity
138,sound,-Infinity
193,sound,-Infinity
272,sound,-Infinity
327,sound,-Infinity
380,sound,-Infinity
433,sound,-Infinity
487,sound,-Infinity
540,sound,-Infinity
592,sound,-Infinity
645,sound,-Infinity
697,sound,-Infinity
749,sound,-Infinity
801,sound,-Infinity
853,sound,-Infinity
905,sound,-Infinity
958,sound,-Infinity
1010,sound,-Infinity
1065,sound,-Infinity
1117,sound,-Infinity
1169,sound,-Infinity
1221,sound,-Infinity
1273,sound,-Infinity
1324,sound,-Infinity
1377,sound,-Infinity
1431,sound,-Infinity
1486,sound,-Infinity
1541,sound,-Infinity
1595,sound,-Infinity
1655,sound,-Infinity
1709,sound,-Infinity
