63,android.sensor.magnetic_field,55.8501038828
114,android.sensor.magnetic_field,55.283317556
165,android.sensor.magnetic_field,55.490204541
213,android.sensor.magnetic_field,55.8356642393
267,android.sensor.magnetic_field,55.9534985501
314,android.sensor.magnetic_field,56.088831346
375,android.sensor.magnetic_field,56.1348016557
433,android.sensor.magnetic_field,55.4526283009
486,android.sensor.magnetic_field,55.4092772016
535,android.sensor.magnetic_field,54.7772065684
586,android.sensor.magnetic_field,54.6431365535
646,android.sensor.magnetic_field,55.8438855854
688,android.sensor.magnetic_field,55.9130787262
743,android.sensor.magnetic_field,55.7349937418
793,android.sensor.magnetic_field,55.7857697242
843,android.sensor.magnetic_field,55.3532760689
894,android.sensor.magnetic_field,55.9845974854
955,android.sensor.accelerometer,10.1700820188
1006,android.sensor.accelerometer,10.1113527021
1056,android.sensor.accelerometer,9.9912583286
1106,android.sensor.magnetic_field,55.5289524472
1155,android.sensor.magnetic_field,55.7658282463
1205,android.sensor.magnetic_field,55.8028708939
1255,android.sensor.magnetic_field,56.2203842036
1306,sound,88.1433975296741
1356,android.sensor.accelerometer,9.74162755728
1414,android.sensor.magnetic_field,55.5549763906
1464,android.sensor.magnetic_field,55.6703633784
1514,android.sensor.magnetic_field,55.7869967021
1564,android.sensor.magnetic_field,55.0633944075
1615,android.sensor.magnetic_field,54.7070375601
1667,android.sensor.magnetic_field,55.9106320179
1726,android.sensor.magnetic_field,55.7371902112
1776,android.sensor.accelerometer,10.2985628707
1827,android.sensor.magnetic_field,56.0127235546
1876,android.sensor.accelerometer,10.058054498
1936,android.sensor.accelerometer,10.0163051969
1975,android.sensor.gravity,9.81535731365
2035,android.sensor.accelerometer,9.81892242762
2087,android.sensor.magnetic_field,55.2877437087
2136,android.sensor.accelerometer,9.24732765025
2186,android.sensor.magnetic_field,55.487412618
2235,android.sensor.magnetic_field,55.6402228608
2284,android.sensor.magnetic_field,55.6597572352
2345,android.sensor.magnetic_field,54.815114462
2394,android.sensor.magnetic_field,55.7103469424
2444,android.sensor.magnetic_field,55.5933575262
2494,android.sensor.magnetic_field,55.4478537971
2545,android.sensor.magnetic_field,55.5848405927
2594,android.sensor.magnetic_field,55.8867050537
2646,android.sensor.magnetic_field,55.7030124859
2706,android.sensor.accelerometer,9.3971221738
2755,android.sensor.magnetic_field,55.991349095
2804,android.sensor.magnetic_field,56.0467443683
2855,android.sensor.accelerometer,9.68808447765
2904,android.sensor.magnetic_field,56.0541630925
2954,android.sensor.magnetic_field,55.3994981927
3006,android.sensor.magnetic_field,54.927531418
3065,android.sensor.magnetic_field,56.2127294851
3115,android.sensor.magnetic_field,56.4038598126
3177,android.sensor.magnetic_field,55.7587266713
3214,android.sensor.magnetic_field,55.7251110362
3263,android.sensor.magnetic_field,56.1318174436
3314,android.sensor.magnetic_field,55.9210622217
3367,android.sensor.accelerometer,9.54970984472
3425,android.sensor.magnetic_field,55.2740692188
3476,android.sensor.accelerometer,10.0680389683
3527,android.sensor.accelerometer,10.2755742657
3575,android.sensor.magnetic_field,54.9810549189
3624,android.sensor.magnetic_field,55.5405905622
3674,android.sensor.magnetic_field,56.0739708278
3725,android.sensor.magnetic_field,56.1338721273
3775,android.sensor.gravity,9.81852287376
3827,android.sensor.magnetic_field,55.6304843182
3886,android.sensor.magnetic_field,56.2311727201
3935,android.sensor.accelerometer,9.62476212307
3988,android.sensor.magnetic_field,56.1860836863
4034,android.sensor.magnetic_field,58.3968321059
4084,android.sensor.magnetic_field,60.3062652845
4136,android.sensor.accelerometer,10.2865158748
4188,android.sensor.accelerometer,8.75743372592
4245,android.sensor.magnetic_field,55.5833518874
4294,android.sensor.magnetic_field,55.0593735017
4345,android.sensor.magnetic_field,55.064213424
4395,android.sensor.magnetic_field,54.9323183563
4455,android.sensor.accelerometer,10.5863106092
4506,android.sensor.accelerometer,10.8997066707
4555,android.sensor.accelerometer,10.5951432037
4604,android.sensor.magnetic_field,55.2531266084
4654,android.sensor.magnetic_field,55.2579152701
4714,android.sensor.accelerometer,10.9463608761
4765,android.sensor.magnetic_field,55.2039451014
4815,android.sensor.magnetic_field,55.2449165082
4865,android.sensor.magnetic_field,55.3013167648
4914,android.sensor.magnetic_field,54.7471947774
4964,android.sensor.magnetic_field,55.6633811406
5014,android.sensor.magnetic_field,55.4267841391
5065,android.sensor.magnetic_field,55.1492375287
5117,android.sensor.accelerometer,9.09586902224
5176,android.sensor.accelerometer,9.12817916084
5225,android.sensor.accelerometer,9.6208409434
5275,android.sensor.accelerometer,9.87047802175
5326,android.sensor.magnetic_field,56.4215699307
5375,android.sensor.magnetic_field,56.0372054978
5426,android.sensor.orientation,328.55931966
5485,android.sensor.magnetic_field,55.9637918658
5536,android.sensor.magnetic_field,56.0546126559
5586,android.sensor.accelerometer,10.1251538629
5635,android.sensor.magnetic_field,55.4548677164
5694,android.sensor.magnetic_field,55.6320355306
5745,android.sensor.magnetic_field,54.8445949935
5794,android.sensor.magnetic_field,54.2810663565
5845,android.sensor.magnetic_field,55.6103221235
5894,android.sensor.magnetic_field,56.2128597387
5946,android.sensor.accelerometer,9.64089640816
6006,android.sensor.magnetic_field,55.7578543601
6055,android.sensor.accelerometer,10.1159463159
6101,android.sensor.light,191.0
6155,android.sensor.magnetic_field,55.8315071038
6204,android.sensor.magnetic_field,55.5964675137
6265,android.sensor.magnetic_field,55.8117727043
6311,android.sensor.light,198.0
6363,android.sensor.magnetic_field,55.8266388026
6414,android.sensor.magnetic_field,55.6217151839
6464,android.sensor.magnetic_field,55.9878127131
6521,android.sensor.magnetic_field,55.9609931345
6573,android.sensor.magnetic_field,56.14349091
6624,android.sensor.magnetic_field,55.6324577375
6680,android.sensor.magnetic_field,56.1548708854
6717,android.sensor.accelerometer,9.3395271319
6773,android.sensor.magnetic_field,55.108258973
6824,android.sensor.magnetic_field,55.3980685584
6873,android.sensor.magnetic_field,55.3400720408
6924,android.sensor.magnetic_field,54.6475177844
6973,android.sensor.magnetic_field,54.5556409069
7024,android.sensor.magnetic_field,55.3376951786
7074,android.sensor.magnetic_field,55.5715970618
7125,android.sensor.magnetic_field,55.5050909979
7174,android.sensor.orientation,333.366750929
7234,android.sensor.magnetic_field,55.4288622611
7284,android.sensor.magnetic_field,55.7408396062
7329,android.sensor.light,177.0
7385,android.sensor.accelerometer,10.4852743751
7435,android.sensor.accelerometer,10.5871029201
7485,android.sensor.accelerometer,10.0394444354
7534,android.sensor.magnetic_field,55.754496906
7586,android.sensor.magnetic_field,56.5560706174
7637,android.sensor.accelerometer,9.2717830852
7694,android.sensor.magnetic_field,56.1866603386
7741,android.sensor.light,193.0
7794,android.sensor.magnetic_field,55.6796417704
7845,android.sensor.magnetic_field,55.7231700512
7894,android.sensor.magnetic_field,55.8712448403
7945,android.sensor.magnetic_field,56.0454280026
7994,android.sensor.magnetic_field,55.3790899167
8045,android.sensor.accelerometer,8.90713587869
8106,android.sensor.accelerometer,9.21378864069
8155,android.sensor.magnetic_field,55.7708952333
8205,android.sensor.accelerometer,9.60337967916
8256,android.sensor.magnetic_field,56.2567418338
8304,sound,88.79202167668693
8354,android.sensor.magnetic_field,56.2244179299
8413,android.sensor.magnetic_field,55.5057071628
8464,android.sensor.magnetic_field,56.452983581
8515,android.sensor.magnetic_field,55.3327204713
8564,android.sensor.magnetic_field,55.5002270266
8615,android.sensor.magnetic_field,55.9020997273
8676,android.sensor.accelerometer,9.25066443328
8725,android.sensor.accelerometer,9.62618204163
8776,android.sensor.magnetic_field,55.7819644143
8825,android.sensor.magnetic_field,55.1447327849
8885,android.sensor.accelerometer,8.6773745318
8936,android.sensor.accelerometer,9.17828882037
8987,android.sensor.magnetic_field,55.5519644578
9035,android.sensor.magnetic_field,55.8486235784
9087,android.sensor.magnetic_field,56.536204815
9134,android.sensor.magnetic_field,56.3854739464
9193,android.sensor.magnetic_field,56.9258355723
9245,android.sensor.magnetic_field,57.0282870548
9293,android.sensor.magnetic_field,57.327637314
9343,android.sensor.magnetic_field,56.4074995014
9393,android.sensor.magnetic_field,55.4974024268
9506,android.sensor.magnetic_field,54.9626200249
9554,android.sensor.magnetic_field,55.4140848521
9605,android.sensor.magnetic_field,55.4102824552
9653,android.sensor.magnetic_field,55.5568571239
9705,android.sensor.magnetic_field,55.9411434449
9754,android.sensor.accelerometer,9.91092146483
9805,android.sensor.accelerometer,9.81760980191
9861,android.sensor.magnetic_field,55.8865779951
9913,android.sensor.magnetic_field,55.3166810284
9963,android.sensor.magnetic_field,55.3195426923
10023,android.sensor.magnetic_field,56.1067373099
10073,android.sensor.magnetic_field,57.3115871509
10123,android.sensor.magnetic_field,56.9839845806
10173,android.sensor.magnetic_field,55.7979354457
10224,android.sensor.magnetic_field,55.9332902576
10288,android.sensor.magnetic_field,56.6321180957
10333,android.sensor.magnetic_field,56.9904303977
10383,android.sensor.magnetic_field,56.1613140872
10434,android.sensor.accelerometer,10.3393897993
10485,android.sensor.accelerometer,10.2208396526
10549,android.sensor.magnetic_field,55.943718146
10594,android.sensor.magnetic_field,56.0576952791
10644,android.sensor.magnetic_field,55.6973895259
10695,android.sensor.magnetic_field,56.3255892113
10744,android.sensor.magnetic_field,56.2528719267
10794,android.sensor.magnetic_field,55.8877050243
10844,android.sensor.magnetic_field,55.7897407494
10904,android.sensor.magnetic_field,55.7529449565
10954,android.sensor.magnetic_field,55.9715746939
11004,android.sensor.magnetic_field,55.9362530029
11055,android.sensor.magnetic_field,57.0125667958
11107,android.sensor.magnetic_field,57.6352704513
11155,android.sensor.magnetic_field,57.3841578877
11204,android.sensor.magnetic_field,56.5994637317
11255,android.sensor.magnetic_field,56.3023190787
11305,android.sensor.accelerometer,9.51127384585
11365,android.sensor.magnetic_field,57.1440372889
11415,android.sensor.magnetic_field,55.0842453756
11465,android.sensor.magnetic_field,53.3765672103
11514,android.sensor.magnetic_field,54.4716732392
11567,android.sensor.magnetic_field,54.8957045106
11635,android.sensor.magnetic_field,53.4818135037
11664,android.sensor.magnetic_field,54.1155097916
11784,android.sensor.magnetic_field,60.6157081265
11833,android.sensor.magnetic_field,61.1894694744
11884,android.sensor.magnetic_field,59.0356678441
11935,android.sensor.magnetic_field,57.0476325419
11983,android.sensor.magnetic_field,55.8180934579
12034,android.sensor.magnetic_field,56.2243861683
12094,android.sensor.magnetic_field,55.2562209674
12144,android.sensor.magnetic_field,55.5250319442
12195,android.sensor.magnetic_field,57.2547775673
12244,android.sensor.magnetic_field,57.7768534969
12295,android.sensor.magnetic_field,57.9419226467
12346,android.sensor.magnetic_field,56.465863127
12394,android.sensor.magnetic_field,55.1747550969
12445,android.sensor.magnetic_field,54.8538822692
12495,android.sensor.accelerometer,9.83401427374
12554,android.sensor.magnetic_field,54.6245878703
12605,android.sensor.magnetic_field,55.7343161795
12655,android.sensor.accelerometer,9.8188239555
12705,android.sensor.magnetic_field,54.5667920992
12755,android.sensor.magnetic_field,55.3906580968
12806,android.sensor.linear_acceleration,0.623716778361
12876,android.sensor.accelerometer,10.3387204293
12909,android.sensor.accelerometer,10.23860935
12967,android.sensor.magnetic_field,54.8057876181
13016,android.sensor.magnetic_field,55.076339325
13074,android.sensor.magnetic_field,54.8782225364
13125,android.sensor.magnetic_field,54.4309453072
13183,android.sensor.magnetic_field,55.2952326585
13233,android.sensor.magnetic_field,55.1409109718
13285,android.sensor.magnetic_field,54.6920296639
13335,android.sensor.magnetic_field,54.834548496
13394,android.sensor.magnetic_field,55.5389374558
13457,android.sensor.accelerometer,10.3025071534
13503,android.sensor.magnetic_field,55.6501514607
13557,android.sensor.accelerometer,10.1890515688
13603,android.sensor.orientation,333.487997362
13663,android.sensor.magnetic_field,54.4273093217
13713,android.sensor.magnetic_field,54.4283345327
13763,android.sensor.light,181.0
13814,android.sensor.linear_acceleration,2.25329288332
13866,android.sensor.magnetic_field,55.3176218057
13923,android.sensor.magnetic_field,55.013780962
13966,android.sensor.light,187.0
14024,android.sensor.magnetic_field,55.4515568322
14073,android.sensor.magnetic_field,55.3322634379
14124,android.sensor.magnetic_field,54.7115095957
