36,android.sensor.accelerometer,9.7826553391
86,android.sensor.accelerometer,9.54348375872
187,android.sensor.rotation_vector,0.611830370184
240,android.sensor.accelerometer,9.47255105481
291,android.sensor.accelerometer,9.42234160484
341,android.sensor.accelerometer,9.80752437594
444,android.sensor.game_rotation_vector,0.615118078726
496,android.sensor.accelerometer,9.91882149091
548,android.sensor.orientation,75.5903572428
604,android.sensor.accelerometer,9.72135978106
650,android.sensor.accelerometer,10.2026394912
700,android.sensor.accelerometer,11.15275351
750,android.sensor.accelerometer,10.6690701018
800,android.sensor.accelerometer,10.4225448947
901,android.sensor.gravity,9.80660913265
955,android.sensor.game_rotation_vector,0.609786139269
1003,android.sensor.game_rotation_vector,0.605865619185
1055,android.sensor.orientation,77.964815224
1105,android.sensor.orientation,81.2135919398
1160,android.sensor.accelerometer,8.46930380047
1210,android.sensor.accelerometer,9.36328663042
1261,android.sensor.accelerometer,7.0143620688
1311,android.sensor.orientation,99.8001417835
1365,android.sensor.game_rotation_vector,0.534475496964
1421,android.sensor.accelerometer,8.89340958462
1471,android.sensor.accelerometer,9.25936580072
1523,android.sensor.game_rotation_vector,0.473559182527
1573,android.sensor.gyroscope,2.33606794554
1623,android.sensor.gyroscope_uncalibrated,0.506965159734
1674,android.sensor.orientation,110.109170631
1725,android.sensor.orientation,115.685890631
1781,android.sensor.accelerometer,8.54793182808
1830,android.sensor.accelerometer,24.1134226074
1885,android.sensor.game_rotation_vector,0.468040530458
1937,android.sensor.orientation,102.880017982
1991,android.sensor.orientation,110.315334836
2040,android.sensor.accelerometer,11.4109330233
2090,android.sensor.accelerometer,11.3235525804
2144,android.sensor.game_rotation_vector,0.610117430729
2194,android.sensor.gyroscope_uncalibrated,0.968729073914
2245,android.sensor.game_rotation_vector,0.612997302421
2301,android.sensor.accelerometer,9.91782326788
2354,android.sensor.game_rotation_vector,0.630911260777
2405,android.sensor.game_rotation_vector,0.600418438594
2458,android.sensor.orientation,74.9439623619
2512,android.sensor.accelerometer,14.8592704112
2563,android.sensor.game_rotation_vector,0.626221745051
2613,android.sensor.magnetic_field,52.1037876502
2664,android.sensor.magnetic_field_uncalibrated,294.615354371
2720,android.sensor.accelerometer,10.7140844981
2770,android.sensor.accelerometer,10.8753827333
2820,android.sensor.accelerometer,7.60505810973
2870,android.sensor.accelerometer,8.05709443038
2926,android.sensor.game_rotation_vector,0.582445158878
2976,android.sensor.orientation,65.9135494417
3030,android.sensor.accelerometer,13.323829913
3080,android.sensor.accelerometer,11.4592483549
3183,android.sensor.game_rotation_vector,0.593657258421
3237,android.sensor.orientation,57.3908546611
3288,android.sensor.orientation,49.0274613701
3393,android.sensor.gyroscope,0.0651653226159
3446,android.sensor.game_rotation_vector,0.59195502123
3501,android.sensor.accelerometer,10.5935800074
3603,android.sensor.game_rotation_vector,0.59165945328
3652,android.sensor.game_rotation_vector,0.591622661648
3705,android.sensor.orientation,33.165158537
3760,android.sensor.accelerometer,8.37853419526
3806,android.sensor.magnetic_field_uncalibrated,303.492052254
3861,android.sensor.accelerometer,11.8121010128
3910,android.sensor.accelerometer,11.2566997835
3966,android.sensor.accelerometer,9.31930113747
4015,android.sensor.orientation,28.4350786881
4065,android.sensor.orientation,27.7372997965
4120,android.sensor.accelerometer,10.2251280646
4170,android.sensor.accelerometer,8.32239917142
4220,android.sensor.accelerometer,7.96211138932
4270,android.sensor.accelerometer,10.0404996476
4320,android.sensor.accelerometer,12.1064509924
4373,android.sensor.game_rotation_vector,0.589045320837
4425,android.sensor.game_rotation_vector,0.589045320837
4482,android.sensor.accelerometer,10.2505214276
4530,android.sensor.accelerometer,10.1803127316
4584,android.sensor.accelerometer,8.76940116185
4631,android.sensor.accelerometer,8.69748103329
4683,android.sensor.game_rotation_vector,0.588869679994
4733,android.sensor.gyroscope,0.0704272281709
4784,android.sensor.gyroscope,0.0983246408025
4840,android.sensor.accelerometer,9.89345367781
4890,android.sensor.magnetic_field,46.1626709312
4945,android.sensor.game_rotation_vector,0.588699451415
4997,android.sensor.orientation,23.0510238366
5049,android.sensor.orientation,22.7883018235
5102,android.sensor.accelerometer,7.86065692146
5152,android.sensor.game_rotation_vector,0.588233683598
5203,android.sensor.game_rotation_vector,0.588233683598
5255,android.sensor.orientation,21.9280094856
5305,android.sensor.gyroscope_uncalibrated,0.0517471750631
5360,android.sensor.accelerometer,11.587191756
5410,android.sensor.accelerometer,12.0166600591
5465,android.sensor.game_rotation_vector,0.587904971148
5515,android.sensor.orientation,21.2422738896
5565,android.sensor.orientation,21.0473181189
5620,android.sensor.accelerometer,7.9103903695
5670,android.sensor.accelerometer,9.49907272877
5720,android.sensor.accelerometer,11.7280588023
5770,android.sensor.accelerometer,10.9930480402
5820,android.sensor.accelerometer,8.56141841295
5873,android.sensor.game_rotation_vector,0.587566378867
5925,android.sensor.game_rotation_vector,0.587398286681
5981,android.sensor.accelerometer,7.94164474503
6030,android.sensor.accelerometer,11.0672220505
6137,android.sensor.orientation,20.227679049
6190,android.sensor.accelerometer,11.0443714616
6241,android.sensor.accelerometer,8.41771846775
6292,android.sensor.game_rotation_vector,0.58803979098
6344,android.sensor.magnetic_field_uncalibrated,310.42942787
6395,android.sensor.orientation,20.2676219621
6448,android.sensor.orientation,20.2555597287
6501,android.sensor.accelerometer,11.7098658152
6550,android.sensor.accelerometer,8.5997370544
6600,android.sensor.accelerometer,8.16124325712
6651,android.sensor.rotation_vector,0.174015010706
6705,android.sensor.game_rotation_vector,0.587829286252
6756,android.sensor.orientation,19.2519947018
6811,android.sensor.orientation,18.8613705759
6860,android.sensor.accelerometer,7.62937365238
6911,android.sensor.rotation_vector,0.161467684433
6965,android.sensor.game_rotation_vector,0.588838111028
7018,android.sensor.orientation,18.3067255401
7071,android.sensor.accelerometer,11.7930362964
7125,android.sensor.game_rotation_vector,0.589334678836
7177,android.sensor.orientation,17.925938487
7228,android.sensor.orientation,17.7853689999
7280,android.sensor.accelerometer,8.81383691591
7334,android.sensor.game_rotation_vector,0.588820266553
7388,android.sensor.orientation,17.2137059095
7440,android.sensor.accelerometer,11.3246214924
7490,android.sensor.accelerometer,9.32701811553
7540,android.sensor.accelerometer,9.02056895825
7590,android.sensor.accelerometer,11.3804584441
7640,android.sensor.accelerometer,8.70456971771
7691,android.sensor.rotation_vector,0.145753075299
7743,android.sensor.game_rotation_vector,0.588713182319
7793,android.sensor.magnetic_field_uncalibrated,315.759909286
7848,android.sensor.orientation,15.9638746639
7901,sound,-Infinity
8003,android.sensor.game_rotation_vector,0.589421032645
8055,android.sensor.orientation,15.7433762701
8106,android.sensor.orientation,15.4314410047
8160,android.sensor.accelerometer,8.68145387582
8211,android.sensor.accelerometer,12.3956033832
8265,android.sensor.game_rotation_vector,0.589111165482
8317,android.sensor.orientation,15.3672475307
8369,android.sensor.orientation,15.341610085
8426,android.sensor.game_rotation_vector,0.588167688571
8482,android.sensor.accelerometer,9.0459468521
8530,android.sensor.accelerometer,12.2425533664
8580,android.sensor.accelerometer,8.73493064149
8630,android.sensor.accelerometer,10.1435385447
8681,android.sensor.linear_acceleration,2.705858358
8734,android.sensor.magnetic_field,41.1560483101
8788,android.sensor.orientation,14.3985857569
8841,android.sensor.accelerometer,9.26595525219
8890,android.sensor.accelerometer,11.8105409201
8943,android.sensor.game_rotation_vector,0.587303209008
8995,android.sensor.magnetic_field,40.4993248401
9050,android.sensor.accelerometer,7.81980711734
9100,android.sensor.accelerometer,12.0553889038
9150,android.sensor.accelerometer,9.66776171402
9200,android.sensor.accelerometer,10.2885123931
9253,android.sensor.game_rotation_vector,0.585417478536
9306,android.sensor.gyroscope,0.0366722723215
9360,android.sensor.accelerometer,8.10609236303
9465,android.sensor.game_rotation_vector,0.585499177686
9520,android.sensor.accelerometer,13.5604366119
9570,android.sensor.accelerometer,8.23379300208
9621,android.sensor.accelerometer,10.7430304885
9670,android.sensor.accelerometer,10.8920808139
9772,android.sensor.game_rotation_vector,0.584921372408
9824,android.sensor.game_rotation_vector,0.584992085826
9877,android.sensor.orientation,357.797669501
9930,android.sensor.accelerometer,8.62598097882
10034,android.sensor.game_rotation_vector,0.583633782188
10088,android.sensor.orientation,356.238603514
10140,android.sensor.accelerometer,9.91630588483
10193,android.sensor.game_rotation_vector,0.583701992196
10245,android.sensor.orientation,356.112097801
10300,android.sensor.accelerometer,9.11642604361
10350,android.sensor.accelerometer,8.29692527459
10400,sound,-Infinity
10452,android.sensor.linear_acceleration,1.06125614786
10504,android.sensor.accelerometer,10.449392884
10560,android.sensor.accelerometer,10.1858916345
10610,android.sensor.accelerometer,9.56262236241
10660,android.sensor.accelerometer,9.39334354553
10710,android.sensor.accelerometer,13.584077771
10762,android.sensor.accelerometer,12.501488859
10810,android.sensor.accelerometer,11.7903832838
10860,android.sensor.accelerometer,9.88544571301
10911,android.sensor.rotation_vector,0.134533838565
10963,android.sensor.game_rotation_vector,0.582675366714
11017,android.sensor.orientation,351.982916346
11070,android.sensor.accelerometer,8.04082283218
11173,android.sensor.game_rotation_vector,0.581801241352
11228,android.sensor.orientation,349.862030769
11280,android.sensor.accelerometer,7.97239682917
11333,android.sensor.rotation_vector,0.146747394266
11385,android.sensor.orientation,349.644271974
11440,android.sensor.accelerometer,10.2088444847
11489,android.sensor.game_rotation_vector,0.581457191091
11540,android.sensor.accelerometer,12.3365366243
11590,android.sensor.accelerometer,7.57197268248
11640,android.sensor.accelerometer,12.260010528
11690,android.sensor.accelerometer,9.48180293199
11793,android.sensor.game_rotation_vector,0.580766764803
11845,android.sensor.game_rotation_vector,0.581231853356
11899,sound,-Infinity
11950,android.sensor.accelerometer,11.5524478384
12000,android.sensor.accelerometer,7.51992218803
12050,android.sensor.accelerometer,9.75418856158
12101,android.sensor.accelerometer,9.72698624103
12153,android.sensor.game_rotation_vector,0.58100218106
12205,android.sensor.game_rotation_vector,0.580772371626
12257,android.sensor.orientation,345.007196607
12310,android.sensor.accelerometer,7.89911853991
12365,android.sensor.game_rotation_vector,0.580271640761
12418,android.sensor.orientation,345.084943746
12469,sound,-Infinity
12520,android.sensor.accelerometer,8.43877495876
12570,android.sensor.accelerometer,11.9136787094
12620,android.sensor.accelerometer,7.12030913478
12670,android.sensor.accelerometer,11.2970844374
12773,android.sensor.game_rotation_vector,0.5807947981
12825,android.sensor.magnetic_field_uncalibrated,319.593455131
12880,android.sensor.accelerometer,11.5768504266
12930,android.sensor.accelerometer,6.70946720124
12985,android.sensor.game_rotation_vector,0.578955698753
13035,android.sensor.orientation,339.48902265
13086,android.sensor.orientation,339.294861422
13140,android.sensor.accelerometer,9.06248341346
13190,android.sensor.accelerometer,10.6892650234
13240,android.sensor.accelerometer,7.91034368299
13290,android.sensor.accelerometer,12.7312797333
13341,android.sensor.rotation_vector,0.208234170488
13393,android.sensor.game_rotation_vector,0.580219707008
13445,android.sensor.game_rotation_vector,0.579788526716
13497,android.sensor.game_rotation_vector,0.579214743748
13550,android.sensor.accelerometer,8.52949410694
13600,android.sensor.accelerometer,10.8248678731
13650,android.sensor.accelerometer,7.33326432068
13751,android.sensor.rotation_vector,0.227286221351
13803,android.sensor.game_rotation_vector,0.576286132486
13856,android.sensor.orientation,337.542715235
13910,android.sensor.accelerometer,10.5936159062
14018,android.sensor.orientation,337.951310811
14069,android.sensor.orientation,337.772708895
14120,android.sensor.accelerometer,8.78716824162
14223,android.sensor.game_rotation_vector,0.576566819632
14273,android.sensor.gyroscope_uncalibrated,0.0962922048965
14328,android.sensor.orientation,335.550138429
14380,android.sensor.accelerometer,11.7112294304
14432,android.sensor.accelerometer,9.58406820114
14485,android.sensor.game_rotation_vector,0.574685997849
14540,android.sensor.accelerometer,6.86634992353
14590,android.sensor.accelerometer,13.6658151506
14640,android.sensor.accelerometer,8.92182234162
14690,android.sensor.accelerometer,9.69597166342
14793,android.sensor.game_rotation_vector,0.573406555347
14843,android.sensor.gyroscope,0.0515014101809
14895,android.sensor.orientation,335.019434924
14945,android.sensor.orientation,335.169062099
15000,android.sensor.accelerometer,6.85502057171
15051,android.sensor.accelerometer,14.0605203816
15105,android.sensor.game_rotation_vector,0.572101255471
15157,android.sensor.orientation,334.662536859
15209,android.sensor.game_rotation_vector,0.572108423567
15260,android.sensor.accelerometer,13.9911506891
15363,android.sensor.game_rotation_vector,0.571765639149
15413,android.sensor.game_rotation_vector,0.571597721168
15463,android.sensor.gyroscope,0.0310521495702
15515,android.sensor.orientation,333.569930299
15565,android.sensor.orientation,333.0345395
15620,android.sensor.accelerometer,10.9833697955
15670,android.sensor.accelerometer,10.0638114223
15720,android.sensor.accelerometer,7.74425045349
15770,android.sensor.accelerometer,12.1681572811
15820,android.sensor.accelerometer,9.79479402885
15871,android.sensor.accelerometer,6.10890697854
15925,android.sensor.game_rotation_vector,0.571830203484
15977,android.sensor.orientation,332.729500159
16030,android.sensor.accelerometer,13.5103290292
16080,android.sensor.accelerometer,8.37717716801
16131,android.sensor.linear_acceleration,2.44770639528
16183,android.sensor.game_rotation_vector,0.571451271329
16236,android.sensor.orientation,332.511841894
16288,android.sensor.orientation,332.71536003
16341,android.sensor.accelerometer,9.26633603121
16442,android.sensor.rotation_vector,0.254103621916
16495,android.sensor.game_rotation_vector,0.572321971585
16545,android.sensor.game_rotation_vector,0.572707204774
16600,android.sensor.accelerometer,7.28933390336
16650,android.sensor.accelerometer,6.72574861735
16700,android.sensor.accelerometer,14.1450734592
16750,android.sensor.accelerometer,9.53891248791
16800,android.sensor.accelerometer,6.09647064915
16850,android.sensor.accelerometer,12.9606041827
16900,android.sensor.accelerometer,13.9061733992
17001,android.sensor.linear_acceleration,2.3278977426
17053,android.sensor.gyroscope,0.0494913966346
17109,android.sensor.orientation,329.961864918
17161,android.sensor.accelerometer,14.4995697033
17214,android.sensor.game_rotation_vector,0.573162113748
17268,android.sensor.orientation,329.946921454
17321,android.sensor.accelerometer,9.74232447537
17371,android.sensor.accelerometer,5.81363479502
17426,android.sensor.rotation_vector,0.276461479007
17484,android.sensor.game_rotation_vector,0.573826344351
17534,android.sensor.orientation,329.377901252
17585,android.sensor.orientation,328.904446081
17640,android.sensor.accelerometer,6.0354324739
17690,android.sensor.accelerometer,10.9312694662
17740,android.sensor.accelerometer,14.6677349065
17790,android.sensor.accelerometer,8.95460114087
17840,android.sensor.accelerometer,7.33338955203
17894,android.sensor.game_rotation_vector,0.575904466653
17945,android.sensor.game_rotation_vector,0.575823544607
18000,android.sensor.accelerometer,7.13144235171
18050,android.sensor.accelerometer,12.3699055362
18100,android.sensor.accelerometer,13.7761262285
18151,android.sensor.rotation_vector,0.299532810563
18205,android.sensor.game_rotation_vector,0.577085127294
18257,android.sensor.orientation,327.531523521
18310,android.sensor.orientation,327.513483656
18364,android.sensor.game_rotation_vector,0.577971429009
18418,android.sensor.orientation,327.847923578
18468,android.sensor.orientation,327.661088136
18520,android.sensor.accelerometer,6.24540684595
18570,android.sensor.accelerometer,11.1524865593
18621,android.sensor.linear_acceleration,4.95499426183
18673,android.sensor.game_rotation_vector,0.577509449744
18723,android.sensor.game_rotation_vector,0.577400584931
18775,android.sensor.orientation,327.681175197
18828,android.sensor.orientation,327.695876385
18880,android.sensor.accelerometer,9.57390443426
18933,android.sensor.game_rotation_vector,0.576899692993
18985,android.sensor.game_rotation_vector,0.576589492485
19041,android.sensor.accelerometer,10.3780333946
19094,android.sensor.gyroscope_uncalibrated,0.144200431532
19145,android.sensor.orientation,328.793616961
19200,android.sensor.accelerometer,14.3948612744
19251,android.sensor.accelerometer,12.0797440865
19300,android.sensor.accelerometer,7.36436543087
19353,android.sensor.game_rotation_vector,0.575938534004
19406,android.sensor.game_rotation_vector,0.575891690619
19461,android.sensor.accelerometer,13.019171631
19511,android.sensor.accelerometer,9.29359423105
19560,android.sensor.accelerometer,8.54071841279
19663,android.sensor.game_rotation_vector,0.57582212477
19713,android.sensor.gyroscope_uncalibrated,0.113994719196
19765,android.sensor.orientation,328.5646849
19815,android.sensor.orientation,328.068160281
19870,android.sensor.accelerometer,8.68648584754
19921,android.sensor.accelerometer,7.38073033605
20025,android.sensor.game_rotation_vector,0.574314144676
20080,android.sensor.accelerometer,14.6214758082
20131,android.sensor.accelerometer,14.5531442965
20185,android.sensor.game_rotation_vector,0.574151613251
20235,android.sensor.orientation,326.832713681
20286,android.sensor.orientation,326.670107173
20340,android.sensor.accelerometer,7.89650561056
20390,android.sensor.accelerometer,8.02431857889
20440,android.sensor.accelerometer,9.61066846685
20490,android.sensor.orientation,326.638080357
20540,android.sensor.accelerometer,11.0848627576
20591,android.sensor.rotation_vector,0.300264435563
20643,android.sensor.game_rotation_vector,0.574254272662
20693,android.sensor.magnetic_field_uncalibrated,316.073128653
20745,android.sensor.orientation,326.237028248
20800,android.sensor.accelerometer,10.213276818
20850,android.sensor.accelerometer,11.6540414982
20899,sound,-Infinity
20951,android.sensor.accelerometer,12.086768202
21005,android.sensor.game_rotation_vector,0.575174132797
21056,android.sensor.orientation,325.993716657
21108,android.sensor.orientation,325.907604545
21160,android.sensor.accelerometer,7.79870289862
21214,android.sensor.game_rotation_vector,0.576412325266
21268,android.sensor.orientation,325.9640382
21320,android.sensor.accelerometer,7.49641347949
21423,android.sensor.game_rotation_vector,0.577809022443
21475,android.sensor.orientation,326.085462973
21525,android.sensor.orientation,325.949745959
21580,android.sensor.accelerometer,5.50352322962
21630,android.sensor.accelerometer,6.95748908334
21680,android.sensor.accelerometer,8.6525436424
21731,android.sensor.accelerometer,11.1888954699
21834,android.sensor.magnetic_field_uncalibrated,316.465557713
21885,android.sensor.orientation,325.075903752
21940,android.sensor.accelerometer,14.3136097865
21990,android.sensor.accelerometer,11.9083766349
22041,android.sensor.accelerometer,7.25197044309
22094,android.sensor.game_rotation_vector,0.579622667582
22148,android.sensor.orientation,325.707994682
22201,android.sensor.accelerometer,6.66652370733
22251,android.sensor.rotation_vector,0.30519461971
22305,android.sensor.game_rotation_vector,0.579711228385
22360,android.sensor.accelerometer,7.88381193845
22411,android.sensor.accelerometer,10.8763689146
22461,android.sensor.accelerometer,14.1348603641
22512,android.sensor.game_rotation_vector,0.579566427923
22563,android.sensor.game_rotation_vector,0.579750582202
22614,android.sensor.game_rotation_vector,0.5797280948
22664,android.sensor.magnetic_field,31.5805641376
22715,android.sensor.orientation,325.377862017
22770,android.sensor.accelerometer,13.9247625436
22820,android.sensor.accelerometer,11.0276792164
22870,android.sensor.accelerometer,6.77319941064
22920,android.sensor.accelerometer,10.3426226939
22970,android.sensor.accelerometer,11.7864349571
23071,android.sensor.rotation_vector,0.312395898974
23123,android.sensor.game_rotation_vector,0.57980257929
23172,android.sensor.game_rotation_vector,0.579905147541
23223,android.sensor.gyroscope_uncalibrated,0.103962013259
23274,android.sensor.orientation,324.885322664
23325,android.sensor.orientation,324.860665825
23380,android.sensor.accelerometer,9.9524498556
23432,android.sensor.accelerometer,9.20902972548
23481,android.sensor.accelerometer,9.46337226062
23532,android.sensor.game_rotation_vector,0.579532680182
23584,android.sensor.game_rotation_vector,0.580479305725
23633,android.sensor.gyroscope,0.27037532839
23683,android.sensor.magnetic_field,31.161687715
23734,android.sensor.orientation,324.619223363
23785,android.sensor.orientation,324.435340516
23840,android.sensor.accelerometer,7.24342868526
23890,android.sensor.accelerometer,8.63457959952
23940,android.sensor.accelerometer,13.3869270248
23995,android.sensor.game_rotation_vector,0.578187394176
24045,android.sensor.game_rotation_vector,0.577322805494
24100,android.sensor.accelerometer,12.7725379007
24150,android.sensor.accelerometer,7.42259390917
24200,android.sensor.accelerometer,12.4215505969
24250,android.sensor.accelerometer,7.177329766
24301,android.sensor.accelerometer,13.2023668826
24354,android.sensor.game_rotation_vector,0.574094568411
24406,android.sensor.magnetic_field,32.3025855196
24461,android.sensor.accelerometer,11.612260991
24512,android.sensor.accelerometer,6.30868086104
24561,android.sensor.rotation_vector,0.294258169415
24613,android.sensor.game_rotation_vector,0.571884716043
24663,android.sensor.game_rotation_vector,0.571217122992
24713,android.sensor.magnetic_field_uncalibrated,313.710611322
24765,android.sensor.orientation,327.821180829
24816,android.sensor.orientation,328.022286743
24870,android.sensor.accelerometer,12.3370615512
24920,android.sensor.accelerometer,9.10803687928
24969,sound,-Infinity
25020,android.sensor.accelerometer,10.263218375
25124,android.sensor.game_rotation_vector,0.565303490447
25178,android.sensor.orientation,328.316080297
25230,android.sensor.accelerometer,11.4940356114
25280,android.sensor.accelerometer,7.67597028852
25331,android.sensor.accelerometer,12.2197725224
25435,android.sensor.magnetic_field,30.5740009035
25488,android.sensor.game_rotation_vector,0.555699835623
25540,android.sensor.accelerometer,9.84118419047
25590,android.sensor.accelerometer,11.4743574907
25640,android.sensor.accelerometer,9.1405385017
25690,android.sensor.accelerometer,9.67712993699
25740,android.sensor.accelerometer,9.29637164971
25790,android.sensor.accelerometer,10.5244061158
25840,android.sensor.accelerometer,9.72405307947
25893,android.sensor.game_rotation_vector,0.538486714826
25945,android.sensor.game_rotation_vector,0.536229856327
25998,android.sensor.orientation,332.480573117
26050,android.sensor.accelerometer,8.73657288035
26102,android.sensor.linear_acceleration,1.18366756313
26155,android.sensor.magnetic_field_uncalibrated,312.178897529
26208,android.sensor.orientation,334.329532315
26261,android.sensor.accelerometer,10.0768264567
26363,android.sensor.game_rotation_vector,0.51603250696
26413,android.sensor.gyroscope_uncalibrated,0.153734284581
26466,android.sensor.magnetic_field,28.0937326196
26520,android.sensor.accelerometer,8.64555014236
26570,android.sensor.accelerometer,12.2380569703
26621,android.sensor.accelerometer,8.8440039454
26671,android.sensor.accelerometer,12.3460675902
26773,android.sensor.game_rotation_vector,0.492279827975
26823,android.sensor.game_rotation_vector,0.490027454487
26875,android.sensor.orientation,340.278035436
26925,android.sensor.orientation,340.703103151
26980,android.sensor.accelerometer,8.27206025582
27030,android.sensor.accelerometer,11.0795665413
27080,android.sensor.accelerometer,8.22476560905
27130,android.sensor.accelerometer,11.1328142383
27185,android.sensor.game_rotation_vector,0.468114158914
27235,android.sensor.orientation,342.901308976
27290,android.sensor.accelerometer,8.93799330378
27340,android.sensor.accelerometer,11.1463376914
27390,android.sensor.accelerometer,9.80602369236
27440,android.sensor.accelerometer,11.0406667393
27491,android.sensor.accelerometer,9.12932897127
27540,android.sensor.accelerometer,9.45429733258
27641,android.sensor.rotation_vector,0.17551363614
27692,android.sensor.game_rotation_vector,0.467466097037
27743,android.sensor.game_rotation_vector,0.469418132824
27792,android.sensor.game_rotation_vector,0.471946853863
27843,android.sensor.game_rotation_vector,0.47639568495
27895,android.sensor.orientation,341.94596152
27945,android.sensor.orientation,341.628383042
28000,android.sensor.accelerometer,12.1458309346
28051,android.sensor.accelerometer,9.17908813684
28103,android.sensor.accelerometer,10.1761805804
28153,android.sensor.accelerometer,7.95337500133
28208,android.sensor.orientation,339.622560205
28261,android.sensor.accelerometer,8.96203932349
28311,android.sensor.orientation,338.329217009
28362,android.sensor.accelerometer,8.84080279476
28415,android.sensor.game_rotation_vector,0.507440158079
28469,android.sensor.orientation,339.602707403
28521,android.sensor.accelerometer,10.8730582873
28570,android.sensor.accelerometer,8.69186859478
28620,android.sensor.accelerometer,6.08801773133
28723,android.sensor.game_rotation_vector,0.532360099628
28773,android.sensor.game_rotation_vector,0.544687642304
28824,android.sensor.game_rotation_vector,0.553790561191
28877,android.sensor.orientation,19.7147502216
28931,android.sensor.accelerometer,7.09380273606
29035,android.sensor.game_rotation_vector,0.576957739288
29140,android.sensor.accelerometer,10.926855086
29191,android.sensor.accelerometer,7.66806240436
29240,android.sensor.accelerometer,13.4868441456
29292,android.sensor.rotation_vector,0.207881582359
29400,sound,-Infinity
29451,android.sensor.accelerometer,8.00312864325
29504,android.sensor.game_rotation_vector,0.620586494339
29554,android.sensor.orientation,30.2130332605
29604,android.sensor.gyroscope_uncalibrated,0.175393874571
29655,android.sensor.orientation,32.8509892496
29708,android.sensor.orientation,32.8975880575
29761,android.sensor.accelerometer,9.15269218293
29814,android.sensor.game_rotation_vector,0.631810363061
29918,android.sensor.game_rotation_vector,0.633720626267
29974,android.sensor.game_rotation_vector,0.636686201257
30025,android.sensor.orientation,42.7169621923
30080,android.sensor.accelerometer,7.9095439438
30130,android.sensor.accelerometer,10.9317732349
30180,android.sensor.accelerometer,9.48412433429
30230,android.sensor.accelerometer,10.8941045671
30280,android.sensor.accelerometer,9.30402948577
30330,android.sensor.accelerometer,9.32250325042
30434,android.sensor.game_rotation_vector,0.617171066042
30488,android.sensor.game_rotation_vector,0.614104143753
30540,android.sensor.accelerometer,7.34551088139
30590,android.sensor.accelerometer,9.31533856393
30640,android.sensor.accelerometer,5.99750511651
30693,android.sensor.game_rotation_vector,0.603559447674
30846,android.sensor.orientation,57.8110809423
30898,android.sensor.orientation,58.2105600385
30951,android.sensor.accelerometer,11.9426464577
31005,android.sensor.game_rotation_vector,0.590357342494
31057,android.sensor.orientation,59.2654651344
31108,android.sensor.orientation,59.3971757913
31161,android.sensor.accelerometer,8.64953730734
31215,android.sensor.game_rotation_vector,0.583157658887
31270,android.sensor.accelerometer,10.6977689923
31320,android.sensor.accelerometer,8.27044180211
31370,android.sensor.accelerometer,9.4068719836
31421,android.sensor.accelerometer,10.3230429361
31525,android.sensor.orientation,61.2739027007
31580,android.sensor.accelerometer,11.724683459
31630,android.sensor.accelerometer,7.8940194269
31680,android.sensor.accelerometer,11.4173568348
31730,android.sensor.accelerometer,11.8810242036
31781,android.sensor.accelerometer,9.192896622
31830,android.sensor.accelerometer,12.1268430186
31881,android.sensor.accelerometer,8.84656936346
31985,android.sensor.game_rotation_vector,0.560800447217
32037,android.sensor.orientation,61.9161064968
32090,android.sensor.accelerometer,8.98862242055
32196,android.sensor.gyroscope_uncalibrated,0.230324551963
32248,android.sensor.orientation,62.8615446835
32301,android.sensor.accelerometer,12.3475496392
32355,android.sensor.game_rotation_vector,0.558681929255
32405,android.sensor.orientation,64.3732806832
32461,android.sensor.accelerometer,10.4116494325
32508,android.sensor.accelerometer,10.6565071521
32560,android.sensor.accelerometer,8.34485581548
32610,android.sensor.accelerometer,9.24107237456
32660,android.sensor.accelerometer,6.40729874411
32710,android.sensor.accelerometer,14.0757758061
32762,android.sensor.linear_acceleration,0.55958360412
32813,android.sensor.gyroscope,0.0773848389881
32920,android.sensor.accelerometer,8.34960266164
32971,android.sensor.rotation_vector,0.525342275206
33023,android.sensor.game_rotation_vector,0.5580415621
33073,android.sensor.gyroscope,0.149461134828
33124,android.sensor.magnetic_field_uncalibrated,270.555230614
33175,android.sensor.orientation,63.0196272864
33230,android.sensor.accelerometer,8.26096597475
33280,android.sensor.accelerometer,12.842483995
33330,android.sensor.accelerometer,10.5602127585
33381,android.sensor.accelerometer,8.22944747461
33483,speed,8.890205
33534,android.sensor.orientation,63.8865377055
33585,android.sensor.orientation,63.9127764929
33640,android.sensor.accelerometer,12.2316290104
33690,android.sensor.accelerometer,5.639820412
33741,android.sensor.accelerometer,14.9039300471
33793,android.sensor.game_rotation_vector,0.551876278276
33849,android.sensor.orientation,63.9102034107
33900,sound,-Infinity
33951,android.sensor.rotation_vector,0.531403236572
34007,android.sensor.game_rotation_vector,0.554531100508
34060,android.sensor.accelerometer,6.19063367083
34110,android.sensor.accelerometer,12.9806160962
34160,android.sensor.accelerometer,6.76172765352
34265,android.sensor.game_rotation_vector,0.559926918656
34318,android.sensor.orientation,63.5792738563
34370,android.sensor.accelerometer,10.4948998513
34423,android.sensor.accelerometer,7.63700969717
34476,android.sensor.orientation,63.4501484055
34630,android.sensor.accelerometer,11.4893622404
34680,android.sensor.accelerometer,8.08233130791
34730,android.sensor.accelerometer,11.803941879
34785,android.sensor.game_rotation_vector,0.557081242043
34837,android.sensor.orientation,63.583584533
34888,android.sensor.orientation,63.4908200567
34941,android.sensor.accelerometer,6.81759026666
34994,android.sensor.game_rotation_vector,0.558889707756
35049,android.sensor.orientation,63.386827938
35100,android.sensor.accelerometer,8.00398194298
35150,android.sensor.accelerometer,11.4314546693
35200,android.sensor.accelerometer,9.21379416343
35303,android.sensor.game_rotation_vector,0.56538519619
35353,android.sensor.game_rotation_vector,0.56528014276
35405,android.sensor.game_rotation_vector,0.564343608451
35461,android.sensor.accelerometer,13.9936193673
35510,android.sensor.accelerometer,7.93966389178
35560,android.sensor.accelerometer,11.8835713916
35663,android.sensor.game_rotation_vector,0.562541572365
35713,android.sensor.gyroscope_uncalibrated,0.0835166928505
35764,android.sensor.magnetic_field,30.3369102744
35815,android.sensor.orientation,64.2138310647
35869,android.sensor.orientation,64.1929170523
35921,android.sensor.accelerometer,8.69832374253
35974,android.sensor.game_rotation_vector,0.568161606509
36026,android.sensor.gyroscope,0.0573693190161
36081,android.sensor.accelerometer,10.2386315621
36132,android.sensor.accelerometer,8.567672404
36184,android.sensor.game_rotation_vector,0.562764902345
36235,android.sensor.orientation,63.9319393612
36285,android.sensor.orientation,63.9709076587
36341,android.sensor.accelerometer,7.87649735813
36387,android.sensor.orientation,64.2969773384
36490,android.sensor.accelerometer,8.82140955343
36540,android.sensor.accelerometer,8.26647001259
36643,android.sensor.game_rotation_vector,0.559445704525
36693,android.sensor.game_rotation_vector,0.560775348046
36743,android.sensor.gyroscope,0.0860778235262
36795,android.sensor.orientation,65.4011641562
36849,android.sensor.orientation,65.465402313
36900,sound,-Infinity
36952,android.sensor.linear_acceleration,3.83239723411
37005,android.sensor.game_rotation_vector,0.559232296885
37061,android.sensor.accelerometer,7.74728747173
37111,android.sensor.accelerometer,9.42144624576
37163,android.sensor.linear_acceleration,2.15947354651
37218,android.sensor.orientation,65.96436917
37270,android.sensor.accelerometer,12.893291659
37320,android.sensor.accelerometer,8.04211755043
37373,android.sensor.accelerometer,11.0697368994
37421,android.sensor.accelerometer,12.0498190525
37623,android.sensor.game_rotation_vector,0.560156208777
37674,android.sensor.magnetic_field_uncalibrated,267.212944695
37725,android.sensor.orientation,67.19227391
37781,android.sensor.accelerometer,10.6681764146
37830,android.sensor.accelerometer,9.31481221389
37880,android.sensor.accelerometer,10.0969066725
37930,android.sensor.accelerometer,12.5206163347
37980,android.sensor.accelerometer,7.72147807992
38034,android.sensor.game_rotation_vector,0.560502104002
38085,android.sensor.game_rotation_vector,0.559792239417
38141,android.sensor.accelerometer,11.3936911172
38191,android.sensor.accelerometer,9.71252955988
38298,android.sensor.orientation,67.3395552406
38350,android.sensor.orientation,67.225858117
38401,android.sensor.accelerometer,13.0014065809
38453,android.sensor.game_rotation_vector,0.558081709254
38504,android.sensor.accelerometer,12.3882315722
38555,android.sensor.orientation,67.2621468584
38605,android.sensor.orientation,67.2667632837
38660,android.sensor.accelerometer,9.69973644976
38710,android.sensor.accelerometer,10.1456716048
38760,android.sensor.accelerometer,8.74958600909
38810,android.sensor.accelerometer,9.8858863058
38863,android.sensor.accelerometer,9.43262006848
38969,sound,-Infinity
39021,android.sensor.accelerometer,11.8845118962
39071,android.sensor.accelerometer,11.1262300002
39177,android.sensor.orientation,64.2709335548
39231,android.sensor.accelerometer,10.5466859342
39334,android.sensor.game_rotation_vector,0.567227713779
39388,android.sensor.orientation,63.330900589
39440,android.sensor.accelerometer,8.25545752369
39491,android.sensor.accelerometer,12.4801152568
39540,android.sensor.accelerometer,7.02411618949
39590,android.sensor.accelerometer,11.7741377869
39641,android.sensor.gravity,9.80660668376
39748,android.sensor.orientation,62.7072523716
39801,android.sensor.accelerometer,12.0838394955
39851,android.sensor.accelerometer,10.0769399492
39957,android.sensor.orientation,62.1459717118
40011,android.sensor.accelerometer,8.18098143515
40060,android.sensor.accelerometer,9.76457721373
40164,android.sensor.game_rotation_vector,0.578594998056
40215,android.sensor.magnetic_field,33.0499739977
40269,android.sensor.orientation,61.311275472
40321,android.sensor.accelerometer,9.12815386541
40426,android.sensor.gyroscope,0.0549778713333
40530,android.sensor.accelerometer,10.8126261164
40580,android.sensor.accelerometer,10.3706293939
40632,android.sensor.game_rotation_vector,0.58855662095
40683,android.sensor.game_rotation_vector,0.589396362106
40733,android.sensor.gyroscope_uncalibrated,0.0888677691472
40785,android.sensor.orientation,60.5136593924
40835,android.sensor.orientation,60.6039482732
40889,android.sensor.orientation,60.5623054063
40941,android.sensor.accelerometer,9.64194726284
41045,android.sensor.gyroscope_uncalibrated,0.202630548444
41100,android.sensor.accelerometer,13.5249504008
41150,android.sensor.accelerometer,13.9532137394
41203,android.sensor.game_rotation_vector,0.600159966676
41253,android.sensor.game_rotation_vector,0.601591364286
41308,android.sensor.gyroscope,0.163012910717
41361,android.sensor.accelerometer,8.22273543803
41462,android.sensor.gravity,9.80656939046
41515,android.sensor.game_rotation_vector,0.606851807095
41720,android.sensor.accelerometer,7.70762839147
41770,android.sensor.accelerometer,11.7137582114
41874,android.sensor.game_rotation_vector,0.612622052022
41926,android.sensor.game_rotation_vector,0.614215936749
41981,android.sensor.accelerometer,7.04017756645
42031,android.sensor.accelerometer,9.50652738319
42085,android.sensor.game_rotation_vector,0.617307455581
42136,android.sensor.magnetic_field_uncalibrated,271.501474731
42188,android.sensor.orientation,57.6240078096
42295,android.sensor.orientation,57.7937356093
42345,android.sensor.orientation,57.8657106745
42399,sound,-Infinity
42451,android.sensor.accelerometer,10.8829188385
42502,android.sensor.orientation,57.4278639944
42553,android.sensor.game_rotation_vector,0.628108213705
42603,android.sensor.game_rotation_vector,0.628979358895
42655,android.sensor.orientation,57.379057155
42706,android.sensor.gyroscope,0.071791612992
42761,android.sensor.accelerometer,10.2284245782
42814,android.sensor.game_rotation_vector,0.633159962411
42863,android.sensor.game_rotation_vector,0.633990297811
42915,android.sensor.orientation,57.0760667881
42965,android.sensor.orientation,56.87450969
43015,android.sensor.orientation,56.6910063414
43065,android.sensor.orientation,56.5411750179
43121,android.sensor.accelerometer,10.5237120461
43171,android.sensor.accelerometer,10.0353142983
43222,android.sensor.accelerometer,7.15756583811
43274,android.sensor.magnetic_field_uncalibrated,274.370963809
43329,android.sensor.orientation,55.5541663604
43381,android.sensor.accelerometer,9.19661679667
43484,android.sensor.gravity,9.80655204108
43535,android.sensor.orientation,54.8903206403
43585,android.sensor.orientation,54.9129729663
43640,android.sensor.accelerometer,9.25209762979
43690,android.sensor.accelerometer,10.4924783834
43740,android.sensor.accelerometer,11.2340226876
43790,android.sensor.accelerometer,12.6345232974
43845,android.sensor.game_rotation_vector,0.647815815484
43897,android.sensor.orientation,54.7726628894
43951,android.sensor.accelerometer,8.97438820804
44000,android.sensor.accelerometer,8.69744959494
44050,android.sensor.accelerometer,11.9080690068
44101,android.sensor.accelerometer,10.1311079528
44205,android.sensor.game_rotation_vector,0.650545829217
44257,android.sensor.orientation,53.6279358171
44311,android.sensor.orientation,53.4860719418
44362,android.sensor.linear_acceleration,0.879114204793
44415,android.sensor.gyroscope_uncalibrated,0.0558532637114
44468,android.sensor.orientation,52.9464511758
44521,android.sensor.accelerometer,11.2358550866
44570,android.sensor.accelerometer,11.7363167986
44620,android.sensor.accelerometer,9.68012952035
44823,android.sensor.game_rotation_vector,0.65797817337
44873,android.sensor.magnetic_field,31.006866679
45030,android.sensor.accelerometer,11.4087112539
45080,android.sensor.accelerometer,10.2747086333
45130,android.sensor.accelerometer,9.6414910378
45180,android.sensor.accelerometer,11.4301909903
45230,android.sensor.accelerometer,8.68685999167
45280,android.sensor.accelerometer,9.3055815798
45333,android.sensor.game_rotation_vector,0.662455803657
45388,android.sensor.orientation,52.3010888575
45441,android.sensor.accelerometer,8.99162134892
45491,android.sensor.accelerometer,10.3285139871
45543,android.sensor.game_rotation_vector,0.664024292085
45593,android.sensor.gyroscope,0.0610620855812
45643,android.sensor.gyroscope_uncalibrated,0.0792713870049
45695,android.sensor.orientation,50.8721591513
45749,android.sensor.orientation,50.6789916911
45801,android.sensor.accelerometer,10.6685197998
45853,android.sensor.game_rotation_vector,0.66784653821
45905,android.sensor.orientation,50.8582864353
46060,android.sensor.accelerometer,11.4808546816
46111,android.sensor.accelerometer,8.6510165279
46160,android.sensor.accelerometer,10.1321934835
46318,android.sensor.orientation,50.6714987073
46371,android.sensor.accelerometer,11.5614156104
46422,android.sensor.accelerometer,9.20889000411
46475,android.sensor.game_rotation_vector,0.676312310826
46525,android.sensor.orientation,49.9593774739
46580,android.sensor.accelerometer,11.5267914405
46631,android.sensor.accelerometer,9.71364459653
46680,android.sensor.accelerometer,11.928818725
46730,android.sensor.accelerometer,11.8267443115
46780,android.sensor.accelerometer,10.3629635032
46832,android.sensor.rotation_vector,0.419169492611
46885,android.sensor.game_rotation_vector,0.682373176483
46937,android.sensor.orientation,48.8146812924
46991,android.sensor.accelerometer,9.97236755314
47046,android.sensor.game_rotation_vector,0.684856461104
47097,android.sensor.orientation,48.6197552281
47148,android.sensor.orientation,48.4325914099
47201,android.sensor.accelerometer,9.3452606335
47253,android.sensor.game_rotation_vector,0.689335759
47304,android.sensor.game_rotation_vector,0.689098171363
47357,android.sensor.orientation,47.8088213618
47409,android.sensor.orientation,47.856813517
47462,android.sensor.accelerometer,8.80101768413
47515,android.sensor.game_rotation_vector,0.6927976895
47565,android.sensor.orientation,47.7456521581
47616,android.sensor.orientation,47.6936663829
47670,android.sensor.accelerometer,10.7676404149
47720,android.sensor.accelerometer,6.68259405742
47771,android.sensor.accelerometer,11.7339101745
47821,android.sensor.accelerometer,9.315969178
47870,android.sensor.accelerometer,8.91886665177
47920,android.sensor.accelerometer,12.1649533038
47973,android.sensor.rotation_vector,0.400837884685
48029,android.sensor.orientation,46.3196642907
48081,android.sensor.accelerometer,8.90935964305
48185,android.sensor.game_rotation_vector,0.700150798025
48237,android.sensor.orientation,46.0350912807
48291,android.sensor.accelerometer,12.2176673179
48347,android.sensor.accelerometer,8.96356916624
48399,sound,-Infinity
48450,android.sensor.accelerometer,13.8424888109
48501,android.sensor.accelerometer,7.52250117035
48603,android.sensor.game_rotation_vector,0.702201771228
48653,android.sensor.game_rotation_vector,0.701401902795
48704,android.sensor.gyroscope,0.0407955547783
48757,android.sensor.orientation,43.722742366
48810,android.sensor.orientation,43.4644777555
48913,android.sensor.game_rotation_vector,0.70678942
48963,android.sensor.gyroscope,0.104220126838
49015,android.sensor.orientation,43.4380700626
49069,android.sensor.orientation,43.5792335867
49121,android.sensor.accelerometer,5.16876166595
49226,android.sensor.game_rotation_vector,0.707236538558
49280,android.sensor.accelerometer,12.4481132032
49330,android.sensor.accelerometer,13.4901311996
49380,android.sensor.accelerometer,10.9129296815
49481,android.sensor.game_rotation_vector,0.707174555876
49531,android.sensor.linear_acceleration,2.95224745745
49583,android.sensor.game_rotation_vector,0.706307660283
49632,android.sensor.game_rotation_vector,0.705425574631
49684,android.sensor.magnetic_field_uncalibrated,274.285250127
49736,android.sensor.orientation,44.3149884351
49788,android.sensor.orientation,44.309266727
49841,android.sensor.accelerometer,7.93802330891
50151,android.sensor.accelerometer,5.70749550132
50257,android.sensor.gyroscope,0.199067094432
50310,android.sensor.orientation,48.0782216809
50362,android.sensor.accelerometer,7.31254867483
50466,android.sensor.magnetic_field,30.620471604
50570,android.sensor.accelerometer,17.4576811459
50620,android.sensor.accelerometer,7.63315935099
50725,android.sensor.game_rotation_vector,0.6559170238
50776,android.sensor.orientation,52.2793898273
50829,android.sensor.orientation,52.6255971761
50882,android.sensor.accelerometer,12.2480808704
50934,android.sensor.gyroscope,0.373587932747
50986,android.sensor.gyroscope_uncalibrated,0.566332373802
51041,android.sensor.accelerometer,9.42890957228
51090,android.sensor.accelerometer,10.9575203126
51193,android.sensor.game_rotation_vector,0.623067588449
51245,android.sensor.gyroscope,0.286940253754
51300,android.sensor.accelerometer,9.46456970622
51351,android.sensor.accelerometer,8.24200942796
51458,android.sensor.orientation,57.3154200381
51507,android.sensor.orientation,57.9053045929
51560,android.sensor.accelerometer,10.4041371769
51611,android.sensor.accelerometer,3.70702852404
51660,android.sensor.accelerometer,8.795226457
51710,android.sensor.accelerometer,8.36217553429
51762,android.sensor.rotation_vector,0.491772016105
51815,android.sensor.gyroscope_uncalibrated,0.224063511876
51869,android.sensor.orientation,61.2704143631
51921,android.sensor.accelerometer,5.94284666996
51973,android.sensor.linear_acceleration,1.93677172893
52026,android.sensor.magnetic_field,32.4838301121
52081,android.sensor.accelerometer,11.4458427959
52131,android.sensor.accelerometer,16.22943811
52183,android.sensor.game_rotation_vector,0.543535778955
52233,android.sensor.gyroscope_uncalibrated,0.268541804513
52285,android.sensor.game_rotation_vector,0.537617252587
52341,android.sensor.accelerometer,11.7348673202
52390,android.sensor.accelerometer,13.1728893962
52490,android.sensor.orientation,68.261111837
52540,android.sensor.accelerometer,10.8353863607
52590,android.sensor.accelerometer,6.48107172078
52641,android.sensor.rotation_vector,0.561546767398
52693,android.sensor.game_rotation_vector,0.510267067078
52743,android.sensor.game_rotation_vector,0.504689392992
52795,android.sensor.orientation,71.1200811737
52845,android.sensor.orientation,70.7732249068
52899,sound,-Infinity
52951,android.sensor.accelerometer,9.11302511401
53002,android.sensor.accelerometer,5.7160699258
53055,android.sensor.gyroscope_uncalibrated,0.182680375946
53109,android.sensor.orientation,68.8812463592
53161,android.sensor.accelerometer,5.45183631567
53212,android.sensor.accelerometer,6.62839555319
53266,android.sensor.game_rotation_vector,0.474061006555
53320,android.sensor.accelerometer,6.03363907293
53370,android.sensor.accelerometer,6.84822703583
53421,android.sensor.accelerometer,9.8427677758
53472,android.sensor.accelerometer,11.9481792258
53523,android.sensor.game_rotation_vector,0.462743918313
53572,android.sensor.game_rotation_vector,0.461600346898
53624,android.sensor.magnetic_field_uncalibrated,267.217330206
53675,android.sensor.orientation,68.6743285193
53729,android.sensor.orientation,68.9841315086
53781,android.sensor.accelerometer,10.6295129105
53834,android.sensor.game_rotation_vector,0.457112273647
53885,android.sensor.orientation,69.4603367
53941,android.sensor.accelerometer,14.9558602311
53989,android.sensor.orientation,69.794372799
54042,android.sensor.accelerometer,12.1491518189
54200,android.sensor.accelerometer,10.0792335625
54251,android.sensor.accelerometer,14.0184332987
54301,android.sensor.accelerometer,9.26113843138
54353,android.sensor.game_rotation_vector,0.448818375149
54404,android.sensor.gyroscope,0.0362835451
54457,android.sensor.orientation,70.4637103514
54510,android.sensor.accelerometer,11.7403492295
54560,android.sensor.accelerometer,8.70814062468
54610,android.sensor.accelerometer,11.9502276452
54661,android.sensor.accelerometer,8.80559180499
54763,android.sensor.game_rotation_vector,0.444122648425
54813,android.sensor.magnetic_field_uncalibrated,268.748859009
54868,android.sensor.orientation,71.4063813675
54921,android.sensor.accelerometer,8.67236827724
54971,sound,-Infinity
55023,android.sensor.game_rotation_vector,0.439482810812
55073,android.sensor.gyroscope_uncalibrated,0.0460058985204
55127,android.sensor.orientation,71.8542218031
55181,android.sensor.accelerometer,11.1307260999
55231,android.sensor.accelerometer,7.46159265532
55337,android.sensor.orientation,72.7156853781
55390,android.sensor.accelerometer,7.99980433982
55441,android.sensor.accelerometer,12.1212069619
55545,android.sensor.orientation,72.7451043003
55600,android.sensor.accelerometer,7.74522701746
55647,android.sensor.orientation,72.7397091141
55700,android.sensor.accelerometer,7.73406423539
55750,android.sensor.accelerometer,11.1172703315
55800,android.sensor.accelerometer,7.77751683488
55903,android.sensor.game_rotation_vector,0.416167433921
55955,android.sensor.orientation,72.8163182261
56007,android.sensor.orientation,73.0826496058
56061,android.sensor.accelerometer,6.26979576448
56110,android.sensor.accelerometer,12.9167131505
56160,android.sensor.accelerometer,8.60535113827
56211,android.sensor.gravity,9.80661746628
56265,android.sensor.game_rotation_vector,0.4227764625
56318,android.sensor.orientation,74.1895755761
56371,android.sensor.accelerometer,9.68020035233
56475,android.sensor.magnetic_field,30.7764748834
56830,android.sensor.accelerometer,10.2346456885
56934,android.sensor.game_rotation_vector,0.398896397557
56988,android.sensor.orientation,74.7767273933
57041,android.sensor.accelerometer,9.72653816935
57145,android.sensor.game_rotation_vector,0.390693087422
57200,android.sensor.accelerometer,10.0711314622
57250,android.sensor.accelerometer,9.82520114072
57301,android.sensor.accelerometer,10.0767171881
57350,android.sensor.accelerometer,9.1765350845
57400,android.sensor.accelerometer,8.84311235184
57451,android.sensor.rotation_vector,0.602261327497
57504,android.sensor.game_rotation_vector,0.376767155065
57554,android.sensor.orientation,74.9300889962
57605,android.sensor.orientation,74.8818307535
57660,android.sensor.accelerometer,9.93923490545
57708,android.sensor.orientation,74.8121086431
57760,android.sensor.accelerometer,9.3192762332
57810,android.sensor.accelerometer,9.6274396372
57917,android.sensor.orientation,74.673950612
57968,android.sensor.orientation,74.7258161548
58021,android.sensor.accelerometer,13.3168895096
58074,android.sensor.game_rotation_vector,0.372864011409
58125,android.sensor.gyroscope_uncalibrated,0.0233091323503
58180,android.sensor.accelerometer,8.55451670416
58230,android.sensor.accelerometer,10.2414755481
58280,android.sensor.accelerometer,11.688887812
58330,android.sensor.accelerometer,10.1551184647
58381,android.sensor.accelerometer,10.6148909753
58484,android.sensor.accelerometer,11.1761337622
58540,android.sensor.accelerometer,12.8719516776
58590,android.sensor.accelerometer,11.3620322513
58640,android.sensor.accelerometer,9.35049991785
58690,android.sensor.accelerometer,8.97559426909
58740,android.sensor.accelerometer,10.0724198347
58790,android.sensor.accelerometer,11.0056679959
58841,android.sensor.linear_acceleration,1.31170132919
58893,android.sensor.game_rotation_vector,0.368688513777
58945,android.sensor.magnetic_field_uncalibrated,268.004139427
59001,android.sensor.accelerometer,9.12595338156
59050,android.sensor.accelerometer,10.3429651841
59100,android.sensor.accelerometer,9.14611625134
59152,android.sensor.accelerometer,10.4394308283
59205,android.sensor.game_rotation_vector,0.367969147832
59254,android.sensor.gyroscope_uncalibrated,0.0800116872659
59310,android.sensor.orientation,77.3844260817
59362,android.sensor.accelerometer,9.3964286191
59414,android.sensor.magnetic_field,31.8664817049
59467,android.sensor.magnetic_field_uncalibrated,265.783636453
59520,android.sensor.accelerometer,9.29426058513
59570,android.sensor.accelerometer,11.3662368775
59620,android.sensor.accelerometer,9.98557001697
59670,android.sensor.accelerometer,8.10825863345
59773,android.sensor.game_rotation_vector,0.369290521682
59825,android.sensor.game_rotation_vector,0.36904884758
59877,android.sensor.orientation,77.2819836678
59931,android.sensor.accelerometer,9.59941055301
59985,android.sensor.game_rotation_vector,0.371519877496
60037,android.sensor.orientation,77.3137769094
60089,android.sensor.orientation,77.2128829924
60140,android.sensor.accelerometer,12.1884537985
60190,android.sensor.accelerometer,9.75350684258
60294,android.sensor.game_rotation_vector,0.372978463721
60348,android.sensor.orientation,77.5198387511
60401,sound,-Infinity
60453,android.sensor.accelerometer,12.7951225437
60504,android.sensor.gyroscope,0.0283641514933
60555,android.sensor.orientation,78.3493535391
60605,android.sensor.orientation,78.3721436481
60660,android.sensor.accelerometer,12.6885756034
60710,android.sensor.accelerometer,8.2922595759
60760,android.sensor.accelerometer,12.459432685
60810,android.sensor.accelerometer,8.42690406394
60860,android.sensor.accelerometer,12.2452727054
60914,android.sensor.game_rotation_vector,0.370150000967
60965,android.sensor.magnetic_field,33.6304015178
61021,android.sensor.accelerometer,8.77387583319
61071,android.sensor.accelerometer,11.5937680163
61126,android.sensor.game_rotation_vector,0.373147579405
61182,android.sensor.accelerometer,8.19068415304
61283,android.sensor.game_rotation_vector,0.374457693824
61333,android.sensor.gyroscope_uncalibrated,0.0691762756375
61385,android.sensor.game_rotation_vector,0.372024276454
61437,android.sensor.gyroscope,0.0384990509377
61491,android.sensor.orientation,78.9351081585
61543,android.sensor.game_rotation_vector,0.37018011616
61592,android.sensor.game_rotation_vector,0.370335666114
61643,android.sensor.game_rotation_vector,0.371772176237
61694,android.sensor.orientation,79.5841911357
61745,android.sensor.orientation,79.5205784686
61800,android.sensor.accelerometer,9.72438376267
61850,android.sensor.accelerometer,11.8499971262
61899,sound,-Infinity
61950,android.sensor.accelerometer,10.7531849462
62001,android.sensor.accelerometer,8.70395319612
62052,android.sensor.accelerometer,10.0136128981
62103,android.sensor.game_rotation_vector,0.369956694221
62153,android.sensor.magnetic_field_uncalibrated,266.582956425
62205,android.sensor.orientation,78.7620949442
62260,android.sensor.accelerometer,8.76174277792
62307,android.sensor.orientation,78.6739537567
62361,android.sensor.accelerometer,8.81624482693
62411,android.sensor.accelerometer,9.61351645666
62465,android.sensor.game_rotation_vector,0.369421352058
62515,android.sensor.orientation,78.626489811
62570,android.sensor.accelerometer,9.84678254977
62620,android.sensor.accelerometer,9.10562511731
62671,android.sensor.accelerometer,10.5892080072
62720,android.sensor.accelerometer,8.9170364637
62771,android.sensor.accelerometer,10.2293391729
62820,android.sensor.accelerometer,9.75307421407
62870,android.sensor.accelerometer,8.66974502335
62977,android.sensor.orientation,79.0115008889
63029,android.sensor.orientation,78.8954675504
63081,android.sensor.accelerometer,8.60176389411
63134,android.sensor.accelerometer,11.2479338366
63241,android.sensor.accelerometer,10.7632318145
63291,android.sensor.accelerometer,10.5189535386
63345,android.sensor.gravity,9.80655315271
63399,sound,-Infinity
63600,android.sensor.accelerometer,10.597826891
63703,android.sensor.game_rotation_vector,0.363818140147
63753,android.sensor.game_rotation_vector,0.363464625976
63806,android.sensor.gyroscope,0.0966480740933
63858,android.sensor.orientation,79.2535209273
63911,android.sensor.accelerometer,10.0410710754
64013,android.sensor.game_rotation_vector,0.360202859683
64065,android.sensor.game_rotation_vector,0.360916846927
64118,android.sensor.orientation,79.5570160307
64171,android.sensor.accelerometer,7.6251109767
64222,android.sensor.rotation_vector,0.637368674724
64274,android.sensor.magnetic_field_uncalibrated,265.184060489
64328,android.sensor.orientation,79.1460491749
64381,android.sensor.accelerometer,9.58114941773
64500,android.sensor.accelerometer,5.91876087856
64601,android.sensor.linear_acceleration,1.2793196434
64652,android.sensor.game_rotation_vector,0.363761809342
64703,android.sensor.game_rotation_vector,0.362874553746
64806,android.sensor.gyroscope,0.068264023244
64860,android.sensor.accelerometer,8.61697111284
64912,android.sensor.accelerometer,14.4685988796
64965,android.sensor.game_rotation_vector,0.364222402738
65021,android.sensor.accelerometer,8.91470076559
65121,android.sensor.accelerometer,14.0224077978
65171,android.sensor.rotation_vector,0.648039179025
65273,android.sensor.magnetic_field_uncalibrated,264.542861898
65325,android.sensor.orientation,80.6915094663
65380,android.sensor.accelerometer,10.4395582551
65431,android.sensor.accelerometer,5.0042917272
65482,android.sensor.accelerometer,13.6960464146
65530,android.sensor.accelerometer,10.6756699201
65580,android.sensor.accelerometer,5.67910290997
65631,android.sensor.accelerometer,13.0223834797
65682,android.sensor.linear_acceleration,1.75156885518
65734,android.sensor.gyroscope_uncalibrated,0.11259159784
65789,android.sensor.orientation,79.2753106184
65892,android.sensor.accelerometer,12.1294409711
65945,android.sensor.game_rotation_vector,0.374707696146
65998,android.sensor.orientation,78.8174461848
66051,android.sensor.accelerometer,5.6214306421
66103,android.sensor.rotation_vector,0.632429443142
66159,android.sensor.orientation,77.9134082566
66210,android.sensor.accelerometer,14.0065602569
66260,android.sensor.accelerometer,10.9174633963
66418,android.sensor.orientation,76.8040999729
66469,android.sensor.orientation,76.8735635422
66520,android.sensor.accelerometer,8.92109233822
66623,android.sensor.game_rotation_vector,0.383651382789
66675,android.sensor.orientation,76.6724241957
66725,android.sensor.orientation,76.6471669404
66780,android.sensor.accelerometer,6.71124414382
66830,android.sensor.accelerometer,7.00811600644
66880,android.sensor.accelerometer,12.5864010452
66985,android.sensor.game_rotation_vector,0.385099642138
67037,android.sensor.orientation,75.7474624551
67090,android.sensor.accelerometer,6.37422611115
67249,android.sensor.orientation,76.5236343895
67300,android.sensor.accelerometer,5.75875100855
67350,android.sensor.accelerometer,11.312689621
67400,android.sensor.accelerometer,9.25907314183
67451,android.sensor.linear_acceleration,0.227629281948
67504,android.sensor.accelerometer,13.5517360903
67555,android.sensor.orientation,78.1611913695
67605,android.sensor.orientation,78.0993706761
67660,android.sensor.accelerometer,8.943774343
67708,android.sensor.orientation,78.4213306442
67761,android.sensor.accelerometer,7.22415058401
67811,android.sensor.accelerometer,14.3427827388
67863,android.sensor.game_rotation_vector,0.38102193066
67914,android.sensor.gyroscope_uncalibrated,0.092763057437
67970,sound,-Infinity
68021,android.sensor.accelerometer,9.23783125583
68072,android.sensor.rotation_vector,0.627833128783
68125,android.sensor.game_rotation_vector,0.369657717052
68181,android.sensor.accelerometer,12.2217056918
68231,android.sensor.accelerometer,7.28652154111
68285,android.sensor.game_rotation_vector,0.361856006229
68337,android.sensor.orientation,78.8896178213
68390,android.sensor.accelerometer,8.29856158979
68540,android.sensor.accelerometer,12.7258647524
68590,android.sensor.accelerometer,7.98479449954
68641,android.sensor.gravity,9.80654842431
68692,android.sensor.game_rotation_vector,0.354011683309
68743,android.sensor.game_rotation_vector,0.354164871933
68797,android.sensor.orientation,79.4869504398
68850,android.sensor.accelerometer,10.4127589965
68902,android.sensor.accelerometer,8.7697461523
68953,android.sensor.game_rotation_vector,0.35673138515
69004,android.sensor.gyroscope_uncalibrated,0.063822993821
69055,android.sensor.orientation,80.1029356495
69109,android.sensor.orientation,80.1443969757
69161,android.sensor.accelerometer,7.74834675225
69213,android.sensor.rotation_vector,0.640751908695
69268,android.sensor.orientation,79.7966814173
69319,android.sensor.orientation,79.4654201509
69372,android.sensor.accelerometer,9.31368395902
69474,android.sensor.magnetic_field_uncalibrated,265.299425473
69530,android.sensor.accelerometer,8.38881816052
69580,android.sensor.accelerometer,10.5410753207
69630,android.sensor.accelerometer,9.14282160657
69680,android.sensor.accelerometer,9.74964952732
69782,android.sensor.rotation_vector,0.640628474078
69837,android.sensor.orientation,79.5931075584
69889,android.sensor.orientation,79.4744845199
69941,android.sensor.accelerometer,8.03297746662
70045,android.sensor.gyroscope,0.0573693202938
70101,android.sensor.accelerometer,9.9763767336
70203,android.sensor.game_rotation_vector,0.372281164713
70253,android.sensor.magnetic_field_uncalibrated,264.709023623
70306,android.sensor.gyroscope,0.0434530894991
70358,android.sensor.orientation,79.7288021985
70411,android.sensor.accelerometer,7.9903062438
70515,android.sensor.magnetic_field,32.5987082758
70565,android.sensor.orientation,79.4730602132
70620,android.sensor.accelerometer,7.04744996234
70670,android.sensor.accelerometer,11.6871813844
70770,android.sensor.accelerometer,11.5081111707
70820,android.sensor.accelerometer,9.51923498833
70870,android.sensor.accelerometer,10.4856579906
70922,android.sensor.rotation_vector,0.637736059189
70973,android.sensor.game_rotation_vector,0.373522797643
71023,android.sensor.game_rotation_vector,0.372500479162
71075,android.sensor.orientation,79.3615622976
71125,android.sensor.orientation,79.358965467
71180,android.sensor.accelerometer,9.43872921385
71230,android.sensor.accelerometer,10.6894454441
71280,android.sensor.accelerometer,8.48383986354
71330,android.sensor.accelerometer,11.8976669314
71380,android.sensor.accelerometer,9.82497302951
71431,android.sensor.accelerometer,10.1674260459
71485,android.sensor.accelerometer,11.4589243724
71532,android.sensor.game_rotation_vector,0.368332820102
71583,android.sensor.game_rotation_vector,0.367519033172
71634,android.sensor.orientation,81.7883176071
71685,android.sensor.orientation,81.8893503455
71740,android.sensor.accelerometer,8.23911562383
71791,android.sensor.accelerometer,8.33151891045
71840,android.sensor.accelerometer,8.56521576705
71890,android.sensor.accelerometer,9.06035765364
71940,android.sensor.accelerometer,10.4257334881
71992,android.sensor.gravity,9.8066012614
72046,android.sensor.game_rotation_vector,0.362802643381
72097,android.sensor.orientation,81.4281626378
72151,android.sensor.accelerometer,10.8268163317
72205,android.sensor.game_rotation_vector,0.360619549707
72258,android.sensor.orientation,81.082033579
72311,android.sensor.orientation,80.7743292641
72361,android.sensor.accelerometer,10.3653657797
72413,android.sensor.game_rotation_vector,0.36109509019
72463,android.sensor.game_rotation_vector,0.358665898635
72514,android.sensor.gyroscope_uncalibrated,0.090910216482
72565,android.sensor.orientation,80.6935625456
72621,android.sensor.accelerometer,7.58975104457
72670,android.sensor.accelerometer,11.4904202325
72720,android.sensor.accelerometer,9.42662839858
72770,android.sensor.accelerometer,9.09498172069
72820,android.sensor.accelerometer,11.5632085248
72873,android.sensor.game_rotation_vector,0.356658050204
72923,android.sensor.game_rotation_vector,0.356068123257
72975,android.sensor.magnetic_field_uncalibrated,266.841984199
73029,android.sensor.orientation,79.8769090539
73081,android.sensor.accelerometer,9.43871872537
73132,android.sensor.accelerometer,9.05961382823
73185,android.sensor.game_rotation_vector,0.357591779989
73241,android.sensor.accelerometer,11.4258082197
73291,android.sensor.accelerometer,8.307713001
73341,android.sensor.gravity,9.80661874603
73393,android.sensor.game_rotation_vector,0.350696953051
73444,android.sensor.game_rotation_vector,0.349543865058
73495,android.sensor.orientation,80.5769979585
73545,android.sensor.orientation,80.5924314064
73600,android.sensor.accelerometer,8.16337825334
73650,android.sensor.accelerometer,11.2332390731
73700,android.sensor.accelerometer,10.2414442738
73750,android.sensor.accelerometer,11.5564489187
73855,android.sensor.game_rotation_vector,0.344863082383
73908,android.sensor.orientation,80.5673898031
73963,android.sensor.accelerometer,9.10847986001
74063,android.sensor.game_rotation_vector,0.348590840922
74113,android.sensor.game_rotation_vector,0.351011974926
74166,android.sensor.game_rotation_vector,0.353482864534
74222,android.sensor.accelerometer,8.83637781927
74272,android.sensor.accelerometer,8.48759026277
74323,android.sensor.game_rotation_vector,0.357406302965
74374,android.sensor.magnetic_field_uncalibrated,265.196433682
74424,android.sensor.gyroscope,0.0338134741578
74481,android.sensor.accelerometer,7.25457524335
74530,android.sensor.accelerometer,6.39070889495
74580,android.sensor.accelerometer,10.2548503953
74630,android.sensor.accelerometer,14.7329455097
74680,android.sensor.accelerometer,12.5093378639
74730,android.sensor.accelerometer,11.3898546143
74783,android.sensor.game_rotation_vector,0.35724424681
74833,android.sensor.orientation,83.0249067472
74883,android.sensor.game_rotation_vector,0.357730162797
74933,android.sensor.gyroscope_uncalibrated,0.057239081975
74985,android.sensor.orientation,83.3080188217
75040,android.sensor.accelerometer,9.46661844214
75090,android.sensor.accelerometer,13.6049493597
75141,android.sensor.accelerometer,13.8586518775
75191,android.sensor.accelerometer,11.5658132751
75294,android.sensor.magnetic_field_uncalibrated,265.487192193
75354,android.sensor.orientation,83.3655158197
75401,android.sensor.accelerometer,14.2696148601
75454,android.sensor.game_rotation_vector,0.35834829743
75504,android.sensor.accelerometer,11.4502974573
75560,android.sensor.accelerometer,10.2859810946
75606,android.sensor.orientation,83.0776732943
75660,android.sensor.accelerometer,15.4781264784
75711,android.sensor.accelerometer,12.346929505
75760,android.sensor.accelerometer,9.99450263916
75811,android.sensor.accelerometer,6.35164713892
75915,android.sensor.game_rotation_vector,0.357782366775
75968,android.sensor.orientation,82.6574381482
76021,android.sensor.accelerometer,6.35278054709
76128,android.sensor.magnetic_field_uncalibrated,265.305609451
76180,android.sensor.accelerometer,10.1914053294
76230,android.sensor.accelerometer,7.66140343141
76281,android.sensor.linear_acceleration,3.5261416435
76334,android.sensor.game_rotation_vector,0.359354829659
76388,android.sensor.orientation,80.9960573115
76543,android.sensor.game_rotation_vector,0.363043991847
76595,android.sensor.orientation,79.8903935295
76646,android.sensor.orientation,79.8735812215
76750,android.sensor.accelerometer,6.62677651776
76853,android.sensor.game_rotation_vector,0.369403743401
76905,android.sensor.game_rotation_vector,0.370413412704
76960,android.sensor.accelerometer,6.79618016128
77011,android.sensor.accelerometer,11.0794470106
77065,android.sensor.game_rotation_vector,0.372318558462
77117,android.sensor.orientation,79.4385006859
77168,android.sensor.orientation,79.2873129826
77278,android.sensor.magnetic_field,31.6899653873
77330,android.sensor.accelerometer,15.3835892005
77380,android.sensor.accelerometer,10.9382772035
77483,speed,8.44756
77534,android.sensor.orientation,80.2992739693
77585,android.sensor.orientation,79.770513976
77640,android.sensor.accelerometer,5.59173995097
77690,android.sensor.accelerometer,6.98585882658
77740,android.sensor.accelerometer,13.5548765182
77790,android.sensor.accelerometer,13.6250391394
77842,android.sensor.rotation_vector,0.635026928484
77894,android.sensor.gyroscope_uncalibrated,0.0537700212935
77949,android.sensor.orientation,78.8930072947
78000,android.sensor.accelerometer,16.8826495599
78050,android.sensor.accelerometer,14.9647285014
78101,android.sensor.rotation_vector,0.634972183466
78155,android.sensor.game_rotation_vector,0.38098795729
78209,android.sensor.orientation,79.7643711189
78261,android.sensor.accelerometer,5.66501912823
78312,android.sensor.linear_acceleration,5.0749420125
78366,android.sensor.game_rotation_vector,0.383576754925
78418,android.sensor.orientation,80.4942149325
78470,sound,-Infinity
78521,android.sensor.rotation_vector,0.65052481488
78573,android.sensor.game_rotation_vector,0.382005620901
78623,android.sensor.game_rotation_vector,0.382518095384
78675,android.sensor.orientation,81.0510265184
78726,android.sensor.orientation,81.1512082553
78781,android.sensor.accelerometer,7.79576786495
78834,android.sensor.orientation,80.943462985
78885,android.sensor.game_rotation_vector,0.384319866778
78937,android.sensor.orientation,80.7540170619
78991,android.sensor.accelerometer,6.64918736095
79042,android.sensor.rotation_vector,0.646394942733
79097,android.sensor.gyroscope_uncalibrated,0.177974731861
79150,android.sensor.accelerometer,8.02346695515
79200,android.sensor.accelerometer,7.78652131004
79251,android.sensor.accelerometer,9.21637710881
79302,android.sensor.rotation_vector,0.630627085213
79357,android.sensor.orientation,76.7020312018
79408,android.sensor.orientation,76.0477304066
79462,android.sensor.accelerometer,14.4659147432
79511,android.sensor.accelerometer,12.0113658574
79563,android.sensor.game_rotation_vector,0.426242368986
79615,android.sensor.orientation,73.2823341604
79665,android.sensor.orientation,72.7022581404
79720,android.sensor.accelerometer,7.36324438198
79770,android.sensor.accelerometer,11.1550115735
79820,android.sensor.accelerometer,13.1034522414
79870,android.sensor.accelerometer,12.0007662216
79920,android.sensor.accelerometer,7.5413934377
79971,android.sensor.accelerometer,7.38861049044
80025,android.sensor.game_rotation_vector,0.484431853576
80077,android.sensor.orientation,66.7360149606
80130,android.sensor.accelerometer,9.07478120368
80185,android.sensor.game_rotation_vector,0.507404496172
80235,android.sensor.orientation,64.8758647554
80285,android.sensor.orientation,64.1563504261
80340,android.sensor.accelerometer,8.33222895781
80388,android.sensor.orientation,62.0275433563
80441,android.sensor.accelerometer,7.85314466112
80494,android.sensor.accelerometer,8.57562813557
80545,android.sensor.orientation,58.2475518799
80600,android.sensor.accelerometer,10.421194644
80650,android.sensor.accelerometer,8.33036341683
80700,android.sensor.accelerometer,7.76978898804
80750,android.sensor.accelerometer,7.90054648784
80852,android.sensor.game_rotation_vector,0.615625358283
80904,android.sensor.game_rotation_vector,0.623306030386
80956,android.sensor.gyroscope_uncalibrated,0.549937537542
81011,android.sensor.accelerometer,9.69224894346
81114,android.sensor.game_rotation_vector,0.657658729239
81168,android.sensor.orientation,43.4668804954
81221,android.sensor.accelerometer,11.0861041688
81326,android.sensor.game_rotation_vector,0.686059963105
81381,android.sensor.accelerometer,8.0591260379
81431,android.sensor.accelerometer,12.3162651194
81484,android.sensor.accelerometer,12.8714632106
81583,android.sensor.game_rotation_vector,0.702192645811
81633,android.sensor.magnetic_field,31.8830872094
81686,android.sensor.orientation,48.8160309761
81741,android.sensor.accelerometer,6.89087033694
81791,android.sensor.accelerometer,14.074199241
81895,android.sensor.orientation,47.476647944
81945,android.sensor.orientation,47.2494804204
82000,android.sensor.accelerometer,10.7714770804
82051,android.sensor.accelerometer,11.3020520078
82151,android.sensor.accelerometer,10.3108459383
82153,android.sensor.rotation_vector,0.40273641522
82205,android.sensor.game_rotation_vector,0.713160289135
82258,android.sensor.orientation,46.7458778931
82310,android.sensor.accelerometer,8.7306454959
82365,android.sensor.game_rotation_vector,0.713119002798
82418,android.sensor.orientation,46.6276602412
82469,sound,-Infinity
82521,android.sensor.accelerometer,10.5391309179
82570,android.sensor.accelerometer,9.99536542899
82620,android.sensor.accelerometer,10.3643615117
82670,android.sensor.accelerometer,9.38770866632
82773,android.sensor.game_rotation_vector,0.712433135389
82823,android.sensor.game_rotation_vector,0.712581837461
82873,android.sensor.magnetic_field_uncalibrated,273.978935379
82925,android.sensor.orientation,52.8124237241
82980,android.sensor.accelerometer,9.86954014847
83030,android.sensor.accelerometer,10.979953689
83080,android.sensor.accelerometer,8.88916043355
83130,android.sensor.accelerometer,9.02687096334
83237,android.sensor.orientation,56.1498707604
83289,android.sensor.orientation,56.1415879718
83341,android.sensor.accelerometer,8.1937069002
83446,android.sensor.game_rotation_vector,0.713576812313
83501,android.sensor.accelerometer,7.55662855004
83551,android.sensor.accelerometer,9.81927289293
83653,android.sensor.game_rotation_vector,0.712437075329
83703,android.sensor.game_rotation_vector,0.712398659021
83755,android.sensor.orientation,56.1665299536
83806,android.sensor.gyroscope,0.0486549471477
83861,android.sensor.accelerometer,13.7975733308
83911,android.sensor.accelerometer,10.4530352929
83966,android.sensor.game_rotation_vector,0.711405271611
84018,android.sensor.orientation,55.8793749663
84071,android.sensor.accelerometer,9.86174023892
84122,android.sensor.accelerometer,10.4897641948
84172,android.sensor.game_rotation_vector,0.71081798136
84224,android.sensor.game_rotation_vector,0.710874380069
84277,android.sensor.orientation,55.7290103984
84329,android.sensor.orientation,55.6568475643
84382,android.sensor.accelerometer,10.9405662748
84435,android.sensor.gyroscope,0.0193558505934
84497,android.sensor.orientation,57.7262895049
84540,android.sensor.accelerometer,12.4322628631
84590,android.sensor.accelerometer,11.2530823717
84640,android.sensor.accelerometer,10.6359402276
84743,android.sensor.game_rotation_vector,0.709004455828
84793,android.sensor.game_rotation_vector,0.708596417578
84846,android.sensor.orientation,58.1683719903
84900,sound,-Infinity
84951,android.sensor.accelerometer,10.7982432718
85005,android.sensor.game_rotation_vector,0.708017388187
85058,android.sensor.orientation,58.2812901023
85108,android.sensor.orientation,58.2971454512
85161,android.sensor.accelerometer,9.73598236722
85216,android.sensor.game_rotation_vector,0.707268525367
85270,android.sensor.accelerometer,10.1544955831
85321,android.sensor.accelerometer,8.5112166915
85428,android.sensor.game_rotation_vector,0.705836283691
85477,android.sensor.orientation,58.5081546564
85530,android.sensor.accelerometer,10.2785728909
85580,android.sensor.accelerometer,9.79491979905
85630,android.sensor.accelerometer,9.41630997707
85680,android.sensor.accelerometer,9.5019152104
85730,android.sensor.accelerometer,10.9341221289
85781,android.sensor.linear_acceleration,1.57936489997
85833,android.sensor.game_rotation_vector,0.705034507007
85884,android.sensor.game_rotation_vector,0.705037524604
85938,android.sensor.orientation,60.1665363803
85991,android.sensor.accelerometer,8.54881124259
86047,android.sensor.game_rotation_vector,0.7033497051
86094,android.sensor.magnetic_field,29.4776133277
86150,android.sensor.accelerometer,11.1013241186
86200,android.sensor.accelerometer,10.1109854779
86251,android.sensor.accelerometer,10.1416577306
86302,android.sensor.accelerometer,8.40374994883
86352,android.sensor.game_rotation_vector,0.703271876133
86404,android.sensor.gyroscope,0.0657695112249
86509,android.sensor.accelerometer,11.0360433651
86610,android.sensor.accelerometer,9.74767046567
86660,android.sensor.accelerometer,9.84861319637
86813,android.sensor.game_rotation_vector,0.703145494108
86864,android.sensor.orientation,59.7301142868
86914,android.sensor.orientation,59.6690883116
87170,android.sensor.accelerometer,9.3642461911
87222,android.sensor.gravity,9.80657852362
87274,android.sensor.game_rotation_vector,0.702866283383
87328,android.sensor.orientation,59.5681869793
87381,android.sensor.accelerometer,10.1986117604
87433,android.sensor.accelerometer,10.0703251996
87485,android.sensor.game_rotation_vector,0.70295735445
87540,android.sensor.accelerometer,9.15337288966
87590,android.sensor.accelerometer,11.337418811
87640,android.sensor.accelerometer,8.30119674403
87690,android.sensor.accelerometer,8.82826808868
87740,android.sensor.accelerometer,9.82511814138
87791,android.sensor.accelerometer,10.7910253041
87845,android.sensor.game_rotation_vector,0.70208007976
87897,android.sensor.orientation,59.570827592
87951,android.sensor.accelerometer,10.6531079074
88002,android.sensor.accelerometer,11.5657580466
88053,android.sensor.game_rotation_vector,0.702804544174
88104,android.sensor.magnetic_field,32.7524450423
88157,android.sensor.orientation,59.6106464374
88209,android.sensor.orientation,59.5276840527
88315,android.sensor.game_rotation_vector,0.70296241327
88368,android.sensor.orientation,59.5096594569
88422,android.sensor.accelerometer,10.6131279612
88473,android.sensor.accelerometer,9.71317741083
88523,android.sensor.game_rotation_vector,0.702662807092
88575,android.sensor.orientation,59.3585534591
88625,android.sensor.orientation,59.51752045
88680,android.sensor.accelerometer,9.70203343259
88730,android.sensor.accelerometer,9.53940335775
88780,android.sensor.accelerometer,9.92551419252
88831,android.sensor.accelerometer,12.9215430892
88885,android.sensor.game_rotation_vector,0.700636898597
88937,android.sensor.orientation,59.3616203687
88988,android.sensor.orientation,59.3591450406
89042,android.sensor.accelerometer,4.16276157942
89095,android.sensor.game_rotation_vector,0.69917660673
89145,android.sensor.gyroscope_uncalibrated,0.174159817977
89200,android.sensor.accelerometer,14.2882617947
89250,android.sensor.accelerometer,10.526980951
89300,android.sensor.accelerometer,12.3660043775
89350,android.sensor.accelerometer,9.21889411997
89399,sound,-Infinity
89450,android.sensor.accelerometer,9.09551688481
89501,android.sensor.accelerometer,10.5724729013
89553,android.sensor.game_rotation_vector,0.696281309988
89603,android.sensor.game_rotation_vector,0.696800487783
89655,android.sensor.orientation,60.5379934462
89705,android.sensor.orientation,60.4958882899
89760,android.sensor.accelerometer,8.69976902987
89807,android.sensor.orientation,60.5283586429
89861,android.sensor.accelerometer,11.8547332771
89911,android.sensor.accelerometer,11.2595473706
89965,android.sensor.game_rotation_vector,0.696430753646
90017,android.sensor.orientation,61.2086832075
90071,android.sensor.accelerometer,9.69599073037
90174,android.sensor.magnetic_field,32.6603017821
90231,android.sensor.accelerometer,10.0260795708
90332,android.sensor.linear_acceleration,2.111192988
90384,android.sensor.game_rotation_vector,0.695963664332
90434,android.sensor.orientation,59.9840928914
90485,android.sensor.orientation,59.7954387887
90540,android.sensor.accelerometer,10.7335626016
90590,android.sensor.accelerometer,12.3015034369
90641,android.sensor.accelerometer,7.06569777199
90691,android.sensor.accelerometer,10.7266308507
90795,android.sensor.game_rotation_vector,0.697091680969
90950,android.sensor.accelerometer,13.0414375913
91000,android.sensor.accelerometer,7.89587218904
91052,android.sensor.accelerometer,7.24775137642
91105,android.sensor.game_rotation_vector,0.697693895046
91161,android.sensor.accelerometer,8.79625381323
91211,android.sensor.accelerometer,10.1597956194
91265,android.sensor.game_rotation_vector,0.697001158607
91318,android.sensor.orientation,61.5434792437
91370,android.sensor.game_rotation_vector,0.696758281159
91421,android.sensor.rotation_vector,0.511397975811
91523,android.sensor.game_rotation_vector,0.697041279293
91574,android.sensor.orientation,61.2299746856
91625,android.sensor.orientation,60.7213209725
91680,android.sensor.accelerometer,7.9391903618
91731,android.sensor.accelerometer,11.9382260922
91780,android.sensor.accelerometer,7.42195758116
91830,android.sensor.accelerometer,10.751056737
91880,android.sensor.accelerometer,7.9318972135
91934,android.sensor.game_rotation_vector,0.698544106346
91984,android.sensor.magnetic_field_uncalibrated,272.888083745
92035,android.sensor.orientation,58.8621066562
92088,android.sensor.orientation,58.9193878821
92141,android.sensor.accelerometer,9.19202350524
92194,android.sensor.game_rotation_vector,0.699958008843
92246,android.sensor.magnetic_field_uncalibrated,276.078007828
92301,android.sensor.accelerometer,13.101540644
92350,android.sensor.accelerometer,8.97097392903
92505,android.sensor.game_rotation_vector,0.698843097108
92560,android.sensor.accelerometer,13.0813745509
92610,android.sensor.accelerometer,6.74755178821
92660,android.sensor.accelerometer,6.73922836182
92710,android.sensor.accelerometer,12.0547657635
92760,android.sensor.accelerometer,13.9355176312
92810,android.sensor.accelerometer,11.0376053771
92860,android.sensor.accelerometer,7.97270747715
92965,android.sensor.game_rotation_vector,0.695598230474
93018,android.sensor.orientation,57.0839688316
93070,android.sensor.accelerometer,12.4209883445
93120,android.sensor.accelerometer,10.7064463801
93171,android.sensor.accelerometer,7.63348998676
93226,android.sensor.game_rotation_vector,0.693557783605
93275,android.sensor.gyroscope,0.0724023521572
93329,android.sensor.orientation,58.0574982237
93381,android.sensor.accelerometer,6.17624574771
93434,android.sensor.accelerometer,5.7760215646
93487,android.sensor.game_rotation_vector,0.692489451772
93540,android.sensor.accelerometer,7.48838952169
93590,android.sensor.accelerometer,12.6098182909
93640,android.sensor.accelerometer,11.7794333571
93690,android.sensor.accelerometer,6.83080157442
93741,android.sensor.rotation_vector,0.492661558434
93793,android.sensor.game_rotation_vector,0.69026149132
93844,android.sensor.gyroscope,0.0200378696635
93897,android.sensor.orientation,59.6364787693
93950,android.sensor.accelerometer,9.72851777699
94004,android.sensor.game_rotation_vector,0.689223292264
94054,android.sensor.game_rotation_vector,0.689002461475
94107,android.sensor.magnetic_field_uncalibrated,272.557720378
94162,android.sensor.accelerometer,7.1497387903
94213,android.sensor.game_rotation_vector,0.688208461755
94264,android.sensor.game_rotation_vector,0.687783399406
94317,android.sensor.magnetic_field_uncalibrated,274.050897702
94370,android.sensor.accelerometer,12.3332205905
94426,android.sensor.accelerometer,8.30121883871
94471,android.sensor.gravity,9.80656892241
94523,android.sensor.gyroscope_uncalibrated,0.0672839710057
94574,android.sensor.orientation,60.1289855228
94626,android.sensor.orientation,60.199742873
94681,android.sensor.accelerometer,9.1520505528
94730,android.sensor.accelerometer,11.3520470629
94780,android.sensor.accelerometer,8.39069266971
94833,android.sensor.magnetic_field_uncalibrated,273.79202731
94885,android.sensor.game_rotation_vector,0.682952271854
94934,android.sensor.magnetic_field_uncalibrated,273.638047884
