0,activityrecognition,vehicle
63,android.sensor.accelerometer,9.8190902235
106,android.sensor.accelerometer,9.97218313396
156,android.sensor.accelerometer,9.94545288777
206,android.sensor.accelerometer,9.86991154515
256,android.sensor.accelerometer,9.40416090342
358,android.sensor.game_rotation_vector,0.304454125068
409,android.sensor.game_rotation_vector,0.306768996713
464,android.sensor.orientation,32.4220208605
511,android.sensor.orientation,33.3211400075
566,android.sensor.accelerometer,9.60761844165
616,android.sensor.accelerometer,9.56400342738
666,android.sensor.accelerometer,9.87339044122
716,android.sensor.accelerometer,8.78954724273
767,android.sensor.accelerometer,9.50530270656
818,android.sensor.rotation_vector,0.289893205369
869,android.sensor.game_rotation_vector,0.319871307683
921,android.sensor.orientation,344.106751024
971,android.sensor.orientation,343.154889957
1026,android.sensor.accelerometer,9.64904027835
1076,android.sensor.accelerometer,9.56321211032
1127,android.sensor.accelerometer,9.37299844296
1179,android.sensor.game_rotation_vector,0.347802020374
1229,android.sensor.game_rotation_vector,0.348276094982
1281,android.sensor.orientation,336.662397887
1336,android.sensor.accelerometer,9.87261018182
1387,android.sensor.accelerometer,9.62023031922
1435,android.sensor.orientation,335.327627702
1487,android.sensor.accelerometer,9.88141717186
1556,android.sensor.accelerometer,9.76207338091
1606,android.sensor.accelerometer,9.92471854944
1656,android.sensor.accelerometer,10.0781315851
1707,android.sensor.linear_acceleration,1.20240970898
1759,android.sensor.game_rotation_vector,0.361863734904
1810,android.sensor.magnetic_field,40.9686427344
1866,android.sensor.accelerometer,9.62140751952
1916,android.sensor.accelerometer,9.18101149931
1966,android.sensor.accelerometer,10.0493199078
2016,android.sensor.accelerometer,9.74347734657
2067,android.sensor.accelerometer,9.99678217913
2116,android.sensor.accelerometer,9.79763950924
2166,android.sensor.accelerometer,10.0966479649
2216,android.sensor.accelerometer,11.1551258466
2266,android.sensor.accelerometer,11.6266890585
2369,android.sensor.game_rotation_vector,0.404432161649
2418,android.sensor.game_rotation_vector,0.40226107738
2469,android.sensor.game_rotation_vector,0.422504127411
2520,android.sensor.gyroscope,1.31988118308
2571,android.sensor.orientation,316.509216102
2626,android.sensor.accelerometer,10.5556175221
2676,android.sensor.accelerometer,9.35852497237
2726,android.sensor.accelerometer,8.69402617385
2776,android.sensor.accelerometer,8.75050821669
2829,android.sensor.game_rotation_vector,0.586206050597
2880,android.sensor.orientation,290.88859517
2931,android.sensor.gyroscope,2.46728131593
2986,android.sensor.accelerometer,21.5938904143
3036,android.sensor.accelerometer,12.8173823105
3086,android.sensor.accelerometer,11.4476895323
3136,android.sensor.accelerometer,9.91178158732
3186,android.sensor.accelerometer,7.40230789769
3236,android.sensor.accelerometer,13.554744631
3286,android.sensor.accelerometer,8.22692867576
3336,android.sensor.accelerometer,5.64393316553
3438,android.sensor.game_rotation_vector,0.336618815753
3489,android.sensor.game_rotation_vector,0.348746748961
3538,android.sensor.gyroscope,0.420867989567
3589,android.sensor.gyroscope,1.25513409712
3640,android.sensor.orientation,297.123903301
3691,android.sensor.orientation,297.151606087
3746,android.sensor.accelerometer,10.009375746
3796,android.sensor.accelerometer,10.6336454474
3849,android.sensor.accelerometer,10.3811042322
3902,android.sensor.orientation,295.117173509
3950,android.sensor.magnetic_field_uncalibrated,257.598122992
4006,android.sensor.accelerometer,9.17113598696
4056,android.sensor.accelerometer,10.5617068306
4106,android.sensor.accelerometer,10.5971384723
4156,android.sensor.accelerometer,10.0099117619
4266,android.sensor.accelerometer,10.4604773217
4316,android.sensor.accelerometer,10.6957802481
4366,android.sensor.accelerometer,11.1998165428
4416,android.sensor.accelerometer,9.91521911114
4517,android.sensor.rotation_vector,0.587387264387
4569,android.sensor.magnetic_field_uncalibrated,261.933123025
4620,android.sensor.orientation,291.074199819
4671,android.sensor.magnetic_field,42.7707369296
4726,android.sensor.accelerometer,9.97653674549
4776,android.sensor.accelerometer,9.77643296579
4826,android.sensor.accelerometer,8.89658116481
4876,android.sensor.accelerometer,10.9724132255
4926,android.sensor.accelerometer,9.21910246065
4976,android.sensor.accelerometer,12.2121522934
5077,android.sensor.rotation_vector,0.61254979665
5129,android.sensor.game_rotation_vector,0.406578165356
5179,android.sensor.magnetic_field,44.7921414704
5231,android.sensor.orientation,294.242190837
5281,android.sensor.orientation,292.34539367
5336,android.sensor.accelerometer,14.2912939669
5386,android.sensor.accelerometer,7.29753944529
5436,android.sensor.accelerometer,8.67149589422
5488,android.sensor.accelerometer,11.9516481503
5537,android.sensor.gravity,9.80653622744
5589,android.sensor.game_rotation_vector,0.452934096822
5638,android.sensor.game_rotation_vector,0.440044433466
5689,android.sensor.gyroscope_uncalibrated,1.97096182495
5743,android.sensor.orientation,281.973279682
5796,android.sensor.accelerometer,11.2332472483
5847,android.sensor.accelerometer,11.2700413488
5897,android.sensor.accelerometer,10.8356477907
5949,android.sensor.game_rotation_vector,0.408737479192
5999,android.sensor.magnetic_field_uncalibrated,264.790778257
6051,android.sensor.orientation,272.14419597
6106,android.sensor.accelerometer,8.20636761328
6156,android.sensor.accelerometer,6.22711202959
6206,android.sensor.accelerometer,11.3351897036
6259,android.sensor.game_rotation_vector,0.492147191251
6312,android.sensor.orientation,267.789992992
6366,android.sensor.accelerometer,9.88215559767
6417,android.sensor.accelerometer,10.4687113317
6466,android.sensor.accelerometer,9.38373088192
6517,android.sensor.rotation_vector,0.77755171226
6569,android.sensor.game_rotation_vector,0.497674282542
6619,android.sensor.gyroscope_uncalibrated,0.276151630406
6669,android.sensor.magnetic_field_uncalibrated,269.192992456
6721,android.sensor.orientation,261.882767073
6771,android.sensor.orientation,262.462451494
6826,android.sensor.accelerometer,10.5861191507
6876,android.sensor.accelerometer,9.48008088199
6926,android.sensor.accelerometer,10.132378773
6977,android.sensor.accelerometer,11.5487796319
7031,android.sensor.game_rotation_vector,0.414873787979
7081,android.sensor.orientation,274.895791892
7136,android.sensor.accelerometer,9.07895897813
7186,android.sensor.accelerometer,11.0790081266
7236,android.sensor.accelerometer,10.2076179581
7286,android.sensor.accelerometer,11.4623221105
7336,android.sensor.accelerometer,11.0991387667
7390,android.sensor.rotation_vector,0.734546826714
7441,android.sensor.orientation,268.785689058
7496,android.sensor.accelerometer,11.1495791713
7548,android.sensor.accelerometer,10.4394922974
7599,android.sensor.gyroscope,0.862470792636
7649,android.sensor.game_rotation_vector,0.44044825203
7701,android.sensor.orientation,272.298304622
7751,android.sensor.orientation,267.076328458
7806,android.sensor.accelerometer,9.17476066492
7856,sound,55.20844966846424
7907,android.sensor.accelerometer,12.4334726038
7957,android.sensor.rotation_vector,0.826802727339
8009,android.sensor.game_rotation_vector,0.527016583207
8061,android.sensor.orientation,256.915204104
8111,android.sensor.orientation,256.939127546
8167,android.sensor.accelerometer,11.8280197959
8216,android.sensor.accelerometer,11.6402850629
8266,android.sensor.accelerometer,8.3675866107
8316,android.sensor.accelerometer,11.8349923466
8369,android.sensor.game_rotation_vector,0.552451611445
8420,android.sensor.magnetic_field,47.2978015477
8472,android.sensor.orientation,252.13627653
8526,android.sensor.accelerometer,9.97405447034
8576,android.sensor.accelerometer,12.1440174409
8626,android.sensor.accelerometer,8.06402410391
8676,android.sensor.accelerometer,10.7412545547
8726,android.sensor.accelerometer,9.85423184864
8777,android.sensor.rotation_vector,0.842316002308
8829,android.sensor.game_rotation_vector,0.527989336066
8881,android.sensor.orientation,258.18039727
8935,android.sensor.orientation,257.025711196
8986,android.sensor.accelerometer,9.77240757283
9139,android.sensor.magnetic_field_uncalibrated,279.655996829
9191,android.sensor.orientation,249.974933909
9247,android.sensor.accelerometer,10.3179641052
9296,android.sensor.accelerometer,10.3972818602
9346,android.sensor.accelerometer,11.5955944248
9396,android.sensor.accelerometer,10.530181275
9446,android.sensor.accelerometer,11.0318702115
9496,android.sensor.accelerometer,10.0966435186
9599,android.sensor.game_rotation_vector,0.535558706395
9649,android.sensor.game_rotation_vector,0.537745838246
9701,android.sensor.orientation,244.257166525
9752,android.sensor.orientation,240.794543335
9806,android.sensor.accelerometer,9.01924243648
9855,sound,50.88136088700551
9907,android.sensor.accelerometer,9.99123490258
10010,android.sensor.game_rotation_vector,0.646005209817
10063,android.sensor.orientation,220.139755104
10116,android.sensor.accelerometer,10.5125513909
10167,android.sensor.accelerometer,12.4381895159
10216,android.sensor.accelerometer,12.2658891943
10318,android.sensor.gravity,9.80657590144
10426,android.sensor.accelerometer,10.2925910495
10476,android.sensor.accelerometer,9.27108589168
10526,android.sensor.accelerometer,10.6557591091
10576,android.sensor.accelerometer,8.69651028081
10626,android.sensor.accelerometer,9.91270283568
10676,android.sensor.accelerometer,9.82855192504
10726,android.sensor.accelerometer,10.4912027207
10776,android.sensor.accelerometer,9.89830951164
10827,android.sensor.rotation_vector,0.995488049768
10880,android.sensor.game_rotation_vector,0.803637589862
10932,android.sensor.step_counter,1114.0
10980,android.sensor.gyroscope_uncalibrated,1.11216470885
11036,android.sensor.accelerometer,9.6000741276
11086,android.sensor.accelerometer,8.78855051718
11137,android.sensor.accelerometer,9.9417306396
11187,android.sensor.accelerometer,10.286586508
11239,android.sensor.game_rotation_vector,0.787204533229
11289,android.sensor.gravity,9.80658205646
11354,android.sensor.gyroscope,0.708329780034
11391,android.sensor.orientation,162.477969352
11447,android.sensor.accelerometer,9.64902129136
11496,android.sensor.accelerometer,9.68000080031
11546,android.sensor.accelerometer,9.77143196449
11596,android.sensor.accelerometer,9.96170753442
11646,android.sensor.accelerometer,9.22846932088
11697,android.sensor.accelerometer,9.52447951416
11815,android.sensor.accelerometer,10.2343451537
11866,android.sensor.accelerometer,9.64228412265
11917,android.sensor.accelerometer,9.94036607873
11966,android.sensor.accelerometer,9.38984840788
12070,android.sensor.game_rotation_vector,0.771201594085
12122,android.sensor.orientation,158.954284531
12172,android.sensor.orientation,157.42928476
12227,android.sensor.accelerometer,10.0209193428
12277,android.sensor.accelerometer,11.5255031982
12329,android.sensor.accelerometer,10.0133150596
12387,android.sensor.accelerometer,9.4299999212
12438,android.sensor.accelerometer,10.7768313776
12486,android.sensor.accelerometer,9.9349574164
12536,android.sensor.accelerometer,9.64502833225
12586,android.sensor.accelerometer,9.13508872232
12636,android.sensor.accelerometer,9.3326022355
12737,android.sensor.rotation_vector,0.982320105831
12790,android.sensor.game_rotation_vector,0.784612872571
12839,android.sensor.game_rotation_vector,0.788062685308
12889,android.sensor.gyroscope_uncalibrated,0.849968878376
12940,android.sensor.orientation,153.857772189
12990,android.sensor.orientation,154.477668045
13046,android.sensor.accelerometer,11.2080230099
13096,android.sensor.accelerometer,10.9882582444
13146,android.sensor.accelerometer,10.3900941575
13196,android.sensor.accelerometer,9.74417402337
13246,android.sensor.accelerometer,9.54719701309
13296,android.sensor.accelerometer,9.66695449525
13356,android.sensor.accelerometer,9.89641984417
13406,android.sensor.accelerometer,10.0930549528
13507,android.sensor.gravity,9.80660732924
13558,android.sensor.game_rotation_vector,0.801638571626
13609,android.sensor.game_rotation_vector,0.802491165748
13658,android.sensor.game_rotation_vector,0.803194407296
13709,android.sensor.game_rotation_vector,0.802603414415
13760,android.sensor.orientation,149.59286626
13811,android.sensor.orientation,149.58302446
13860,android.sensor.orientation,149.557367038
13912,android.sensor.orientation,149.449636917
13966,android.sensor.accelerometer,9.85576267066
14016,android.sensor.accelerometer,9.98598348764
14066,android.sensor.accelerometer,9.40600901607
14116,android.sensor.accelerometer,9.63979697845
14166,android.sensor.accelerometer,9.742771316
14216,android.sensor.accelerometer,10.397104492
14266,android.sensor.accelerometer,10.5841038718
14317,android.sensor.rotation_vector,0.963761053224
14369,android.sensor.game_rotation_vector,0.795040002611
14419,android.sensor.gyroscope_uncalibrated,0.312134802818
14469,android.sensor.gyroscope_uncalibrated,0.324083427213
14521,android.sensor.orientation,147.627274777
14572,android.sensor.orientation,147.523853325
14626,android.sensor.accelerometer,9.94726516888
14676,android.sensor.accelerometer,9.95926715645
14726,android.sensor.accelerometer,9.96325844929
14776,android.sensor.accelerometer,10.0465132927
14827,android.sensor.gravity,9.80660131034
14878,android.sensor.game_rotation_vector,0.794947673948
14929,android.sensor.game_rotation_vector,0.795101793121
14980,android.sensor.orientation,146.313249853
15031,android.sensor.orientation,145.891801001
15086,android.sensor.accelerometer,10.0343458569
15136,android.sensor.accelerometer,9.91891374586
15186,android.sensor.accelerometer,9.90873797472
15236,android.sensor.accelerometer,9.93148622151
15287,android.sensor.accelerometer,10.0443768948
15339,android.sensor.game_rotation_vector,0.801142976173
15389,android.sensor.game_rotation_vector,0.800671964909
15440,android.sensor.orientation,145.244160252
15491,android.sensor.orientation,145.221525259
15547,android.sensor.accelerometer,9.92734795518
15597,android.sensor.accelerometer,9.98442648238
15646,android.sensor.accelerometer,9.97683572056
15697,android.sensor.rotation_vector,0.953869042516
15749,android.sensor.game_rotation_vector,0.800696656106
15799,android.sensor.magnetic_field_uncalibrated,236.446809558
15851,android.sensor.orientation,144.697086621
15907,android.sensor.accelerometer,9.84703478983
15956,android.sensor.accelerometer,9.79066351745
16006,android.sensor.accelerometer,9.89893990318
16056,android.sensor.accelerometer,10.0125087956
16107,android.sensor.rotation_vector,0.952472366725
16158,android.sensor.game_rotation_vector,0.801093668355
16209,android.sensor.game_rotation_vector,0.800921024259
16261,android.sensor.orientation,144.426497834
16311,android.sensor.orientation,144.533213484
16363,android.sensor.orientation,144.562116735
16416,android.sensor.accelerometer,10.0059711471
16476,android.sensor.accelerometer,9.92534721608
16526,android.sensor.accelerometer,8.29313847654
16576,android.sensor.accelerometer,10.2558385644
16626,android.sensor.accelerometer,10.2808750226
16676,android.sensor.accelerometer,10.0352228632
32,android.sensor.magnetic_field,42.9801916585
53,android.sensor.orientation,145.014351704
104,android.sensor.orientation,145.124701547
153,android.sensor.orientation,145.04681072
204,android.sensor.gyroscope,0.0282322861055
254,android.sensor.orientation,144.97869973
307,android.sensor.accelerometer,9.96253583397
357,android.sensor.accelerometer,9.92495911378
408,android.sensor.accelerometer,9.99732403987
462,android.sensor.accelerometer,9.91204643828
517,android.sensor.accelerometer,9.94809475756
567,android.sensor.accelerometer,9.83578619076
629,android.sensor.accelerometer,9.90218700153
667,android.sensor.accelerometer,9.92006005327
717,android.sensor.accelerometer,9.89570139928
767,android.sensor.accelerometer,9.97530536888
818,android.sensor.accelerometer,10.001318108
868,android.sensor.accelerometer,10.0314893384
918,android.sensor.accelerometer,10.0163737936
1020,android.sensor.game_rotation_vector,0.801832396826
1070,android.sensor.gyroscope_uncalibrated,0.0657695041103
1121,android.sensor.magnetic_field_uncalibrated,238.458182262
1172,android.sensor.orientation,144.55768883
1227,android.sensor.accelerometer,10.015737821
1277,android.sensor.accelerometer,9.97946495012
1327,android.sensor.accelerometer,9.97542035921
1378,android.sensor.accelerometer,9.9875539981
1480,android.sensor.game_rotation_vector,0.802757962885
1532,android.sensor.orientation,144.46052359
1582,android.sensor.gyroscope,0.0620682365915
1644,android.sensor.accelerometer,9.89979688848
1687,android.sensor.accelerometer,9.83336148151
1737,android.sensor.accelerometer,9.85894949073
1787,android.sensor.accelerometer,9.92991540261
1838,android.sensor.accelerometer,9.87760726565
1889,android.sensor.linear_acceleration,0.0398685328022
1941,android.sensor.game_rotation_vector,0.80257219736
1993,android.sensor.orientation,144.334118198
2043,android.sensor.orientation,144.274359122
2097,android.sensor.accelerometer,9.97789723842
2147,android.sensor.accelerometer,9.90500170487
2197,android.sensor.accelerometer,9.95421859946
2247,android.sensor.accelerometer,9.96049576099
2352,android.sensor.orientation,144.02353167
2404,android.sensor.orientation,144.006526006
2458,android.sensor.accelerometer,10.1881426595
2507,android.sensor.accelerometer,10.2621057904
2608,android.sensor.gravity,9.80659418298
2660,android.sensor.gyroscope,0.0330093397192
2711,android.sensor.orientation,140.899553146
2762,android.sensor.orientation,141.003196418
2917,android.sensor.accelerometer,9.73914207914
2967,android.sensor.accelerometer,9.82735775603
3019,android.sensor.accelerometer,9.82269090366
3070,android.sensor.game_rotation_vector,0.807153952923
3121,android.sensor.game_rotation_vector,0.808434611211
3177,android.sensor.accelerometer,9.64696379211
3227,android.sensor.accelerometer,10.0651463817
3329,android.sensor.game_rotation_vector,0.816802776141
3380,android.sensor.game_rotation_vector,0.817644805078
3429,android.sensor.game_rotation_vector,0.817946705821
3480,android.sensor.magnetic_field,42.8521258224
3532,android.sensor.orientation,139.909527096
3582,android.sensor.orientation,139.809752836
3638,android.sensor.accelerometer,9.96577512343
3687,android.sensor.accelerometer,9.84043357076
3737,android.sensor.accelerometer,9.97385672313
3787,android.sensor.accelerometer,9.93248801433
3837,android.sensor.accelerometer,10.1899027821
3887,android.sensor.accelerometer,9.92313005009
3937,android.sensor.accelerometer,9.89870426342
3988,android.sensor.linear_acceleration,0.0906001103101
4040,android.sensor.game_rotation_vector,0.830040579605
4089,android.sensor.game_rotation_vector,0.829513273451
4140,android.sensor.gyroscope,0.177525468923
4193,android.sensor.orientation,136.870182655
4247,android.sensor.accelerometer,9.95657254695
4297,android.sensor.accelerometer,9.94474731669
4347,android.sensor.accelerometer,9.97889007432
4398,android.sensor.accelerometer,10.2113239067
4447,android.sensor.accelerometer,10.1673400463
4498,android.sensor.accelerometer,10.2743427319
4550,android.sensor.game_rotation_vector,0.823655833404
4602,android.sensor.gyroscope_uncalibrated,0.325388827914
4658,android.sensor.accelerometer,9.56506770493
4707,android.sensor.accelerometer,9.51629101882
4757,android.sensor.accelerometer,9.52131536993
4807,android.sensor.accelerometer,9.83074973881
4910,android.sensor.game_rotation_vector,0.824293994735
4961,android.sensor.gyroscope_uncalibrated,0.159883399322
5013,android.sensor.orientation,135.92997301
5067,android.sensor.accelerometer,9.88010012179
5118,android.sensor.accelerometer,9.94236780844
5327,android.sensor.accelerometer,9.89460791509
5377,android.sensor.accelerometer,9.89681315895
5428,android.sensor.accelerometer,9.94359013761
5477,android.sensor.accelerometer,9.89101082593
5529,android.sensor.accelerometer,9.92333300894
5687,android.sensor.accelerometer,9.87725427517
5737,android.sensor.accelerometer,9.92205730149
5787,android.sensor.accelerometer,9.91774867151
5837,android.sensor.accelerometer,9.93872792808
5887,android.sensor.accelerometer,9.9319706923
5937,android.sensor.accelerometer,9.93792986322
5987,android.sensor.accelerometer,9.92532898344
6038,android.sensor.accelerometer,9.97465262534
6090,android.sensor.game_rotation_vector,0.823963415784
6143,android.sensor.game_rotation_vector,0.823890509108
6198,android.sensor.accelerometer,9.87444964165
6248,android.sensor.accelerometer,9.83129985303
6297,android.sensor.accelerometer,9.83628099787
6350,android.sensor.game_rotation_vector,0.824916914291
6400,android.sensor.game_rotation_vector,0.825261377919
6450,android.sensor.magnetic_field_uncalibrated,236.616341297
6503,android.sensor.orientation,133.841750133
6554,android.sensor.rotation_vector,0.921339059413
6617,android.sensor.magnetic_field,44.6049061904
6707,android.sensor.accelerometer,9.68029537213
6809,android.sensor.rotation_vector,0.925687553989
6860,android.sensor.game_rotation_vector,0.821471897267
6911,android.sensor.magnetic_field_uncalibrated,234.232931942
6962,android.sensor.game_rotation_vector,0.82023827728
7017,android.sensor.accelerometer,9.94503825387
7067,android.sensor.accelerometer,9.91785938896
7117,android.sensor.accelerometer,9.89030100457
7167,android.sensor.accelerometer,9.94519427752
7217,android.sensor.accelerometer,10.0056826727
7268,android.sensor.accelerometer,10.1095610294
7369,android.sensor.game_rotation_vector,0.826853746506
7420,android.sensor.game_rotation_vector,0.826723117567
7470,android.sensor.magnetic_field_uncalibrated,237.343196593
7572,android.sensor.orientation,134.829730014
7622,android.sensor.game_rotation_vector,0.827294816964
7677,android.sensor.accelerometer,10.0287688832
7727,android.sensor.accelerometer,10.0784095024
7777,android.sensor.accelerometer,10.0388553947
7827,android.sensor.accelerometer,9.93107477471
7877,android.sensor.accelerometer,9.90472476736
7979,android.sensor.gravity,9.80658744886
8030,android.sensor.magnetic_field_uncalibrated,238.828733746
8082,android.sensor.orientation,134.716115666
8138,android.sensor.accelerometer,9.82088328433
8187,android.sensor.accelerometer,9.56684229272
8240,android.sensor.accelerometer,9.44747426932
8287,android.sensor.accelerometer,9.31432954242
8340,android.sensor.game_rotation_vector,0.837929814911
8390,android.sensor.game_rotation_vector,0.843023328782
8443,android.sensor.orientation,132.180392268
8494,android.sensor.orientation,136.512219438
8548,android.sensor.accelerometer,10.8666754805
8600,android.sensor.accelerometer,10.8591442947
8647,android.sensor.accelerometer,10.7171019764
8698,android.sensor.gravity,9.80652544742
8749,android.sensor.game_rotation_vector,0.719105416611
8800,android.sensor.game_rotation_vector,0.720798174925
8851,android.sensor.gyroscope_uncalibrated,3.43832162744
8902,android.sensor.orientation,173.700446337
8958,android.sensor.accelerometer,10.3612728248
9008,android.sensor.accelerometer,10.0718689399
9112,android.sensor.game_rotation_vector,0.709116832207
9162,android.sensor.orientation,192.803827632
9216,android.sensor.orientation,195.783819486
9267,android.sensor.accelerometer,12.4352872133
9317,android.sensor.accelerometer,10.5967437566
9368,android.sensor.rotation_vector,0.998332464124
9420,android.sensor.game_rotation_vector,0.625885447007
9472,android.sensor.orientation,202.860287488
9524,android.sensor.orientation,203.200224343
9578,android.sensor.accelerometer,9.81391437606
9630,android.sensor.game_rotation_vector,0.591576326436
9680,android.sensor.gyroscope,1.56135817873
9731,android.sensor.orientation,206.489363588
9782,android.sensor.orientation,207.55154396
9837,android.sensor.accelerometer,10.5288182716
9887,android.sensor.accelerometer,10.3414483482
9937,android.sensor.accelerometer,10.9642430651
9987,android.sensor.accelerometer,10.2505570216
10038,android.sensor.accelerometer,11.7141885357
10088,android.sensor.accelerometer,12.5726547744
10139,android.sensor.accelerometer,11.131772156
10190,android.sensor.game_rotation_vector,0.647956902634
10242,android.sensor.game_rotation_vector,0.65084340594
10292,android.sensor.orientation,188.145202764
10347,android.sensor.accelerometer,9.82683548102
10397,android.sensor.accelerometer,9.4938279323
10447,android.sensor.accelerometer,9.00322694498
10497,android.sensor.accelerometer,8.95972608049
10597,android.sensor.accelerometer,9.35844664609
10650,android.sensor.gyroscope_uncalibrated,0.629847973733
10702,android.sensor.gyroscope,0.556886680798
10751,android.sensor.orientation,181.807056244
10802,android.sensor.orientation,182.342324662
10857,android.sensor.accelerometer,9.2929617232
10907,android.sensor.accelerometer,9.53277731876
10958,android.sensor.accelerometer,9.72740099496
11007,android.sensor.accelerometer,10.0081709792
11058,android.sensor.accelerometer,9.77901303771
11108,android.sensor.accelerometer,9.97538333722
11157,android.sensor.accelerometer,10.0237746693
11214,android.sensor.orientation,182.925381032
11267,android.sensor.accelerometer,9.7770993549
11317,android.sensor.accelerometer,9.88763438737
11367,android.sensor.accelerometer,10.2090060248
11417,android.sensor.accelerometer,10.1315595966
11522,android.sensor.game_rotation_vector,0.650629874794
11573,android.sensor.orientation,182.122291325
11626,android.sensor.orientation,181.883091485
11677,android.sensor.accelerometer,11.9001027644
11727,android.sensor.accelerometer,9.99527359264
11777,android.sensor.accelerometer,9.23145579406
12126,sound,53.10276869622764
12626,sound,53.47883997268176
1,android.sensor.light,5258.0
34,android.sensor.accelerometer,10.0147714441
52,android.sensor.accelerometer,9.9391011937
103,android.sensor.accelerometer,9.81944049259
153,android.sensor.accelerometer,9.84481738724
204,android.sensor.accelerometer,9.77351493184
255,android.sensor.gravity,9.80658142061
308,android.sensor.accelerometer,9.96489188227
363,android.sensor.orientation,181.835155567
417,android.sensor.accelerometer,10.0196512907
466,sound,-Infinity
517,android.sensor.accelerometer,10.0233349192
567,android.sensor.accelerometer,9.85161174211
618,android.sensor.accelerometer,9.92547696065
669,android.sensor.game_rotation_vector,0.671885534131
720,android.sensor.game_rotation_vector,0.671635215036
772,android.sensor.orientation,181.869251924
822,android.sensor.orientation,181.871424363
871,android.sensor.gyroscope,0.151971686793
927,android.sensor.accelerometer,9.69833701267
977,android.sensor.accelerometer,9.7749558143
1027,android.sensor.accelerometer,9.91075490311
1077,android.sensor.accelerometer,9.5508134211
1127,android.sensor.accelerometer,9.53375338746
1178,android.sensor.accelerometer,9.98564778737
1228,android.sensor.rotation_vector,0.988221698385
1280,android.sensor.game_rotation_vector,0.564964810209
1330,android.sensor.magnetic_field_uncalibrated,250.093896429
1383,android.sensor.orientation,209.782747046
1437,android.sensor.accelerometer,10.604724784
1488,android.sensor.accelerometer,9.30751846461
1537,android.sensor.accelerometer,10.0682306315
1588,android.sensor.accelerometer,10.1616594694
1638,android.sensor.accelerometer,9.76708956224
1692,android.sensor.magnetic_field_uncalibrated,258.427115874
1742,android.sensor.game_rotation_vector,0.555601080272
1803,android.sensor.accelerometer,9.86542204387
1847,android.sensor.accelerometer,9.3081193414
1897,android.sensor.accelerometer,10.7777205379
1947,android.sensor.accelerometer,10.8571676925
1997,android.sensor.accelerometer,9.2522212972
2100,android.sensor.game_rotation_vector,0.573370791359
2149,android.sensor.game_rotation_vector,0.557688979181
2203,android.sensor.game_rotation_vector,0.549584705169
2252,android.sensor.orientation,221.381256972
2303,android.sensor.orientation,223.008234153
2357,android.sensor.accelerometer,10.1257875465
2408,android.sensor.accelerometer,9.17583045828
2458,android.sensor.rotation_vector,0.927256394786
2511,android.sensor.game_rotation_vector,0.534272985145
2566,android.sensor.orientation,234.024916423
2617,android.sensor.accelerometer,9.00823804862
2672,android.sensor.orientation,233.659437858
2723,android.sensor.orientation,233.698486516
2777,android.sensor.accelerometer,8.85834425006
2827,android.sensor.accelerometer,10.6382461281
2874,android.sensor.light,28070.0
2927,android.sensor.accelerometer,10.1725615019
2977,android.sensor.accelerometer,11.0685925666
3028,android.sensor.accelerometer,10.6893210798
3080,android.sensor.game_rotation_vector,0.63293003114
3134,android.sensor.orientation,219.521458139
3187,android.sensor.accelerometer,8.98654591299
3237,android.sensor.accelerometer,9.59711671682
3288,android.sensor.accelerometer,10.3972628524
3338,android.sensor.rotation_vector,0.958851525282
3391,android.sensor.game_rotation_vector,0.628480922045
3443,android.sensor.orientation,224.839204989
3497,android.sensor.accelerometer,11.3829526345
3548,android.sensor.accelerometer,10.1203972573
3650,android.sensor.game_rotation_vector,0.608498530791
3717,android.sensor.game_rotation_vector,0.603809040475
3756,android.sensor.accelerometer,10.5714286078
3807,android.sensor.accelerometer,10.0866375381
3857,android.sensor.accelerometer,11.9482360459
3960,android.sensor.game_rotation_vector,0.576474697428
4009,android.sensor.game_rotation_vector,0.577070975153
4060,android.sensor.game_rotation_vector,0.570777171035
4111,android.sensor.orientation,231.690501631
4162,android.sensor.orientation,230.10101284
4217,android.sensor.accelerometer,8.7228149137
4266,android.sensor.orientation,228.264805212
4421,android.sensor.game_rotation_vector,0.533668116308
4472,android.sensor.orientation,234.515354508
4523,android.sensor.orientation,234.853802183
4578,android.sensor.accelerometer,8.41727788035
4628,android.sensor.accelerometer,11.0754059192
4681,android.sensor.game_rotation_vector,0.599955997479
4732,android.sensor.gyroscope_uncalibrated,0.431672139642
4787,android.sensor.accelerometer,8.39873367732
4837,android.sensor.accelerometer,9.92894612242
4887,android.sensor.accelerometer,9.66540869165
4937,android.sensor.accelerometer,13.2574136825
4987,android.sensor.accelerometer,10.4092225424
5089,android.sensor.game_rotation_vector,0.678243749275
5141,android.sensor.gravity,9.80654195125
5194,android.sensor.orientation,215.016499692
5248,android.sensor.accelerometer,8.81793559988
5298,android.sensor.rotation_vector,0.992022873041
5352,android.sensor.game_rotation_vector,0.73272393391
5402,android.sensor.orientation,201.886286991
5457,android.sensor.accelerometer,10.0256542479
5507,android.sensor.accelerometer,9.2428885163
5557,android.sensor.accelerometer,10.4348745553
5607,android.sensor.accelerometer,7.8405977458
5657,android.sensor.accelerometer,9.65629501604
5709,android.sensor.accelerometer,9.66497174877
5768,android.sensor.accelerometer,9.90524259163
5811,android.sensor.orientation,196.987058966
5862,android.sensor.orientation,199.315104317
5917,android.sensor.accelerometer,8.84061171638
5966,sound,-Infinity
6017,android.sensor.accelerometer,10.9438766337
6068,android.sensor.accelerometer,9.46043586231
6117,android.sensor.accelerometer,11.1655423112
6168,android.sensor.accelerometer,10.0180631451
6220,android.sensor.game_rotation_vector,0.714290821164
6274,android.sensor.orientation,200.750498917
6327,android.sensor.accelerometer,9.79144076773
6377,android.sensor.accelerometer,9.87686886288
6431,android.sensor.accelerometer,12.1455395974
6482,android.sensor.orientation,197.060737494
6537,android.sensor.accelerometer,10.2584411972
6589,android.sensor.accelerometer,9.84410949137
6638,android.sensor.accelerometer,9.82669538557
6690,android.sensor.game_rotation_vector,0.687300709203
6742,android.sensor.game_rotation_vector,0.683588108861
6798,android.sensor.accelerometer,11.5451417691
6847,android.sensor.accelerometer,9.55779233727
6897,android.sensor.accelerometer,8.10871103533
6945,android.sensor.orientation,207.874203112
6997,android.sensor.accelerometer,10.125099319
7047,android.sensor.accelerometer,10.4196627092
7101,android.sensor.game_rotation_vector,0.599809285983
7154,android.sensor.orientation,211.671435533
7205,android.sensor.orientation,212.958372886
7258,android.sensor.accelerometer,11.7533052189
7310,android.sensor.game_rotation_vector,0.550120934682
7365,android.sensor.orientation,218.721531862
7418,android.sensor.accelerometer,9.44806228704
7469,android.sensor.accelerometer,9.062255423
7522,android.sensor.game_rotation_vector,0.481580247099
7572,android.sensor.orientation,224.216280972
7627,android.sensor.accelerometer,8.47822753201
7677,android.sensor.accelerometer,9.75625180693
7727,android.sensor.accelerometer,9.5654128117
7777,android.sensor.accelerometer,10.6057637136
7827,android.sensor.accelerometer,9.07110678281
7878,android.sensor.rotation_vector,0.915934406175
7929,android.sensor.game_rotation_vector,0.462678777689
7980,android.sensor.game_rotation_vector,0.462759243823
8031,android.sensor.orientation,227.262194327
8082,android.sensor.orientation,227.151162445
8138,android.sensor.accelerometer,9.29742674381
8187,android.sensor.accelerometer,9.26043529949
8237,android.sensor.accelerometer,9.86714636442
8288,android.sensor.accelerometer,10.783318491
8339,android.sensor.linear_acceleration,0.884669897251
8392,android.sensor.magnetic_field_uncalibrated,256.911805453
8444,android.sensor.orientation,226.08749572
8497,android.sensor.accelerometer,10.1260768975
8548,android.sensor.accelerometer,10.2266348971
8651,android.sensor.game_rotation_vector,0.504206757121
8703,android.sensor.orientation,218.870155678
8759,android.sensor.accelerometer,9.29529630545
8807,android.sensor.accelerometer,8.64824885506
8857,android.sensor.accelerometer,9.06715777698
8907,android.sensor.accelerometer,9.90652463617
8960,android.sensor.gravity,9.80656398471
9012,android.sensor.orientation,217.533950063
9062,android.sensor.orientation,217.754664933
9118,android.sensor.accelerometer,12.5210769819
9168,android.sensor.accelerometer,9.94752266417
9270,android.sensor.game_rotation_vector,0.587485076215
9321,android.sensor.magnetic_field_uncalibrated,269.859939077
9374,android.sensor.gyroscope_uncalibrated,0.367523646823
9427,android.sensor.accelerometer,9.80889898685
9478,android.sensor.accelerometer,9.66392796387
9581,android.sensor.game_rotation_vector,0.575971179053
9632,android.sensor.orientation,224.266867821
9683,android.sensor.orientation,224.043174411
9737,android.sensor.accelerometer,8.67390163491
9788,android.sensor.accelerometer,9.27601624282
9837,android.sensor.accelerometer,9.38892976505
9887,android.sensor.accelerometer,10.4309186973
9937,android.sensor.accelerometer,10.0697243256
9988,android.sensor.rotation_vector,0.948320863438
10093,android.sensor.gyroscope,0.81252060452
10146,android.sensor.orientation,227.33861562
10197,android.sensor.accelerometer,9.87216870517
10250,android.sensor.game_rotation_vector,0.597581735946
10302,android.sensor.game_rotation_vector,0.597193773068
10352,android.sensor.orientation,225.828632087
10403,android.sensor.orientation,224.772306321
10507,android.sensor.orientation,221.838808372
10560,android.sensor.accelerometer,11.3754646697
10612,android.sensor.orientation,221.944965352
10662,android.sensor.orientation,221.79702365
10718,android.sensor.accelerometer,10.0439019092
10765,android.sensor.accelerometer,9.22279306631
10817,android.sensor.accelerometer,9.14489280038
10867,android.sensor.accelerometer,11.340754986
11020,android.sensor.game_rotation_vector,0.669751832976
11083,android.sensor.orientation,236.346435614
11122,android.sensor.magnetic_field_uncalibrated,289.124419044
11173,android.sensor.magnetic_field,45.5603137336
11227,android.sensor.accelerometer,9.43877294842
11277,android.sensor.accelerometer,8.99584333124
11327,android.sensor.accelerometer,7.73771021091
11377,android.sensor.accelerometer,10.8564368113
11427,android.sensor.accelerometer,9.78108950512
11477,android.sensor.accelerometer,10.1963581005
11580,android.sensor.game_rotation_vector,0.649574438533
11630,android.sensor.gyroscope,0.74274981644
11681,android.sensor.gyroscope_uncalibrated,1.0492481617
11783,android.sensor.accelerometer,12.9221119752
11837,android.sensor.accelerometer,9.16830580837
11887,android.sensor.accelerometer,7.85929763969
11937,android.sensor.accelerometer,10.4737351497
11988,android.sensor.accelerometer,11.9729929304
12039,android.sensor.accelerometer,11.849331075
12089,android.sensor.accelerometer,9.71770283646
12141,android.sensor.game_rotation_vector,0.742133583997
12243,android.sensor.orientation,237.163063313
12297,android.sensor.accelerometer,9.52683842397
12347,android.sensor.accelerometer,17.8485910788
12451,android.sensor.orientation,227.304737082
12549,android.sensor.game_rotation_vector,0.704301476783
12600,android.sensor.game_rotation_vector,0.70952526213
12652,android.sensor.orientation,230.116713876
13007,android.sensor.accelerometer,10.9857449188
13108,android.sensor.linear_acceleration,0.344335313373
13160,android.sensor.game_rotation_vector,0.752248937094
13209,android.sensor.game_rotation_vector,0.75449134117
13260,android.sensor.game_rotation_vector,0.769245775933
13311,android.sensor.magnetic_field_uncalibrated,283.234967606
13362,android.sensor.orientation,210.321393015
13517,android.sensor.accelerometer,9.55748551007
13568,android.sensor.accelerometer,8.32345728589
13617,android.sensor.accelerometer,8.96169109632
13667,android.sensor.accelerometer,8.053496485
13768,android.sensor.linear_acceleration,3.67826680503
13820,android.sensor.game_rotation_vector,0.82292087084
13872,android.sensor.gyroscope,0.382503119754
13921,android.sensor.game_rotation_vector,0.816994119124
13972,android.sensor.orientation,193.181534832
14027,android.sensor.accelerometer,11.0483397318
14077,android.sensor.accelerometer,10.4990111011
14127,android.sensor.accelerometer,10.8644640758
14177,android.sensor.accelerometer,9.82433416015
14227,android.sensor.accelerometer,9.2972300511
14278,android.sensor.accelerometer,9.16304241339
14328,android.sensor.accelerometer,9.69900338668
14428,android.sensor.rotation_vector,0.997627920335
14480,android.sensor.game_rotation_vector,0.750715184423
14530,android.sensor.gyroscope,0.728247707951
14581,android.sensor.game_rotation_vector,0.761733058308
14637,android.sensor.accelerometer,10.3050623642
14685,android.sensor.orientation,202.29379273
14738,android.sensor.accelerometer,9.01928828187
14790,android.sensor.accelerometer,9.36685152763
14939,android.sensor.linear_acceleration,0.801041528262
14990,android.sensor.gyroscope,1.73944604381
15042,android.sensor.orientation,190.411702539
15093,android.sensor.gyroscope,0.732017384677
15143,android.sensor.orientation,188.785069718
15197,android.sensor.accelerometer,12.3041133759
15247,android.sensor.accelerometer,11.2249204525
15297,android.sensor.accelerometer,10.0505609081
15347,android.sensor.accelerometer,9.17028175172
15398,android.sensor.accelerometer,10.7546691502
15449,android.sensor.game_rotation_vector,0.855769069221
15500,android.sensor.game_rotation_vector,0.860771840803
15550,android.sensor.magnetic_field_uncalibrated,281.188250166
15602,android.sensor.orientation,194.804015102
15657,android.sensor.accelerometer,8.81557902309
15708,android.sensor.accelerometer,8.9173594982
15756,sound,53.89210397867138
15808,android.sensor.accelerometer,7.85103106049
15857,android.sensor.accelerometer,8.41579548056
15907,android.sensor.accelerometer,11.6940776514
16009,android.sensor.game_rotation_vector,0.893788351277
16060,android.sensor.game_rotation_vector,0.887200543589
16110,android.sensor.magnetic_field,48.2111647469
16163,android.sensor.game_rotation_vector,0.881403569033
16217,android.sensor.accelerometer,9.05707679604
16267,android.sensor.accelerometer,8.69294490666
16317,android.sensor.accelerometer,9.9997143785
16367,android.sensor.accelerometer,10.3414433245
16417,android.sensor.accelerometer,8.46180645937
16467,android.sensor.accelerometer,8.89877580001
16520,android.sensor.accelerometer,10.0729479739
16569,android.sensor.game_rotation_vector,0.815004945926
16620,android.sensor.game_rotation_vector,0.822936059511
16672,android.sensor.orientation,204.764419761
16727,android.sensor.accelerometer,9.94884553906
16777,android.sensor.accelerometer,9.17862438042
16827,android.sensor.accelerometer,9.46548047053
16879,android.sensor.accelerometer,10.7557172748
16977,android.sensor.accelerometer,9.66325914971
17027,android.sensor.accelerometer,9.08935838878
17077,android.sensor.accelerometer,8.45918853603
17127,android.sensor.accelerometer,9.17393607028
17178,android.sensor.rotation_vector,0.99986547815
17230,android.sensor.game_rotation_vector,0.798002604184
17283,android.sensor.game_rotation_vector,0.772821052136
17337,android.sensor.accelerometer,8.67772265886
17391,android.sensor.accelerometer,8.9094211642
17440,android.sensor.game_rotation_vector,0.74230965018
17545,android.sensor.game_rotation_vector,0.726139878254
17648,android.sensor.accelerometer,8.21359563784
17752,android.sensor.accelerometer,8.37488887441
18007,android.sensor.accelerometer,12.3946117097
18110,android.sensor.game_rotation_vector,0.767302775164
18162,android.sensor.game_rotation_vector,0.772608294229
18218,android.sensor.accelerometer,10.0694145873
18266,android.sensor.orientation,191.276923129
18318,android.sensor.accelerometer,11.3238321624
18369,android.sensor.linear_acceleration,1.18407417842
18420,android.sensor.game_rotation_vector,0.717997190722
18471,android.sensor.magnetic_field,44.5449649933
18522,android.sensor.orientation,196.994296364
18577,android.sensor.accelerometer,12.6435795011
18623,android.sensor.orientation,200.674830003
18789,android.sensor.game_rotation_vector,0.643107392139
18837,android.sensor.accelerometer,9.11600837987
18887,android.sensor.accelerometer,10.5421503771
18937,android.sensor.accelerometer,13.1677265773
18987,android.sensor.accelerometer,12.6984300991
19037,android.sensor.accelerometer,11.3820744478
19087,android.sensor.accelerometer,10.3657777229
19138,android.sensor.linear_acceleration,0.554445894565
19190,android.sensor.game_rotation_vector,0.501416570891
19241,android.sensor.magnetic_field_uncalibrated,250.869277775
19294,android.sensor.orientation,208.532504135
19348,android.sensor.accelerometer,9.37808064935
19398,android.sensor.accelerometer,8.96864239824
19451,android.sensor.game_rotation_vector,0.474029430435
19501,android.sensor.magnetic_field_uncalibrated,245.928573536
19553,android.sensor.orientation,214.372345231
19608,android.sensor.accelerometer,10.0622891844
19657,android.sensor.accelerometer,10.203816553
19764,android.sensor.orientation,221.168321873
19817,android.sensor.accelerometer,9.2855625038
19867,android.sensor.accelerometer,9.14178312727
19917,android.sensor.accelerometer,9.77514259393
19966,sound,-Infinity
20017,android.sensor.accelerometer,10.7541909523
20120,android.sensor.game_rotation_vector,0.316213659819
20223,android.sensor.orientation,237.417028833
20277,android.sensor.accelerometer,12.7409906908
20329,android.sensor.accelerometer,12.0515468773
20433,android.sensor.game_rotation_vector,0.269251137602
20500,android.sensor.accelerometer,10.3160032822
20601,android.sensor.magnetic_field_uncalibrated,255.305347207
20659,android.sensor.accelerometer,10.0822175393
20707,android.sensor.accelerometer,11.8389241521
20766,android.sensor.game_rotation_vector,0.412819184427
20807,android.sensor.accelerometer,9.14111555434
20857,android.sensor.accelerometer,8.89450326928
20907,android.sensor.accelerometer,10.0698335321
20957,android.sensor.accelerometer,8.66210991069
21008,android.sensor.accelerometer,12.2751382745
21109,android.sensor.game_rotation_vector,0.453954237093
21160,android.sensor.game_rotation_vector,0.466974087674
21209,android.sensor.gyroscope,0.307587493371
21260,android.sensor.magnetic_field_uncalibrated,248.252682828
21311,android.sensor.orientation,217.413589268
21361,android.sensor.orientation,214.760687511
21417,android.sensor.accelerometer,11.6788724256
21466,sound,-Infinity
21518,android.sensor.accelerometer,8.59121246628
21567,android.sensor.accelerometer,8.93664439652
21617,android.sensor.accelerometer,8.21201533711
21667,android.sensor.accelerometer,8.13754750061
21717,android.sensor.accelerometer,8.95763754851
21767,android.sensor.accelerometer,10.0147764409
21871,android.sensor.game_rotation_vector,0.572911837293
21920,android.sensor.game_rotation_vector,0.583177202671
21971,android.sensor.gyroscope_uncalibrated,0.95878523161
22095,android.sensor.accelerometer,10.461578185
22137,android.sensor.accelerometer,8.98876561805
22187,android.sensor.accelerometer,10.6183944541
22240,android.sensor.game_rotation_vector,0.611668733061
22290,android.sensor.magnetic_field_uncalibrated,263.147334266
22341,android.sensor.gyroscope_uncalibrated,0.40554643981
22393,android.sensor.orientation,214.994166658
22450,android.sensor.accelerometer,9.69417879918
22507,android.sensor.accelerometer,9.60004553624
22544,android.sensor.rotation_vector,0.967157455803
22596,android.sensor.magnetic_field,45.1432182753
22649,android.sensor.accelerometer,9.14103558374
22701,android.sensor.accelerometer,10.5058793265
22749,android.sensor.game_rotation_vector,0.598897084418
22902,android.sensor.accelerometer,10.5363846542
22951,android.sensor.game_rotation_vector,0.663360467619
23002,android.sensor.game_rotation_vector,0.662980122048
23051,android.sensor.magnetic_field_uncalibrated,265.724165313
23104,android.sensor.game_rotation_vector,0.641317035345
23157,android.sensor.accelerometer,9.59237087659
23207,android.sensor.accelerometer,10.189173845
23257,android.sensor.accelerometer,9.54557847503
23307,android.sensor.accelerometer,9.48390668854
23408,android.sensor.rotation_vector,0.941426587938
23460,android.sensor.game_rotation_vector,0.532333066581
23561,android.sensor.gyroscope_uncalibrated,1.60884330901
23617,android.sensor.accelerometer,8.04717942765
23675,android.sensor.accelerometer,11.1037451186
23721,android.sensor.accelerometer,8.86446623923
23767,android.sensor.accelerometer,8.98170239394
23918,android.sensor.accelerometer,12.0759695373
23919,android.sensor.linear_acceleration,3.00582552149
23969,android.sensor.rotation_vector,0.95554571076
24022,android.sensor.game_rotation_vector,0.643932863951
24077,android.sensor.accelerometer,9.81047056016
24127,android.sensor.accelerometer,10.0762844192
24177,android.sensor.accelerometer,9.1420389976
24281,android.sensor.gyroscope,0.675859955752
24337,android.sensor.accelerometer,9.73942413037
24384,android.sensor.orientation,235.016022065
24441,android.sensor.accelerometer,9.7541878939
24484,android.sensor.orientation,238.72098976
24537,android.sensor.accelerometer,9.85905644944
24587,android.sensor.accelerometer,11.3206247927
24638,android.sensor.accelerometer,12.4320306738
24688,android.sensor.accelerometer,10.5819985832
24741,speed,0.0
24838,android.sensor.gyroscope_uncalibrated,0.392131701452
24889,android.sensor.game_rotation_vector,0.644841881506
24940,android.sensor.game_rotation_vector,0.645521652046
24991,android.sensor.orientation,246.276199621
25042,android.sensor.orientation,245.708818316
25097,android.sensor.accelerometer,9.4111169453
25147,android.sensor.accelerometer,9.68025702685
25197,android.sensor.accelerometer,10.0796101911
25247,android.sensor.accelerometer,9.17013553101
25297,android.sensor.accelerometer,8.37087420819
25347,android.sensor.accelerometer,9.77458425648
25397,android.sensor.accelerometer,9.84421702347
25448,android.sensor.accelerometer,9.40153234824
25500,android.sensor.game_rotation_vector,0.628985538873
25600,android.sensor.gyroscope,0.996088809255
25651,android.sensor.orientation,244.215433754
25752,android.sensor.orientation,244.080981596
25957,android.sensor.accelerometer,10.9164931774
26007,android.sensor.accelerometer,10.1987053608
26057,android.sensor.accelerometer,10.6213218985
26158,android.sensor.gravity,9.80654069792
26209,android.sensor.game_rotation_vector,0.715104073318
26260,android.sensor.game_rotation_vector,0.713697550706
26310,android.sensor.gyroscope,0.545702019721
26367,android.sensor.game_rotation_vector,0.703752727863
26417,android.sensor.accelerometer,9.3861746344
26466,sound,-Infinity
26518,android.sensor.accelerometer,11.352693351
26568,android.sensor.accelerometer,10.0758977978
26620,android.sensor.game_rotation_vector,0.620468966701
26670,android.sensor.game_rotation_vector,0.641446225163
26721,android.sensor.game_rotation_vector,0.653615247734
26777,android.sensor.accelerometer,9.24671829459
26827,android.sensor.accelerometer,8.94703898713
26877,android.sensor.accelerometer,9.10280887906
26927,android.sensor.accelerometer,9.49021418877
26977,android.sensor.accelerometer,10.2355505463
27027,android.sensor.accelerometer,11.2656834689
27077,android.sensor.accelerometer,11.0447909747
27230,android.sensor.game_rotation_vector,0.614927048473
27285,android.sensor.orientation,244.125103795
27338,android.sensor.accelerometer,7.43486554067
27388,android.sensor.accelerometer,8.74666577203
27492,android.sensor.orientation,239.437576977
27547,android.sensor.accelerometer,11.8471565249
27597,android.sensor.accelerometer,11.0771742985
27647,android.sensor.accelerometer,12.2259105648
27697,android.sensor.accelerometer,11.1615374614
27749,android.sensor.accelerometer,11.2704535341
27800,android.sensor.game_rotation_vector,0.53356034275
27850,android.sensor.gyroscope_uncalibrated,1.95585579773
27901,android.sensor.magnetic_field_uncalibrated,264.84615965
27957,android.sensor.accelerometer,9.21418727546
28003,android.sensor.orientation,224.933356575
28057,android.sensor.accelerometer,9.83036701585
28107,android.sensor.accelerometer,9.70102612871
28157,android.sensor.accelerometer,9.96338226758
28207,android.sensor.accelerometer,9.35444236384
28257,android.sensor.accelerometer,10.2614800236
28358,android.sensor.rotation_vector,0.947885557796
28410,android.sensor.game_rotation_vector,0.466229135838
28460,android.sensor.game_rotation_vector,0.46595579526
28512,android.sensor.orientation,220.024333648
28562,android.sensor.orientation,222.898199408
28617,android.sensor.accelerometer,9.27875924061
28667,android.sensor.accelerometer,11.0038844489
28717,android.sensor.accelerometer,9.09791154893
28767,android.sensor.accelerometer,40.4929784245
28817,android.sensor.accelerometer,7.76691410694
28867,android.sensor.accelerometer,11.685685812
28968,android.sensor.accelerometer,10.5648890938
29069,android.sensor.game_rotation_vector,0.50082430106
29070,android.sensor.magnetic_field_uncalibrated,258.527062776
29121,android.sensor.gyroscope,0.659757103677
29172,android.sensor.orientation,218.990423212
29225,android.sensor.orientation,219.640073523
29280,android.sensor.accelerometer,10.3978588431
29330,android.sensor.game_rotation_vector,0.443672487629
29382,android.sensor.game_rotation_vector,0.426577529412
29438,android.sensor.accelerometer,9.33227748471
29539,android.sensor.accelerometer,8.01669684668
29643,android.sensor.orientation,232.885489877
29698,android.sensor.accelerometer,8.52796739993
29747,speed,0.0
29797,android.sensor.accelerometer,10.3086792188
29847,android.sensor.accelerometer,10.2464229561
29897,android.sensor.accelerometer,9.88447977579
29998,android.sensor.rotation_vector,0.871914023123
30050,android.sensor.game_rotation_vector,0.320770349863
30100,android.sensor.game_rotation_vector,0.323169787757
30152,android.sensor.orientation,237.929284793
30208,android.sensor.accelerometer,10.3455845799
30256,sound,86.26890740852828
30307,android.sensor.accelerometer,10.0580551854
30358,android.sensor.accelerometer,10.0867644587
30410,android.sensor.game_rotation_vector,0.354956020249
30461,android.sensor.magnetic_field,44.3523269542
30513,android.sensor.orientation,230.801444257
30568,android.sensor.accelerometer,12.6556665097
30618,android.sensor.accelerometer,7.1924371343
30673,android.sensor.gyroscope_uncalibrated,0.497754345686
30726,android.sensor.orientation,231.70579637
30776,android.sensor.rotation_vector,0.899510083323
30827,android.sensor.accelerometer,9.92174267341
30877,android.sensor.accelerometer,9.49163961224
30927,android.sensor.accelerometer,9.21114610369
30978,android.sensor.linear_acceleration,1.21088335524
31030,android.sensor.game_rotation_vector,0.396462307665
31080,android.sensor.game_rotation_vector,0.399459139336
31132,android.sensor.orientation,228.372278909
31183,android.sensor.orientation,228.256741534
31237,android.sensor.accelerometer,9.63720415695
31287,android.sensor.accelerometer,10.0064800898
31337,android.sensor.accelerometer,10.0410016825
31387,android.sensor.accelerometer,9.5220527907
31437,android.sensor.accelerometer,9.68998648421
31540,android.sensor.game_rotation_vector,0.437266456267
31590,android.sensor.game_rotation_vector,0.432224572698
31640,android.sensor.gyroscope,0.744124157195
31692,android.sensor.orientation,226.779325971
31746,android.sensor.orientation,227.046611294
31797,android.sensor.accelerometer,9.90814938947
31998,android.sensor.rotation_vector,0.9328279886
32049,android.sensor.game_rotation_vector,0.452717510468
32100,android.sensor.game_rotation_vector,0.446330889113
32152,android.sensor.orientation,224.220808579
32203,android.sensor.orientation,225.271653952
32257,sound,84.97172487710209
32307,android.sensor.accelerometer,9.56953005842
32359,android.sensor.accelerometer,9.82456642818
32410,android.sensor.magnetic_field_uncalibrated,259.414349425
32462,android.sensor.orientation,225.53623278
32513,android.sensor.orientation,225.035486313
32618,android.sensor.accelerometer,11.8612764358
32668,android.sensor.linear_acceleration,6.17734209349
32721,android.sensor.game_rotation_vector,0.481084917373
32772,android.sensor.orientation,221.827690335
32822,android.sensor.orientation,221.778506848
32873,android.sensor.orientation,222.462749306
32927,android.sensor.accelerometer,5.08984526036
32978,android.sensor.accelerometer,15.8399601814
33028,android.sensor.accelerometer,10.383184498
33079,android.sensor.accelerometer,9.84280054303
33131,android.sensor.game_rotation_vector,0.501104121147
33182,android.sensor.gyroscope_uncalibrated,0.409708025878
33238,android.sensor.accelerometer,10.0077311085
33288,android.sensor.accelerometer,10.6946734808
33341,android.sensor.game_rotation_vector,0.523836225589
33392,android.sensor.game_rotation_vector,0.524180806164
33547,android.sensor.accelerometer,11.6187863498
33601,android.sensor.accelerometer,11.4618579961
33652,android.sensor.orientation,225.331466955
33707,android.sensor.accelerometer,7.54446955269
33765,android.sensor.orientation,223.242589351
33807,android.sensor.accelerometer,8.71622518478
33857,android.sensor.accelerometer,8.3798207605
33907,android.sensor.accelerometer,12.6154651075
33957,android.sensor.accelerometer,16.7216121561
34007,android.sensor.accelerometer,2.33554348772
34058,android.sensor.rotation_vector,0.94592994157
34110,android.sensor.gyroscope,0.873350176803
34162,android.sensor.game_rotation_vector,0.47546988146
34218,android.sensor.accelerometer,10.2527267358
34268,android.sensor.accelerometer,9.59675315911
34323,android.sensor.game_rotation_vector,0.477116659875
34373,android.sensor.gyroscope,0.501567613167
34427,android.sensor.accelerometer,10.3328289502
34474,android.sensor.gyroscope_uncalibrated,0.717015283011
34527,android.sensor.accelerometer,10.8037795727
34577,android.sensor.accelerometer,9.41907546653
34627,android.sensor.accelerometer,10.2871043671
34678,android.sensor.accelerometer,10.4014916476
34729,android.sensor.game_rotation_vector,0.439204733844
34787,android.sensor.accelerometer,6.52264207775
34837,android.sensor.accelerometer,9.07190054946
34940,android.sensor.game_rotation_vector,0.420460163724
34989,android.sensor.game_rotation_vector,0.415038168828
35040,android.sensor.game_rotation_vector,0.40965172212
35091,android.sensor.orientation,224.148439656
35142,android.sensor.orientation,224.096094008
35199,android.sensor.accelerometer,9.71306795955
35247,android.sensor.accelerometer,9.8271007931
35299,android.sensor.accelerometer,9.73569456448
35350,android.sensor.game_rotation_vector,0.410439125153
35400,android.sensor.game_rotation_vector,0.409992263438
35454,android.sensor.orientation,223.561072658
35507,android.sensor.accelerometer,9.95077681216
35558,android.sensor.accelerometer,9.86499419129
35610,android.sensor.rotation_vector,0.937824052623
35660,android.sensor.game_rotation_vector,0.436292289612
35712,android.sensor.orientation,219.356380339
35763,android.sensor.orientation,218.152983237
35817,android.sensor.accelerometer,10.0408474193
35867,android.sensor.accelerometer,10.147818603
35917,android.sensor.accelerometer,9.96368187901
35966,sound,-Infinity
36017,android.sensor.accelerometer,9.83076345557
36118,android.sensor.accelerometer,9.94676658781
36171,android.sensor.game_rotation_vector,0.506176347828
36378,android.sensor.accelerometer,10.4131291918
36429,android.sensor.accelerometer,10.2279445572
36482,android.sensor.game_rotation_vector,0.500099413093
36532,android.sensor.orientation,209.377509298
36587,android.sensor.accelerometer,9.35348135159
36772,sound,85.56866953074831
37256,sound,85.86106046855663
37756,sound,66.09842323801783
38258,sound,79.67252574249069
38756,sound,76.3777082918802
39256,sound,89.49946865896715
39756,sound,79.76314945113506
40258,sound,74.72314750546263
40756,sound,73.31912058907913
41256,sound,81.14114417274845
41769,sound,85.86459850919132
42274,sound,85.04443507197374
42771,sound,86.49634550907656
43272,sound,64.80099544225295
43757,sound,55.38754652152277
44258,sound,57.68457539265208
44756,sound,67.51692872618312
45256,sound,57.33755628674998
45756,sound,55.620738772422634
46255,sound,79.31437940488442
46756,sound,86.47040455508674
47256,sound,75.38015741887547
47756,sound,71.75421930037822
48256,sound,66.86423180359495
48756,sound,73.82162984245937
49256,sound,73.32661488603937
49758,sound,71.92754287995199
50258,sound,86.38212118619552
50756,sound,84.09758667521324
51256,sound,74.43786032429915
51758,sound,84.60284504637285
52257,sound,88.56431623122651
52756,sound,90.30873362283398
53256,sound,76.39614129181511
53755,sound,84.37071010433056
54257,sound,56.75176876471022
54757,sound,55.475728899623874
55256,sound,54.90149583164115
55757,sound,52.82948221008199
56256,sound,57.110383113356
56756,sound,53.57036758080228
57256,sound,55.94535081661433
57756,sound,66.08550100954257
58257,sound,65.07644877416146
58756,sound,69.59438470879142
59256,sound,55.16309243934779
59756,sound,53.51556683348171
60256,sound,52.947659402292395
9,android.sensor.light,3834.0
53,android.sensor.game_rotation_vector,0.473393616137
57,sound,52.17052067154388
103,android.sensor.orientation,208.978502062
153,android.sensor.orientation,208.276647838
208,android.sensor.accelerometer,10.3027792582
262,android.sensor.accelerometer,8.62944700783
305,android.sensor.game_rotation_vector,0.507542030645
355,android.sensor.gyroscope,0.561690525066
406,android.sensor.gyroscope_uncalibrated,0.570132006443
456,android.sensor.orientation,210.221818166
507,android.sensor.orientation,211.402680081
562,android.sensor.accelerometer,8.54474477783
612,android.sensor.accelerometer,9.77309663759
662,android.sensor.accelerometer,9.8656264528
712,android.sensor.accelerometer,9.46198756537
762,android.sensor.accelerometer,10.6856646745
813,android.sensor.linear_acceleration,0.912922305966
865,android.sensor.game_rotation_vector,0.444265853938
916,android.sensor.magnetic_field,44.6290701925
967,android.sensor.orientation,230.540409907
1022,android.sensor.accelerometer,9.01142921709
1072,android.sensor.accelerometer,10.597510672
1122,android.sensor.accelerometer,11.1550110413
1172,android.sensor.accelerometer,11.4820482044
1228,android.sensor.accelerometer,11.6521364793
1282,android.sensor.accelerometer,10.6402850722
1332,android.sensor.accelerometer,9.48870656022
1382,android.sensor.accelerometer,9.1030054252
1432,android.sensor.accelerometer,9.28557690509
1482,android.sensor.accelerometer,9.37534650406
1585,android.sensor.game_rotation_vector,0.461111889931
1638,android.sensor.orientation,250.408940537
1688,android.sensor.orientation,249.773210933
1743,android.sensor.accelerometer,13.4498779361
1792,android.sensor.accelerometer,10.4543819729
1843,android.sensor.rotation_vector,0.924377918124
1895,android.sensor.magnetic_field_uncalibrated,273.839233459
1948,android.sensor.orientation,224.498600441
2002,android.sensor.accelerometer,9.58753160126
2053,android.sensor.accelerometer,9.01672514472
2105,android.sensor.game_rotation_vector,0.55300791407
2156,android.sensor.gyroscope,1.70429523008
2207,android.sensor.orientation,205.414059926
2262,android.sensor.accelerometer,10.3914486148
2312,android.sensor.accelerometer,11.4293235764
2362,android.sensor.accelerometer,10.9251010336
2412,android.sensor.accelerometer,10.088201347
2462,android.sensor.accelerometer,9.39042917867
2514,android.sensor.accelerometer,9.53104464767
2563,android.sensor.linear_acceleration,1.46492898804
2614,android.sensor.game_rotation_vector,0.520154802742
2665,android.sensor.game_rotation_vector,0.510738690823
2716,android.sensor.orientation,211.754827572
2972,android.sensor.accelerometer,9.9730572171
3022,android.sensor.accelerometer,10.5298467425
3072,android.sensor.accelerometer,10.9050737474
3176,android.sensor.game_rotation_vector,0.476908401888
3228,android.sensor.orientation,215.296538049
3283,android.sensor.accelerometer,8.82773325262
3333,android.sensor.accelerometer,9.29053397799
3386,android.sensor.game_rotation_vector,0.467997101594
3435,android.sensor.gyroscope_uncalibrated,0.321667968089
3486,android.sensor.gyroscope,0.371576818527
3542,android.sensor.accelerometer,9.45442808796
3592,android.sensor.orientation,217.473085881
3642,android.sensor.accelerometer,9.66316878985
3692,android.sensor.accelerometer,9.96640126946
3794,android.sensor.game_rotation_vector,0.429476572022
3845,android.sensor.game_rotation_vector,0.421991042559
3949,android.sensor.magnetic_field_uncalibrated,245.528877502
4103,android.sensor.accelerometer,9.71502780503
4153,android.sensor.rotation_vector,0.922011705867
4206,android.sensor.game_rotation_vector,0.391215734089
4258,android.sensor.gyroscope_uncalibrated,0.191141289102
4313,android.sensor.accelerometer,9.84311766852
4362,android.sensor.accelerometer,9.98354388834
4412,android.sensor.accelerometer,9.74093563397
4463,android.sensor.accelerometer,9.68353976024
4517,android.sensor.rotation_vector,0.920183213201
4616,android.sensor.gyroscope_uncalibrated,0.24761677162
4667,android.sensor.orientation,225.400850761
4722,android.sensor.accelerometer,10.0574157986
4773,android.sensor.accelerometer,10.0344230394
4822,android.sensor.accelerometer,10.6648528579
4872,android.sensor.accelerometer,10.5731156674
4923,android.sensor.accelerometer,9.23660035086
4973,android.sensor.accelerometer,8.96291892809
5080,android.sensor.orientation,224.16658404
5132,android.sensor.accelerometer,9.72420368477
5183,android.sensor.accelerometer,9.4848544438
5233,android.sensor.rotation_vector,0.920663147865
5286,android.sensor.game_rotation_vector,0.380939417756
5337,android.sensor.orientation,227.068446703
5390,android.sensor.game_rotation_vector,0.372438189168
5545,android.sensor.game_rotation_vector,0.360138106563
5596,android.sensor.gyroscope_uncalibrated,0.34700158287
5648,android.sensor.accelerometer,11.0802701055
5698,android.sensor.orientation,233.738545602
5952,android.sensor.accelerometer,9.34681152059
6002,android.sensor.accelerometer,9.57422550856
6052,android.sensor.accelerometer,10.0548310456
6102,android.sensor.accelerometer,9.86972043426
6206,android.sensor.game_rotation_vector,0.305920690296
6307,android.sensor.gyroscope,0.226534655586
6364,android.sensor.accelerometer,9.92444602885
6413,android.sensor.accelerometer,9.80500895993
6514,android.sensor.rotation_vector,0.877179282377
6566,android.sensor.game_rotation_vector,0.321819617797
6619,android.sensor.orientation,236.232410985
6672,android.sensor.accelerometer,9.54220086419
6722,android.sensor.accelerometer,9.75460640983
6772,android.sensor.accelerometer,9.92854818298
6822,android.sensor.accelerometer,11.6244682584
6873,android.sensor.accelerometer,9.96398969853
6923,android.sensor.rotation_vector,0.896153593121
6975,android.sensor.game_rotation_vector,0.346948991271
7057,sound,61.03847832092213
7557,sound,49.36694660824315
8056,sound,51.61849951351239
8557,sound,53.25515663363148
9055,sound,53.839302055347204
9556,sound,52.2132032617976
10059,sound,50.603993964061644
10557,sound,50.856508539183594
11055,sound,53.76839644005421
11556,sound,51.053364322243866
12056,sound,51.54983599674451
12557,sound,51.64126725823418
13057,sound,51.150144038113154
13556,sound,52.2132032617976
14056,sound,54.469113440703715
14559,sound,55.53402367976822
15055,sound,52.72975792706731
4,android.sensor.light,3828.0
17,android.sensor.accelerometer,9.93224357695
3,sound,-Infinity
52,android.sensor.accelerometer,9.44081282509
102,android.sensor.accelerometer,9.47049307368
153,android.sensor.gravity,9.80658951339
204,android.sensor.game_rotation_vector,0.400606961372
256,android.sensor.accelerometer,9.50054963012
306,android.sensor.accelerometer,9.59904682142
356,android.sensor.accelerometer,9.46113918327
406,android.sensor.accelerometer,9.46773794942
457,android.sensor.linear_acceleration,0.487607311266
508,android.sensor.accelerometer,10.4765542487
559,android.sensor.magnetic_field_uncalibrated,246.804499427
612,android.sensor.orientation,225.733831244
661,android.sensor.orientation,226.150058267
716,android.sensor.accelerometer,10.4418551181
766,android.sensor.accelerometer,9.14238519121
816,android.sensor.accelerometer,9.41729863925
866,android.sensor.accelerometer,9.45585436536
917,android.sensor.accelerometer,9.46600386227
967,android.sensor.linear_acceleration,1.21880938648
1018,android.sensor.game_rotation_vector,0.384074754177
1069,android.sensor.game_rotation_vector,0.381545642748
1119,android.sensor.magnetic_field_uncalibrated,248.039925592
1170,android.sensor.magnetic_field_uncalibrated,246.356433217
1226,android.sensor.accelerometer,9.48289542335
1276,android.sensor.accelerometer,9.61551899905
1326,android.sensor.accelerometer,10.1007165028
1376,android.sensor.accelerometer,10.4327865235
1427,android.sensor.accelerometer,9.6520966051
1529,android.sensor.rotation_vector,0.95332376321
1578,android.sensor.game_rotation_vector,0.412172120314
1629,android.sensor.game_rotation_vector,0.415830793275
1680,android.sensor.orientation,211.097859298
1730,android.sensor.magnetic_field_uncalibrated,241.432387339
1786,android.sensor.accelerometer,10.0273646134
1836,android.sensor.accelerometer,9.6476955071
1886,android.sensor.accelerometer,9.21733700968
1936,android.sensor.accelerometer,9.53308057859
1986,android.sensor.accelerometer,9.80265141922
2036,android.sensor.accelerometer,9.55077093041
2086,android.sensor.accelerometer,9.99261177596
2136,android.sensor.accelerometer,10.0274657209
2189,android.sensor.game_rotation_vector,0.447369943334
2238,android.sensor.game_rotation_vector,0.446645526653
2289,android.sensor.game_rotation_vector,0.446563386874
2341,android.sensor.orientation,200.196731492
2391,android.sensor.orientation,200.236099111
2445,sound,-Infinity
2496,android.sensor.accelerometer,10.2956768264
2546,android.sensor.accelerometer,10.341607726
2596,android.sensor.accelerometer,9.989949513
2650,android.sensor.rotation_vector,0.981723465152
2706,android.sensor.accelerometer,9.48478204655
2757,android.sensor.accelerometer,9.72537839971
2858,android.sensor.game_rotation_vector,0.412854483797
2909,android.sensor.game_rotation_vector,0.412088111044
2960,android.sensor.orientation,201.25273787
3011,android.sensor.orientation,201.30869554
3066,android.sensor.accelerometer,9.84355000906
3116,android.sensor.accelerometer,9.89099627299
3166,android.sensor.accelerometer,9.93069129269
3216,android.sensor.accelerometer,9.8076274966
3266,android.sensor.accelerometer,9.85489196526
3316,android.sensor.accelerometer,9.19705578347
3366,android.sensor.accelerometer,9.70384799252
3469,android.sensor.game_rotation_vector,0.417179741867
3518,android.sensor.game_rotation_vector,0.418404058153
3569,android.sensor.game_rotation_vector,0.417708710035
3626,android.sensor.orientation,200.853087853
3671,android.sensor.orientation,201.039435473
3724,speed,0.0
3776,android.sensor.accelerometer,9.79547203351
3826,android.sensor.accelerometer,9.77231401383
3877,android.sensor.accelerometer,10.0751191509
3926,android.sensor.accelerometer,10.0909055184
3976,android.sensor.accelerometer,9.80968902847
4027,android.sensor.rotation_vector,0.981672832732
4078,android.sensor.game_rotation_vector,0.408183279912
4129,android.sensor.game_rotation_vector,0.408098282471
4181,android.sensor.orientation,200.631276377
4231,android.sensor.orientation,200.449397756
4286,android.sensor.accelerometer,9.83470911241
4336,android.sensor.accelerometer,10.0025558197
4386,android.sensor.accelerometer,9.96243359598
4436,android.sensor.accelerometer,9.89134353268
4487,android.sensor.accelerometer,10.3024506266
4589,android.sensor.game_rotation_vector,0.403335886447
4639,android.sensor.game_rotation_vector,0.40109148901
4692,android.sensor.orientation,199.507804609
4741,android.sensor.rotation_vector,0.984806021019
4796,android.sensor.accelerometer,9.51583386437
4846,android.sensor.accelerometer,9.39639469902
4949,android.sensor.game_rotation_vector,0.402499967205
4999,android.sensor.gyroscope_uncalibrated,0.226863868825
5050,android.sensor.magnetic_field_uncalibrated,239.099752
5106,android.sensor.accelerometer,9.39604346512
5154,android.sensor.orientation,200.134108537
5207,android.sensor.accelerometer,9.89949586534
5259,android.sensor.game_rotation_vector,0.402886382867
5311,android.sensor.game_rotation_vector,0.401379132811
5361,android.sensor.orientation,200.672384498
5416,android.sensor.accelerometer,10.0243780332
5466,android.sensor.accelerometer,9.83687214495
5516,android.sensor.accelerometer,9.4143126052
5566,android.sensor.accelerometer,9.72587275197
5616,android.sensor.accelerometer,9.81384899912
5718,android.sensor.linear_acceleration,0.0933583954447
5769,android.sensor.game_rotation_vector,0.380130169167
5820,android.sensor.orientation,201.722965971
5871,android.sensor.orientation,201.673530366
5922,android.sensor.orientation,201.616439942
5976,android.sensor.accelerometer,9.83789341646
6026,android.sensor.accelerometer,9.73223639327
6077,android.sensor.accelerometer,9.93770740411
6126,android.sensor.accelerometer,10.2815883363
6176,android.sensor.accelerometer,10.1139285621
6227,android.sensor.rotation_vector,0.982822750701
6278,android.sensor.gravity,9.80658808924
6329,android.sensor.gyroscope,0.0901517863925
6380,android.sensor.orientation,201.387060858
6431,android.sensor.orientation,201.311995668
6486,android.sensor.accelerometer,10.002152626
6536,android.sensor.accelerometer,9.92034226474
6586,android.sensor.accelerometer,9.88495783903
6636,android.sensor.accelerometer,9.85346813182
6686,android.sensor.accelerometer,9.83047385958
6736,android.sensor.orientation,201.488877361
6789,android.sensor.game_rotation_vector,0.378055335779
6839,android.sensor.magnetic_field,41.8497125139
6889,android.sensor.magnetic_field,42.0666788415
6940,android.sensor.orientation,201.233560582
6991,android.sensor.orientation,201.115714167
7046,android.sensor.accelerometer,9.82832838226
7097,android.sensor.accelerometer,9.83596360743
7146,android.sensor.accelerometer,9.83368331727
7197,android.sensor.accelerometer,9.92963830975
7246,android.sensor.accelerometer,10.0112858864
7296,android.sensor.accelerometer,10.0272271999
7349,android.sensor.game_rotation_vector,0.378801361555
7398,android.sensor.game_rotation_vector,0.379389633268
7450,android.sensor.game_rotation_vector,0.379052911049
7501,android.sensor.orientation,200.478725491
7552,android.sensor.gyroscope_uncalibrated,0.0589097100341
7606,android.sensor.accelerometer,9.71389943126
7656,android.sensor.accelerometer,9.8448363114
7706,android.sensor.accelerometer,9.89098670838
7756,android.sensor.accelerometer,10.0321790948
7807,android.sensor.linear_acceleration,0.0368831939788
7858,android.sensor.game_rotation_vector,0.375607088803
7909,android.sensor.game_rotation_vector,0.375286239201
7960,android.sensor.orientation,200.872979912
8011,android.sensor.orientation,201.183121655
8066,android.sensor.accelerometer,9.80909548977
8116,android.sensor.accelerometer,9.87307485871
8166,android.sensor.accelerometer,9.89447307822
8216,android.sensor.accelerometer,9.72724961382
8266,android.sensor.accelerometer,9.84452360739
8325,android.sensor.gravity,9.80654184083
8376,android.sensor.accelerometer,9.74096854181
8430,android.sensor.game_rotation_vector,0.374058773423
8482,android.sensor.orientation,202.163980168
8537,android.sensor.accelerometer,9.88985539697
8587,android.sensor.accelerometer,9.86168863817
8691,android.sensor.magnetic_field,41.6553005331
8744,android.sensor.magnetic_field,42.5258193631
8796,android.sensor.accelerometer,9.92439085321
8846,android.sensor.accelerometer,10.1040116009
8897,android.sensor.accelerometer,9.85166712413
8947,android.sensor.rotation_vector,0.980433014739
8998,android.sensor.game_rotation_vector,0.371976941665
9049,android.sensor.game_rotation_vector,0.371264878855
9100,android.sensor.orientation,202.705951784
9151,android.sensor.orientation,202.830302935
9206,android.sensor.accelerometer,9.8422228171
9256,android.sensor.accelerometer,9.92163648411
9306,android.sensor.accelerometer,10.0180629344
9358,android.sensor.accelerometer,9.88839461381
9411,android.sensor.game_rotation_vector,0.373304180688
9460,android.sensor.orientation,202.412930911
9511,android.sensor.orientation,202.206579954
9569,android.sensor.accelerometer,10.1244790935
9616,android.sensor.accelerometer,10.8134188556
9666,android.sensor.accelerometer,9.44384856853
9745,sound,64.22775105873717
10245,sound,54.32006687269598
10744,sound,55.086966714220374
11245,sound,60.61199443931902
11745,sound,56.926742242596106
12245,sound,56.16421945848444
12745,sound,54.38662573967453
13245,sound,59.03646070631824
13744,sound,55.28352264780661
14244,sound,54.979257225123234
